month,time,north_avenue_entry,north_avenue_exit,quezon_avenue_entry,quezon_avenue_exit,gma_kamuning_entry,gma_kamuning_exit,cubao_entry,cubao_exit,santolan_entry,santolan_exit,ortigas_entry,ortigas_exit,shaw_blvd_entry,shaw_blvd_exit,boni_avenue_entry,boni_avenue_exit,guadalupe_entry,guadalupe_exit,buendia_entry,buendia_exit,ayala_avenue_entry,ayala_avenue_exit,magallanes_entry,magallanes_exit,taft_entry,taft_exit
January,03:00 - 03:59,0.00%,0.00%,0.00%,0.00%,0.00%,0.00%,0.00%,0.00%,0.00%,0.00%,0.00%,0.00%,0.00%,0.00%,0.00%,0.00%,0.00%,0.00%,0.00%,0.00%,0.00%,0.00%,0.00%,0.00%,0.00%,0.00%
January,04:00 - 04:59,0.08%,0.00%,0.26%,0.00%,0.37%,0.00%,0.19%,0.00%,0.03%,0.00%,0.00%,0.00%,0.02%,0.00%,0.00%,0.00%,0.00%,0.00%,0.00%,0.00%,0.00%,0.00%,0.00%,0.00%,0.00%,0.00%
January,05:00 - 05:59,4.71%,0.43%,3.93%,0.73%,4.31%,0.72%,4.34%,0.77%,1.15%,0.73%,0.65%,1.51%,1.86%,1.67%,1.63%,1.97%,2.04%,1.73%,0.65%,2.67%,0.67%,2.30%,1.49%,2.95%,1.97%,1.63%
January,06:00 - 06:59,9.86%,2.05%,10.24%,3.53%,8.87%,3.39%,5.16%,3.10%,3.12%,3.79%,2.59%,4.21%,4.54%,4.67%,4.96%,4.80%,6.10%,4.50%,2.58%,7.20%,2.31%,6.69%,4.43%,8.40%,5.34%,4.45%
January,07:00 - 07:59,11.91%,3.34%,10.88%,6.50%,6.39%,7.33%,4.06%,4.58%,5.63%,10.03%,5.30%,8.17%,6.82%,7.42%,8.60%,8.46%,8.80%,5.77%,4.01%,14.18%,3.38%,9.76%,6.54%,12.50%,9.31%,5.80%
January,08:00 - 08:59,11.53%,3.56%,9.18%,6.87%,6.62%,7.35%,4.80%,5.25%,5.94%,13.18%,5.36%,11.72%,6.72%,9.24%,7.75%,8.63%,8.99%,5.62%,3.43%,14.84%,2.98%,9.79%,6.23%,13.01%,8.89%,5.77%
January,09:00 - 09:59,8.57%,3.97%,7.18%,5.43%,6.77%,6.05%,5.43%,5.27%,5.57%,12.91%,4.25%,10.77%,6.09%,8.41%,6.14%,8.07%,8.03%,5.59%,3.53%,9.78%,2.91%,9.86%,5.38%,10.26%,7.05%,5.82%
January,10:00 - 10:59,5.96%,3.69%,5.51%,4.01%,6.29%,5.06%,6.10%,4.57%,5.14%,9.94%,3.75%,7.34%,5.11%,6.66%,4.96%,5.55%,6.45%,5.23%,3.66%,6.62%,2.83%,7.21%,4.09%,6.51%,5.41%,5.44%
January,11:00 - 11:59,5.46%,3.93%,5.00%,3.51%,5.82%,4.15%,6.05%,4.61%,5.36%,6.61%,3.93%,6.39%,4.98%,5.83%,4.77%,4.41%,5.98%,4.89%,3.90%,4.88%,3.10%,6.57%,4.11%,5.04%,5.16%,5.31%
January,12:00 - 12:59,4.86%,3.86%,4.68%,3.55%,5.40%,4.13%,5.98%,4.71%,4.99%,5.29%,3.99%,5.92%,5.20%,5.57%,4.59%,4.59%,5.81%,4.77%,3.73%,4.56%,3.56%,5.45%,3.86%,4.71%,5.10%,5.49%
January,13:00 - 13:59,4.60%,3.93%,4.63%,3.80%,5.25%,4.56%,6.24%,4.75%,5.23%,5.61%,4.45%,5.81%,5.25%,5.19%,4.63%,4.79%,5.51%,4.75%,3.87%,5.16%,3.93%,5.06%,3.79%,4.84%,5.01%,5.57%
January,14:00 - 14:59,3.95%,4.40%,4.15%,3.99%,5.08%,4.67%,5.95%,5.31%,6.01%,5.28%,5.49%,5.13%,5.48%,4.86%,5.09%,4.42%,5.36%,5.03%,5.21%,4.76%,4.72%,4.71%,4.27%,4.30%,5.07%,5.58%
January,15:00 - 15:59,3.47%,5.69%,4.29%,4.79%,4.94%,5.00%,5.96%,5.94%,6.41%,4.81%,6.29%,4.86%,6.10%,4.76%,5.31%,4.80%,5.16%,5.56%,6.25%,3.53%,5.99%,4.16%,4.91%,3.91%,5.37%,5.95%
January,16:00 - 16:59,3.65%,6.82%,5.01%,5.82%,6.31%,5.84%,6.28%,6.76%,8.03%,4.13%,7.43%,4.72%,6.88%,5.12%,6.36%,4.77%,5.76%,6.50%,8.49%,2.86%,7.99%,4.18%,7.01%,3.63%,6.07%,6.31%
January,17:00 - 17:59,4.41%,9.09%,6.96%,7.85%,9.04%,7.51%,7.48%,8.11%,11.87%,4.00%,11.08%,5.17%,7.70%,6.06%,8.20%,5.86%,6.26%,8.10%,13.18%,3.10%,10.87%,5.24%,11.07%,3.99%,7.09%,7.44%
January,18:00 - 18:59,4.54%,11.84%,6.52%,9.90%,6.98%,8.87%,8.04%,9.51%,9.96%,4.09%,12.95%,5.65%,8.18%,6.51%,8.34%,6.89%,5.56%,9.09%,13.73%,3.19%,11.81%,5.79%,11.53%,4.15%,7.26%,8.72%
January,19:00 - 19:59,4.42%,11.83%,4.97%,10.02%,5.10%,8.69%,6.96%,9.30%,7.07%,3.68%,9.65%,4.73%,7.25%,6.14%,7.32%,7.19%,4.92%,8.55%,11.12%,3.41%,11.22%,5.22%,9.15%,3.92%,6.32%,8.42%
January,20:00 - 20:59,4.32%,10.19%,3.76%,9.39%,3.90%,7.77%,6.12%,8.23%,5.63%,3.05%,6.81%,4.11%,6.12%,5.80%,5.84%,7.34%,4.45%,7.19%,6.71%,4.35%,10.30%,4.15%,6.69%,4.14%,5.01%,6.31%
January,21:00 - 21:59,3.63%,6.84%,2.72%,6.82%,2.37%,5.72%,4.53%,6.18%,2.47%,2.06%,4.71%,3.05%,4.56%,4.61%,4.08%,5.89%,3.53%,5.62%,4.11%,4.00%,8.90%,3.06%,4.02%,2.92%,3.63%,4.61%
January,22:00 - 22:59,0.06%,4.41%,0.12%,3.48%,0.18%,3.20%,0.34%,3.05%,0.39%,0.83%,1.31%,0.73%,1.14%,1.48%,1.44%,1.57%,1.30%,1.49%,1.84%,0.88%,2.55%,0.79%,1.44%,0.82%,0.94%,1.39%
January,23:00 - 23:59,0.00%,0.11%,0.00%,0.01%,0.00%,0.00%,0.00%,0.00%,0.00%,0.00%,0.00%,0.00%,0.00%,0.00%,0.00%,0.00%,0.00%,0.00%,0.00%,0.00%,0.00%,0.00%,0.00%,0.00%,0.00%,0.00%
January,00:00 - 00:59,0.00%,0.00%,0.00%,0.00%,0.00%,0.00%,0.00%,0.00%,0.00%,0.00%,0.00%,0.00%,0.00%,0.00%,0.00%,0.00%,0.00%,0.00%,0.00%,0.00%,0.00%,0.00%,0.00%,0.00%,0.00%,0.00%
January,01:00 - 01:59,0.00%,0.00%,0.00%,0.00%,0.00%,0.00%,0.00%,0.00%,0.00%,0.00%,0.00%,0.00%,0.00%,0.00%,0.00%,0.00%,0.00%,0.00%,0.00%,0.00%,0.00%,0.00%,0.00%,0.00%,0.00%,0.00%
January,02:00 - 02:59,0.00%,0.00%,0.00%,0.00%,0.00%,0.00%,0.00%,0.00%,0.00%,0.00%,0.00%,0.00%,0.00%,0.00%,0.00%,0.00%,0.00%,0.00%,0.00%,0.00%,0.00%,0.00%,0.00%,0.00%,0.00%,0.00%
February,03:00 - 03:59,0.00%,0.00%,0.00%,0.00%,0.00%,0.00%,0.00%,0.00%,0.00%,0.00%,0.00%,0.00%,0.00%,0.00%,0.00%,0.00%,0.00%,0.00%,0.00%,0.00%,0.00%,0.00%,0.00%,0.00%,0.00%,0.00%
February,04:00 - 04:59,0.14%,0.00%,0.27%,0.00%,0.37%,0.00%,0.38%,0.00%,0.06%,0.00%,0.01%,0.00%,0.01%,0.00%,0.00%,0.00%,0.00%,0.00%,0.00%,0.00%,0.00%,0.00%,0.00%,0.00%,0.00%,0.00%
February,05:00 - 05:59,4.93%,0.43%,4.15%,0.86%,4.54%,0.72%,4.45%,0.84%,1.21%,0.83%,0.67%,1.56%,1.88%,1.76%,1.74%,1.98%,2.05%,1.69%,0.59%,2.71%,0.64%,2.37%,1.40%,2.97%,1.95%,1.58%
February,06:00 - 06:59,10.55%,2.06%,10.79%,3.60%,8.49%,3.42%,5.46%,3.08%,3.26%,4.10%,2.73%,4.43%,4.69%,4.91%,5.04%,5.02%,6.15%,4.64%,2.44%,7.57%,2.39%,6.88%,4.44%,8.54%,5.37%,4.34%
February,07:00 - 07:59,12.11%,3.45%,10.55%,6.67%,6.68%,7.76%,4.16%,4.72%,5.76%,10.60%,5.43%,8.35%,6.88%,7.67%,8.62%,8.31%,9.05%,5.49%,3.75%,13.43%,3.38%,9.19%,6.50%,11.90%,9.04%,5.48%
February,08:00 - 08:59,10.93%,3.66%,8.86%,6.82%,6.12%,7.43%,4.74%,5.28%,6.05%,13.14%,5.62%,12.22%,6.77%,9.41%,7.85%,8.74%,8.74%,6.00%,3.38%,14.90%,2.94%,10.14%,6.14%,13.64%,9.06%,5.91%
February,09:00 - 09:59,8.40%,4.05%,6.83%,5.37%,6.96%,6.18%,5.56%,5.23%,5.49%,12.95%,4.45%,11.18%,6.14%,8.43%,6.30%,7.97%,8.15%,5.61%,3.46%,10.35%,3.04%,9.79%,5.42%,10.49%,7.18%,5.85%
February,10:00 - 10:59,5.91%,3.76%,5.39%,3.97%,6.06%,5.06%,5.92%,4.56%,5.14%,9.62%,3.80%,7.30%,5.13%,6.60%,5.13%,5.45%,6.58%,5.10%,3.69%,6.43%,2.90%,7.26%,4.10%,6.36%,5.49%,5.48%
February,11:00 - 11:59,5.54%,4.10%,5.11%,3.62%,5.91%,4.33%,6.15%,4.77%,5.36%,6.37%,4.00%,6.32%,5.07%,5.89%,4.98%,4.44%,6.10%,4.87%,3.95%,4.87%,3.20%,6.74%,4.10%,5.02%,5.21%,5.33%
February,12:00 - 12:59,4.94%,4.01%,4.82%,3.69%,5.66%,4.22%,6.08%,4.80%,4.99%,5.27%,4.10%,5.99%,5.25%,5.49%,4.53%,4.56%,5.64%,4.77%,3.93%,4.85%,3.55%,5.75%,3.89%,4.65%,5.00%,5.45%
February,13:00 - 13:59,4.46%,3.84%,4.43%,3.66%,5.15%,4.49%,5.98%,4.65%,5.16%,5.32%,4.28%,5.73%,5.23%,5.10%,4.69%,4.82%,5.42%,4.66%,4.03%,4.92%,3.91%,5.00%,3.78%,4.48%,4.97%,5.28%
February,14:00 - 14:59,3.84%,4.38%,4.09%,4.01%,4.99%,4.78%,5.79%,5.32%,5.77%,5.09%,5.39%,4.98%,5.39%,4.81%,5.17%,4.41%,5.22%,4.91%,5.11%,4.55%,4.66%,4.73%,4.19%,4.26%,5.03%,5.58%
February,15:00 - 15:59,3.37%,5.10%,4.32%,4.39%,4.96%,4.66%,5.85%,5.70%,6.13%,4.47%,6.16%,4.57%,5.92%,4.68%,5.30%,4.70%,5.15%,5.43%,6.23%,3.45%,5.79%,4.14%,4.64%,3.65%,5.18%,5.54%
February,16:00 - 16:59,3.60%,6.78%,5.07%,5.72%,6.21%,5.50%,6.27%,6.63%,8.08%,4.06%,7.33%,4.62%,6.85%,5.01%,6.21%,4.76%,5.70%,6.48%,8.06%,2.95%,7.97%,4.35%,6.91%,3.59%,5.88%,6.37%
February,17:00 - 17:59,4.40%,9.19%,6.89%,7.92%,8.90%,7.48%,7.24%,8.11%,11.84%,3.94%,10.85%,4.97%,7.56%,5.72%,7.79%,5.73%,6.03%,7.78%,12.73%,3.10%,10.08%,4.98%,10.41%,3.77%,6.82%,7.26%
February,18:00 - 18:59,4.36%,11.06%,6.34%,9.26%,6.96%,8.21%,7.61%,8.94%,9.93%,3.99%,12.43%,5.19%,7.83%,6.23%,7.84%,6.57%,5.33%,8.64%,13.55%,3.10%,11.59%,5.35%,11.52%,4.04%,6.97%,8.72%
February,19:00 - 19:59,4.42%,12.24%,5.15%,10.44%,5.25%,9.05%,7.11%,9.62%,7.11%,3.85%,9.73%,4.79%,7.33%,6.30%,7.33%,7.35%,5.01%,8.82%,11.11%,3.46%,11.58%,5.15%,9.42%,4.02%,6.56%,8.47%
February,20:00 - 20:59,4.33%,9.91%,3.95%,9.36%,4.18%,7.95%,6.17%,8.29%,5.80%,3.16%,6.79%,3.98%,6.26%,5.78%,5.81%,7.46%,4.45%,7.32%,7.28%,4.28%,10.33%,4.16%,7.32%,4.39%,5.28%,6.72%
February,21:00 - 21:59,3.68%,7.16%,2.84%,6.87%,2.40%,5.58%,4.67%,6.32%,2.46%,2.24%,4.75%,3.08%,4.63%,4.75%,4.13%,6.07%,3.62%,5.79%,4.50%,3.92%,8.90%,2.99%,4.15%,3.09%,3.77%,4.80%
February,22:00 - 22:59,0.08%,4.67%,0.15%,3.73%,0.21%,3.17%,0.41%,3.14%,0.41%,0.99%,1.47%,0.75%,1.18%,1.47%,1.55%,1.68%,1.56%,1.93%,2.10%,1.10%,3.03%,0.99%,1.60%,1.11%,1.20%,1.76%
February,23:00 - 23:59,0.00%,0.16%,0.00%,0.04%,0.00%,0.01%,0.00%,0.01%,0.00%,0.00%,0.00%,0.00%,0.00%,0.00%,0.00%,0.00%,0.07%,0.08%,0.10%,0.05%,0.11%,0.03%,0.07%,0.04%,0.05%,0.07%
February,00:00 - 00:59,0.00%,0.00%,0.00%,0.00%,0.00%,0.00%,0.00%,0.00%,0.00%,0.00%,0.00%,0.00%,0.00%,0.00%,0.00%,0.00%,0.00%,0.00%,0.00%,0.00%,0.00%,0.00%,0.00%,0.00%,0.00%,0.00%
February,01:00 - 01:59,0.00%,0.00%,0.00%,0.00%,0.00%,0.00%,0.00%,0.00%,0.00%,0.00%,0.00%,0.00%,0.00%,0.00%,0.00%,0.00%,0.00%,0.00%,0.00%,0.00%,0.00%,0.00%,0.00%,0.00%,0.00%,0.00%
February,02:00 - 02:59,0.00%,0.00%,0.00%,0.00%,0.00%,0.00%,0.00%,0.00%,0.00%,0.00%,0.00%,0.00%,0.00%,0.00%,0.00%,0.00%,0.00%,0.00%,0.00%,0.00%,0.00%,0.00%,0.00%,0.00%,0.00%,0.00%
March,03:00 - 03:59,0.00%,0.00%,0.00%,0.00%,0.00%,0.00%,0.00%,0.00%,0.00%,0.00%,0.00%,0.00%,0.00%,0.00%,0.00%,0.00%,0.00%,0.00%,0.00%,0.00%,0.00%,0.00%,0.00%,0.00%,0.00%,0.00%
March,04:00 - 04:59,0.20%,0.00%,0.33%,0.00%,0.38%,0.00%,0.38%,0.00%,0.07%,0.00%,0.01%,0.00%,0.01%,0.00%,0.00%,0.00%,0.00%,0.00%,0.00%,0.00%,0.00%,0.00%,0.00%,0.00%,0.00%,0.00%
March,05:00 - 05:59,4.87%,0.52%,4.38%,0.91%,4.41%,0.81%,4.27%,0.95%,1.15%,0.84%,0.81%,1.57%,2.00%,1.76%,1.95%,1.93%,2.30%,1.91%,1.07%,2.81%,0.85%,2.47%,1.70%,3.07%,2.11%,1.67%
March,06:00 - 06:59,10.71%,2.30%,10.19%,3.93%,7.86%,3.76%,4.94%,3.32%,3.34%,4.28%,2.94%,4.55%,5.03%,4.80%,5.37%,4.76%,6.32%,4.80%,2.73%,8.07%,2.60%,7.03%,5.05%,8.96%,5.80%,4.60%
March,07:00 - 07:59,12.57%,3.45%,8.97%,6.41%,5.99%,7.67%,4.07%,4.48%,5.79%,10.52%,5.43%,8.45%,6.75%,7.56%,8.23%,8.28%,8.59%,5.92%,3.87%,14.41%,3.37%,9.80%,6.64%,12.47%,9.15%,5.58%
March,08:00 - 08:59,10.81%,3.71%,7.74%,6.80%,5.92%,7.45%,4.53%,5.22%,5.92%,13.10%,5.59%,12.09%,6.47%,9.20%,7.46%,8.56%,8.59%,5.84%,3.24%,14.05%,2.93%,9.79%,6.07%,13.00%,8.94%,5.60%
March,09:00 - 09:59,8.21%,4.00%,6.96%,5.23%,6.34%,5.85%,5.38%,5.20%,5.60%,12.61%,4.39%,10.47%,6.01%,8.14%,6.32%,7.70%,7.78%,5.49%,3.38%,9.58%,2.90%,9.61%,5.51%,9.82%,7.11%,5.85%
March,10:00 - 10:59,5.79%,3.69%,5.59%,4.04%,6.08%,5.04%,6.05%,4.72%,5.24%,9.64%,3.70%,7.43%,5.20%,6.80%,5.26%,5.68%,6.77%,5.23%,3.85%,6.44%,2.87%,7.27%,4.19%,6.50%,5.56%,5.60%
March,11:00 - 11:59,5.52%,4.04%,5.36%,3.71%,6.03%,4.43%,6.38%,4.74%,5.22%,6.64%,4.00%,6.42%,5.19%,5.85%,4.94%,4.55%,6.26%,5.01%,4.19%,4.79%,3.24%,6.77%,4.15%,5.04%,5.30%,5.37%
March,12:00 - 12:59,4.83%,4.05%,4.95%,3.89%,5.69%,4.33%,6.07%,4.91%,4.84%,5.29%,4.24%,5.93%,5.41%,5.58%,4.78%,4.73%,5.84%,4.91%,4.17%,4.48%,3.79%,5.77%,3.89%,4.63%,5.06%,5.60%
March,13:00 - 13:59,4.51%,3.86%,4.75%,3.74%,5.47%,4.41%,6.15%,4.76%,5.23%,5.30%,4.49%,5.75%,5.36%,5.11%,4.81%,5.03%,5.49%,4.76%,4.14%,4.77%,4.13%,5.27%,3.96%,4.58%,4.97%,5.43%
March,14:00 - 14:59,3.79%,4.33%,4.37%,4.01%,5.26%,4.61%,5.91%,5.26%,5.82%,5.00%,5.39%,4.97%,5.36%,4.88%,5.02%,4.69%,5.22%,4.88%,5.12%,4.61%,4.67%,4.85%,4.27%,4.38%,4.86%,5.52%
March,15:00 - 15:59,3.39%,5.32%,4.64%,4.55%,5.07%,4.78%,5.88%,5.84%,6.05%,4.62%,6.18%,4.74%,6.01%,5.09%,5.21%,4.57%,5.02%,5.28%,6.12%,3.31%,5.66%,4.04%,4.76%,3.60%,5.05%,5.52%
March,16:00 - 16:59,3.50%,6.76%,5.30%,5.73%,6.17%,5.71%,6.28%,6.73%,7.67%,3.97%,7.26%,4.55%,6.86%,5.23%,6.05%,4.73%,5.57%,6.12%,8.11%,2.87%,7.86%,4.08%,6.87%,3.36%,5.72%,6.06%
March,17:00 - 17:59,4.39%,9.22%,7.25%,8.06%,8.98%,7.65%,7.33%,8.09%,11.98%,4.11%,11.10%,5.09%,7.91%,5.86%,8.28%,5.86%,6.39%,7.90%,13.44%,3.05%,10.68%,5.07%,11.09%,3.87%,7.01%,7.61%
March,18:00 - 18:59,4.58%,10.62%,6.79%,8.86%,7.23%,7.89%,7.84%,8.50%,9.74%,3.77%,12.23%,5.22%,7.61%,6.04%,7.61%,6.56%,5.38%,8.64%,12.97%,3.59%,11.80%,5.34%,10.59%,4.14%,7.09%,8.56%
March,19:00 - 19:59,4.59%,11.54%,5.39%,9.66%,5.75%,8.46%,7.25%,9.12%,7.10%,3.79%,9.22%,4.91%,6.90%,6.19%,6.90%,7.32%,4.88%,8.36%,10.25%,3.82%,10.42%,4.81%,8.62%,4.18%,6.45%,8.24%
March,20:00 - 20:59,4.24%,9.85%,4.03%,9.19%,4.49%,7.88%,6.18%,8.35%,5.95%,3.23%,6.59%,4.19%,6.14%,5.89%,5.94%,7.90%,4.40%,7.56%,7.13%,4.74%,10.40%,4.20%,7.02%,4.61%,5.20%,6.73%
March,21:00 - 21:59,3.42%,7.72%,2.86%,7.21%,2.52%,5.86%,4.66%,6.50%,2.82%,2.24%,4.91%,2.92%,4.57%,4.54%,4.18%,5.52%,3.73%,5.78%,4.26%,3.74%,8.95%,2.97%,4.06%,2.90%,3.58%,4.84%
March,22:00 - 22:59,0.08%,4.79%,0.15%,4.02%,0.37%,3.40%,0.46%,3.32%,0.46%,1.05%,1.53%,0.74%,1.21%,1.48%,1.69%,1.63%,1.48%,1.61%,1.98%,0.86%,2.87%,0.85%,1.55%,0.89%,1.03%,1.61%
March,23:00 - 23:59,0.00%,0.23%,0.00%,0.05%,0.00%,0.02%,0.00%,0.01%,0.00%,0.00%,0.00%,0.00%,0.00%,0.00%,0.00%,0.00%,0.00%,0.00%,0.00%,0.00%,0.00%,0.00%,0.00%,0.00%,0.00%,0.00%
March,00:00 - 00:59,0.00%,0.00%,0.00%,0.00%,0.00%,0.00%,0.00%,0.00%,0.00%,0.00%,0.00%,0.00%,0.00%,0.00%,0.00%,0.00%,0.00%,0.00%,0.00%,0.00%,0.00%,0.00%,0.00%,0.00%,0.00%,0.00%
March,01:00 - 01:59,0.00%,0.00%,0.00%,0.00%,0.00%,0.00%,0.00%,0.00%,0.00%,0.00%,0.00%,0.00%,0.00%,0.00%,0.00%,0.00%,0.00%,0.00%,0.00%,0.00%,0.00%,0.00%,0.00%,0.00%,0.00%,0.00%
March,02:00 - 02:59,0.00%,0.00%,0.00%,0.00%,0.00%,0.00%,0.00%,0.00%,0.00%,0.00%,0.00%,0.00%,0.00%,0.00%,0.00%,0.00%,0.00%,0.00%,0.00%,0.00%,0.00%,0.00%,0.00%,0.00%,0.00%,0.00%
April,03:00 - 03:59,0.00%,0.00%,0.00%,0.00%,0.00%,0.00%,0.00%,0.00%,0.00%,0.00%,0.00%,0.00%,0.00%,0.00%,0.00%,0.00%,0.00%,0.00%,0.00%,0.00%,0.00%,0.00%,0.00%,0.00%,0.00%,0.00%
April,04:00 - 04:59,0.13%,0.00%,0.34%,0.00%,0.44%,0.00%,0.43%,0.00%,0.06%,0.00%,0.01%,0.00%,0.03%,0.00%,0.00%,0.00%,0.00%,0.00%,0.00%,0.00%,0.00%,0.00%,0.00%,0.00%,0.00%,0.00%
April,05:00 - 05:59,4.84%,0.49%,4.46%,0.91%,4.76%,0.90%,4.13%,0.95%,1.18%,0.83%,0.81%,1.45%,1.96%,1.64%,1.86%,2.07%,2.24%,1.85%,1.04%,2.89%,0.86%,2.56%,1.76%,3.00%,2.10%,1.67%
April,06:00 - 06:59,11.26%,2.30%,10.44%,3.91%,7.92%,4.06%,4.81%,3.25%,3.25%,4.49%,2.94%,4.73%,5.02%,5.05%,5.02%,5.02%,5.93%,5.09%,2.58%,8.60%,2.61%,7.01%,4.96%,9.08%,6.06%,4.33%
April,07:00 - 07:59,12.72%,3.32%,9.31%,6.96%,6.11%,8.19%,4.72%,4.75%,5.42%,11.64%,5.23%,8.74%,6.68%,7.90%,7.79%,8.66%,8.77%,6.14%,3.75%,15.09%,3.20%,9.91%,6.57%,13.18%,9.32%,5.62%
April,08:00 - 08:59,10.76%,3.48%,8.27%,6.44%,6.16%,7.06%,5.02%,5.01%,5.72%,12.74%,4.96%,11.73%,6.25%,9.34%,7.22%,8.92%,8.93%,6.02%,3.04%,14.57%,2.86%,10.16%,6.02%,13.04%,8.85%,5.73%
April,09:00 - 09:59,8.32%,3.85%,6.76%,5.04%,6.44%,5.94%,5.70%,5.10%,5.40%,12.47%,4.21%,10.25%,5.86%,8.20%,5.96%,7.75%,8.08%,5.22%,3.21%,9.13%,2.85%,9.38%,5.07%,9.22%,7.07%,5.62%
April,10:00 - 10:59,5.76%,3.70%,5.44%,4.03%,6.10%,4.81%,6.03%,4.55%,5.26%,9.53%,3.57%,7.33%,5.14%,6.74%,5.26%,5.48%,6.69%,5.02%,3.80%,6.14%,2.85%,7.04%,4.14%,6.06%,5.64%,5.36%
April,11:00 - 11:59,5.42%,4.18%,5.26%,3.56%,6.18%,4.26%,6.33%,4.70%,5.35%,6.32%,4.03%,6.53%,5.26%,5.95%,5.08%,4.63%,6.09%,5.07%,4.00%,4.86%,3.16%,6.80%,3.95%,4.92%,5.32%,5.44%
April,12:00 - 12:59,4.96%,4.18%,4.97%,3.69%,5.74%,4.17%,6.19%,4.77%,4.86%,5.25%,4.22%,6.07%,5.34%,5.55%,4.81%,4.67%,5.74%,4.79%,3.92%,4.75%,3.60%,5.60%,3.82%,4.69%,5.07%,5.59%
April,13:00 - 13:59,4.47%,3.95%,4.60%,3.85%,5.29%,4.35%,6.22%,4.70%,5.05%,5.25%,4.37%,5.85%,5.20%,5.05%,4.79%,4.85%,5.29%,4.49%,3.87%,5.14%,3.87%,4.96%,3.71%,4.67%,5.07%,5.34%
April,14:00 - 14:59,3.74%,4.43%,4.26%,3.86%,5.19%,4.35%,5.94%,5.00%,5.80%,4.85%,5.20%,5.11%,5.27%,4.85%,5.13%,4.68%,5.00%,4.95%,4.87%,4.63%,4.65%,4.86%,4.12%,4.26%,4.92%,5.38%
April,15:00 - 15:59,3.25%,5.32%,4.42%,4.46%,4.99%,4.64%,5.79%,5.75%,6.09%,4.49%,6.18%,4.65%,5.85%,4.77%,5.41%,4.34%,5.04%,5.38%,6.16%,3.10%,5.92%,4.00%,4.60%,3.63%,4.99%,5.60%
April,16:00 - 16:59,3.46%,6.74%,5.21%,5.59%,6.09%,5.61%,6.24%,6.95%,7.75%,4.16%,7.27%,4.48%,6.78%,4.94%,6.35%,4.46%,5.82%,6.18%,8.28%,2.63%,8.04%,4.16%,6.82%,3.51%,5.79%,6.30%
April,17:00 - 17:59,4.34%,9.49%,7.49%,8.01%,9.26%,7.74%,7.36%,8.35%,12.48%,4.02%,11.09%,5.13%,8.00%,5.98%,8.52%,5.77%,6.38%,7.96%,13.65%,2.95%,10.69%,5.20%,11.25%,4.00%,7.04%,7.59%
April,18:00 - 18:59,4.55%,11.71%,6.88%,9.77%,7.39%,8.91%,7.93%,9.59%,10.19%,4.12%,13.28%,5.58%,8.42%,6.51%,8.43%,6.87%,5.67%,9.11%,13.90%,3.37%,11.87%,5.63%,11.69%,4.41%,7.08%,9.18%
April,19:00 - 19:59,4.54%,11.84%,5.40%,10.21%,5.63%,8.62%,6.97%,9.43%,7.22%,3.77%,9.70%,5.07%,7.31%,6.37%,7.25%,7.73%,4.92%,9.05%,11.01%,3.91%,11.27%,5.20%,9.39%,4.47%,6.48%,8.71%
April,20:00 - 20:59,4.18%,9.88%,3.75%,9.37%,3.96%,7.90%,5.66%,8.13%,5.96%,3.10%,6.68%,4.06%,6.11%,5.65%,5.63%,7.66%,4.33%,6.93%,6.89%,4.34%,10.37%,4.03%,6.91%,4.17%,5.01%,6.39%
April,21:00 - 21:59,3.26%,6.59%,2.62%,6.63%,2.19%,5.36%,4.21%,5.98%,2.58%,2.11%,4.87%,2.61%,4.46%,4.21%,3.90%,4.96%,3.67%,5.27%,4.19%,3.19%,8.64%,2.73%,3.86%,2.84%,3.29%,4.61%
April,22:00 - 22:59,0.05%,4.48%,0.11%,3.69%,0.16%,3.14%,0.33%,3.04%,0.36%,0.88%,1.38%,0.63%,1.06%,1.30%,1.59%,1.48%,1.39%,1.46%,1.86%,0.72%,2.70%,0.79%,1.38%,0.86%,0.91%,1.53%
April,23:00 - 23:59,0.00%,0.07%,0.00%,0.00%,0.00%,0.00%,0.00%,0.00%,0.00%,0.00%,0.00%,0.00%,0.00%,0.00%,0.00%,0.00%,0.00%,0.00%,0.00%,0.00%,0.00%,0.00%,0.00%,0.00%,0.00%,0.00%
April,00:00 - 00:59,0.00%,0.00%,0.00%,0.00%,0.00%,0.00%,0.00%,0.00%,0.00%,0.00%,0.00%,0.00%,0.00%,0.00%,0.00%,0.00%,0.00%,0.00%,0.00%,0.00%,0.00%,0.00%,0.00%,0.00%,0.00%,0.00%
April,01:00 - 01:59,0.00%,0.00%,0.00%,0.00%,0.00%,0.00%,0.00%,0.00%,0.00%,0.00%,0.00%,0.00%,0.00%,0.00%,0.00%,0.00%,0.00%,0.00%,0.00%,0.00%,0.00%,0.00%,0.00%,0.00%,0.00%,0.00%
April,02:00 - 02:59,0.00%,0.00%,0.00%,0.00%,0.00%,0.00%,0.00%,0.00%,0.00%,0.00%,0.00%,0.00%,0.00%,0.00%,0.00%,0.00%,0.00%,0.00%,0.00%,0.00%,0.00%,0.00%,0.00%,0.00%,0.00%,0.00%
May,03:00 - 03:59,0.00%,0.00%,0.00%,0.00%,0.00%,0.00%,0.00%,0.00%,0.00%,0.00%,0.00%,0.00%,0.00%,0.00%,0.00%,0.00%,0.00%,0.00%,0.00%,0.00%,0.00%,0.00%,0.00%,0.00%,0.00%,0.00%
May,04:00 - 04:59,0.06%,0.00%,0.32%,0.00%,0.40%,0.00%,0.33%,0.00%,0.03%,0.00%,0.01%,0.00%,0.03%,0.00%,0.00%,0.00%,0.00%,0.00%,0.00%,0.00%,0.00%,0.00%,0.00%,0.00%,0.00%,0.00%
May,05:00 - 05:59,4.92%,0.53%,4.42%,1.04%,4.87%,0.99%,4.32%,1.02%,1.18%,0.93%,0.83%,1.66%,2.03%,1.79%,1.92%,2.20%,2.23%,1.75%,1.13%,2.83%,0.87%,2.16%,1.75%,2.78%,2.09%,1.54%
May,06:00 - 06:59,10.99%,2.14%,10.24%,3.96%,7.76%,3.98%,5.22%,3.14%,3.13%,4.55%,2.87%,4.69%,4.95%,4.88%,5.48%,4.93%,5.87%,4.83%,2.47%,8.46%,2.60%,6.39%,4.66%,8.89%,5.85%,4.33%
May,07:00 - 07:59,12.79%,3.34%,9.48%,6.71%,6.06%,7.93%,4.72%,4.59%,5.44%,11.33%,5.18%,8.46%,6.69%,7.78%,8.03%,8.89%,8.89%,6.32%,3.82%,15.10%,3.18%,9.68%,6.47%,13.46%,9.22%,5.59%
May,08:00 - 08:59,11.11%,3.29%,8.36%,6.23%,6.12%,6.82%,5.05%,4.75%,5.47%,12.74%,4.68%,11.71%,6.17%,9.29%,7.06%,8.80%,8.53%,6.28%,2.94%,15.02%,2.72%,9.65%,5.77%,13.15%,8.47%,5.52%
May,09:00 - 09:59,8.17%,3.61%,6.66%,4.74%,6.38%,5.77%,5.67%,4.81%,5.36%,12.29%,3.72%,10.50%,5.66%,8.42%,5.75%,7.54%,7.72%,5.18%,2.99%,9.05%,2.70%,9.00%,4.82%,8.78%,6.90%,5.19%
May,10:00 - 10:59,5.71%,3.75%,5.49%,3.99%,6.16%,4.77%,5.96%,4.42%,4.96%,9.47%,3.38%,7.39%,4.90%,6.94%,4.99%,5.37%,6.41%,4.93%,3.59%,6.05%,2.73%,7.25%,4.06%,6.02%,5.35%,5.12%
May,11:00 - 11:59,5.44%,3.98%,5.10%,3.46%,6.10%,4.16%,6.43%,4.53%,5.14%,6.45%,3.80%,6.44%,5.15%,5.94%,4.95%,4.34%,5.93%,4.97%,3.82%,4.75%,3.05%,7.02%,3.81%,4.81%,5.22%,5.12%
May,12:00 - 12:59,5.03%,4.19%,4.90%,3.72%,5.75%,4.27%,6.27%,4.81%,4.95%,5.34%,4.10%,6.13%,5.24%,5.57%,4.81%,4.59%,5.70%,4.98%,3.85%,4.68%,3.61%,6.11%,3.81%,4.78%,5.27%,5.55%
May,13:00 - 13:59,4.51%,3.95%,4.58%,3.81%,5.28%,4.47%,6.16%,4.79%,5.16%,5.25%,4.41%,5.98%,5.24%,5.15%,4.69%,4.90%,5.52%,4.67%,3.84%,4.98%,3.95%,5.35%,3.61%,4.69%,5.15%,5.37%
May,14:00 - 14:59,3.72%,4.37%,4.28%,3.92%,5.37%,4.42%,5.93%,5.12%,5.67%,4.96%,5.37%,5.03%,5.31%,4.73%,5.03%,4.68%,5.17%,4.76%,4.86%,4.39%,4.49%,4.71%,4.17%,4.27%,5.05%,5.33%
May,15:00 - 15:59,3.31%,5.33%,4.52%,4.49%,5.21%,4.91%,5.91%,5.89%,6.15%,4.57%,6.34%,4.77%,5.92%,4.77%,5.48%,4.23%,5.10%,5.37%,6.15%,3.38%,5.81%,4.39%,4.61%,3.82%,5.28%,5.83%
May,16:00 - 16:59,3.51%,6.79%,5.29%,5.64%,6.43%,5.57%,6.32%,6.75%,7.81%,4.14%,7.58%,4.51%,6.85%,4.92%,6.28%,4.59%,5.74%,6.50%,8.33%,2.69%,7.75%,4.28%,6.84%,3.63%,5.97%,6.44%
May,17:00 - 17:59,4.37%,9.94%,7.56%,8.24%,9.26%,7.89%,7.51%,8.67%,12.38%,4.16%,11.21%,5.20%,8.10%,5.95%,8.70%,5.84%,6.43%,8.04%,13.77%,2.92%,10.21%,5.16%,11.32%,4.17%,7.10%,7.84%
May,18:00 - 18:59,4.48%,11.89%,6.82%,10.17%,7.21%,9.15%,7.77%,9.84%,10.33%,4.05%,13.28%,5.34%,8.60%,6.42%,8.41%,6.77%,5.81%,8.51%,14.15%,3.52%,11.86%,5.49%,11.97%,4.41%,7.20%,9.00%
May,19:00 - 19:59,4.49%,11.80%,5.38%,9.95%,5.39%,8.43%,6.74%,9.47%,7.54%,3.61%,10.02%,4.94%,7.26%,6.34%,7.34%,7.73%,5.04%,8.61%,11.07%,3.87%,11.25%,5.17%,9.23%,4.35%,6.45%,8.76%
May,20:00 - 20:59,4.08%,9.61%,3.84%,9.24%,3.93%,7.85%,5.48%,8.30%,6.20%,3.09%,6.72%,3.96%,6.13%,5.67%,5.68%,7.91%,4.52%,7.08%,7.04%,4.09%,10.80%,4.32%,7.35%,4.07%,5.00%,6.89%
May,21:00 - 21:59,3.25%,6.77%,2.64%,6.76%,2.16%,5.47%,3.84%,6.01%,2.69%,2.10%,5.06%,2.59%,4.62%,4.10%,3.94%,5.11%,3.73%,5.45%,4.21%,3.32%,9.15%,2.88%,4.09%,2.93%,3.38%,4.79%
May,22:00 - 22:59,0.06%,4.61%,0.13%,3.91%,0.17%,3.14%,0.38%,3.10%,0.41%,0.98%,1.44%,0.69%,1.15%,1.33%,1.47%,1.57%,1.59%,1.72%,1.90%,0.86%,3.17%,0.93%,1.60%,0.95%,1.02%,1.74%
May,23:00 - 23:59,0.00%,0.10%,0.00%,0.03%,0.00%,0.00%,0.00%,0.00%,0.00%,0.00%,0.00%,0.00%,0.00%,0.00%,0.00%,0.00%,0.06%,0.07%,0.07%,0.04%,0.10%,0.04%,0.06%,0.04%,0.05%,0.06%
May,00:00 - 00:59,0.00%,0.00%,0.00%,0.00%,0.00%,0.00%,0.00%,0.00%,0.00%,0.00%,0.00%,0.00%,0.00%,0.00%,0.00%,0.00%,0.00%,0.00%,0.00%,0.00%,0.00%,0.00%,0.00%,0.00%,0.00%,0.00%
May,01:00 - 01:59,0.00%,0.00%,0.00%,0.00%,0.00%,0.00%,0.00%,0.00%,0.00%,0.00%,0.00%,0.00%,0.00%,0.00%,0.00%,0.00%,0.00%,0.00%,0.00%,0.00%,0.00%,0.00%,0.00%,0.00%,0.00%,0.00%
May,02:00 - 02:59,0.00%,0.00%,0.00%,0.00%,0.00%,0.00%,0.00%,0.00%,0.00%,0.00%,0.00%,0.00%,0.00%,0.00%,0.00%,0.00%,0.00%,0.00%,0.00%,0.00%,0.00%,0.00%,0.00%,0.00%,0.00%,0.00%
June,03:00 - 03:59,0.00%,0.00%,0.00%,0.00%,0.00%,0.00%,0.00%,0.00%,0.00%,0.00%,0.00%,0.00%,0.00%,0.00%,0.00%,0.00%,0.00%,0.00%,0.00%,0.00%,0.00%,0.00%,0.00%,0.00%,0.00%,0.00%
June,04:00 - 04:59,0.05%,0.00%,0.26%,0.00%,0.37%,0.00%,0.19%,0.00%,0.04%,0.00%,0.01%,0.00%,0.01%,0.00%,0.00%,0.00%,0.00%,0.00%,0.00%,0.00%,0.00%,0.00%,0.00%,0.00%,0.00%,0.00%
June,05:00 - 05:59,4.87%,0.51%,4.63%,1.01%,4.62%,0.85%,4.36%,1.03%,1.23%,0.97%,0.88%,1.61%,2.17%,1.81%,2.02%,2.21%,2.63%,1.96%,1.08%,2.91%,0.96%,2.44%,1.79%,3.10%,2.22%,1.78%
June,06:00 - 06:59,10.99%,2.17%,10.00%,4.17%,8.12%,3.94%,5.11%,3.46%,3.46%,4.61%,3.00%,4.73%,4.93%,4.88%,5.69%,5.63%,6.68%,5.03%,2.53%,8.31%,2.58%,7.07%,4.69%,9.69%,6.10%,4.86%
June,07:00 - 07:59,13.06%,3.27%,9.27%,6.85%,6.15%,7.53%,4.59%,4.64%,5.38%,10.85%,5.00%,8.57%,6.75%,7.59%,8.31%,8.73%,9.17%,5.98%,3.75%,14.82%,3.17%,10.14%,6.61%,13.62%,9.19%,5.65%
June,08:00 - 08:59,11.13%,3.30%,8.03%,6.63%,6.35%,7.10%,5.20%,5.07%,5.36%,13.04%,4.85%,12.10%,6.53%,9.32%,7.47%,8.50%,8.80%,6.07%,2.96%,14.98%,2.70%,10.60%,6.03%,13.63%,8.67%,5.93%
June,09:00 - 09:59,8.18%,3.67%,6.59%,5.04%,6.85%,5.71%,5.63%,5.03%,5.14%,12.32%,3.92%,10.50%,5.88%,8.15%,5.65%,7.32%,7.58%,5.18%,3.12%,9.30%,2.77%,9.60%,5.10%,9.20%,6.82%,5.63%
June,10:00 - 10:59,5.67%,3.72%,5.09%,3.94%,5.93%,4.96%,5.74%,4.40%,4.88%,9.22%,3.51%,7.27%,4.83%,6.55%,4.86%,5.23%,6.23%,4.81%,3.68%,5.99%,2.70%,7.07%,3.91%,5.81%,5.26%,5.31%
June,11:00 - 11:59,5.31%,3.85%,4.87%,3.34%,5.79%,4.09%,6.08%,4.38%,4.99%,6.03%,3.86%,6.14%,4.96%,5.67%,4.62%,4.28%,5.69%,4.73%,3.81%,4.57%,2.97%,6.58%,3.64%,4.59%,5.08%,5.00%
June,12:00 - 12:59,4.91%,4.02%,4.88%,3.57%,5.63%,4.21%,6.20%,4.75%,4.98%,5.33%,4.09%,5.86%,5.07%,5.49%,4.64%,4.60%,5.63%,5.05%,3.88%,4.58%,3.40%,5.68%,3.64%,4.56%,5.01%,5.25%
June,13:00 - 13:59,4.50%,3.75%,4.64%,3.50%,5.28%,4.37%,6.04%,4.72%,4.85%,5.39%,4.35%,5.90%,5.01%,5.00%,4.66%,4.74%,5.48%,4.71%,3.73%,5.18%,3.78%,5.16%,3.58%,4.53%,5.04%,5.20%
June,14:00 - 14:59,3.72%,4.40%,4.25%,3.95%,5.02%,4.60%,5.93%,5.14%,5.52%,5.12%,5.22%,5.14%,5.18%,4.84%,4.82%,4.54%,5.05%,4.88%,4.85%,4.35%,4.30%,4.70%,4.00%,3.86%,4.91%,5.32%
June,15:00 - 15:59,3.19%,5.19%,4.47%,4.39%,5.07%,4.71%,5.74%,5.62%,6.32%,4.40%,6.18%,4.66%,5.71%,4.68%,5.15%,4.26%,4.94%,5.42%,6.21%,3.10%,5.67%,3.96%,4.50%,3.33%,5.11%,5.40%
June,16:00 - 16:59,3.44%,6.41%,5.60%,5.21%,6.35%,5.44%,6.15%,6.44%,7.90%,4.15%,7.55%,4.44%,6.69%,4.99%,6.19%,4.61%,5.50%,6.50%,8.45%,2.60%,7.79%,4.22%,6.81%,3.26%,5.90%,6.22%
June,17:00 - 17:59,4.27%,9.86%,7.64%,8.40%,9.31%,8.08%,7.49%,8.41%,11.93%,4.26%,11.18%,5.03%,7.91%,6.09%,8.16%,5.97%,6.15%,7.86%,13.68%,3.02%,10.75%,4.91%,11.26%,3.88%,7.05%,7.72%
June,18:00 - 18:59,4.49%,11.85%,7.01%,9.73%,7.22%,8.81%,8.09%,9.44%,10.46%,4.07%,12.77%,5.24%,8.39%,6.56%,8.52%,6.92%,5.69%,8.62%,13.87%,3.63%,12.32%,5.30%,11.59%,4.48%,7.44%,9.00%
June,19:00 - 19:59,4.53%,11.73%,5.62%,9.82%,5.43%,8.41%,7.11%,9.32%,7.91%,3.72%,9.90%,4.89%,7.45%,6.38%,7.36%,7.57%,5.09%,8.52%,10.89%,4.07%,11.29%,4.95%,9.29%,4.55%,6.59%,8.46%
June,20:00 - 20:59,4.19%,10.22%,4.17%,9.48%,3.95%,8.01%,5.88%,8.47%,6.39%,3.28%,6.90%,4.30%,6.32%,6.01%,6.00%,7.95%,4.52%,7.30%,7.21%,4.21%,10.75%,3.93%,7.53%,3.87%,5.15%,6.70%
June,21:00 - 21:59,3.37%,6.98%,2.76%,6.67%,2.30%,5.59%,4.03%,6.25%,2.76%,2.20%,5.31%,2.78%,4.85%,4.36%,4.19%,5.15%,3.62%,5.58%,4.27%,3.38%,9.08%,2.75%,4.26%,2.99%,3.41%,4.81%
June,22:00 - 22:59,0.13%,4.64%,0.20%,4.08%,0.25%,3.42%,0.45%,3.33%,0.51%,1.05%,1.52%,0.82%,1.34%,1.61%,1.68%,1.77%,1.52%,1.78%,2.00%,0.99%,3.03%,0.92%,1.76%,1.06%,1.03%,1.75%
June,23:00 - 23:59,0.00%,0.47%,0.00%,0.23%,0.00%,0.18%,0.00%,0.09%,0.00%,0.02%,0.00%,0.01%,0.00%,0.01%,0.00%,0.01%,0.01%,0.01%,0.01%,0.00%,0.00%,0.00%,0.00%,0.00%,0.00%,0.00%
June,00:00 - 00:59,0.00%,0.00%,0.00%,0.00%,0.00%,0.00%,0.00%,0.00%,0.00%,0.00%,0.00%,0.00%,0.00%,0.00%,0.00%,0.00%,0.00%,0.00%,0.00%,0.00%,0.00%,0.00%,0.00%,0.00%,0.00%,0.00%
June,01:00 - 01:59,0.00%,0.00%,0.00%,0.00%,0.00%,0.00%,0.00%,0.00%,0.00%,0.00%,0.00%,0.00%,0.00%,0.00%,0.00%,0.00%,0.00%,0.00%,0.00%,0.00%,0.00%,0.00%,0.00%,0.00%,0.00%,0.00%
June,02:00 - 02:59,0.00%,0.00%,0.00%,0.00%,0.00%,0.00%,0.00%,0.00%,0.00%,0.00%,0.00%,0.00%,0.00%,0.00%,0.00%,0.00%,0.00%,0.00%,0.00%,0.00%,0.00%,0.00%,0.00%,0.00%,0.00%,0.00%
July,03:00 - 03:59,0.00%,0.00%,0.00%,0.00%,0.00%,0.00%,0.00%,0.00%,0.00%,0.00%,0.00%,0.00%,0.00%,0.00%,0.00%,0.00%,0.00%,0.00%,0.00%,0.00%,0.00%,0.00%,0.00%,0.00%,0.00%,0.00%
July,04:00 - 04:59,0.08%,0.00%,0.29%,0.00%,0.43%,0.00%,0.28%,0.00%,0.05%,0.00%,0.02%,0.00%,0.01%,0.00%,0.00%,0.00%,0.00%,0.00%,0.00%,0.00%,0.00%,0.00%,0.00%,0.00%,0.00%,0.00%
July,05:00 - 05:59,4.78%,0.54%,4.32%,0.93%,4.38%,0.86%,4.16%,0.98%,1.25%,1.01%,0.91%,1.69%,2.13%,1.78%,2.01%,2.14%,2.55%,1.96%,1.08%,2.89%,0.95%,2.60%,1.74%,3.00%,2.27%,1.80%
July,06:00 - 06:59,10.66%,2.25%,10.41%,4.07%,8.14%,3.82%,5.43%,3.45%,3.58%,4.66%,3.02%,4.74%,5.01%,4.85%,5.57%,5.39%,7.16%,4.95%,2.52%,7.95%,2.61%,6.99%,4.52%,9.26%,5.97%,4.99%
July,07:00 - 07:59,13.26%,3.28%,9.05%,6.35%,6.92%,7.30%,4.59%,4.63%,5.77%,10.65%,5.06%,8.45%,6.77%,7.59%,8.16%,8.73%,9.09%,6.13%,3.74%,14.88%,3.43%,10.23%,6.75%,13.40%,9.20%,5.86%
July,08:00 - 08:59,11.76%,3.51%,8.45%,6.58%,6.89%,7.25%,5.10%,5.24%,5.84%,13.64%,4.91%,12.23%,6.56%,9.46%,7.34%,8.54%,8.81%,5.97%,3.02%,15.21%,2.98%,10.51%,6.22%,13.45%,8.75%,5.84%
July,09:00 - 09:59,8.31%,3.86%,6.76%,5.07%,7.23%,5.99%,5.66%,5.26%,5.34%,12.66%,3.97%,10.72%,5.84%,8.39%,5.75%,7.51%,7.53%,5.43%,3.03%,9.84%,2.91%,9.75%,5.04%,9.78%,6.82%,5.81%
July,10:00 - 10:59,5.66%,3.52%,5.24%,3.78%,6.05%,4.85%,5.87%,4.50%,5.02%,9.09%,3.50%,7.01%,4.85%,6.50%,4.85%,5.06%,6.15%,4.86%,3.49%,5.99%,2.66%,6.88%,3.88%,5.91%,5.15%,5.23%
July,11:00 - 11:59,5.34%,3.88%,4.91%,3.30%,5.85%,4.18%,6.04%,4.45%,5.11%,6.03%,3.91%,6.10%,4.95%,5.62%,4.56%,4.37%,5.77%,4.73%,3.71%,4.59%,3.00%,6.35%,3.71%,4.65%,5.01%,5.12%
July,12:00 - 12:59,4.87%,3.89%,4.79%,3.41%,5.53%,4.14%,5.99%,4.81%,4.74%,5.00%,4.11%,5.74%,5.07%,5.32%,4.61%,4.41%,5.61%,4.94%,3.80%,4.42%,3.48%,5.43%,3.62%,4.49%,4.97%,5.19%
July,13:00 - 13:59,4.42%,3.77%,4.59%,3.51%,5.08%,4.61%,5.96%,4.74%,4.80%,5.32%,4.21%,5.87%,5.01%,5.00%,4.60%,4.78%,5.37%,4.67%,3.76%,5.10%,3.72%,4.97%,3.57%,4.64%,4.96%,5.21%
July,14:00 - 14:59,3.67%,4.26%,4.16%,3.76%,4.97%,4.54%,5.79%,4.96%,5.46%,5.06%,5.19%,5.11%,5.12%,4.79%,4.76%,4.48%,5.04%,4.82%,4.89%,4.43%,4.45%,4.37%,3.99%,4.00%,4.88%,5.15%
July,15:00 - 15:59,3.18%,5.17%,4.44%,4.41%,4.90%,4.85%,5.71%,5.74%,6.20%,4.53%,6.17%,4.61%,5.68%,4.70%,5.06%,4.46%,4.91%,5.45%,6.35%,3.09%,5.85%,3.85%,4.65%,3.45%,5.12%,5.40%
July,16:00 - 16:59,3.38%,6.82%,5.50%,5.61%,6.09%,5.77%,6.27%,6.62%,7.68%,4.04%,7.53%,4.65%,6.72%,5.09%,6.22%,4.80%,5.62%,6.56%,8.24%,2.73%,7.89%,4.00%,7.09%,3.34%,6.14%,6.21%
July,17:00 - 17:59,4.27%,9.70%,7.57%,8.37%,9.02%,7.88%,7.64%,8.22%,12.16%,4.12%,11.26%,5.08%,7.90%,6.04%,8.22%,6.12%,6.01%,8.01%,13.65%,3.05%,10.42%,5.14%,11.67%,3.92%,7.12%,7.69%
July,18:00 - 18:59,4.48%,11.71%,6.88%,9.87%,7.00%,8.65%,8.09%,9.33%,10.33%,4.04%,12.90%,5.39%,8.59%,6.57%,8.53%,7.11%,5.59%,8.53%,14.27%,3.49%,12.09%,5.51%,11.68%,4.38%,7.29%,8.90%
July,19:00 - 19:59,4.44%,12.30%,5.51%,10.42%,5.25%,8.71%,7.14%,9.38%,7.54%,3.74%,9.90%,4.90%,7.41%,6.41%,7.77%,7.65%,5.04%,8.55%,10.90%,4.07%,10.97%,5.24%,9.14%,4.51%,6.73%,8.50%
July,20:00 - 20:59,4.05%,9.57%,4.16%,9.30%,3.87%,7.60%,5.82%,8.33%,6.00%,3.13%,6.84%,4.13%,6.25%,5.96%,6.05%,7.52%,4.53%,7.00%,7.16%,4.13%,10.53%,4.27%,7.16%,3.80%,5.15%,6.60%
July,21:00 - 21:59,3.28%,7.29%,2.79%,7.13%,2.19%,5.77%,4.10%,6.12%,2.68%,2.23%,5.13%,2.78%,4.84%,4.40%,4.31%,5.27%,3.74%,5.65%,4.36%,3.20%,9.12%,2.95%,4.06%,2.97%,3.45%,4.84%
July,22:00 - 22:59,0.11%,4.50%,0.18%,4.06%,0.20%,3.19%,0.38%,3.21%,0.45%,1.05%,1.48%,0.79%,1.30%,1.54%,1.63%,1.66%,1.48%,1.78%,2.05%,0.95%,2.93%,0.96%,1.51%,1.05%,1.01%,1.68%
July,23:00 - 23:59,0.00%,0.17%,0.00%,0.06%,0.00%,0.04%,0.00%,0.03%,0.00%,0.01%,0.00%,0.00%,0.00%,0.00%,0.00%,0.00%,0.00%,0.00%,0.00%,0.00%,0.00%,0.00%,0.00%,0.00%,0.00%,0.00%
July,00:00 - 00:59,0.00%,0.00%,0.00%,0.00%,0.00%,0.00%,0.00%,0.00%,0.00%,0.00%,0.00%,0.00%,0.00%,0.00%,0.00%,0.00%,0.00%,0.00%,0.00%,0.00%,0.00%,0.00%,0.00%,0.00%,0.00%,0.00%
July,01:00 - 01:59,0.00%,0.00%,0.00%,0.00%,0.00%,0.00%,0.00%,0.00%,0.00%,0.00%,0.00%,0.00%,0.00%,0.00%,0.00%,0.00%,0.00%,0.00%,0.00%,0.00%,0.00%,0.00%,0.00%,0.00%,0.00%,0.00%
July,02:00 - 02:59,0.00%,0.00%,0.00%,0.00%,0.00%,0.00%,0.00%,0.00%,0.00%,0.00%,0.00%,0.00%,0.00%,0.00%,0.00%,0.00%,0.00%,0.00%,0.00%,0.00%,0.00%,0.00%,0.00%,0.00%,0.00%,0.00%
August,03:00 - 03:59,0.00%,0.00%,0.00%,0.00%,0.00%,0.00%,0.00%,0.00%,0.00%,0.00%,0.00%,0.00%,0.00%,0.00%,0.00%,0.00%,0.00%,0.00%,0.00%,0.00%,0.00%,0.00%,0.00%,0.00%,0.00%,0.00%
August,04:00 - 04:59,0.04%,0.00%,0.25%,0.00%,0.39%,0.00%,0.28%,0.00%,0.05%,0.00%,0.00%,0.00%,0.01%,0.00%,0.00%,0.00%,0.00%,0.00%,0.00%,0.00%,0.00%,0.00%,0.00%,0.00%,0.00%,0.00%
August,05:00 - 05:59,4.53%,0.49%,4.11%,0.92%,3.97%,0.85%,4.08%,0.97%,1.16%,0.94%,0.86%,1.64%,2.06%,1.67%,2.11%,2.09%,2.33%,1.88%,1.12%,2.72%,1.08%,2.40%,1.64%,2.73%,2.12%,1.66%
August,06:00 - 06:59,10.33%,2.17%,9.94%,4.00%,8.10%,3.61%,5.19%,3.31%,3.38%,4.15%,3.00%,4.68%,5.00%,4.73%,5.57%,5.05%,6.82%,4.77%,2.50%,7.98%,2.84%,6.82%,4.45%,8.56%,5.71%,4.73%
August,07:00 - 07:59,13.31%,3.34%,9.34%,6.51%,7.09%,7.53%,4.77%,4.74%,5.78%,10.68%,5.12%,8.56%,6.87%,7.69%,8.20%,8.56%,9.26%,6.06%,3.69%,14.22%,3.63%,9.97%,6.54%,12.62%,9.16%,5.66%
August,08:00 - 08:59,11.66%,3.49%,8.24%,6.79%,6.95%,7.19%,4.71%,5.28%,6.12%,13.31%,5.01%,12.17%,6.56%,9.49%,7.62%,8.40%,8.80%,6.16%,3.18%,15.05%,3.09%,10.48%,6.02%,13.56%,8.84%,5.86%
August,09:00 - 09:59,8.40%,3.74%,6.84%,4.94%,7.14%,5.73%,5.42%,5.18%,5.41%,12.59%,4.22%,10.62%,5.87%,8.36%,5.69%,7.44%,7.52%,5.43%,3.20%,9.72%,2.99%,9.55%,5.08%,9.61%,6.85%,5.48%
August,10:00 - 10:59,5.97%,3.59%,5.48%,3.97%,6.32%,5.13%,5.84%,4.54%,4.96%,9.18%,3.50%,7.19%,4.86%,6.66%,4.87%,5.41%,6.26%,4.89%,3.61%,6.44%,2.75%,7.06%,3.95%,6.34%,5.28%,5.30%
August,11:00 - 11:59,5.49%,3.78%,4.89%,3.43%,5.87%,4.26%,6.01%,4.47%,4.96%,6.36%,3.89%,6.17%,4.94%,5.64%,4.52%,4.48%,5.89%,4.76%,3.79%,4.85%,3.08%,6.42%,3.74%,4.81%,5.05%,5.16%
August,12:00 - 12:59,4.89%,3.98%,4.85%,3.55%,5.55%,4.25%,6.21%,4.77%,4.75%,5.35%,4.15%,5.84%,5.15%,5.53%,4.65%,4.54%,5.64%,4.93%,3.91%,4.67%,3.50%,5.65%,3.73%,4.79%,4.97%,5.29%
August,13:00 - 13:59,4.45%,3.79%,4.67%,3.54%,5.18%,4.65%,6.12%,4.63%,4.95%,5.06%,4.21%,5.75%,5.01%,4.90%,4.59%,4.66%,5.43%,4.62%,3.98%,5.16%,3.80%,5.01%,3.60%,4.64%,5.03%,5.21%
August,14:00 - 14:59,3.79%,4.27%,4.28%,3.81%,4.97%,4.76%,5.90%,5.05%,5.50%,5.17%,5.16%,5.25%,5.08%,4.89%,4.71%,4.51%,5.06%,4.79%,4.94%,4.47%,4.43%,4.51%,4.07%,4.36%,4.99%,5.24%
August,15:00 - 15:59,3.19%,5.06%,4.42%,4.32%,4.93%,4.75%,5.79%,5.50%,6.03%,4.49%,6.03%,4.65%,5.57%,4.66%,5.00%,4.41%,4.83%,5.09%,6.30%,3.09%,5.68%,3.70%,4.74%,3.53%,5.19%,5.26%
August,16:00 - 16:59,3.29%,6.32%,5.26%,5.22%,5.78%,5.40%,5.96%,6.32%,7.44%,3.96%,7.39%,4.35%,6.52%,4.90%,6.05%,4.55%,5.38%,6.22%,8.14%,2.74%,7.75%,3.88%,6.79%,3.44%,5.79%,5.95%
August,17:00 - 17:59,4.21%,9.43%,7.44%,8.11%,8.79%,7.83%,7.42%,8.32%,12.18%,4.23%,11.18%,5.01%,8.11%,6.09%,8.01%,6.09%,6.04%,8.06%,13.11%,3.04%,10.12%,4.97%,11.46%,3.88%,7.14%,7.66%
August,18:00 - 18:59,4.48%,12.02%,7.07%,9.94%,7.09%,8.51%,8.19%,9.50%,10.43%,4.06%,12.60%,5.30%,8.49%,6.42%,8.46%,7.12%,5.57%,8.73%,13.47%,3.55%,11.05%,5.56%,11.95%,4.50%,7.32%,8.99%
August,19:00 - 19:59,4.53%,11.99%,5.69%,10.11%,5.38%,8.45%,7.34%,9.55%,7.61%,3.72%,9.96%,4.90%,7.57%,6.40%,7.42%,7.77%,5.16%,8.61%,11.29%,3.99%,10.45%,5.28%,9.20%,4.50%,6.72%,8.72%
August,20:00 - 20:59,4.07%,10.06%,4.24%,9.32%,4.02%,7.81%,6.03%,8.26%,6.10%,3.24%,7.09%,4.30%,6.25%,5.97%,6.30%,7.88%,4.66%,7.47%,7.35%,4.16%,11.05%,4.59%,7.17%,4.07%,5.28%,7.11%
August,21:00 - 21:59,3.26%,7.51%,2.79%,7.41%,2.27%,5.98%,4.27%,6.38%,2.74%,2.46%,5.17%,2.82%,4.71%,4.34%,4.40%,5.30%,3.75%,5.76%,4.44%,3.27%,9.48%,3.19%,4.23%,3.02%,3.54%,4.97%
August,22:00 - 22:59,0.11%,4.76%,0.20%,4.06%,0.22%,3.26%,0.45%,3.21%,0.46%,1.05%,1.47%,0.80%,1.37%,1.65%,1.82%,1.75%,1.60%,1.77%,1.98%,0.87%,3.22%,0.98%,1.63%,1.03%,1.03%,1.74%
August,23:00 - 23:59,0.00%,0.23%,0.00%,0.05%,0.00%,0.02%,0.00%,0.00%,0.00%,0.00%,0.00%,0.00%,0.00%,0.00%,0.00%,0.00%,0.00%,0.00%,0.00%,0.00%,0.00%,0.00%,0.00%,0.00%,0.00%,0.00%
August,00:00 - 00:59,0.00%,0.00%,0.00%,0.00%,0.00%,0.00%,0.00%,0.00%,0.00%,0.00%,0.00%,0.00%,0.00%,0.00%,0.00%,0.00%,0.00%,0.00%,0.00%,0.00%,0.00%,0.00%,0.00%,0.00%,0.00%,0.00%
August,01:00 - 01:59,0.00%,0.00%,0.00%,0.00%,0.00%,0.00%,0.00%,0.00%,0.00%,0.00%,0.00%,0.00%,0.00%,0.00%,0.00%,0.00%,0.00%,0.00%,0.00%,0.00%,0.00%,0.00%,0.00%,0.00%,0.00%,0.00%
August,02:00 - 02:59,0.00%,0.00%,0.00%,0.00%,0.00%,0.00%,0.00%,0.00%,0.00%,0.00%,0.00%,0.00%,0.00%,0.00%,0.00%,0.00%,0.00%,0.00%,0.00%,0.00%,0.00%,0.00%,0.00%,0.00%,0.00%,0.00%
September,03:00 - 03:59,0.00%,0.00%,0.01%,0.00%,0.02%,0.00%,0.02%,0.00%,0.00%,0.00%,0.00%,0.00%,0.00%,0.00%,0.00%,0.00%,0.00%,0.00%,0.00%,0.00%,0.00%,0.00%,0.00%,0.00%,0.00%,0.00%
September,04:00 - 04:59,0.28%,0.03%,0.45%,0.04%,0.59%,0.04%,0.47%,0.05%,0.10%,0.04%,0.04%,0.09%,0.12%,0.07%,0.07%,0.09%,0.00%,0.00%,0.00%,0.00%,0.00%,0.00%,0.00%,0.00%,0.00%,0.00%
September,05:00 - 05:59,4.88%,0.58%,4.48%,1.09%,4.25%,1.01%,4.18%,1.09%,1.29%,1.13%,0.97%,1.82%,2.21%,1.83%,2.18%,2.27%,2.34%,1.91%,1.08%,2.72%,1.06%,2.43%,1.64%,2.73%,2.13%,1.69%
September,06:00 - 06:59,10.55%,2.26%,10.06%,4.19%,8.15%,3.88%,5.24%,3.40%,3.52%,4.56%,3.09%,4.97%,5.11%,4.90%,5.63%,5.29%,6.85%,4.81%,2.48%,8.12%,2.81%,6.95%,4.45%,8.56%,5.77%,4.77%
September,07:00 - 07:59,13.23%,3.35%,9.29%,6.55%,7.15%,7.59%,4.83%,4.82%,5.82%,10.88%,5.13%,8.85%,6.85%,7.76%,8.25%,8.55%,9.29%,6.02%,3.64%,14.33%,3.62%,10.13%,6.54%,12.62%,9.20%,5.68%
September,08:00 - 08:59,11.58%,3.54%,8.32%,6.75%,7.08%,7.19%,4.84%,5.35%,6.11%,13.35%,5.01%,12.17%,6.56%,9.33%,7.58%,8.40%,8.84%,6.20%,3.20%,15.13%,3.07%,10.57%,6.02%,13.56%,8.85%,5.89%
September,09:00 - 09:59,8.33%,3.75%,6.77%,4.94%,7.11%,5.76%,5.47%,5.19%,5.43%,12.44%,4.21%,10.53%,5.86%,8.22%,5.68%,7.39%,7.57%,5.49%,3.19%,9.76%,3.00%,9.57%,5.08%,9.61%,6.89%,5.52%
September,10:00 - 10:59,5.97%,3.68%,5.43%,4.01%,6.28%,5.15%,5.90%,4.59%,4.99%,9.11%,3.52%,7.13%,4.89%,6.55%,4.87%,5.36%,6.28%,4.90%,3.65%,6.46%,2.80%,6.99%,3.95%,6.34%,5.30%,5.31%
September,11:00 - 11:59,5.47%,3.86%,4.90%,3.49%,5.84%,4.33%,6.04%,4.55%,5.02%,6.31%,3.96%,6.15%,4.97%,5.57%,4.56%,4.52%,5.94%,4.81%,3.83%,4.86%,3.14%,6.47%,3.74%,4.81%,5.06%,5.19%
September,12:00 - 12:59,4.88%,4.01%,4.85%,3.55%,5.53%,4.22%,6.22%,4.79%,4.78%,5.30%,4.19%,5.83%,5.16%,5.46%,4.68%,4.54%,5.61%,4.96%,3.96%,4.69%,3.49%,5.61%,3.73%,4.79%,4.99%,5.34%
September,13:00 - 13:59,4.43%,3.90%,4.68%,3.62%,5.18%,4.74%,6.13%,4.72%,5.01%,5.07%,4.28%,5.75%,5.01%,4.86%,4.67%,4.71%,5.45%,4.66%,4.02%,5.10%,3.79%,4.98%,3.60%,4.64%,5.03%,5.21%
September,14:00 - 14:59,3.77%,4.35%,4.28%,3.87%,4.96%,4.79%,5.91%,5.13%,5.54%,5.10%,5.24%,5.21%,5.12%,4.80%,4.73%,4.49%,5.06%,4.84%,4.94%,4.53%,4.43%,4.55%,4.07%,4.36%,4.99%,5.28%
September,15:00 - 15:59,3.21%,5.27%,4.49%,4.44%,4.97%,4.85%,5.81%,5.57%,6.11%,4.43%,6.15%,4.63%,5.66%,4.62%,5.09%,4.42%,4.86%,5.18%,6.31%,3.11%,5.68%,3.71%,4.74%,3.53%,5.19%,5.29%
September,16:00 - 16:59,3.37%,6.52%,5.39%,5.37%,5.94%,5.49%,6.06%,6.42%,7.72%,3.97%,7.62%,4.39%,6.60%,4.90%,6.12%,4.67%,5.41%,6.29%,8.19%,2.71%,7.82%,3.86%,6.79%,3.44%,5.82%,5.99%
September,17:00 - 17:59,4.23%,9.76%,7.40%,8.37%,8.71%,7.94%,7.49%,8.47%,12.13%,4.18%,11.33%,5.04%,8.16%,6.01%,7.98%,6.12%,5.98%,8.10%,13.09%,3.05%,10.20%,5.00%,11.46%,3.88%,7.13%,7.65%
September,18:00 - 18:59,4.48%,11.89%,6.98%,9.87%,7.03%,8.42%,8.15%,9.44%,10.31%,4.00%,12.52%,5.23%,8.42%,6.28%,8.43%,7.10%,5.58%,8.62%,13.50%,3.52%,11.10%,5.53%,11.95%,4.50%,7.29%,8.95%
September,19:00 - 19:59,4.31%,11.48%,5.38%,9.77%,5.08%,8.22%,7.00%,9.29%,7.30%,3.69%,9.59%,4.73%,7.37%,6.67%,7.28%,7.67%,5.13%,8.55%,11.42%,4.02%,10.53%,5.27%,9.20%,4.50%,6.67%,8.74%
September,20:00 - 20:59,3.83%,9.85%,4.00%,9.10%,3.78%,7.60%,5.75%,7.99%,5.81%,3.11%,6.80%,4.10%,6.12%,6.24%,6.20%,7.67%,4.56%,7.30%,7.18%,3.96%,10.88%,4.43%,7.17%,4.07%,5.20%,6.98%
September,21:00 - 21:59,3.10%,7.17%,2.64%,7.08%,2.14%,5.68%,4.06%,6.11%,2.58%,2.34%,4.94%,2.67%,4.52%,4.40%,4.25%,5.11%,3.68%,5.63%,4.37%,3.10%,9.43%,3.01%,4.23%,3.02%,3.46%,4.85%
September,22:00 - 22:59,0.10%,4.55%,0.20%,3.85%,0.21%,3.07%,0.43%,3.05%,0.44%,0.99%,1.40%,0.75%,1.29%,1.53%,1.75%,1.65%,1.57%,1.74%,1.94%,0.84%,3.16%,0.95%,1.63%,1.03%,1.04%,1.70%
September,23:00 - 23:59,0.00%,0.21%,0.00%,0.05%,0.00%,0.02%,0.00%,0.01%,0.00%,0.00%,0.00%,0.00%,0.00%,0.00%,0.00%,0.00%,0.00%,0.00%,0.00%,0.00%,0.00%,0.00%,0.00%,0.00%,0.00%,0.00%
September,00:00 - 00:59,0.00%,0.00%,0.00%,0.00%,0.00%,0.00%,0.00%,0.00%,0.00%,0.00%,0.00%,0.00%,0.00%,0.00%,0.00%,0.00%,0.00%,0.00%,0.00%,0.00%,0.00%,0.00%,0.00%,0.00%,0.00%,0.00%
September,01:00 - 01:59,0.00%,0.00%,0.00%,0.00%,0.00%,0.00%,0.00%,0.00%,0.00%,0.00%,0.00%,0.00%,0.00%,0.00%,0.00%,0.00%,0.00%,0.00%,0.00%,0.00%,0.00%,0.00%,0.00%,0.00%,0.00%,0.00%
September,02:00 - 02:59,0.00%,0.00%,0.00%,0.00%,0.00%,0.00%,0.00%,0.00%,0.00%,0.00%,0.00%,0.00%,0.00%,0.00%,0.00%,0.00%,0.00%,0.00%,0.00%,0.00%,0.00%,0.00%,0.00%,0.00%,0.00%,0.00%
October,03:00 - 03:59,0.00%,0.00%,0.00%,0.00%,0.00%,0.00%,0.00%,0.00%,0.00%,0.00%,0.00%,0.00%,0.00%,0.00%,0.00%,0.00%,0.00%,0.00%,0.00%,0.00%,0.00%,0.00%,0.00%,0.00%,0.00%,0.00%
October,04:00 - 04:59,0.14%,0.00%,0.30%,0.00%,0.48%,0.00%,0.27%,0.00%,0.06%,0.00%,0.02%,0.00%,0.02%,0.00%,0.00%,0.00%,0.00%,0.00%,0.00%,0.00%,0.00%,0.00%,0.00%,0.00%,0.01%,0.00%
October,05:00 - 05:59,4.86%,0.51%,4.33%,0.93%,4.55%,0.86%,4.25%,0.91%,1.13%,0.96%,0.87%,1.67%,2.04%,1.76%,2.13%,2.13%,2.33%,1.89%,1.05%,2.99%,0.93%,2.65%,1.71%,3.04%,2.11%,1.73%
October,06:00 - 06:59,10.69%,2.22%,10.14%,3.91%,7.95%,3.49%,4.88%,3.02%,3.12%,4.46%,2.85%,4.38%,4.93%,4.88%,5.21%,4.68%,6.34%,5.01%,2.47%,8.07%,2.65%,6.98%,4.70%,8.95%,5.62%,4.56%
October,07:00 - 07:59,12.66%,3.38%,9.68%,6.62%,7.20%,7.52%,4.40%,4.56%,5.66%,11.34%,5.22%,8.20%,6.80%,7.69%,8.16%,8.09%,8.79%,6.24%,3.62%,14.45%,3.40%,9.89%,6.55%,13.14%,8.74%,6.05%
October,08:00 - 08:59,11.16%,3.48%,8.55%,6.63%,6.72%,6.85%,4.70%,5.12%,5.91%,13.34%,5.24%,11.95%,6.49%,9.32%,7.46%,8.51%,8.77%,6.09%,3.10%,14.48%,2.95%,10.07%,6.08%,13.24%,8.42%,6.23%
October,09:00 - 09:59,8.31%,3.87%,6.85%,5.10%,6.78%,5.94%,5.62%,5.15%,5.47%,12.59%,4.12%,10.70%,5.88%,8.34%,5.91%,7.68%,7.72%,5.47%,3.23%,9.67%,2.90%,9.43%,5.13%,9.43%,6.69%,6.04%
October,10:00 - 10:59,5.81%,3.68%,5.41%,3.95%,6.00%,4.97%,5.90%,4.52%,4.98%,9.10%,3.60%,7.35%,5.01%,6.67%,5.02%,5.40%,6.34%,5.05%,3.67%,6.15%,2.84%,7.04%,4.05%,6.04%,5.33%,5.40%
October,11:00 - 11:59,5.43%,3.97%,5.06%,3.46%,5.95%,4.22%,6.17%,4.57%,5.03%,6.16%,3.93%,6.28%,5.07%,5.79%,4.73%,4.39%,5.86%,4.95%,3.81%,4.81%,3.14%,6.59%,3.89%,4.81%,5.15%,5.31%
October,12:00 - 12:59,4.91%,4.11%,4.88%,3.66%,5.59%,4.29%,6.10%,4.78%,4.77%,5.16%,4.07%,5.92%,5.20%,5.50%,4.59%,4.56%,5.66%,4.87%,3.84%,4.74%,3.54%,5.84%,3.75%,4.64%,5.12%,5.49%
October,13:00 - 13:59,4.49%,3.87%,4.60%,3.69%,5.20%,4.48%,6.12%,4.77%,4.87%,4.97%,4.25%,5.72%,5.16%,5.10%,4.74%,4.82%,5.38%,4.67%,3.94%,5.12%,3.78%,5.15%,3.72%,4.59%,5.08%,5.31%
October,14:00 - 14:59,3.75%,4.37%,4.23%,3.95%,5.00%,4.45%,5.93%,5.04%,5.43%,4.75%,5.22%,5.06%,5.27%,4.82%,5.07%,4.49%,5.18%,4.87%,4.84%,4.49%,4.56%,4.56%,4.10%,4.15%,5.06%,5.22%
October,15:00 - 15:59,3.31%,5.34%,4.42%,4.52%,4.89%,4.83%,5.86%,5.70%,5.97%,4.28%,6.13%,4.69%,5.84%,4.74%,5.27%,4.48%,5.06%,5.31%,6.36%,3.30%,5.94%,4.13%,4.71%,3.61%,5.33%,5.45%
October,16:00 - 16:59,3.49%,6.80%,5.27%,5.63%,5.72%,5.63%,6.27%,6.72%,7.42%,4.00%,7.30%,4.52%,6.78%,5.03%,6.06%,4.47%,5.73%,6.25%,8.30%,2.62%,7.73%,3.99%,6.98%,3.48%,6.05%,5.76%
October,17:00 - 17:59,4.33%,9.62%,7.35%,8.10%,9.00%,7.78%,7.44%,8.28%,12.20%,4.18%,11.03%,5.07%,7.91%,5.96%,8.17%,6.08%,6.29%,7.96%,13.51%,3.15%,10.38%,4.81%,11.34%,4.00%,7.19%,7.42%
October,18:00 - 18:59,4.52%,11.53%,6.75%,9.66%,7.14%,8.43%,8.08%,9.18%,10.48%,4.01%,12.71%,5.33%,8.27%,6.40%,8.36%,7.01%,5.61%,8.67%,13.63%,3.68%,11.75%,5.39%,11.58%,4.42%,7.42%,8.33%
October,19:00 - 19:59,4.57%,11.82%,5.35%,10.10%,5.35%,8.71%,7.18%,9.37%,7.85%,3.82%,9.92%,5.01%,7.25%,6.31%,7.22%,7.90%,5.10%,8.48%,10.84%,4.04%,10.91%,5.25%,9.05%,4.46%,6.58%,8.17%
October,20:00 - 20:59,4.13%,9.73%,3.95%,9.31%,3.92%,7.93%,5.87%,8.44%,6.11%,3.27%,6.89%,4.30%,6.19%,5.85%,5.86%,7.84%,4.56%,7.01%,7.19%,4.00%,10.34%,4.31%,7.05%,4.06%,5.25%,6.79%
October,21:00 - 21:59,3.38%,6.92%,2.74%,6.87%,2.26%,5.85%,4.34%,6.26%,2.94%,2.41%,5.05%,2.94%,4.68%,4.40%,4.19%,5.49%,3.71%,5.49%,4.46%,3.27%,9.18%,2.94%,4.06%,2.95%,3.71%,4.90%
October,22:00 - 22:59,0.08%,4.57%,0.15%,3.86%,0.30%,3.55%,0.61%,3.42%,0.58%,1.14%,1.54%,0.86%,1.21%,1.46%,1.78%,1.89%,1.53%,1.70%,2.09%,0.95%,3.07%,0.98%,1.54%,0.98%,1.13%,1.83%
October,23:00 - 23:59,0.00%,0.24%,0.00%,0.06%,0.01%,0.20%,0.02%,0.19%,0.02%,0.07%,0.06%,0.03%,0.00%,0.00%,0.06%,0.07%,0.01%,0.02%,0.03%,0.01%,0.01%,0.00%,0.01%,0.01%,0.01%,0.02%
October,00:00 - 00:59,0.00%,0.00%,0.00%,0.00%,0.00%,0.00%,0.00%,0.00%,0.00%,0.00%,0.00%,0.00%,0.00%,0.00%,0.00%,0.00%,0.00%,0.00%,0.00%,0.00%,0.00%,0.00%,0.00%,0.00%,0.00%,0.00%
October,01:00 - 01:59,0.00%,0.00%,0.00%,0.00%,0.00%,0.00%,0.00%,0.00%,0.00%,0.00%,0.00%,0.00%,0.00%,0.00%,0.00%,0.00%,0.00%,0.00%,0.00%,0.00%,0.00%,0.00%,0.00%,0.00%,0.00%,0.00%
October,02:00 - 02:59,0.00%,0.00%,0.00%,0.00%,0.00%,0.00%,0.00%,0.00%,0.00%,0.00%,0.00%,0.00%,0.00%,0.00%,0.00%,0.00%,0.00%,0.00%,0.00%,0.00%,0.00%,0.00%,0.00%,0.00%,0.00%,0.00%
November,03:00 - 03:59,0.00%,0.00%,0.00%,0.00%,0.00%,0.00%,0.00%,0.00%,0.00%,0.00%,0.00%,0.00%,0.00%,0.00%,0.00%,0.00%,0.00%,0.00%,0.00%,0.00%,0.00%,0.00%,0.00%,0.00%,0.00%,0.00%
November,04:00 - 04:59,0.26%,0.00%,0.47%,0.00%,0.55%,0.00%,0.35%,0.00%,0.07%,0.00%,0.02%,0.00%,0.05%,0.00%,0.00%,0.00%,0.00%,0.00%,0.00%,0.00%,0.00%,0.00%,0.00%,0.00%,0.00%,0.00%
November,05:00 - 05:59,5.09%,0.42%,4.72%,0.81%,4.52%,0.78%,4.28%,0.91%,1.18%,0.98%,0.81%,1.74%,2.05%,1.78%,1.90%,2.14%,2.39%,2.20%,0.79%,3.19%,0.75%,2.89%,1.47%,3.26%,2.14%,1.91%
November,06:00 - 06:59,10.84%,1.98%,10.38%,3.56%,8.43%,3.38%,4.89%,3.16%,3.37%,4.41%,2.89%,4.58%,4.87%,4.97%,5.42%,4.94%,6.30%,5.09%,2.48%,8.24%,2.40%,6.97%,4.25%,8.70%,5.76%,4.63%
November,07:00 - 07:59,12.38%,3.30%,8.60%,6.08%,6.89%,6.96%,4.29%,4.42%,5.69%,10.70%,5.24%,8.53%,6.70%,7.85%,8.12%,7.69%,8.44%,6.06%,3.50%,13.35%,3.47%,9.35%,6.04%,11.54%,8.92%,5.41%
November,08:00 - 08:59,11.17%,3.58%,8.04%,6.69%,6.79%,6.70%,4.75%,5.13%,6.23%,13.72%,5.23%,12.06%,6.58%,9.47%,7.82%,8.36%,8.86%,6.10%,3.20%,15.03%,3.00%,9.95%,6.02%,13.21%,8.96%,5.75%
November,09:00 - 09:59,8.43%,4.00%,7.26%,5.14%,6.98%,5.80%,5.49%,5.22%,5.48%,13.19%,4.11%,10.85%,5.76%,8.55%,5.79%,7.68%,7.55%,5.65%,3.35%,10.32%,3.09%,9.56%,5.16%,9.84%,7.11%,5.97%
November,10:00 - 10:59,5.68%,3.55%,5.39%,3.84%,6.06%,4.87%,5.89%,4.56%,4.97%,8.96%,3.52%,6.86%,4.81%,6.48%,4.91%,5.16%,6.35%,5.01%,3.63%,6.08%,2.87%,7.25%,3.97%,6.07%,5.26%,5.45%
November,11:00 - 11:59,5.47%,3.99%,5.03%,3.44%,5.69%,4.15%,6.17%,4.60%,5.17%,6.29%,3.91%,6.12%,5.07%,5.77%,5.00%,4.53%,5.80%,5.13%,3.92%,4.89%,3.15%,6.99%,3.83%,5.05%,5.03%,5.34%
November,12:00 - 12:59,5.01%,4.05%,4.90%,3.63%,5.39%,4.28%,6.14%,4.85%,4.72%,4.97%,4.10%,5.91%,5.16%,5.54%,4.69%,4.69%,5.67%,5.06%,3.82%,4.70%,3.55%,5.67%,3.79%,4.81%,4.95%,5.52%
November,13:00 - 13:59,4.45%,3.91%,4.58%,3.75%,5.01%,4.61%,6.10%,4.77%,5.03%,5.03%,4.35%,5.72%,5.01%,5.01%,4.68%,4.80%,5.39%,4.58%,3.86%,4.93%,3.88%,5.02%,3.75%,4.59%,5.06%,5.35%
November,14:00 - 14:59,3.75%,4.43%,4.28%,3.93%,4.95%,4.71%,5.94%,5.13%,5.43%,4.80%,5.32%,4.93%,5.18%,4.78%,5.08%,4.35%,5.14%,5.03%,4.96%,4.32%,4.57%,4.58%,4.16%,4.25%,5.02%,5.39%
November,15:00 - 15:59,3.35%,5.33%,4.44%,4.57%,4.85%,4.97%,5.95%,5.79%,6.11%,4.47%,6.35%,4.68%,5.89%,4.75%,5.40%,4.79%,5.07%,5.71%,6.65%,3.32%,6.06%,4.04%,4.99%,3.77%,5.30%,5.70%
November,16:00 - 16:59,3.50%,7.24%,5.35%,6.19%,6.23%,6.28%,6.34%,6.84%,7.96%,4.03%,7.66%,4.49%,7.07%,4.98%,6.36%,4.83%,5.76%,6.54%,8.67%,2.66%,8.13%,4.06%,7.31%,3.57%,6.16%,6.10%
November,17:00 - 17:59,4.21%,9.33%,7.66%,7.94%,8.96%,7.61%,7.62%,8.08%,12.60%,4.18%,11.62%,5.04%,8.14%,5.97%,8.23%,6.19%,6.21%,7.49%,13.34%,3.23%,10.22%,4.97%,11.71%,4.12%,7.01%,7.49%
November,18:00 - 18:59,4.37%,11.79%,6.83%,9.91%,6.90%,8.93%,8.08%,9.19%,10.26%,4.00%,12.54%,5.29%,8.42%,6.25%,8.19%,7.10%,5.81%,7.81%,13.94%,3.40%,11.05%,5.07%,11.60%,4.64%,7.16%,8.84%
November,19:00 - 19:59,4.38%,11.44%,5.16%,9.81%,5.15%,8.49%,7.06%,9.32%,7.13%,3.55%,9.26%,4.77%,7.21%,6.09%,6.78%,7.37%,5.10%,7.88%,10.70%,3.51%,10.52%,4.82%,9.03%,4.32%,6.31%,8.00%
November,20:00 - 20:59,4.19%,9.81%,3.94%,9.34%,4.04%,8.01%,5.88%,8.35%,5.47%,3.20%,6.65%,4.35%,6.01%,5.74%,5.77%,7.47%,4.73%,6.99%,7.01%,4.13%,10.68%,4.43%,7.16%,4.05%,5.08%,6.67%
November,21:00 - 21:59,3.40%,6.76%,2.80%,6.93%,2.39%,5.77%,4.32%,6.19%,2.67%,2.40%,4.82%,3.18%,4.60%,4.41%,4.15%,6.01%,3.83%,5.75%,4.19%,3.67%,9.38%,3.35%,4.28%,3.05%,3.69%,4.71%
November,22:00 - 22:59,0.08%,4.59%,0.15%,4.21%,0.22%,3.57%,0.47%,3.45%,0.45%,1.12%,1.58%,0.89%,1.42%,1.59%,1.70%,1.89%,1.59%,1.90%,2.00%,1.03%,3.22%,1.03%,1.48%,1.18%,1.07%,1.78%
November,23:00 - 23:59,0.00%,0.51%,0.00%,0.25%,0.00%,0.13%,0.00%,0.04%,0.00%,0.00%,0.00%,0.00%,0.00%,0.00%,0.00%,0.00%,0.00%,0.00%,0.00%,0.00%,0.00%,0.00%,0.00%,0.00%,0.00%,0.00%
November,00:00 - 00:59,0.00%,0.00%,0.00%,0.00%,0.00%,0.00%,0.00%,0.00%,0.00%,0.00%,0.00%,0.00%,0.00%,0.00%,0.00%,0.00%,0.00%,0.00%,0.00%,0.00%,0.00%,0.00%,0.00%,0.00%,0.00%,0.00%
November,01:00 - 01:59,0.00%,0.00%,0.00%,0.00%,0.00%,0.00%,0.00%,0.00%,0.00%,0.00%,0.00%,0.00%,0.00%,0.00%,0.00%,0.00%,0.00%,0.00%,0.00%,0.00%,0.00%,0.00%,0.00%,0.00%,0.00%,0.00%
November,02:00 - 02:59,0.00%,0.00%,0.00%,0.00%,0.00%,0.00%,0.00%,0.00%,0.00%,0.00%,0.00%,0.00%,0.00%,0.00%,0.00%,0.00%,0.00%,0.00%,0.00%,0.00%,0.00%,0.00%,0.00%,0.00%,0.00%,0.00%
December,03:00 - 03:59,0.00%,0.00%,0.00%,0.00%,0.00%,0.00%,0.00%,0.00%,0.00%,0.00%,0.00%,0.00%,0.00%,0.00%,0.00%,0.00%,0.00%,0.00%,0.00%,0.00%,0.00%,0.00%,0.00%,0.00%,0.00%,0.00%
December,04:00 - 04:59,0.14%,0.00%,0.42%,0.00%,0.49%,0.00%,0.38%,0.00%,0.04%,0.00%,0.01%,0.00%,0.08%,0.00%,0.01%,0.00%,0.00%,0.00%,0.00%,0.00%,0.00%,0.00%,0.00%,0.00%,0.00%,0.00%
December,05:00 - 05:59,4.95%,0.39%,4.28%,0.72%,4.42%,0.72%,4.24%,0.89%,1.10%,0.91%,0.86%,1.50%,1.92%,1.66%,1.86%,1.93%,2.34%,2.17%,0.80%,2.83%,0.82%,2.58%,1.45%,3.21%,2.06%,1.91%
December,06:00 - 06:59,10.12%,1.86%,10.08%,3.55%,7.86%,3.36%,4.69%,3.06%,2.94%,4.14%,2.82%,4.49%,4.67%,4.77%,5.05%,4.97%,6.33%,5.36%,2.46%,8.36%,2.56%,6.75%,4.24%,8.93%,5.44%,4.56%
December,07:00 - 07:59,11.07%,2.97%,8.95%,6.14%,6.46%,6.93%,4.28%,4.40%,5.09%,9.66%,4.94%,7.80%,6.32%,7.08%,7.98%,7.90%,8.17%,5.94%,3.69%,13.44%,3.36%,9.36%,6.24%,12.06%,8.74%,5.38%
December,08:00 - 08:59,10.31%,3.31%,8.04%,6.15%,6.66%,6.57%,4.59%,5.13%,5.81%,12.65%,4.93%,11.07%,6.25%,8.94%,7.40%,8.08%,8.14%,6.29%,3.14%,13.98%,2.95%,10.07%,5.90%,12.75%,8.45%,5.85%
December,09:00 - 09:59,8.37%,3.84%,7.00%,4.97%,6.99%,5.55%,5.45%,5.25%,5.41%,12.56%,3.86%,10.37%,5.82%,8.41%,5.83%,7.35%,7.56%,6.16%,3.47%,9.07%,2.92%,9.36%,5.16%,9.35%,6.94%,5.87%
December,10:00 - 10:59,5.82%,3.55%,5.47%,3.92%,6.07%,4.97%,5.69%,4.70%,4.95%,9.50%,3.54%,7.11%,4.95%,6.51%,5.20%,5.35%,6.35%,5.11%,3.64%,6.30%,2.83%,7.09%,4.19%,6.09%,5.36%,5.69%
December,11:00 - 11:59,5.58%,3.90%,5.16%,3.52%,5.91%,4.27%,5.81%,4.71%,5.12%,6.80%,3.92%,5.94%,5.03%,5.53%,4.88%,4.36%,5.92%,4.52%,4.08%,4.65%,3.14%,6.54%,4.09%,4.92%,5.09%,5.37%
December,12:00 - 12:59,5.59%,4.15%,5.25%,3.58%,5.91%,4.43%,6.13%,5.09%,5.00%,5.55%,4.24%,6.10%,5.53%,5.71%,4.97%,4.89%,5.92%,5.09%,3.99%,4.78%,3.62%,6.09%,4.13%,4.81%,5.30%,5.55%
December,13:00 - 13:59,4.96%,4.43%,5.03%,3.98%,5.50%,4.79%,6.26%,5.23%,5.39%,5.61%,4.70%,6.35%,5.33%,5.42%,5.06%,4.99%,5.79%,5.04%,4.09%,5.16%,3.90%,5.54%,4.03%,4.68%,5.22%,5.66%
December,14:00 - 14:59,4.08%,4.86%,4.52%,4.04%,5.27%,4.86%,6.30%,5.41%,5.84%,5.28%,5.62%,5.41%,5.57%,5.34%,5.28%,4.49%,5.72%,5.28%,5.27%,4.75%,4.53%,4.85%,4.47%,4.37%,5.18%,5.64%
December,15:00 - 15:59,3.75%,5.51%,4.64%,4.80%,5.25%,5.15%,6.29%,5.88%,6.63%,4.72%,6.56%,5.00%,6.23%,4.91%,5.54%,4.89%,5.37%,5.61%,6.68%,3.65%,5.67%,4.20%,5.23%,3.93%,5.37%,5.75%
December,16:00 - 16:59,3.78%,7.30%,5.32%,6.17%,6.30%,6.31%,6.57%,6.87%,7.99%,4.39%,8.08%,4.74%,7.04%,5.40%,6.35%,4.91%,5.89%,6.32%,8.56%,2.95%,7.67%,4.00%,7.33%,3.75%,6.10%,6.09%
December,17:00 - 17:59,4.45%,9.36%,7.25%,8.14%,8.53%,7.82%,7.58%,8.01%,11.75%,4.22%,11.04%,5.03%,7.90%,5.92%,8.01%,5.91%,6.05%,7.12%,13.23%,3.50%,10.37%,5.02%,11.09%,4.04%,7.15%,7.31%
December,18:00 - 18:59,4.46%,10.99%,6.50%,9.26%,6.66%,8.39%,7.96%,8.66%,9.72%,3.92%,12.06%,5.40%,8.08%,6.30%,8.06%,7.05%,5.35%,7.60%,13.22%,3.56%,11.66%,5.23%,10.97%,4.30%,6.98%,8.10%
December,19:00 - 19:59,4.58%,11.20%,5.07%,9.57%,4.98%,8.20%,6.89%,8.69%,6.99%,3.64%,9.20%,4.92%,6.98%,6.07%,6.89%,7.24%,5.15%,7.31%,10.12%,3.65%,10.60%,4.97%,8.77%,4.11%,6.27%,7.59%
December,20:00 - 20:59,4.44%,9.39%,3.92%,8.77%,4.02%,7.46%,5.84%,7.69%,5.39%,2.91%,6.76%,4.33%,6.04%,5.56%,5.62%,7.30%,4.50%,6.87%,6.74%,4.28%,10.68%,4.17%,6.80%,4.16%,5.11%,6.66%
December,21:00 - 21:59,3.44%,7.06%,2.89%,7.41%,2.49%,5.94%,4.43%,6.25%,4.00%,2.23%,5.07%,3.39%,4.60%,4.55%,4.02%,6.12%,3.55%,6.01%,4.49%,3.93%,8.94%,3.15%,4.26%,3.24%,4.00%,4.91%
December,22:00 - 22:59,0.10%,4.88%,0.21%,4.81%,0.23%,3.99%,0.63%,3.96%,0.81%,1.29%,1.81%,1.06%,1.66%,1.91%,1.97%,2.26%,1.88%,2.20%,2.30%,1.16%,3.74%,1.03%,1.68%,1.29%,1.25%,2.07%
December,23:00 - 23:59,0.00%,1.06%,0.00%,0.51%,0.00%,0.30%,0.00%,0.11%,0.01%,0.02%,0.00%,0.01%,0.01%,0.01%,0.01%,0.01%,0.00%,0.01%,0.01%,0.00%,0.01%,0.00%,0.01%,0.00%,0.00%,0.03%
December,00:00 - 00:59,0.00%,0.00%,0.00%,0.00%,0.00%,0.00%,0.00%,0.00%,0.00%,0.00%,0.00%,0.00%,0.00%,0.00%,0.00%,0.00%,0.00%,0.00%,0.00%,0.00%,0.00%,0.00%,0.00%,0.00%,0.00%,0.00%
December,01:00 - 01:59,0.00%,0.00%,0.00%,0.00%,0.00%,0.00%,0.00%,0.00%,0.00%,0.00%,0.00%,0.00%,0.00%,0.00%,0.00%,0.00%,0.00%,0.00%,0.00%,0.00%,0.00%,0.00%,0.00%,0.00%,0.00%,0.00%
December,02:00 - 02:59,0.00%,0.00%,0.00%,0.00%,0.00%,0.00%,0.00%,0.00%,0.00%,0.00%,0.00%,0.00%,0.00%,0.00%,0.00%,0.00%,0.00%,0.00%,0.00%,0.00%,0.00%,0.00%,0.00%,0.00%,0.00%,0.00%
