month,time,north_avenue_entry,north_avenue_exit,quezon_avenue_entry,quezon_avenue_exit,gma_kamuning_entry,gma_kamuning_exit,cubao_entry,cubao_exit,santolan_entry,santolan_exit,ortigas_entry,ortigas_exit,shaw_blvd_entry,shaw_blvd_exit,boni_avenue_entry,boni_avenue_exit,guadalupe_entry,guadalupe_exit,buendia_entry,buendia_exit,ayala_avenue_entry,ayala_avenue_exit,magallanes_entry,magallanes_exit,taft_entry,taft_exit,,
January,03:00 - 03:59,0,0,0,0,0,0,0,0,0,0,0,0,0,0,0,0,0,0,0,0,0,0,0,0,0,0,,
January,04:00 - 04:59,2680,0,4329,0,2786,0,5657,4,108,3,144,8,915,0,96,0,201,0,0,0,0,0,0,0,9,0,,
January,05:00 - 05:59,110795,5006,43706,6494,24021,2865,45464,11500,2667,3020,4534,11686,24639,20840,10214,11282,19548,14352,3157,13857,6441,30443,13046,19450,43856,34958,,
January,06:00 - 06:59,158942,24115,83756,31918,44609,12583,44763,35943,7659,11500,16034,34203,57749,58368,26705,27829,51559,33384,10695,38783,24975,80148,35915,51587,112286,81198,,
January,07:00 - 07:59,171486,38188,82654,59074,48788,26600,42899,51744,14326,25670,29517,58708,81279,85910,46158,45760,72098,40491,15738,57809,35239,103768,56262,69959,188043,95350,,
January,08:00 - 08:59,164443,40539,75402,63407,45930,26315,50803,59618,15261,33476,28212,82248,78048,107148,39420,47833,69700,40937,13734,60657,30964,113012,52094,77641,177474,103293,,
January,09:00 - 09:59,158915,46896,64757,48820,40234,21725,56533,59468,14429,34278,22287,75000,69489,100881,30502,44778,62354,37807,14671,42899,31010,111504,43401,56856,135512,102512,,
January,10:00 - 10:59,112204,41719,51130,36214,30887,18790,64747,53487,12250,25606,19925,54469,58564,81790,26799,34210,51759,36142,15771,30704,28428,87178,34488,38599,108551,99401,,
January,11:00 - 11:59,106193,47755,46864,33695,30191,16008,67181,55014,12923,18067,21765,45123,61207,72574,25146,27367,48439,35133,17447,23747,30763,79801,33650,31382,104409,98346,,
January,12:00 - 12:59,96866,48503,44729,35557,29050,16415,69312,55693,11930,14698,21974,45431,63003,71640,25287,28499,47787,36045,17235,22944,34422,69287,32743,29933,105576,103108,,
January,13:00 - 13:59,86244,47092,42378,35783,25982,17443,70262,55840,12684,15180,23675,44312,61295,65312,24987,29322,45724,35079,17181,25214,38937,62299,32252,29700,104463,98414,,
January,14:00 - 14:59,69682,55386,39299,38488,26000,17674,68100,63942,14132,13796,29153,37441,64451,61326,27550,26286,43580,36653,22339,22022,46431,58217,37003,27191,104485,100879,,
January,15:00 - 15:59,62031,67288,40741,46230,24568,18675,68895,69631,14779,12552,34284,33957,72872,60580,28506,28951,42675,39646,28976,16187,59993,50881,43366,22704,110665,105209,,
January,16:00 - 16:59,64653,81358,47658,56133,30683,22272,71361,79839,18880,11097,40550,30821,81016,63226,33237,29136,49127,44568,37945,13322,76100,46214,62357,21424,125396,113056,,
January,17:00 - 17:59,79987,99580,64988,72172,43663,26664,81884,90144,28438,10838,58783,32143,89147,72717,39824,32957,46582,45647,55656,15139,97742,54066,90352,24648,141043,136601,,
January,18:00 - 18:59,79308,120955,60073,82775,34496,29494,87777,99344,23681,9633,60596,35515,85605,74421,39334,39827,44109,50159,52049,15016,100312,57000,89144,26411,141441,152384,,
January,19:00 - 19:59,82670,121605,46421,90231,25214,30700,76340,101804,17419,8800,46751,33449,79280,72647,34982,40778,39936,50429,42956,16553,93727,54469,73742,26185,119705,147576,,
January,20:00 - 20:59,77430,109583,36431,85763,20040,29553,64963,95475,14410,7570,34880,30892,69307,67606,29658,40966,35622,46104,28295,19359,98043,50484,55079,25448,97779,119419,,
January,21:00 - 21:59,64760,79605,26085,67697,11767,21712,48013,74710,6408,5839,22706,24783,52765,56210,21374,35906,29729,39267,18752,17745,86181,37304,34304,20686,74393,87203,,
January,22:00 - 22:59,1319,48319,1547,38397,1017,12318,5150,38976,1005,2601,8441,6126,16000,18967,8531,10285,12065,12260,8945,4798,28951,10816,13098,7059,22407,30012,,
January,23:00 - 23:59,1,5329,3,1776,6,338,2,192,1,9,0,2,5,11,0,2,2,6,1,1,1,1,1,1,2,37,,
January,00:00 - 00:59,0,0,0,0,0,0,0,0,0,0,0,0,0,0,0,0,0,0,0,0,0,0,0,0,0,0,,
January,01:00 - 01:59,0,0,0,0,0,0,0,0,0,0,0,0,0,0,0,0,0,0,0,0,0,0,0,0,0,0,,
January,02:00 - 02:59,0,0,0,0,0,0,0,0,0,0,0,0,0,0,0,0,0,0,0,0,0,0,0,0,0,0,,
February,03:00 - 03:59,0,0,0,0,0,0,1,1,0,0,0,0,0,0,0,0,0,0,0,0,0,0,0,0,0,0,,
February,04:00 - 04:59,8248,0,4496,2,2795,4,6090,38,165,12,204,98,962,168,355,71,469,57,38,91,92,141,242,138,410,177,,
February,05:00 - 05:59,105892,4915,44117,6443,24374,3026,45900,14046,2576,2803,4422,12421,22973,22858,9942,13141,19147,12914,3397,16648,6282,32567,12602,21047,42732,33422,,
February,06:00 - 06:59,143868,24222,88403,32111,49426,13237,45253,45628,7826,11417,16309,33866,54471,58169,27339,30401,52967,34062,11043,43309,25592,84921,37346,55718,116102,81788,,
February,07:00 - 07:59,145519,40211,72752,60278,58546,27167,49824,62020,15153,24924,28799,57678,74890,87602,44913,46940,66571,41540,16005,69144,35572,114285,54728,73570,176744,96769,,
February,08:00 - 08:59,156846,41872,76870,62435,54707,25235,55556,70062,15118,32262,26909,81579,72708,109204,38929,47228,66828,42204,13913,70477,32984,113337,51317,78128,170262,97326,,
February,09:00 - 09:59,143362,48524,62932,51052,38375,22102,57771,72034,13888,31798,21403,74052,66211,103960,31262,42444,60077,37578,14129,46405,32476,105664,41952,54774,138949,92349,,
February,10:00 - 10:59,107274,44540,47887,37436,30607,17723,64643,61412,11430,24125,19242,50501,56337,82727,26299,33197,50009,36081,15766,34518,30072,81270,32917,39314,106434,90620,,
February,11:00 - 11:59,103835,46667,46059,33486,28950,15318,67753,62918,11826,17042,21110,44210,58924,75368,25201,27486,47291,34524,17153,27728,31623,78756,31681,31485,102292,93559,,
February,12:00 - 12:59,97209,48638,43847,34826,28354,15656,68077,63895,11104,13701,21503,43273,60233,72689,25263,27332,45747,34906,17505,26188,35974,65452,31822,29521,101910,94796,,
February,13:00 - 13:59,84317,47694,41391,37095,25139,17130,67324,66380,11590,13914,22559,43679,57071,67791,24265,28793,43865,35061,17158,28986,37840,61319,30490,28732,97269,94118,,
February,14:00 - 14:59,68393,52434,38923,38508,24290,16823,64372,71616,12645,12650,27376,36356,58982,61532,26408,25778,42442,35908,20948,24021,45298,52331,35556,25706,100059,90365,,
February,15:00 - 15:59,59045,67101,40077,45061,23921,17977,64631,81100,13888,11329,33388,33329,66378,59768,27573,27833,41742,39267,28555,17001,58935,44049,41261,22318,104085,96746,,
February,16:00 - 16:59,61834,87485,47712,56664,29150,21752,68315,94780,17933,10517,39584,31346,74542,64501,33055,28897,49304,45892,37189,14142,75195,42782,60940,21703,120357,108876,,
February,17:00 - 17:59,75811,112089,65239,77766,42176,28693,81940,114010,26759,10430,56664,32873,84643,73509,41453,33767,52398,46763,56342,15697,103080,50904,96628,23720,135841,129864,,
February,18:00 - 18:59,77826,119310,57744,84065,32693,28969,84376,120179,22950,9298,58825,34598,83029,74535,38497,38880,46265,49124,52901,16493,105422,53534,89688,26081,139809,143170,,
February,19:00 - 19:59,79246,122465,46085,88120,24375,31166,72467,125373,16591,8354,44995,31629,74028,72443,32339,40602,40892,48874,40547,15862,102934,48020,70819,24477,119133,135823,,
February,20:00 - 20:59,77629,106599,37291,83573,20081,26996,62821,107062,13003,7155,32458,30144,63283,68480,29836,39809,36553,44459,27756,19365,94396,47519,51996,24578,95447,110651,,
February,21:00 - 21:59,64803,79283,27959,62327,12609,19274,46767,81779,6031,5166,22952,24243,48544,56769,21252,34691,29457,38097,18560,19363,83855,38118,33104,20213,72734,79389,,
February,22:00 - 22:59,1100,51904,1194,38982,880,12161,4294,47646,1060,2569,8300,6054,14812,18902,8787,9751,12600,13001,8825,5216,31707,11500,12982,7131,20067,29498,,
February,23:00 - 23:59,4,4499,5,1271,3,267,5,433,1,12,2,15,6,46,0,17,1,27,0,0,0,3,0,3,0,31,,
February,00:00 - 00:59,0,0,0,0,0,0,0,0,0,0,0,0,0,0,0,0,0,0,0,0,0,0,0,0,0,0,,
February,01:00 - 01:59,0,0,1,1,0,0,0,0,0,0,1,1,0,0,0,0,0,0,0,0,0,0,0,0,0,0,,
February,02:00 - 02:59,0,0,0,0,0,0,0,0,0,0,0,0,0,0,0,0,0,0,0,0,0,0,0,0,0,0,,
March,03:00 - 03:59,0,0,0,0,0,0,0,0,1,1,0,0,0,0,0,0,0,0,0,0,0,0,0,0,0,0,,
March,04:00 - 04:59,8403,0,3473,4,2128,5,4899,71,170,17,136,240,1336,625,259,311,456,392,142,221,207,540,437,453,625,328,,
March,05:00 - 05:59,50902,3703,21408,3810,11708,1711,20588,6707,1326,1440,2621,6138,11447,11461,5307,6951,10655,6762,1957,7750,2814,14936,7118,9838,21602,19062,,
March,06:00 - 06:59,72319,13693,47432,16245,24254,6358,23555,20729,3966,6145,8743,17149,28140,29115,14062,15356,26420,18052,5545,21003,11060,39711,18965,26052,58210,39768,,
March,07:00 - 07:59,74524,20672,41054,31057,27529,13478,22606,30504,7775,12684,14372,29788,37376,42319,21699,23266,33362,21288,7933,31926,15932,49924,27433,34674,88823,45960,,
March,08:00 - 08:59,75638,20990,39597,30803,25047,11540,26930,32036,7440,15119,13281,39905,34917,52806,18757,23649,33677,21389,6680,31528,15094,50593,24979,35438,77752,49175,,
March,09:00 - 09:59,70027,23527,31172,24588,18069,10339,28002,33092,6534,15446,10335,35968,32003,48289,15078,20820,30098,19247,7175,21083,14371,47863,20720,24712,64379,45428,,
March,10:00 - 10:59,51651,21517,23736,18982,14454,8888,30241,30534,5699,11699,8983,25065,26865,39471,12917,16313,25504,20095,7447,15913,13868,37244,15915,18200,48867,45088,,
March,11:00 - 11:59,51673,23925,22487,16943,14354,7782,32998,31125,5786,8055,9815,21002,27565,35549,12270,13334,24024,20033,8255,11748,14387,37160,15207,15106,49079,46259,,
March,12:00 - 12:59,48074,24294,21955,16909,13600,7586,32572,33569,5238,6817,10410,21378,29456,35663,12128,13565,23099,18996,8534,11489,16589,30833,15221,13274,47927,45776,,
March,13:00 - 13:59,41836,22917,19956,18003,12615,7885,33394,32526,5729,6865,10801,20834,28121,31978,11961,14585,21226,19188,8047,12457,17276,31424,14972,14189,47988,46363,,
March,14:00 - 14:59,33381,25711,18450,19389,11677,7980,32139,34075,6247,6147,13404,17168,28485,29038,12788,12905,20376,18505,10344,10574,21277,24520,17250,12037,46765,45385,,
March,15:00 - 15:59,29623,33291,19244,22734,11569,8862,32125,41050,6783,5594,16304,16056,32154,28843,13844,12902,19437,22697,13738,7956,28298,22375,20511,10711,49433,47033,,
March,16:00 - 16:59,30873,41812,23506,27496,14182,10274,34009,45617,8478,4845,19445,15004,35867,30333,15846,13443,22507,25958,18038,6613,39253,21738,29282,9540,61081,51803,,
March,17:00 - 17:59,38033,51996,31701,37111,20375,13160,38934,53273,12756,4900,27253,16238,40217,34686,18239,16018,20993,27691,21229,7241,45213,23031,40841,10805,67952,62958,,
March,18:00 - 18:59,38524,55964,28715,42404,15513,13883,41191,56612,11070,4218,28233,16583,40157,33874,17575,17269,20475,25853,20218,7684,49090,25186,40119,12197,67023,76328,,
March,19:00 - 19:59,39943,52907,22877,42181,12249,13511,36260,52493,8188,3566,21142,15109,35494,33594,15315,19225,18101,27314,18055,8010,46701,23924,35555,11610,58007,66636,,
March,20:00 - 20:59,37305,48496,17544,40963,9505,12627,29807,50273,6111,3518,15270,13972,29609,31966,14291,19715,17049,24466,12869,9286,45919,23696,26387,12021,45503,57193,,
March,21:00 - 21:59,30307,35757,12551,27368,5752,8811,22311,37145,2856,2352,11141,10398,22665,25932,9605,15485,13513,20177,8298,7975,39965,17315,15872,8868,35506,37717,,
March,22:00 - 22:59,1944,27262,1497,20744,675,6113,2919,23861,674,1386,4604,3157,8984,10283,4771,5698,7404,8527,4755,2672,16939,6208,7441,3612,12896,18512,,
March,23:00 - 23:59,0,4260,2,1843,6,371,11,998,8,63,40,61,131,335,118,118,182,83,74,3,210,4,77,10,18,165,,
March,00:00 - 00:59,1,0,0,0,0,0,0,0,0,0,0,0,0,0,0,0,1,0,0,0,0,0,0,0,0,0,,
March,01:00 - 01:59,0,0,0,0,0,0,0,0,0,0,0,0,3,0,0,0,0,0,0,0,0,0,0,0,0,0,,
March,02:00 - 02:59,0,0,0,0,0,0,0,0,0,0,0,0,0,0,0,0,0,0,0,0,0,0,0,0,0,0,,
May,03:00 - 03:59,0,0,0,0,0,0,0,0,0,0,0,0,0,0,0,0,0,0,0,0,0,0,0,0,0,0,,
May,04:00 - 04:59,16662,2,7555,3,4065,14,9092,152,419,24,403,311,2772,949,685,388,984,547,172,491,404,940,995,658,3324,869,,
May,05:00 - 05:59,104627,8194,46575,9148,23831,3695,45335,17643,2584,3381,5933,13247,26025,23880,12418,15063,22657,17256,5030,17161,10319,33787,15262,21017,52296,47155,,
May,06:00 - 06:59,147435,31275,77153,35570,40621,14399,56542,51063,6584,12272,14957,32471,54662,57809,27623,30408,52891,33794,10975,41224,27391,83963,39209,53209,127735,90680,,
May,07:00 - 07:59,158779,45223,68654,58646,42363,25664,55003,66988,10928,22508,21649,48425,65698,81982,37353,43384,65004,36363,14369,62391,30968,105987,47573,70262,171044,92362,,
May,08:00 - 08:59,156727,44512,65571,53604,36572,21515,60789,72296,10680,26311,20730,68468,66152,106440,35435,45235,67351,38315,12158,60415,27427,109657,44939,68221,161864,94804,,
May,09:00 - 09:59,138104,50443,55202,42115,31301,18708,62275,74731,11006,27929,17719,62247,62108,98302,31064,40329,61690,38089,12945,37955,26973,103716,37834,43975,132404,87942,,
May,10:00 - 10:59,102250,48793,43845,34089,27270,15258,64544,67463,10258,20469,16457,44945,52377,82711,27067,29510,50584,37332,14530,26692,27326,79893,31131,31831,109717,91397,,
May,11:00 - 11:59,103607,56075,43874,32859,27076,14324,69640,71460,10859,14815,18481,40186,57595,75459,26329,25104,48500,38148,15618,23321,32170,78173,30919,27360,103195,96210,,
May,12:00 - 12:59,101756,60602,43752,35067,26756,14536,71907,75764,10537,12584,20837,42498,59255,77853,26653,27047,48876,38078,17371,21864,40769,70013,31341,25798,108232,97384,,
May,13:00 - 13:59,87634,57751,39270,36317,24516,15295,70145,75682,10650,12079,21077,40325,58276,68044,25759,26898,45142,35590,16518,23791,39684,58740,30631,25791,102133,97018,,
May,14:00 - 14:59,73846,62005,37674,36799,23595,14916,68333,79364,11471,11630,25183,35045,58280,60450,27105,25688,42852,34574,20454,20387,44881,51036,35227,22885,100769,98371,,
May,15:00 - 15:59,64416,76168,39154,43768,23360,17236,66440,90811,12680,10611,30476,31841,66412,61048,29292,24654,42458,39307,26428,15135,58148,46276,42055,20578,102922,101838,,
May,16:00 - 16:59,69938,96037,45540,57211,28238,20516,73406,105991,15775,9493,38546,30198,76320,64176,35786,25527,50216,43118,34135,13246,81937,43032,61181,19970,123967,118836,,
May,17:00 - 17:59,84611,123283,63497,77114,39098,26693,81997,127418,26138,9721,51764,33734,86345,74614,42906,32074,50890,42090,43651,14701,105334,46890,89195,21831,142964,144630,,
May,18:00 - 18:59,87157,135301,57388,87745,31815,28460,87176,136088,22247,8638,55867,33415,85292,72858,41336,35322,45535,46334,35432,16440,97530,50911,81291,25383,140789,159654,,
May,19:00 - 19:59,85272,118888,43562,81606,23345,26129,73456,124584,16202,7197,41888,30664,73077,70175,31898,37817,40491,46528,30740,17247,100781,45229,68968,23341,121926,145768,,
May,20:00 - 20:59,73750,102958,31536,74515,17125,23476,58098,109808,11812,6070,28014,25233,59632,62206,25703,37663,33465,39118,22683,17269,89471,41308,51988,21651,91842,118010,,
May,21:00 - 21:59,55568,76100,21695,57001,10007,17862,41041,87332,6319,4799,20562,17163,44355,45858,17861,26833,26542,35295,14081,14294,81724,28619,30478,15849,67334,81775,,
May,22:00 - 22:59,328,53593,612,35558,555,11142,3728,49616,1146,2235,7913,4382,16671,16181,8971,8865,11869,13016,7174,3695,35098,8534,11942,5115,21123,30445,,
May,23:00 - 23:59,2,4898,3,855,0,95,3,133,2,2,1,4,1,11,0,3,0,0,0,0,0,3,0,0,2,0,,
May,00:00 - 00:59,0,0,0,0,0,0,0,0,0,0,0,0,0,0,0,0,0,0,0,0,0,0,0,0,0,0,,
May,01:00 - 01:59,0,0,0,0,0,0,0,0,0,0,0,0,0,0,0,0,0,0,0,0,0,0,0,0,0,0,,
May,02:00 - 02:59,0,0,0,0,0,0,0,0,0,0,0,0,0,0,0,0,0,0,0,0,3,6,0,0,0,0,,
June,03:00 - 03:59,0,0,0,0,0,0,0,0,0,0,0,0,0,0,0,0,0,0,0,0,0,0,0,0,0,0,0,0
June,04:00 - 04:59,16978,2,6761,16,3844,12,8982,168,374,35,429,324,2929,927,667,460,1115,917,243,562,422,1113,714,767,3119,893,46577.36179,6197.52707
June,05:00 - 05:59,105891,7411,45601,9727,24026,3885,46284,16144,2878,3407,5931,12415,24650,24817,14125,14644,22603,16513,4864,16260,9211,32755,14457,20234,49111,42836,369632.6325,221047.3292
June,06:00 - 06:59,156678,27087,72420,32893,40528,12994,54493,48711,7928,12689,14321,31893,50446,58015,28939,33162,56331,33571,10168,39165,26685,80466,36813,52370,120941,90206,676692.9948,553222.4468
June,07:00 - 07:59,172346,40430,67839,56955,46865,25539,57513,63926,12142,24484,22010,53511,67638,85157,42088,45760,64154,36274,14441,65732,31917,111118,47609,72658,172849,91409,819412.0462,772952.3495
June,08:00 - 08:59,166236,42719,66266,54490,42037,22660,60560,69633,11751,28388,21439,73319,65544,108914,37000,46885,62588,35830,11751,62724,27508,108733,43669,69555,164897,92160,781247.1889,816008.8366
June,09:00 - 09:59,134974,45989,52858,41945,32859,17962,62119,69942,10957,27885,17927,62274,57687,99419,29074,42430,55533,34057,12594,41466,26826,100345,37035,48197,127365,86392,657809.2705,718304.1507
June,10:00 - 10:59,93363,39933,39710,32441,26048,14648,58296,58742,10112,19277,15862,41705,48444,79774,25567,28983,46840,31257,14233,26141,26784,68867,28917,30698,93274,72405,527450.2622,544871.5373
June,11:00 - 11:59,90676,44933,40064,30189,25031,12950,62448,61350,10559,13613,17378,35659,52229,73724,25027,25397,44403,33181,15606,22831,28930,69117,27935,26006,95147,82178,535432.4424,531126.8354
June,12:00 - 12:59,93246,47885,41320,31798,25837,13641,64539,66037,10325,11840,18532,38084,52045,71589,26990,27369,44707,34092,16003,21742,33414,62472,28198,26115,94086,86857,549242.7385,539519.7889
June,13:00 - 13:59,79524,45905,36994,34050,23305,13915,64039,66808,10036,12271,19777,36688,50470,63387,26648,27494,42723,32593,15525,24132,33850,55878,28064,25002,90274,85110,521230.9354,523233.0079
June,14:00 - 14:59,65014,50215,36156,35282,22638,13933,59450,69891,11198,11281,23077,31037,51250,59732,28118,25394,39358,34726,19984,21080,41766,48177,33081,21559,91429,85691,522520.0939,507997.3145
June,15:00 - 15:59,54805,65206,37346,39652,22055,15245,60157,79019,12648,10355,28269,28853,59554,59203,28225,25617,38110,37425,24748,14989,54094,40936,37736,19461,91775,90807,549522.9356,526769.2349
June,16:00 - 16:59,59041,81426,42285,51203,26986,18386,67164,98480,16156,9321,35581,27073,68803,62481,35148,26058,46273,39084,32822,12933,76355,39899,57076,17998,114061,104319,677750.9257,588661.8738
June,17:00 - 17:59,77184,113118,63026,72822,38990,24304,78537,117106,25446,9398,51284,31213,81319,72635,43163,33150,44551,44292,45237,15302,99397,46471,86461,22629,136764,134244,871358.3758,736683.7258
June,18:00 - 18:59,78793,135405,53530,86425,30208,26110,76319,129379,21972,8719,56954,32673,80829,73801,42132,35812,43007,48104,39760,15841,97034,44786,78863,23675,138543,149723,837943.1852,810453.1058
June,19:00 - 19:59,79833,133190,44282,86075,23464,26708,71100,127329,16317,7954,41323,30989,73261,74501,35459,42142,38444,48281,33954,17611,102531,44728,73565,23908,122342,144909,755876.0113,808324.507
June,20:00 - 20:59,72300,103227,32487,75211,18176,23059,58452,103349,12115,6233,28583,26314,58309,64747,29372,41047,34853,39243,24086,18399,92425,40520,56719,22466,95293,108889,613168.9619,672703.5059
June,21:00 - 21:59,56337,77920,22766,57036,10066,17755,39809,83808,5025,4937,20069,18480,43876,49624,21332,29021,28077,36013,15478,15746,82489,29449,31490,17190,65355,80154,442170.1891,517132.3548
June,22:00 - 22:59,456,50631,805,36400,733,11374,3297,49305,936,2158,7652,4923,13264,16273,10260,9096,12892,13294,8064,4308,26894,8847,12739,5473,20209,26795,118200.3011,238876.0555
June,23:00 - 23:59,16,6058,13,1900,1,233,6,261,1,1,0,2,0,2,0,0,0,0,0,0,0,0,3,0,0,0,40.21193117,8457.283599
June,00:00 - 00:59,0,0,0,0,0,0,1,1,0,0,0,0,0,0,0,0,0,0,0,0,0,0,0,0,0,0,0.935193984,1.228981207
June,01:00 - 01:59,0,0,0,0,0,0,0,0,0,0,0,0,0,0,0,0,0,0,0,0,0,0,0,0,0,0,0,0
June,02:00 - 02:59,0,0,0,0,0,0,0,0,0,0,0,0,0,0,0,0,0,0,0,0,0,0,0,0,0,0,0,0
July,03:00 - 03:59,0,0,0,0,0,0,0,0,0,0,0,0,0,0,0,0,0,0,0,0,0,0,0,0,0,0,,
July,04:00 - 04:59,14688,0,6988,655,4404,310,10736,1084,358,28,903,784,2768,1156,825,530,862,685,170,605,521,973,622,788,1696,514,,
July,05:00 - 05:59,99515,7362,46221,9568,24245,3790,48386,17213,2976,3388,5855,12881,26463,25503,15584,15245,26740,15694,5272,17380,11928,34498,15045,23574,50372,43057,,
July,06:00 - 06:59,177332,29123,80970,35141,46233,13081,63105,52815,7465,13180,14638,33918,54201,65659,32593,35161,60078,32344,10954,42836,31300,87634,37276,56915,119183,95255,,
July,07:00 - 07:59,188965,44127,71799,59416,54704,27023,59209,69727,13850,26797,23285,60172,77221,94386,47399,51293,77966,37012,15672,68540,36883,121553,51636,80893,182387,100956,,
July,08:00 - 08:59,188046,44875,70854,57552,49464,23139,64013,73459,13840,32569,23443,84678,71524,121827,41990,52961,73355,36713,12571,70581,30421,121409,47557,82244,172466,101703,,
July,09:00 - 09:59,152904,47252,59157,43475,40320,18854,67138,75558,12708,32045,20059,72125,62986,114308,32283,46652,62461,35541,12809,45787,28519,108311,38515,55959,140402,94241,,
July,10:00 - 10:59,106269,45737,45312,36104,29024,15953,64151,66780,11613,22410,17591,47866,52797,89597,27959,34094,51388,32564,14508,30615,27927,86550,30673,34951,105844,89667,,
July,11:00 - 11:59,102616,47359,42731,31331,27662,13371,66118,66100,11465,15446,19730,39717,54666,78088,26783,28235,49603,31630,16236,24315,31459,79119,29504,27386,99995,85758,,
July,12:00 - 12:59,96040,50218,42674,32371,26504,14538,66671,71774,10896,13006,19781,41002,56171,78674,28450,29499,47699,34861,16649,24306,34462,66490,29492,27316,99510,92697,,
July,13:00 - 13:59,85223,49556,38817,34801,24792,14679,67245,71650,11283,13387,21710,40282,54674,70807,26845,29513,46051,34917,16598,26000,38990,58227,29382,27034,94075,92968,,
July,14:00 - 14:59,68731,55723,36999,38192,23070,14626,63656,78214,12620,12413,25116,35061,55158,64625,26775,27943,42364,34915,21422,21979,46907,49548,35145,22023,97395,90205,,
July,15:00 - 15:59,61558,65939,37963,40190,23359,16899,64413,85881,14053,11041,30434,30213,63251,63526,29409,26849,41085,34105,26911,15196,62424,40752,41499,20172,100309,92894,,
July,16:00 - 16:59,65376,94040,45402,54252,29804,20825,69840,103205,17803,10052,38524,30796,74632,69108,36952,29582,47564,37935,35246,13108,80822,39710,61002,19787,115415,102200,,
July,17:00 - 17:59,83729,119183,66096,77494,42075,27607,84614,126522,28511,10155,55001,35117,87480,78417,46956,37522,50338,45247,49506,16150,100154,47769,89678,23793,144784,134550,,
July,18:00 - 18:59,84495,139904,60412,92501,33467,29221,88428,143235,25060,9962,60627,37630,95078,82551,48333,43220,47921,51066,47000,17769,104101,51873,90170,27064,146843,160546,,
July,19:00 - 19:59,84263,133850,48072,90580,25258,28799,77345,138862,18471,8421,44485,34255,81263,76342,40394,47182,43904,49735,39507,19734,110396,51431,78147,27552,134194,146985,,
July,20:00 - 20:59,74639,110652,34417,82989,19191,24913,62621,115532,12945,6650,30400,28731,65630,71259,33695,45291,38119,40565,27706,20208,101341,45075,58804,24788,99038,120510,,
July,21:00 - 21:59,54161,77631,25534,62106,10588,19445,44389,90841,5782,5272,21471,19887,49754,50145,24016,32981,31497,37852,17885,16989,92159,31560,32624,19474,69027,84401,,
July,22:00 - 22:59,426,56801,869,41603,638,11938,3466,49686,1029,2641,8349,5707,16374,17338,9727,10291,13591,15061,9052,4440,34284,8896,13404,6427,21697,32544,,
July,23:00 - 23:59,8,6898,10,2663,5,400,13,782,3,35,3,8,0,26,2,8,0,0,0,0,2,0,2,0,0,4,,
July,00:00 - 00:59,0,0,0,0,0,0,0,0,0,0,0,0,0,0,0,0,0,0,0,0,0,0,0,0,0,0,,
July,01:00 - 01:59,0,0,0,0,0,0,0,0,0,0,0,0,0,0,0,0,0,0,0,0,4,2,0,0,0,0,,
July,02:00 - 02:59,0,0,0,0,0,0,0,0,0,0,0,0,0,0,0,0,0,0,0,0,0,0,0,0,0,0,,
August,03:00 - 03:59,0,0,0,0,0,0,0,0,0,0,0,0,0,0,0,0,0,0,0,0,0,0,0,0,0,0,,
August,04:00 - 04:59,10444,3,5197,110,2942,102,7473,516,286,32,330,238,2000,686,532,292,563,423,101,321,366,564,403,374,1217,298,,
August,05:00 - 05:59,66898,5697,33139,6751,17230,2839,37572,13890,2172,2169,4169,9019,20112,19162,11508,10675,20339,12713,3936,12188,9171,24168,11715,15928,37994,32691,,
August,06:00 - 06:59,113457,23361,54982,27411,30406,9312,47846,41316,5240,8778,10846,23266,39676,47646,24358,24632,46243,26381,9002,27571,23536,59561,27655,36562,85751,73036,,
August,07:00 - 07:59,120647,36242,52047,42497,34430,18315,46550,56880,9318,16624,15600,37716,53033,67278,32591,36125,57927,30172,12137,42398,27091,77456,35505,48839,126513,79589,,
August,08:00 - 08:59,132314,38050,52651,41883,32751,16505,53717,60668,10041,20013,15573,54280,53566,86632,29707,35788,57725,31009,9322,42036,23427,84111,34868,48221,123038,81613,,
August,09:00 - 09:59,112795,46233,45584,34662,28867,14044,55862,63931,9535,22406,13791,53184,50097,89366,26375,31786,53870,30388,9480,29382,22948,85278,30112,35127,108552,78839,,
August,10:00 - 10:59,86159,42449,37189,27887,23345,12025,54212,57631,8074,16601,12642,38281,43979,68756,22830,25516,45849,27599,9644,20457,22411,67566,24461,23988,87374,74142,,
August,11:00 - 11:59,85085,47537,36962,25864,22346,10797,59553,57967,8169,12264,14334,35433,47103,68047,23140,22164,44388,28914,10591,17041,25945,67791,24262,20133,87011,75895,,
August,12:00 - 12:59,80849,50142,37189,29097,21882,11442,61204,64173,8296,10124,15744,36216,49273,69681,24734,23247,44354,31310,11992,16375,31017,58115,28201,19761,89590,79956,,
August,13:00 - 13:59,71037,50772,34235,31564,19906,11751,61734,66731,8212,10292,16449,34830,48352,60797,23329,24132,43197,32380,12310,17603,33666,49714,26051,19816,86313,83677,,
August,14:00 - 14:59,60239,53943,31419,32256,18665,11857,59898,69232,8934,9499,19291,29996,48166,53652,23647,21733,40096,33890,14927,14092,38752,42652,28695,16505,86223,81825,,
August,15:00 - 15:59,56300,61977,32981,35230,19975,13693,58740,78383,9606,8370,23440,27621,53497,55340,24798,22020,39950,34356,18342,10896,49494,36858,33761,15190,92741,85331,,
August,16:00 - 16:59,59718,75917,37870,43336,23312,17800,63657,89250,11611,7925,29802,26327,61651,59485,29626,24308,44842,36138,23677,9414,61855,35654,46581,15662,109546,92765,,
August,17:00 - 17:59,72567,95891,50080,59817,30792,21765,72755,102143,18037,7786,37756,28645,68132,64408,33766,29457,44214,40740,29977,12142,71197,41056,59971,18321,120318,110982,,
August,18:00 - 18:59,72577,104261,44468,62750,24935,21399,73564,110056,15348,7217,39848,27875,69459,64129,33316,31794,41161,41359,25076,13542,72806,41947,55780,19845,114793,123242,,
August,19:00 - 19:59,73224,99688,36001,62632,19873,20850,66385,106257,12648,6390,32609,25966,62644,62851,27945,35224,37207,42075,22858,14628,78766,38386,50790,19707,106343,115195,,
August,20:00 - 20:59,62666,82451,26863,55638,15799,18038,54088,87397,10680,5017,23349,21004,51112,53920,22605,33296,31216,33728,16549,15700,69651,34836,39506,17943,82513,94015,,
August,21:00 - 21:59,48340,59660,18918,47329,8911,15297,38533,71163,5534,4279,16989,15530,40988,40621,17629,26687,25856,33320,11188,13042,68457,25010,25508,14064,60826,72520,,
August,22:00 - 22:59,561,46211,559,32479,535,9773,2744,40659,980,2174,6841,4570,14822,14774,6696,9148,11351,13637,5897,3492,27952,7750,9921,4951,17844,28119,,
August,23:00 - 23:59,6,4196,5,1322,3,433,4,380,0,6,0,2,0,18,1,1,0,0,0,0,1,0,0,0,0,2,,
August,00:00 - 00:59,0,0,0,0,0,0,0,0,0,0,0,0,0,0,0,0,0,0,0,0,0,0,0,0,0,0,,
August,01:00 - 01:59,0,0,0,0,0,0,0,0,0,0,0,0,0,0,0,0,0,0,0,0,0,0,0,0,0,0,,
August,02:00 - 02:59,0,0,0,0,0,0,0,0,0,0,0,0,0,0,0,0,0,0,0,0,0,0,0,0,0,0,,
