month,time,north_avenue_entry,north_avenue_exit,quezon_avenue_entry,quezon_avenue_exit,gma_kamuning_entry,gma_kamuning_exit,cubao_entry,cubao_exit,santolan_entry,santolan_exit,ortigas_entry,ortigas_exit,shaw_blvd_entry,shaw_blvd_exit,boni_avenue_entry,boni_avenue_exit,guadalupe_entry,guadalupe_exit,buendia_entry,buendia_exit,ayala_avenue_entry,ayala_avenue_exit,magallanes_entry,magallanes_exit,taft_entry,taft_exit
January,03:00 - 03:59,0.00%,0.00%,0.00%,0.00%,0.00%,0.00%,0.00%,0.00%,0.00%,0.00%,0.00%,0.00%,0.00%,0.00%,0.00%,0.00%,0.00%,0.00%,0.00%,0.00%,0.00%,0.00%,0.00%,0.00%,0.00%,0.00%
January,04:00 - 04:59,0.15%,0.00%,0.48%,0.00%,0.52%,0.00%,0.52%,0.00%,0.04%,0.00%,0.03%,0.00%,0.08%,0.00%,0.02%,0.00%,0.02%,0.00%,0.00%,0.00%,0.00%,0.00%,0.00%,0.00%,0.00%,0.00%
January,05:00 - 05:59,6.33%,0.44%,4.84%,0.70%,4.45%,0.78%,4.17%,1.00%,1.10%,1.14%,0.87%,1.63%,2.11%,1.72%,1.97%,1.94%,2.41%,2.13%,0.75%,3.03%,0.68%,2.63%,1.57%,3.20%,2.17%,1.93%
January,06:00 - 06:59,9.08%,2.14%,9.28%,3.43%,8.26%,3.42%,4.11%,3.12%,3.15%,4.35%,3.06%,4.77%,4.95%,4.82%,5.15%,4.78%,6.35%,4.95%,2.54%,8.49%,2.63%,6.93%,4.32%,8.50%,5.57%,4.49%
January,07:00 - 07:59,9.80%,3.38%,9.15%,6.35%,9.04%,7.23%,3.94%,4.49%,5.89%,9.71%,5.63%,8.20%,6.97%,7.09%,8.91%,7.86%,8.87%,6.01%,3.73%,12.66%,3.71%,8.97%,6.76%,11.53%,9.32%,5.27%
January,08:00 - 08:59,9.39%,3.59%,8.35%,6.81%,8.51%,7.15%,4.66%,5.17%,6.27%,12.67%,5.38%,11.48%,6.69%,8.84%,7.61%,8.22%,8.58%,6.07%,3.26%,13.28%,3.26%,9.77%,6.26%,12.79%,8.80%,5.71%
January,09:00 - 09:59,9.08%,4.15%,7.17%,5.25%,7.45%,5.90%,5.19%,5.16%,5.93%,12.97%,4.25%,10.47%,5.96%,8.32%,5.88%,7.69%,7.67%,5.61%,3.48%,9.39%,3.27%,9.64%,5.21%,9.37%,6.72%,5.67%
January,10:00 - 10:59,6.41%,3.70%,5.66%,3.89%,5.72%,5.10%,5.94%,4.64%,5.03%,9.69%,3.80%,7.60%,5.02%,6.75%,5.17%,5.88%,6.37%,5.36%,3.74%,6.72%,3.00%,7.54%,4.14%,6.36%,5.38%,5.49%
January,11:00 - 11:59,6.07%,4.23%,5.19%,3.62%,5.59%,4.35%,6.16%,4.77%,5.31%,6.84%,4.15%,6.30%,5.25%,5.99%,4.85%,4.70%,5.96%,5.21%,4.14%,5.20%,3.24%,6.90%,4.04%,5.17%,5.18%,5.44%
January,12:00 - 12:59,5.53%,4.30%,4.95%,3.82%,5.38%,4.46%,6.36%,4.83%,4.90%,5.56%,4.19%,6.34%,5.40%,5.91%,4.88%,4.90%,5.88%,5.35%,4.09%,5.02%,3.63%,5.99%,3.93%,4.93%,5.23%,5.70%
January,13:00 - 13:59,4.93%,4.17%,4.69%,3.85%,4.81%,4.74%,6.45%,4.85%,5.21%,5.74%,4.52%,6.19%,5.25%,5.39%,4.82%,5.04%,5.63%,5.20%,4.08%,5.52%,4.10%,5.39%,3.88%,4.89%,5.18%,5.44%
January,14:00 - 14:59,3.98%,4.91%,4.35%,4.14%,4.82%,4.80%,6.25%,5.55%,5.81%,5.22%,5.56%,5.23%,5.52%,5.06%,5.32%,4.52%,5.36%,5.44%,5.30%,4.82%,4.89%,5.03%,4.45%,4.48%,5.18%,5.58%
January,15:00 - 15:59,3.54%,5.96%,4.51%,4.97%,4.55%,5.07%,6.32%,6.04%,6.07%,4.75%,6.54%,4.74%,6.25%,5.00%,5.50%,4.97%,5.25%,5.88%,6.87%,3.54%,6.32%,4.40%,5.21%,3.74%,5.49%,5.82%
January,16:00 - 16:59,3.69%,7.21%,5.28%,6.03%,5.68%,6.05%,6.55%,6.93%,7.76%,4.20%,7.74%,4.30%,6.94%,5.22%,6.41%,5.01%,6.05%,6.61%,9.00%,2.92%,8.02%,3.99%,7.49%,3.53%,6.22%,6.25%
January,17:00 - 17:59,4.57%,8.82%,7.20%,7.76%,8.09%,7.24%,7.51%,7.82%,11.68%,4.10%,11.21%,4.49%,7.64%,6.00%,7.68%,5.66%,5.73%,6.77%,13.20%,3.31%,10.30%,4.67%,10.86%,4.06%,6.99%,7.55%
January,18:00 - 18:59,4.53%,10.72%,6.65%,8.89%,6.39%,8.01%,8.05%,8.62%,9.73%,3.65%,11.56%,4.96%,7.34%,6.14%,7.59%,6.84%,5.43%,7.44%,12.35%,3.29%,10.57%,4.93%,10.71%,4.35%,7.01%,8.42%
January,19:00 - 19:59,4.72%,10.77%,5.14%,9.70%,4.67%,8.34%,7.00%,8.83%,7.16%,3.33%,8.92%,4.67%,6.80%,5.99%,6.75%,7.01%,4.91%,7.48%,10.19%,3.62%,9.88%,4.71%,8.86%,4.31%,5.93%,8.16%
January,20:00 - 20:59,4.42%,9.71%,4.03%,9.22%,3.71%,8.03%,5.96%,8.29%,5.92%,2.86%,6.65%,4.31%,5.94%,5.58%,5.72%,7.04%,4.38%,6.84%,6.71%,4.24%,10.33%,4.36%,6.62%,4.19%,4.85%,6.60%
January,21:00 - 21:59,3.70%,7.05%,2.89%,7.27%,2.18%,5.90%,4.40%,6.48%,2.63%,2.21%,4.33%,3.46%,4.52%,4.64%,4.12%,6.17%,3.66%,5.83%,4.45%,3.88%,9.08%,3.22%,4.12%,3.41%,3.69%,4.82%
January,22:00 - 22:59,0.08%,4.28%,0.17%,4.13%,0.19%,3.35%,0.47%,3.38%,0.41%,0.98%,1.61%,0.86%,1.37%,1.56%,1.65%,1.77%,1.48%,1.82%,2.12%,1.05%,3.05%,0.93%,1.57%,1.16%,1.11%,1.66%
January,23:00 - 23:59,0.00%,0.47%,0.00%,0.19%,0.00%,0.09%,0.00%,0.02%,0.00%,0.00%,0.00%,0.00%,0.00%,0.00%,0.00%,0.00%,0.00%,0.00%,0.00%,0.00%,0.00%,0.00%,0.00%,0.00%,0.00%,0.00%
January,00:00 - 00:59,0.00%,0.00%,0.00%,0.00%,0.00%,0.00%,0.00%,0.00%,0.00%,0.00%,0.00%,0.00%,0.00%,0.00%,0.00%,0.00%,0.00%,0.00%,0.00%,0.00%,0.00%,0.00%,0.00%,0.00%,0.00%,0.00%
January,01:00 - 01:59,0.00%,0.00%,0.00%,0.00%,0.00%,0.00%,0.00%,0.00%,0.00%,0.00%,0.00%,0.00%,0.00%,0.00%,0.00%,0.00%,0.00%,0.00%,0.00%,0.00%,0.00%,0.00%,0.00%,0.00%,0.00%,0.00%
January,02:00 - 02:59,0.00%,0.00%,0.00%,0.00%,0.00%,0.00%,0.00%,0.00%,0.00%,0.00%,0.00%,0.00%,0.00%,0.00%,0.00%,0.00%,0.00%,0.00%,0.00%,0.00%,0.00%,0.00%,0.00%,0.00%,0.00%,0.00%
February,03:00 - 03:59,0.00%,0.00%,0.00%,0.00%,0.00%,0.00%,0.00%,0.00%,0.00%,0.00%,0.00%,0.00%,0.00%,0.00%,0.00%,0.00%,0.00%,0.00%,0.00%,0.00%,0.00%,0.00%,0.00%,0.00%,0.00%,0.00%
February,04:00 - 04:59,0.50%,0.00%,0.50%,0.00%,0.51%,0.00%,0.56%,0.00%,0.07%,0.00%,0.04%,0.01%,0.09%,0.01%,0.07%,0.01%,0.06%,0.01%,0.01%,0.02%,0.01%,0.01%,0.03%,0.02%,0.02%,0.01%
February,05:00 - 05:59,6.37%,0.43%,4.95%,0.69%,4.42%,0.84%,4.26%,1.03%,1.11%,1.12%,0.87%,1.77%,2.10%,1.86%,1.94%,2.28%,2.38%,1.93%,0.81%,3.26%,0.65%,2.89%,1.54%,3.46%,2.18%,1.97%
February,06:00 - 06:59,8.66%,2.11%,9.92%,3.45%,8.96%,3.67%,4.20%,3.35%,3.38%,4.58%,3.22%,4.82%,4.98%,4.73%,5.33%,5.27%,6.58%,5.08%,2.64%,8.48%,2.64%,7.54%,4.57%,9.16%,5.92%,4.81%
February,07:00 - 07:59,8.76%,3.50%,8.17%,6.47%,10.62%,7.53%,4.62%,4.55%,6.54%,9.99%,5.68%,8.22%,6.85%,7.12%,8.76%,8.13%,8.27%,6.20%,3.83%,13.54%,3.67%,10.15%,6.69%,12.09%,9.01%,5.69%
February,08:00 - 08:59,9.44%,3.64%,8.63%,6.70%,9.92%,7.00%,5.15%,5.14%,6.53%,12.93%,5.31%,11.62%,6.65%,8.87%,7.59%,8.18%,8.31%,6.30%,3.33%,13.80%,3.40%,10.06%,6.27%,12.84%,8.68%,5.73%
February,09:00 - 09:59,8.63%,4.22%,7.06%,5.48%,6.96%,6.13%,5.36%,5.29%,6.00%,12.75%,4.22%,10.55%,6.06%,8.45%,6.09%,7.36%,7.47%,5.61%,3.38%,9.09%,3.35%,9.38%,5.13%,9.00%,7.09%,5.43%
February,10:00 - 10:59,6.45%,3.87%,5.37%,4.02%,5.55%,4.91%,6.00%,4.51%,4.94%,9.67%,3.80%,7.19%,5.15%,6.72%,5.13%,5.75%,6.22%,5.38%,3.77%,6.76%,3.10%,7.21%,4.02%,6.46%,5.43%,5.33%
February,11:00 - 11:59,6.25%,4.06%,5.17%,3.59%,5.25%,4.25%,6.28%,4.62%,5.11%,6.83%,4.16%,6.30%,5.39%,6.12%,4.91%,4.76%,5.88%,5.15%,4.11%,5.43%,3.26%,6.99%,3.87%,5.18%,5.22%,5.51%
February,12:00 - 12:59,5.85%,4.23%,4.92%,3.74%,5.14%,4.34%,6.31%,4.69%,4.80%,5.49%,4.24%,6.16%,5.51%,5.90%,4.92%,4.74%,5.69%,5.21%,4.19%,5.13%,3.71%,5.81%,3.89%,4.85%,5.20%,5.58%
February,13:00 - 13:59,5.07%,4.15%,4.65%,3.98%,4.56%,4.75%,6.24%,4.87%,5.01%,5.58%,4.45%,6.22%,5.22%,5.51%,4.73%,4.99%,5.45%,5.23%,4.11%,5.68%,3.90%,5.44%,3.73%,4.72%,4.96%,5.54%
February,14:00 - 14:59,4.11%,4.56%,4.37%,4.13%,4.40%,4.66%,5.97%,5.26%,5.46%,5.07%,5.40%,5.18%,5.40%,5.00%,5.15%,4.47%,5.27%,5.36%,5.01%,4.70%,4.67%,4.65%,4.35%,4.23%,5.10%,5.32%
February,15:00 - 15:59,3.55%,5.83%,4.50%,4.84%,4.34%,4.98%,5.99%,5.95%,6.00%,4.54%,6.59%,4.75%,6.07%,4.86%,5.38%,4.82%,5.19%,5.86%,6.84%,3.33%,6.08%,3.91%,5.04%,3.67%,5.31%,5.69%
February,16:00 - 16:59,3.72%,7.60%,5.35%,6.08%,5.29%,6.03%,6.34%,6.96%,7.75%,4.22%,7.81%,4.47%,6.82%,5.24%,6.44%,5.01%,6.13%,6.85%,8.90%,2.77%,7.76%,3.80%,7.45%,3.57%,6.14%,6.41%
February,17:00 - 17:59,4.56%,9.74%,7.32%,8.35%,7.65%,7.96%,7.60%,8.37%,11.56%,4.18%,11.18%,4.68%,7.74%,5.97%,8.08%,5.85%,6.51%,6.98%,13.49%,3.07%,10.63%,4.52%,11.81%,3.90%,6.93%,7.64%
February,18:00 - 18:59,4.68%,10.37%,6.48%,9.02%,5.93%,8.03%,7.83%,8.82%,9.91%,3.73%,11.60%,4.93%,7.60%,6.05%,7.50%,6.74%,5.75%,7.33%,12.66%,3.23%,10.88%,4.75%,10.96%,4.29%,7.13%,8.43%
February,19:00 - 19:59,4.77%,10.64%,5.17%,9.46%,4.42%,8.64%,6.72%,9.20%,7.17%,3.35%,8.87%,4.51%,6.77%,5.88%,6.30%,7.04%,5.08%,7.29%,9.71%,3.11%,10.62%,4.26%,8.66%,4.02%,6.08%,7.99%
February,20:00 - 20:59,4.67%,9.27%,4.19%,8.97%,3.64%,7.48%,5.83%,7.86%,5.62%,2.87%,6.40%,4.29%,5.79%,5.56%,5.82%,6.90%,4.54%,6.63%,6.64%,3.79%,9.74%,4.22%,6.36%,4.04%,4.87%,6.51%
February,21:00 - 21:59,3.90%,6.89%,3.14%,6.69%,2.29%,5.34%,4.34%,6.00%,2.60%,2.07%,4.53%,3.45%,4.44%,4.61%,4.14%,6.01%,3.66%,5.68%,4.44%,3.79%,8.65%,3.38%,4.05%,3.32%,3.71%,4.67%
February,22:00 - 22:59,0.07%,4.51%,0.13%,4.18%,0.16%,3.37%,0.40%,3.50%,0.46%,1.03%,1.64%,0.86%,1.36%,1.54%,1.71%,1.69%,1.57%,1.94%,2.11%,1.02%,3.27%,1.02%,1.59%,1.17%,1.02%,1.74%
February,23:00 - 23:59,0.00%,0.39%,0.00%,0.14%,0.00%,0.07%,0.00%,0.03%,0.00%,0.00%,0.00%,0.00%,0.00%,0.00%,0.00%,0.00%,0.00%,0.00%,0.00%,0.00%,0.00%,0.00%,0.00%,0.00%,0.00%,0.00%
February,00:00 - 00:59,0.00%,0.00%,0.00%,0.00%,0.00%,0.00%,0.00%,0.00%,0.00%,0.00%,0.00%,0.00%,0.00%,0.00%,0.00%,0.00%,0.00%,0.00%,0.00%,0.00%,0.00%,0.00%,0.00%,0.00%,0.00%,0.00%
February,01:00 - 01:59,0.00%,0.00%,0.00%,0.00%,0.00%,0.00%,0.00%,0.00%,0.00%,0.00%,0.00%,0.00%,0.00%,0.00%,0.00%,0.00%,0.00%,0.00%,0.00%,0.00%,0.00%,0.00%,0.00%,0.00%,0.00%,0.00%
February,02:00 - 02:59,0.00%,0.00%,0.00%,0.00%,0.00%,0.00%,0.00%,0.00%,0.00%,0.00%,0.00%,0.00%,0.00%,0.00%,0.00%,0.00%,0.00%,0.00%,0.00%,0.00%,0.00%,0.00%,0.00%,0.00%,0.00%,0.00%
March,03:00 - 03:59,0.00%,0.00%,0.00%,0.00%,0.00%,0.00%,0.00%,0.00%,0.00%,0.00%,0.00%,0.00%,0.00%,0.00%,0.00%,0.00%,0.00%,0.00%,0.00%,0.00%,0.00%,0.00%,0.00%,0.00%,0.00%,0.00%
March,04:00 - 04:59,1.02%,0.00%,0.77%,0.00%,0.80%,0.00%,0.93%,0.01%,0.15%,0.01%,0.06%,0.07%,0.25%,0.11%,0.10%,0.11%,0.12%,0.11%,0.08%,0.09%,0.05%,0.10%,0.11%,0.16%,0.07%,0.04%
March,05:00 - 05:59,6.17%,0.67%,4.77%,0.83%,4.41%,1.00%,3.92%,1.04%,1.18%,1.19%,1.06%,1.80%,2.16%,1.96%,2.15%,2.47%,2.74%,1.84%,1.03%,3.32%,0.62%,2.83%,1.81%,3.47%,2.28%,2.25%
March,06:00 - 06:59,8.77%,2.48%,10.58%,3.53%,9.14%,3.71%,4.48%,3.21%,3.51%,5.08%,3.55%,5.03%,5.30%,4.97%,5.70%,5.47%,6.80%,4.92%,2.93%,9.01%,2.43%,7.52%,4.81%,9.19%,6.13%,4.70%
March,07:00 - 07:59,9.03%,3.74%,9.16%,6.76%,10.38%,7.87%,4.30%,4.72%,6.89%,10.49%,5.83%,8.73%,7.04%,7.22%,8.79%,8.28%,8.59%,5.81%,4.19%,13.69%,3.51%,9.45%,6.96%,12.24%,9.36%,5.43%
March,08:00 - 08:59,9.17%,3.80%,8.83%,6.70%,9.44%,6.74%,5.12%,4.96%,6.59%,12.51%,5.39%,11.70%,6.58%,9.01%,7.60%,8.42%,8.67%,5.83%,3.53%,13.52%,3.32%,9.58%,6.33%,12.51%,8.19%,5.81%
March,09:00 - 09:59,8.49%,4.26%,6.95%,5.35%,6.81%,6.04%,5.33%,5.12%,5.79%,12.78%,4.20%,10.54%,6.03%,8.24%,6.11%,7.41%,7.75%,5.25%,3.79%,9.04%,3.16%,9.06%,5.25%,8.72%,6.78%,5.36%
March,10:00 - 10:59,6.26%,3.89%,5.29%,4.13%,5.45%,5.19%,5.75%,4.72%,5.05%,9.68%,3.65%,7.35%,5.06%,6.73%,5.23%,5.81%,6.56%,5.48%,3.93%,6.83%,3.05%,7.05%,4.04%,6.42%,5.15%,5.32%
March,11:00 - 11:59,6.26%,4.33%,5.02%,3.69%,5.41%,4.55%,6.28%,4.82%,5.13%,6.66%,3.98%,6.16%,5.19%,6.06%,4.97%,4.75%,6.18%,5.46%,4.36%,5.04%,3.17%,7.03%,3.86%,5.33%,5.17%,5.46%
March,12:00 - 12:59,5.83%,4.40%,4.90%,3.68%,5.13%,4.43%,6.20%,5.19%,4.64%,5.64%,4.23%,6.27%,5.55%,6.08%,4.91%,4.83%,5.94%,5.18%,4.51%,4.93%,3.65%,5.84%,3.86%,4.68%,5.05%,5.40%
March,13:00 - 13:59,5.07%,4.15%,4.45%,3.92%,4.76%,4.61%,6.35%,5.03%,5.08%,5.68%,4.38%,6.11%,5.30%,5.46%,4.85%,5.19%,5.46%,5.23%,4.25%,5.34%,3.80%,5.95%,3.80%,5.01%,5.05%,5.47%
March,14:00 - 14:59,4.05%,4.65%,4.11%,4.22%,4.40%,4.66%,6.12%,5.27%,5.54%,5.09%,5.44%,5.03%,5.36%,4.95%,5.18%,4.59%,5.24%,5.05%,5.46%,4.54%,4.68%,4.64%,4.37%,4.25%,4.93%,5.36%
March,15:00 - 15:59,3.59%,6.02%,4.29%,4.95%,4.36%,5.18%,6.11%,6.35%,6.01%,4.63%,6.62%,4.71%,6.06%,4.92%,5.61%,4.59%,5.00%,6.19%,7.26%,3.41%,6.23%,4.24%,5.20%,3.78%,5.21%,5.55%
March,16:00 - 16:59,3.74%,7.57%,5.24%,5.98%,5.35%,6.00%,6.47%,7.06%,7.51%,4.01%,7.89%,4.40%,6.75%,5.17%,6.42%,4.79%,5.79%,7.08%,9.53%,2.84%,8.64%,4.12%,7.43%,3.37%,6.43%,6.12%
March,17:00 - 17:59,4.61%,9.41%,7.07%,8.08%,7.68%,7.69%,7.41%,8.24%,11.31%,4.05%,11.06%,4.76%,7.57%,5.92%,7.39%,5.70%,5.40%,7.55%,11.21%,3.11%,9.95%,4.36%,10.36%,3.81%,7.16%,7.43%
March,18:00 - 18:59,4.67%,10.13%,6.40%,9.23%,5.85%,8.11%,7.84%,8.76%,9.81%,3.49%,11.46%,4.86%,7.56%,5.78%,7.12%,6.15%,5.27%,7.05%,10.68%,3.30%,10.80%,4.77%,10.17%,4.30%,7.06%,9.01%
March,19:00 - 19:59,4.84%,9.57%,5.10%,9.18%,4.62%,7.89%,6.90%,8.12%,7.26%,2.95%,8.58%,4.43%,6.68%,5.73%,6.20%,6.84%,4.66%,7.45%,9.54%,3.44%,10.28%,4.53%,9.02%,4.10%,6.11%,7.87%
March,20:00 - 20:59,4.52%,8.77%,3.91%,8.91%,3.58%,7.38%,5.67%,7.78%,5.42%,2.91%,6.20%,4.09%,5.58%,5.45%,5.79%,7.02%,4.39%,6.67%,6.80%,3.98%,10.10%,4.49%,6.69%,4.24%,4.79%,6.75%
March,21:00 - 21:59,3.67%,6.47%,2.80%,5.96%,2.17%,5.15%,4.25%,5.75%,2.53%,1.95%,4.52%,3.05%,4.27%,4.42%,3.89%,5.51%,3.48%,5.50%,4.38%,3.42%,8.79%,3.28%,4.03%,3.13%,3.74%,4.45%
March,22:00 - 22:59,0.24%,4.93%,0.33%,4.51%,0.25%,3.57%,0.56%,3.69%,0.60%,1.15%,1.87%,0.93%,1.69%,1.75%,1.93%,2.03%,1.91%,2.33%,2.51%,1.15%,3.73%,1.18%,1.89%,1.27%,1.36%,2.19%
March,23:00 - 23:59,0.00%,0.77%,0.00%,0.40%,0.00%,0.22%,0.00%,0.15%,0.01%,0.05%,0.02%,0.02%,0.02%,0.06%,0.05%,0.04%,0.05%,0.02%,0.04%,0.00%,0.05%,0.00%,0.02%,0.00%,0.00%,0.02%
March,00:00 - 00:59,0.00%,0.00%,0.00%,0.00%,0.00%,0.00%,0.00%,0.00%,0.00%,0.00%,0.00%,0.00%,0.00%,0.00%,0.00%,0.00%,0.00%,0.00%,0.00%,0.00%,0.00%,0.00%,0.00%,0.00%,0.00%,0.00%
March,01:00 - 01:59,0.00%,0.00%,0.00%,0.00%,0.00%,0.00%,0.00%,0.00%,0.00%,0.00%,0.00%,0.00%,0.00%,0.00%,0.00%,0.00%,0.00%,0.00%,0.00%,0.00%,0.00%,0.00%,0.00%,0.00%,0.00%,0.00%
March,02:00 - 02:59,0.00%,0.00%,0.00%,0.00%,0.00%,0.00%,0.00%,0.00%,0.00%,0.00%,0.00%,0.00%,0.00%,0.00%,0.00%,0.00%,0.00%,0.00%,0.00%,0.00%,0.00%,0.00%,0.00%,0.00%,0.00%,0.00%
May,03:00 - 03:59,0.00%,0.00%,0.00%,0.00%,0.00%,0.00%,0.00%,0.00%,0.00%,0.00%,0.00%,0.00%,0.00%,0.00%,0.00%,0.00%,0.00%,0.00%,0.00%,0.00%,0.00%,0.00%,0.00%,0.00%,0.00%,0.00%
May,04:00 - 04:59,0.97%,0.00%,0.91%,0.00%,0.84%,0.00%,0.81%,0.01%,0.20%,0.01%,0.09%,0.05%,0.26%,0.08%,0.13%,0.07%,0.12%,0.08%,0.05%,0.11%,0.04%,0.09%,0.13%,0.12%,0.17%,0.05%
May,05:00 - 05:59,6.11%,0.65%,5.60%,1.03%,4.95%,1.12%,4.05%,1.19%,1.24%,1.52%,1.29%,2.09%,2.43%,1.99%,2.43%,2.80%,2.80%,2.64%,1.42%,3.83%,1.08%,3.11%,1.95%,3.86%,2.63%,2.63%
May,06:00 - 06:59,8.61%,2.50%,9.27%,4.00%,8.44%,4.36%,5.05%,3.44%,3.16%,5.51%,3.26%,5.12%,5.10%,4.81%,5.40%,5.65%,6.55%,5.18%,3.10%,9.21%,2.86%,7.73%,5.01%,9.77%,6.43%,5.05%
May,07:00 - 07:59,9.27%,3.61%,8.25%,6.59%,8.80%,7.78%,4.92%,4.51%,5.25%,10.10%,4.72%,7.63%,6.13%,6.83%,7.31%,8.07%,8.05%,5.57%,4.05%,13.94%,3.23%,9.75%,6.08%,12.90%,8.61%,5.15%
May,08:00 - 08:59,9.15%,3.55%,7.88%,6.03%,7.60%,6.52%,5.43%,4.87%,5.13%,11.81%,4.52%,10.79%,6.17%,8.86%,6.93%,8.41%,8.34%,5.87%,3.43%,13.49%,2.86%,10.09%,5.75%,12.52%,8.15%,5.28%
May,09:00 - 09:59,8.06%,4.03%,6.63%,4.73%,6.50%,5.67%,5.57%,5.03%,5.28%,12.54%,3.86%,9.81%,5.80%,8.18%,6.08%,7.50%,7.63%,5.83%,3.65%,8.48%,2.81%,9.54%,4.84%,8.07%,6.67%,4.90%
May,10:00 - 10:59,5.97%,3.90%,5.27%,3.83%,5.66%,4.62%,5.77%,4.54%,4.92%,9.19%,3.59%,7.08%,4.89%,6.89%,5.29%,5.49%,6.26%,5.72%,4.10%,5.96%,2.85%,7.35%,3.98%,5.84%,5.53%,5.09%
May,11:00 - 11:59,6.05%,4.48%,5.27%,3.69%,5.62%,4.34%,6.22%,4.81%,5.21%,6.65%,4.03%,6.33%,5.38%,6.28%,5.15%,4.67%,6.00%,5.84%,4.41%,5.21%,3.36%,7.19%,3.95%,5.02%,5.20%,5.36%
May,12:00 - 12:59,5.94%,4.84%,5.26%,3.94%,5.56%,4.41%,6.43%,5.10%,5.06%,5.65%,4.55%,6.69%,5.53%,6.48%,5.21%,5.03%,6.05%,5.83%,4.90%,4.88%,4.25%,6.44%,4.01%,4.74%,5.45%,5.42%
May,13:00 - 13:59,5.12%,4.61%,4.72%,4.08%,5.09%,4.64%,6.27%,5.10%,5.11%,5.42%,4.60%,6.35%,5.44%,5.67%,5.04%,5.00%,5.59%,5.45%,4.66%,5.31%,4.14%,5.41%,3.92%,4.73%,5.14%,5.40%
May,14:00 - 14:59,4.31%,4.95%,4.53%,4.14%,4.90%,4.52%,6.11%,5.35%,5.51%,5.22%,5.49%,5.52%,5.44%,5.03%,5.30%,4.78%,5.30%,5.30%,5.77%,4.55%,4.68%,4.70%,4.50%,4.20%,5.08%,5.48%
May,15:00 - 15:59,3.76%,6.08%,4.71%,4.92%,4.85%,5.22%,5.94%,6.12%,6.09%,4.76%,6.65%,5.02%,6.20%,5.08%,5.73%,4.58%,5.25%,6.02%,7.46%,3.38%,6.07%,4.26%,5.38%,3.78%,5.18%,5.67%
May,16:00 - 16:59,4.08%,7.67%,5.47%,6.43%,5.86%,6.22%,6.56%,7.14%,7.57%,4.26%,8.41%,4.76%,7.12%,5.34%,7.00%,4.75%,6.21%,6.60%,9.63%,2.96%,8.55%,3.96%,7.82%,3.67%,6.24%,6.62%
May,17:00 - 17:59,4.94%,9.85%,7.63%,8.67%,8.12%,8.09%,7.33%,8.58%,12.55%,4.36%,11.29%,5.31%,8.06%,6.21%,8.39%,5.96%,6.30%,6.45%,12.31%,3.28%,10.99%,4.31%,11.40%,4.01%,7.20%,8.06%
May,18:00 - 18:59,5.09%,10.81%,6.90%,9.86%,6.61%,8.63%,7.79%,9.17%,10.68%,3.88%,12.19%,5.26%,7.96%,6.07%,8.09%,6.57%,5.64%,7.10%,10.00%,3.67%,10.18%,4.68%,10.39%,4.66%,7.09%,8.89%
May,19:00 - 19:59,4.98%,9.50%,5.24%,9.17%,4.85%,7.92%,6.56%,8.39%,7.78%,3.23%,9.14%,4.83%,6.82%,5.84%,6.24%,7.03%,5.01%,7.13%,8.67%,3.85%,10.52%,4.16%,8.82%,4.28%,6.14%,8.12%
May,20:00 - 20:59,4.31%,8.22%,3.79%,8.38%,3.56%,7.12%,5.19%,7.40%,5.67%,2.72%,6.11%,3.97%,5.57%,5.18%,5.03%,7.00%,4.14%,5.99%,6.40%,3.86%,9.34%,3.80%,6.65%,3.97%,4.63%,6.57%
May,21:00 - 21:59,3.24%,6.08%,2.61%,6.41%,2.08%,5.41%,3.67%,5.88%,3.03%,2.15%,4.49%,2.70%,4.14%,3.82%,3.49%,4.99%,3.28%,5.41%,3.97%,3.19%,8.53%,2.63%,3.90%,2.91%,3.39%,4.56%
May,22:00 - 22:59,0.02%,4.28%,0.07%,4.00%,0.12%,3.38%,0.33%,3.34%,0.55%,1.00%,1.73%,0.69%,1.56%,1.35%,1.75%,1.65%,1.47%,1.99%,2.02%,0.83%,3.66%,0.79%,1.53%,0.94%,1.06%,1.70%
May,23:00 - 23:59,0.00%,0.39%,0.00%,0.10%,0.00%,0.03%,0.00%,0.01%,0.00%,0.00%,0.00%,0.00%,0.00%,0.00%,0.00%,0.00%,0.00%,0.00%,0.00%,0.00%,0.00%,0.00%,0.00%,0.00%,0.00%,0.00%
May,00:00 - 00:59,0.00%,0.00%,0.00%,0.00%,0.00%,0.00%,0.00%,0.00%,0.00%,0.00%,0.00%,0.00%,0.00%,0.00%,0.00%,0.00%,0.00%,0.00%,0.00%,0.00%,0.00%,0.00%,0.00%,0.00%,0.00%,0.00%
May,01:00 - 01:59,0.00%,0.00%,0.00%,0.00%,0.00%,0.00%,0.00%,0.00%,0.00%,0.00%,0.00%,0.00%,0.00%,0.00%,0.00%,0.00%,0.00%,0.00%,0.00%,0.00%,0.00%,0.00%,0.00%,0.00%,0.00%,0.00%
May,02:00 - 02:59,0.00%,0.00%,0.00%,0.00%,0.00%,0.00%,0.00%,0.00%,0.00%,0.00%,0.00%,0.00%,0.00%,0.00%,0.00%,0.00%,0.00%,0.00%,0.00%,0.00%,0.00%,0.00%,0.00%,0.00%,0.00%,0.00%
June,03:00 - 03:59,0.00%,0.00%,0.00%,0.00%,0.00%,0.00%,0.00%,0.00%,0.00%,0.00%,0.00%,0.00%,0.00%,0.00%,0.00%,0.00%,0.00%,0.00%,0.00%,0.00%,0.00%,0.00%,0.00%,0.00%,0.00%,0.00%
June,04:00 - 04:59,1.03%,0.00%,0.84%,0.00%,0.79%,0.00%,0.85%,0.01%,0.18%,0.02%,0.10%,0.05%,0.29%,0.08%,0.13%,0.08%,0.15%,0.15%,0.07%,0.12%,0.05%,0.11%,0.09%,0.14%,0.17%,0.05%
June,05:00 - 05:59,6.40%,0.64%,5.68%,1.12%,4.97%,1.23%,4.39%,1.17%,1.38%,1.52%,1.33%,2.01%,2.46%,2.07%,2.67%,2.62%,2.95%,2.63%,1.35%,3.56%,1.00%,3.17%,1.90%,3.71%,2.60%,2.59%
June,06:00 - 06:59,9.47%,2.34%,9.02%,3.80%,8.38%,4.12%,5.17%,3.53%,3.80%,5.66%,3.21%,5.17%,5.03%,4.84%,5.47%,5.92%,7.35%,5.34%,2.83%,8.57%,2.91%,7.78%,4.84%,9.59%,6.41%,5.45%
June,07:00 - 07:59,10.42%,3.49%,8.45%,6.57%,9.69%,8.10%,5.46%,4.63%,5.81%,10.92%,4.93%,8.67%,6.75%,7.10%,7.95%,8.17%,8.37%,5.77%,4.02%,14.38%,3.47%,10.74%,6.25%,13.31%,9.16%,5.52%
June,08:00 - 08:59,10.05%,3.69%,8.26%,6.29%,8.69%,7.19%,5.75%,5.05%,5.63%,12.66%,4.80%,11.87%,6.54%,9.09%,6.99%,8.37%,8.16%,5.70%,3.27%,13.73%,2.99%,10.51%,5.74%,12.74%,8.74%,5.57%
June,09:00 - 09:59,8.16%,3.97%,6.59%,4.84%,6.79%,5.70%,5.90%,5.07%,5.25%,12.43%,4.02%,10.09%,5.75%,8.29%,5.49%,7.58%,7.24%,5.42%,3.50%,9.07%,2.92%,9.70%,4.87%,8.83%,6.75%,5.22%
June,10:00 - 10:59,5.65%,3.45%,4.95%,3.74%,5.39%,4.65%,5.53%,4.26%,4.84%,8.60%,3.55%,6.75%,4.83%,6.65%,4.83%,5.18%,6.11%,4.97%,3.96%,5.72%,2.92%,6.66%,3.80%,5.62%,4.94%,4.37%
June,11:00 - 11:59,5.48%,3.88%,4.99%,3.48%,5.17%,4.11%,5.93%,4.45%,5.06%,6.07%,3.89%,5.78%,5.21%,6.15%,4.73%,4.54%,5.79%,5.28%,4.34%,5.00%,3.15%,6.68%,3.67%,4.76%,5.04%,4.96%
June,12:00 - 12:59,5.64%,4.13%,5.15%,3.67%,5.34%,4.33%,6.13%,4.79%,4.94%,5.28%,4.15%,6.17%,5.19%,5.97%,5.10%,4.89%,5.83%,5.42%,4.45%,4.76%,3.64%,6.04%,3.70%,4.78%,4.99%,5.25%
June,13:00 - 13:59,4.81%,3.96%,4.61%,3.93%,4.82%,4.41%,6.08%,4.84%,4.81%,5.47%,4.43%,5.94%,5.03%,5.29%,5.03%,4.91%,5.57%,5.18%,4.32%,5.28%,3.69%,5.40%,3.69%,4.58%,4.78%,5.14%
June,14:00 - 14:59,3.93%,4.33%,4.51%,4.07%,4.68%,4.42%,5.64%,5.07%,5.36%,5.03%,5.17%,5.03%,5.11%,4.98%,5.31%,4.54%,5.13%,5.52%,5.56%,4.61%,4.55%,4.66%,4.35%,3.95%,4.85%,5.17%
June,15:00 - 15:59,3.31%,5.63%,4.65%,4.58%,4.56%,4.83%,5.71%,5.73%,6.06%,4.62%,6.33%,4.67%,5.94%,4.94%,5.33%,4.58%,4.97%,5.95%,6.88%,3.28%,5.89%,3.96%,4.96%,3.56%,4.86%,5.48%
June,16:00 - 16:59,3.57%,7.03%,5.27%,5.91%,5.58%,5.83%,6.37%,7.14%,7.73%,4.16%,7.97%,4.38%,6.86%,5.21%,6.64%,4.65%,6.04%,6.22%,9.13%,2.83%,8.31%,3.86%,7.50%,3.30%,6.05%,6.30%
June,17:00 - 17:59,4.67%,9.76%,7.85%,8.40%,8.06%,7.71%,7.45%,8.49%,12.18%,4.19%,11.49%,5.06%,8.11%,6.06%,8.15%,5.92%,5.81%,7.04%,12.58%,3.35%,10.82%,4.49%,11.36%,4.14%,7.25%,8.11%
June,18:00 - 18:59,4.76%,11.69%,6.67%,9.97%,6.25%,8.28%,7.24%,9.38%,10.52%,3.89%,12.76%,5.29%,8.06%,6.16%,7.96%,6.40%,5.61%,7.65%,11.06%,3.47%,10.56%,4.33%,10.36%,4.34%,7.34%,9.04%
June,19:00 - 19:59,4.83%,11.49%,5.52%,9.93%,4.85%,8.47%,6.75%,9.23%,7.81%,3.55%,9.26%,5.02%,7.31%,6.22%,6.70%,7.53%,5.02%,7.68%,9.44%,3.85%,11.16%,4.32%,9.67%,4.38%,6.48%,8.75%
June,20:00 - 20:59,4.37%,8.91%,4.05%,8.68%,3.76%,7.31%,5.55%,7.49%,5.80%,2.78%,6.40%,4.26%,5.82%,5.40%,5.55%,7.33%,4.55%,6.24%,6.70%,4.03%,10.06%,3.92%,7.45%,4.11%,5.05%,6.58%
June,21:00 - 21:59,3.41%,6.72%,2.84%,6.58%,2.08%,5.63%,3.78%,6.08%,2.41%,2.20%,4.50%,2.99%,4.38%,4.14%,4.03%,5.18%,3.66%,5.73%,4.30%,3.45%,8.98%,2.85%,4.14%,3.15%,3.46%,4.84%
June,22:00 - 22:59,0.03%,4.37%,0.10%,4.20%,0.15%,3.61%,0.31%,3.57%,0.45%,0.96%,1.71%,0.80%,1.32%,1.36%,1.94%,1.62%,1.68%,2.11%,2.24%,0.94%,2.93%,0.86%,1.67%,1.00%,1.07%,1.62%
June,23:00 - 23:59,0.00%,0.52%,0.00%,0.22%,0.00%,0.07%,0.00%,0.02%,0.00%,0.00%,0.00%,0.00%,0.00%,0.00%,0.00%,0.00%,0.00%,0.00%,0.00%,0.00%,0.00%,0.00%,0.00%,0.00%,0.00%,0.00%
June,00:00 - 00:59,0.00%,0.00%,0.00%,0.00%,0.00%,0.00%,0.00%,0.00%,0.00%,0.00%,0.00%,0.00%,0.00%,0.00%,0.00%,0.00%,0.00%,0.00%,0.00%,0.00%,0.00%,0.00%,0.00%,0.00%,0.00%,0.00%
June,01:00 - 01:59,0.00%,0.00%,0.00%,0.00%,0.00%,0.00%,0.00%,0.00%,0.00%,0.00%,0.00%,0.00%,0.00%,0.00%,0.00%,0.00%,0.00%,0.00%,0.00%,0.00%,0.00%,0.00%,0.00%,0.00%,0.00%,0.00%
June,02:00 - 02:59,0.00%,0.00%,0.00%,0.00%,0.00%,0.00%,0.00%,0.00%,0.00%,0.00%,0.00%,0.00%,0.00%,0.00%,0.00%,0.00%,0.00%,0.00%,0.00%,0.00%,0.00%,0.00%,0.00%,0.00%,0.00%,0.00%
July,03:00 - 03:59,0.00%,0.00%,0.00%,0.00%,0.00%,0.00%,0.00%,0.00%,0.00%,0.00%,0.00%,0.00%,0.00%,0.00%,0.00%,0.00%,0.00%,0.00%,0.00%,0.00%,0.00%,0.00%,0.00%,0.00%,0.00%,0.00%
July,04:00 - 04:59,0.82%,0.00%,0.81%,0.07%,0.82%,0.09%,0.95%,0.07%,0.15%,0.01%,0.19%,0.11%,0.25%,0.09%,0.14%,0.08%,0.10%,0.11%,0.04%,0.12%,0.05%,0.09%,0.08%,0.13%,0.09%,0.03%
July,05:00 - 05:59,5.56%,0.60%,5.37%,1.04%,4.53%,1.12%,4.26%,1.15%,1.28%,1.36%,1.22%,1.86%,2.40%,1.94%,2.70%,2.44%,3.14%,2.46%,1.33%,3.50%,1.19%,3.05%,1.86%,3.88%,2.53%,2.44%
July,06:00 - 06:59,9.91%,2.38%,9.40%,3.81%,8.64%,3.85%,5.56%,3.52%,3.21%,5.30%,3.04%,4.91%,4.92%,5.00%,5.65%,5.63%,7.05%,5.07%,2.77%,8.63%,3.11%,7.75%,4.60%,9.36%,5.98%,5.41%
July,07:00 - 07:59,10.56%,3.60%,8.34%,6.44%,10.23%,7.96%,5.21%,4.65%,5.95%,10.77%,4.84%,8.71%,7.01%,7.19%,8.22%,8.22%,9.14%,5.80%,3.96%,13.80%,3.67%,10.74%,6.37%,13.30%,9.14%,5.73%
July,08:00 - 08:59,10.51%,3.66%,8.23%,6.24%,9.25%,6.82%,5.64%,4.90%,5.95%,13.09%,4.87%,12.26%,6.49%,9.28%,7.28%,8.49%,8.60%,5.75%,3.18%,14.21%,3.03%,10.73%,5.87%,13.52%,8.65%,5.77%
July,09:00 - 09:59,8.55%,3.85%,6.87%,4.71%,7.54%,5.55%,5.91%,5.04%,5.46%,12.87%,4.17%,10.44%,5.72%,8.70%,5.60%,7.48%,7.33%,5.57%,3.24%,9.22%,2.84%,9.57%,4.75%,9.20%,7.04%,5.35%
July,10:00 - 10:59,5.94%,3.73%,5.26%,3.91%,5.43%,4.70%,5.65%,4.46%,4.99%,9.00%,3.65%,6.93%,4.79%,6.82%,4.85%,5.46%,6.03%,5.10%,3.67%,6.17%,2.78%,7.65%,3.79%,5.75%,5.31%,5.09%
July,11:00 - 11:59,5.74%,3.86%,4.96%,3.39%,5.17%,3.94%,5.82%,4.41%,4.93%,6.21%,4.10%,5.75%,4.96%,5.95%,4.64%,4.52%,5.82%,4.95%,4.10%,4.90%,3.13%,6.99%,3.64%,4.50%,5.01%,4.87%
July,12:00 - 12:59,5.37%,4.10%,4.95%,3.51%,4.96%,4.28%,5.87%,4.79%,4.68%,5.23%,4.11%,5.94%,5.10%,5.99%,4.93%,4.73%,5.59%,5.46%,4.21%,4.90%,3.43%,5.88%,3.64%,4.49%,4.99%,5.26%
July,13:00 - 13:59,4.76%,4.04%,4.51%,3.77%,4.64%,4.32%,5.92%,4.78%,4.85%,5.38%,4.51%,5.83%,4.96%,5.39%,4.65%,4.73%,5.40%,5.47%,4.19%,5.24%,3.88%,5.15%,3.63%,4.45%,4.72%,5.28%
July,14:00 - 14:59,3.84%,4.54%,4.30%,4.14%,4.31%,4.31%,5.61%,5.22%,5.42%,4.99%,5.22%,5.08%,5.00%,4.92%,4.64%,4.48%,4.97%,5.47%,5.41%,4.43%,4.67%,4.38%,4.34%,3.62%,4.88%,5.12%
July,15:00 - 15:59,3.44%,5.38%,4.41%,4.35%,4.37%,4.98%,5.67%,5.73%,6.04%,4.44%,6.32%,4.37%,5.74%,4.84%,5.10%,4.30%,4.82%,5.34%,6.80%,3.06%,6.21%,3.60%,5.12%,3.32%,5.03%,5.27%
July,16:00 - 16:59,3.65%,7.67%,5.27%,5.88%,5.57%,6.14%,6.15%,6.89%,7.65%,4.04%,8.00%,4.46%,6.77%,5.26%,6.40%,4.74%,5.58%,5.94%,8.91%,2.64%,8.04%,3.51%,7.53%,3.25%,5.79%,5.80%
July,17:00 - 17:59,4.68%,9.72%,7.67%,8.40%,7.87%,8.13%,7.45%,8.44%,12.25%,4.08%,11.43%,5.08%,7.94%,5.97%,8.14%,6.01%,5.90%,7.09%,12.51%,3.25%,9.97%,4.22%,11.07%,3.91%,7.26%,7.64%
July,18:00 - 18:59,4.72%,11.41%,7.01%,10.02%,6.26%,8.61%,7.79%,9.56%,10.77%,4.00%,12.59%,5.45%,8.63%,6.29%,8.38%,6.93%,5.62%,8.00%,11.88%,3.58%,10.36%,4.58%,11.13%,4.45%,7.36%,9.11%
July,19:00 - 19:59,4.71%,10.92%,5.58%,9.81%,4.72%,8.49%,6.81%,9.26%,7.94%,3.38%,9.24%,4.96%,7.37%,5.81%,7.00%,7.56%,5.15%,7.79%,9.98%,3.97%,10.98%,4.55%,9.65%,4.53%,6.73%,8.34%
July,20:00 - 20:59,4.17%,9.02%,4.00%,8.99%,3.59%,7.34%,5.51%,7.71%,5.56%,2.67%,6.31%,4.16%,5.96%,5.43%,5.84%,7.26%,4.47%,6.35%,7.00%,4.07%,10.08%,3.98%,7.26%,4.08%,4.97%,6.84%
July,21:00 - 21:59,3.03%,6.33%,2.96%,6.73%,1.98%,5.73%,3.91%,6.06%,2.48%,2.12%,4.46%,2.88%,4.51%,3.82%,4.16%,5.28%,3.69%,5.93%,4.52%,3.42%,9.17%,2.79%,4.03%,3.20%,3.46%,4.79%
July,22:00 - 22:59,0.02%,4.63%,0.10%,4.51%,0.12%,3.52%,0.31%,3.31%,0.44%,1.06%,1.73%,0.83%,1.49%,1.32%,1.69%,1.65%,1.59%,2.36%,2.29%,0.89%,3.41%,0.79%,1.65%,1.06%,1.09%,1.85%
July,23:00 - 23:59,0.00%,0.56%,0.00%,0.29%,0.00%,0.12%,0.00%,0.05%,0.00%,0.01%,0.00%,0.00%,0.00%,0.00%,0.00%,0.00%,0.00%,0.00%,0.00%,0.00%,0.00%,0.00%,0.00%,0.00%,0.00%,0.00%
July,00:00 - 00:59,0.00%,0.00%,0.00%,0.00%,0.00%,0.00%,0.00%,0.00%,0.00%,0.00%,0.00%,0.00%,0.00%,0.00%,0.00%,0.00%,0.00%,0.00%,0.00%,0.00%,0.00%,0.00%,0.00%,0.00%,0.00%,0.00%
July,01:00 - 01:59,0.00%,0.00%,0.00%,0.00%,0.00%,0.00%,0.00%,0.00%,0.00%,0.00%,0.00%,0.00%,0.00%,0.00%,0.00%,0.00%,0.00%,0.00%,0.00%,0.00%,0.00%,0.00%,0.00%,0.00%,0.00%,0.00%
July,02:00 - 02:59,0.00%,0.00%,0.00%,0.00%,0.00%,0.00%,0.00%,0.00%,0.00%,0.00%,0.00%,0.00%,0.00%,0.00%,0.00%,0.00%,0.00%,0.00%,0.00%,0.00%,0.00%,0.00%,0.00%,0.00%,0.00%,0.00%
August,03:00 - 03:59,0.00%,0.00%,0.00%,0.00%,0.00%,0.00%,0.00%,0.00%,0.00%,0.00%,0.00%,0.00%,0.00%,0.00%,0.00%,0.00%,0.00%,0.00%,0.00%,0.00%,0.00%,0.00%,0.00%,0.00%,0.00%,0.00%
August,04:00 - 04:59,0.75%,0.00%,0.78%,0.02%,0.74%,0.04%,0.77%,0.04%,0.18%,0.02%,0.09%,0.04%,0.23%,0.07%,0.12%,0.06%,0.08%,0.08%,0.04%,0.10%,0.05%,0.06%,0.07%,0.09%,0.07%,0.02%
August,05:00 - 05:59,4.83%,0.56%,4.96%,0.96%,4.34%,1.10%,3.85%,1.12%,1.33%,1.22%,1.19%,1.70%,2.29%,1.83%,2.62%,2.28%,2.78%,2.27%,1.53%,3.67%,1.21%,2.75%,1.97%,3.88%,2.34%,2.23%
August,06:00 - 06:59,8.19%,2.28%,8.23%,3.91%,7.66%,3.61%,4.90%,3.34%,3.22%,4.93%,3.10%,4.39%,4.52%,4.55%,5.55%,5.26%,6.33%,4.71%,3.50%,8.30%,3.10%,6.78%,4.66%,8.90%,5.28%,4.99%
August,07:00 - 07:59,8.71%,3.54%,7.79%,6.07%,8.67%,7.10%,4.77%,4.59%,5.73%,9.34%,4.46%,7.12%,6.04%,6.42%,7.42%,7.72%,7.93%,5.38%,4.72%,12.76%,3.57%,8.82%,5.98%,11.88%,7.79%,5.44%
August,08:00 - 08:59,9.55%,3.71%,7.88%,5.98%,8.25%,6.40%,5.50%,4.90%,6.17%,11.25%,4.46%,10.24%,6.10%,8.27%,6.76%,7.65%,7.90%,5.53%,3.63%,12.65%,3.09%,9.57%,5.87%,11.73%,7.57%,5.58%
August,09:00 - 09:59,8.14%,4.51%,6.82%,4.95%,7.27%,5.44%,5.72%,5.16%,5.86%,12.59%,3.95%,10.03%,5.71%,8.53%,6.01%,6.79%,7.38%,5.42%,3.69%,8.84%,3.03%,9.71%,5.07%,8.55%,6.68%,5.39%
August,10:00 - 10:59,6.22%,4.14%,5.56%,3.98%,5.88%,4.66%,5.55%,4.65%,4.96%,9.33%,3.62%,7.22%,5.01%,6.57%,5.20%,5.45%,6.28%,4.92%,3.75%,6.16%,2.95%,7.69%,4.12%,5.84%,5.38%,5.07%
August,11:00 - 11:59,6.14%,4.64%,5.53%,3.69%,5.63%,4.18%,6.10%,4.68%,5.02%,6.89%,4.10%,6.69%,5.37%,6.50%,5.27%,4.74%,6.08%,5.16%,4.12%,5.13%,3.42%,7.72%,4.09%,4.90%,5.36%,5.19%
August,12:00 - 12:59,5.83%,4.89%,5.56%,4.15%,5.51%,4.43%,6.27%,5.18%,5.10%,5.69%,4.51%,6.83%,5.61%,6.65%,5.63%,4.97%,6.07%,5.59%,4.67%,4.93%,4.09%,6.62%,4.75%,4.81%,5.51%,5.46%
August,13:00 - 13:59,5.13%,4.95%,5.12%,4.51%,5.02%,4.55%,6.32%,5.39%,5.05%,5.78%,4.71%,6.57%,5.51%,5.81%,5.31%,5.16%,5.91%,5.78%,4.79%,5.30%,4.44%,5.66%,4.39%,4.82%,5.31%,5.72%
August,14:00 - 14:59,4.35%,5.26%,4.70%,4.60%,4.70%,4.59%,6.14%,5.59%,5.49%,5.34%,5.52%,5.66%,5.49%,5.12%,5.39%,4.64%,5.49%,6.05%,5.81%,4.24%,5.11%,4.86%,4.83%,4.02%,5.31%,5.59%
August,15:00 - 15:59,4.06%,6.05%,4.93%,5.03%,5.03%,5.31%,6.02%,6.33%,5.90%,4.70%,6.71%,5.21%,6.10%,5.28%,5.65%,4.70%,5.47%,6.13%,7.14%,3.28%,6.53%,4.20%,5.69%,3.70%,5.71%,5.83%
August,16:00 - 16:59,4.31%,7.41%,5.67%,6.19%,5.87%,6.90%,6.52%,7.21%,7.14%,4.45%,8.53%,4.97%,7.02%,5.68%,6.75%,5.19%,6.14%,6.45%,9.21%,2.83%,8.15%,4.06%,7.85%,3.81%,6.74%,6.34%
August,17:00 - 17:59,5.24%,9.36%,7.49%,8.54%,7.76%,8.43%,7.45%,8.25%,11.08%,4.38%,10.81%,5.40%,7.76%,6.15%,7.69%,6.29%,6.05%,7.27%,11.66%,3.65%,9.39%,4.67%,10.10%,4.46%,7.41%,7.58%
August,18:00 - 18:59,5.24%,10.17%,6.65%,8.96%,6.28%,8.29%,7.54%,8.89%,9.43%,4.06%,11.40%,5.26%,7.91%,6.12%,7.59%,6.79%,5.64%,7.38%,9.76%,4.07%,9.60%,4.77%,9.39%,4.83%,7.07%,8.42%
August,19:00 - 19:59,5.28%,9.73%,5.39%,8.94%,5.01%,8.08%,6.80%,8.58%,7.77%,3.59%,9.33%,4.90%,7.14%,6.00%,6.36%,7.53%,5.09%,7.51%,8.89%,4.40%,10.38%,4.37%,8.55%,4.80%,6.55%,7.87%
August,20:00 - 20:59,4.52%,8.05%,4.02%,7.94%,3.98%,6.99%,5.54%,7.06%,6.56%,2.82%,6.68%,3.96%,5.82%,5.15%,5.15%,7.11%,4.27%,6.02%,6.44%,4.72%,9.18%,3.97%,6.65%,4.37%,5.08%,6.42%
August,21:00 - 21:59,3.49%,5.82%,2.83%,6.76%,2.25%,5.93%,3.95%,5.75%,3.40%,2.40%,4.86%,2.93%,4.67%,3.88%,4.01%,5.70%,3.54%,5.94%,4.35%,3.92%,9.03%,2.85%,4.30%,3.42%,3.74%,4.95%
August,22:00 - 22:59,0.04%,4.51%,0.08%,4.64%,0.13%,3.79%,0.28%,3.28%,0.60%,1.22%,1.96%,0.86%,1.69%,1.41%,1.52%,1.95%,1.55%,2.43%,2.29%,1.05%,3.69%,0.88%,1.67%,1.20%,1.10%,1.92%
August,23:00 - 23:59,0.00%,0.41%,0.00%,0.19%,0.00%,0.17%,0.00%,0.03%,0.00%,0.00%,0.00%,0.00%,0.00%,0.00%,0.00%,0.00%,0.00%,0.00%,0.00%,0.00%,0.00%,0.00%,0.00%,0.00%,0.00%,0.00%
August,00:00 - 00:59,0.00%,0.00%,0.00%,0.00%,0.00%,0.00%,0.00%,0.00%,0.00%,0.00%,0.00%,0.00%,0.00%,0.00%,0.00%,0.00%,0.00%,0.00%,0.00%,0.00%,0.00%,0.00%,0.00%,0.00%,0.00%,0.00%
August,01:00 - 01:59,0.00%,0.00%,0.00%,0.00%,0.00%,0.00%,0.00%,0.00%,0.00%,0.00%,0.00%,0.00%,0.00%,0.00%,0.00%,0.00%,0.00%,0.00%,0.00%,0.00%,0.00%,0.00%,0.00%,0.00%,0.00%,0.00%
August,02:00 - 02:59,0.00%,0.00%,0.00%,0.00%,0.00%,0.00%,0.00%,0.00%,0.00%,0.00%,0.00%,0.00%,0.00%,0.00%,0.00%,0.00%,0.00%,0.00%,0.00%,0.00%,0.00%,0.00%,0.00%,0.00%,0.00%,0.00%
