##### Flow Type: entry, Num Set: 0 ####################################

#### Searching optimal hyperparameters for: accuracy
Best parameters set found on development set:
{'shuffle': True, 'n_iter_no_change': 10, 'hidden_layer_sizes': (14, 14), 'validation_fraction': 0.1, 'activation': 'logistic', 'max_iter': 500, 'early_stopping': False, 'tol': 0.0001, 'alpha': 0.0001, 'solver': 'adam', 'learning_rate': 'constant', 'learning_rate_init': 0.001}

Grid scores on development set:
%0.3f (+/-%0.03f) for %r
%0.3f (+/-%0.03f) for %r
%0.3f (+/-%0.03f) for %r
%0.3f (+/-%0.03f) for %r
%0.3f (+/-%0.03f) for %r
%0.3f (+/-%0.03f) for %r
%0.3f (+/-%0.03f) for %r
%0.3f (+/-%0.03f) for %r
%0.3f (+/-%0.03f) for %r
%0.3f (+/-%0.03f) for %r
%0.3f (+/-%0.03f) for %r
%0.3f (+/-%0.03f) for %r
%0.3f (+/-%0.03f) for %r
%0.3f (+/-%0.03f) for %r
%0.3f (+/-%0.03f) for %r
%0.3f (+/-%0.03f) for %r
%0.3f (+/-%0.03f) for %r
%0.3f (+/-%0.03f) for %r
%0.3f (+/-%0.03f) for %r
%0.3f (+/-%0.03f) for %r
%0.3f (+/-%0.03f) for %r
%0.3f (+/-%0.03f) for %r
%0.3f (+/-%0.03f) for %r
%0.3f (+/-%0.03f) for %r
%0.3f (+/-%0.03f) for %r
%0.3f (+/-%0.03f) for %r
%0.3f (+/-%0.03f) for %r
%0.3f (+/-%0.03f) for %r
%0.3f (+/-%0.03f) for %r
%0.3f (+/-%0.03f) for %r
%0.3f (+/-%0.03f) for %r
%0.3f (+/-%0.03f) for %r
%0.3f (+/-%0.03f) for %r
%0.3f (+/-%0.03f) for %r
%0.3f (+/-%0.03f) for %r
%0.3f (+/-%0.03f) for %r
%0.3f (+/-%0.03f) for %r
%0.3f (+/-%0.03f) for %r
%0.3f (+/-%0.03f) for %r
%0.3f (+/-%0.03f) for %r
%0.3f (+/-%0.03f) for %r
%0.3f (+/-%0.03f) for %r
%0.3f (+/-%0.03f) for %r
%0.3f (+/-%0.03f) for %r
%0.3f (+/-%0.03f) for %r
%0.3f (+/-%0.03f) for %r
%0.3f (+/-%0.03f) for %r
%0.3f (+/-%0.03f) for %r
%0.3f (+/-%0.03f) for %r
%0.3f (+/-%0.03f) for %r
%0.3f (+/-%0.03f) for %r
%0.3f (+/-%0.03f) for %r
%0.3f (+/-%0.03f) for %r
%0.3f (+/-%0.03f) for %r
%0.3f (+/-%0.03f) for %r
%0.3f (+/-%0.03f) for %r
%0.3f (+/-%0.03f) for %r
%0.3f (+/-%0.03f) for %r
%0.3f (+/-%0.03f) for %r
%0.3f (+/-%0.03f) for %r
%0.3f (+/-%0.03f) for %r
%0.3f (+/-%0.03f) for %r
%0.3f (+/-%0.03f) for %r
%0.3f (+/-%0.03f) for %r
%0.3f (+/-%0.03f) for %r
%0.3f (+/-%0.03f) for %r
%0.3f (+/-%0.03f) for %r
%0.3f (+/-%0.03f) for %r
%0.3f (+/-%0.03f) for %r
%0.3f (+/-%0.03f) for %r
%0.3f (+/-%0.03f) for %r
%0.3f (+/-%0.03f) for %r
%0.3f (+/-%0.03f) for %r
%0.3f (+/-%0.03f) for %r
%0.3f (+/-%0.03f) for %r
%0.3f (+/-%0.03f) for %r
%0.3f (+/-%0.03f) for %r
%0.3f (+/-%0.03f) for %r
%0.3f (+/-%0.03f) for %r
%0.3f (+/-%0.03f) for %r
%0.3f (+/-%0.03f) for %r
%0.3f (+/-%0.03f) for %r
%0.3f (+/-%0.03f) for %r
%0.3f (+/-%0.03f) for %r
%0.3f (+/-%0.03f) for %r
%0.3f (+/-%0.03f) for %r
%0.3f (+/-%0.03f) for %r
%0.3f (+/-%0.03f) for %r
%0.3f (+/-%0.03f) for %r
%0.3f (+/-%0.03f) for %r
%0.3f (+/-%0.03f) for %r
%0.3f (+/-%0.03f) for %r
%0.3f (+/-%0.03f) for %r
%0.3f (+/-%0.03f) for %r
%0.3f (+/-%0.03f) for %r
%0.3f (+/-%0.03f) for %r
%0.3f (+/-%0.03f) for %r
%0.3f (+/-%0.03f) for %r
%0.3f (+/-%0.03f) for %r
%0.3f (+/-%0.03f) for %r
%0.3f (+/-%0.03f) for %r
%0.3f (+/-%0.03f) for %r
%0.3f (+/-%0.03f) for %r
%0.3f (+/-%0.03f) for %r
%0.3f (+/-%0.03f) for %r
%0.3f (+/-%0.03f) for %r
%0.3f (+/-%0.03f) for %r
%0.3f (+/-%0.03f) for %r
%0.3f (+/-%0.03f) for %r
%0.3f (+/-%0.03f) for %r
%0.3f (+/-%0.03f) for %r
%0.3f (+/-%0.03f) for %r
%0.3f (+/-%0.03f) for %r
%0.3f (+/-%0.03f) for %r
%0.3f (+/-%0.03f) for %r
%0.3f (+/-%0.03f) for %r
%0.3f (+/-%0.03f) for %r
%0.3f (+/-%0.03f) for %r
%0.3f (+/-%0.03f) for %r
%0.3f (+/-%0.03f) for %r
%0.3f (+/-%0.03f) for %r
%0.3f (+/-%0.03f) for %r
%0.3f (+/-%0.03f) for %r
%0.3f (+/-%0.03f) for %r
%0.3f (+/-%0.03f) for %r
%0.3f (+/-%0.03f) for %r
%0.3f (+/-%0.03f) for %r
%0.3f (+/-%0.03f) for %r
%0.3f (+/-%0.03f) for %r
%0.3f (+/-%0.03f) for %r
%0.3f (+/-%0.03f) for %r
%0.3f (+/-%0.03f) for %r
%0.3f (+/-%0.03f) for %r
%0.3f (+/-%0.03f) for %r
%0.3f (+/-%0.03f) for %r
%0.3f (+/-%0.03f) for %r
%0.3f (+/-%0.03f) for %r
%0.3f (+/-%0.03f) for %r
%0.3f (+/-%0.03f) for %r
%0.3f (+/-%0.03f) for %r
%0.3f (+/-%0.03f) for %r
%0.3f (+/-%0.03f) for %r
%0.3f (+/-%0.03f) for %r
%0.3f (+/-%0.03f) for %r
%0.3f (+/-%0.03f) for %r
%0.3f (+/-%0.03f) for %r
%0.3f (+/-%0.03f) for %r
%0.3f (+/-%0.03f) for %r
%0.3f (+/-%0.03f) for %r
%0.3f (+/-%0.03f) for %r
%0.3f (+/-%0.03f) for %r
%0.3f (+/-%0.03f) for %r
%0.3f (+/-%0.03f) for %r
%0.3f (+/-%0.03f) for %r
%0.3f (+/-%0.03f) for %r
%0.3f (+/-%0.03f) for %r
%0.3f (+/-%0.03f) for %r
%0.3f (+/-%0.03f) for %r
%0.3f (+/-%0.03f) for %r
%0.3f (+/-%0.03f) for %r
%0.3f (+/-%0.03f) for %r
%0.3f (+/-%0.03f) for %r
%0.3f (+/-%0.03f) for %r
%0.3f (+/-%0.03f) for %r
%0.3f (+/-%0.03f) for %r
%0.3f (+/-%0.03f) for %r
%0.3f (+/-%0.03f) for %r
%0.3f (+/-%0.03f) for %r
%0.3f (+/-%0.03f) for %r
%0.3f (+/-%0.03f) for %r
%0.3f (+/-%0.03f) for %r
%0.3f (+/-%0.03f) for %r
%0.3f (+/-%0.03f) for %r
%0.3f (+/-%0.03f) for %r
%0.3f (+/-%0.03f) for %r
%0.3f (+/-%0.03f) for %r
%0.3f (+/-%0.03f) for %r
%0.3f (+/-%0.03f) for %r
%0.3f (+/-%0.03f) for %r
%0.3f (+/-%0.03f) for %r
%0.3f (+/-%0.03f) for %r
%0.3f (+/-%0.03f) for %r
%0.3f (+/-%0.03f) for %r
%0.3f (+/-%0.03f) for %r
%0.3f (+/-%0.03f) for %r
%0.3f (+/-%0.03f) for %r
%0.3f (+/-%0.03f) for %r
%0.3f (+/-%0.03f) for %r
%0.3f (+/-%0.03f) for %r
%0.3f (+/-%0.03f) for %r
%0.3f (+/-%0.03f) for %r
%0.3f (+/-%0.03f) for %r
%0.3f (+/-%0.03f) for %r
%0.3f (+/-%0.03f) for %r
%0.3f (+/-%0.03f) for %r

