# ann_entry_5_v2_0
['station', 'month', 'day_of_the_week', 'hour']
# Num of nodes: 20, 0 -----------------------------------------------*****
## 0-kth fold --------------------------------
Training Time Elapsed: 00:05:27, 327.618677139
Training set score: 0.672118
Training set loss: 0.849187
MLP # layers: 3
MLP # outputs: 5
MLP # iterations: 500
MLP out_activation_: softmax
MLP classes: [0. 1. 2. 3. 4.]
Classifier saved to /home/paperspace/MSEE/cs280/cs280-mini-proj/src/ANN/_old_grid_search_5_tests_v2/../../../models/ann_entry_5_20_to_30_0_v2/ann_entry_5_v2_0/ann_0_20_0.pkl

Elapsed Seconds: 329.856472969
Total Time Elapsed: 00:05:29
Features in training dataset (80%):
Count: (205565,)
Counter({0.0: 41135, 3.0: 41135, 4.0: 41132, 2.0: 41083, 1.0: 41080})
Features in test dataset (20%):
Count: (51393,)
Counter({0.0: 10284, 3.0: 10284, 4.0: 10283, 1.0: 10271, 2.0: 10271})
Classification Report for Test Data (20%):
              precision    recall  f1-score   support

         0.0       0.78      0.68      0.72     10284
         1.0       0.65      0.55      0.59     10271
         2.0       0.51      0.51      0.51     10271
         3.0       0.62      0.66      0.64     10284
         4.0       0.75      0.91      0.82     10283

   micro avg       0.66      0.66      0.66     51393
   macro avg       0.66      0.66      0.66     51393
weighted avg       0.66      0.66      0.66     51393


Accuracy: 0.662210806919
## 1-kth fold --------------------------------
Training Time Elapsed: 00:05:05, 305.92689395
Training set score: 0.668778
Training set loss: 0.878878
MLP # layers: 3
MLP # outputs: 5
MLP # iterations: 465
MLP out_activation_: softmax
MLP classes: [0. 1. 2. 3. 4.]
Classifier saved to /home/paperspace/MSEE/cs280/cs280-mini-proj/src/ANN/_old_grid_search_5_tests_v2/../../../models/ann_entry_5_20_to_30_0_v2/ann_entry_5_v2_0/ann_1_20_0.pkl

Elapsed Seconds: 308.613259077
Total Time Elapsed: 00:05:08
Features in training dataset (80%):
Count: (205566,)
Counter({0.0: 41135, 3.0: 41135, 4.0: 41132, 2.0: 41083, 1.0: 41081})
Features in test dataset (20%):
Count: (51392,)
Counter({0.0: 10284, 3.0: 10284, 4.0: 10283, 2.0: 10271, 1.0: 10270})
Classification Report for Test Data (20%):
              precision    recall  f1-score   support

         0.0       0.75      0.77      0.76     10284
         1.0       0.63      0.53      0.57     10270
         2.0       0.54      0.52      0.53     10271
         3.0       0.64      0.68      0.66     10284
         4.0       0.80      0.88      0.84     10283

   micro avg       0.68      0.68      0.68     51392
   macro avg       0.67      0.68      0.67     51392
weighted avg       0.67      0.68      0.67     51392


Accuracy: 0.675319115816
## 2-kth fold --------------------------------
Training Time Elapsed: 00:05:28, 328.11676383
Training set score: 0.648449
Training set loss: 0.879303
MLP # layers: 3
MLP # outputs: 5
MLP # iterations: 500
MLP out_activation_: softmax
MLP classes: [0. 1. 2. 3. 4.]
Classifier saved to /home/paperspace/MSEE/cs280/cs280-mini-proj/src/ANN/_old_grid_search_5_tests_v2/../../../models/ann_entry_5_20_to_30_0_v2/ann_entry_5_v2_0/ann_2_20_0.pkl

Elapsed Seconds: 330.259627104
Total Time Elapsed: 00:05:30
Features in training dataset (80%):
Count: (205566,)
Counter({0.0: 41135, 3.0: 41135, 4.0: 41132, 2.0: 41083, 1.0: 41081})
Features in test dataset (20%):
Count: (51392,)
Counter({0.0: 10284, 3.0: 10284, 4.0: 10283, 2.0: 10271, 1.0: 10270})
Classification Report for Test Data (20%):
              precision    recall  f1-score   support

         0.0       0.76      0.68      0.72     10284
         1.0       0.66      0.55      0.60     10270
         2.0       0.49      0.54      0.51     10271
         3.0       0.58      0.62      0.60     10284
         4.0       0.79      0.89      0.84     10283

   micro avg       0.65      0.65      0.65     51392
   macro avg       0.66      0.65      0.65     51392
weighted avg       0.66      0.65      0.65     51392


Accuracy: 0.654537671233
## 3-kth fold --------------------------------
Training Time Elapsed: 00:05:28, 328.721142054
Training set score: 0.658207
Training set loss: 0.877452
MLP # layers: 3
MLP # outputs: 5
MLP # iterations: 500
MLP out_activation_: softmax
MLP classes: [0. 1. 2. 3. 4.]
Classifier saved to /home/paperspace/MSEE/cs280/cs280-mini-proj/src/ANN/_old_grid_search_5_tests_v2/../../../models/ann_entry_5_20_to_30_0_v2/ann_entry_5_v2_0/ann_3_20_0.pkl

Elapsed Seconds: 330.985120058
Total Time Elapsed: 00:05:30
Features in training dataset (80%):
Count: (205566,)
Counter({0.0: 41135, 3.0: 41135, 4.0: 41132, 2.0: 41083, 1.0: 41081})
Features in test dataset (20%):
Count: (51392,)
Counter({0.0: 10284, 3.0: 10284, 4.0: 10283, 2.0: 10271, 1.0: 10270})
Classification Report for Test Data (20%):
              precision    recall  f1-score   support

         0.0       0.63      0.73      0.67     10284
         1.0       0.49      0.46      0.48     10270
         2.0       0.48      0.54      0.51     10271
         3.0       0.52      0.52      0.52     10284
         4.0       0.87      0.69      0.77     10283

   micro avg       0.59      0.59      0.59     51392
   macro avg       0.60      0.59      0.59     51392
weighted avg       0.60      0.59      0.59     51392


Accuracy: 0.587075809465
## 4-kth fold --------------------------------
Training Time Elapsed: 00:04:51, 291.456270933
Training set score: 0.648035
Training set loss: 0.884418
MLP # layers: 3
MLP # outputs: 5
MLP # iterations: 451
MLP out_activation_: softmax
MLP classes: [0. 1. 2. 3. 4.]
Classifier saved to /home/paperspace/MSEE/cs280/cs280-mini-proj/src/ANN/_old_grid_search_5_tests_v2/../../../models/ann_entry_5_20_to_30_0_v2/ann_entry_5_v2_0/ann_4_20_0.pkl

Elapsed Seconds: 293.719592094
Total Time Elapsed: 00:04:53
Features in training dataset (80%):
Count: (205569,)
Counter({0.0: 41136, 3.0: 41136, 4.0: 41132, 2.0: 41084, 1.0: 41081})
Features in test dataset (20%):
Count: (51389,)
Counter({0.0: 10283, 3.0: 10283, 4.0: 10283, 1.0: 10270, 2.0: 10270})
Classification Report for Test Data (20%):
              precision    recall  f1-score   support

         0.0       0.73      0.78      0.75     10283
         1.0       0.61      0.48      0.54     10270
         2.0       0.50      0.45      0.48     10270
         3.0       0.53      0.56      0.55     10283
         4.0       0.78      0.91      0.84     10283

   micro avg       0.64      0.64      0.64     51389
   macro avg       0.63      0.64      0.63     51389
weighted avg       0.63      0.64      0.63     51389


Accuracy: 0.63863861916
Sorted List of Temp Training Scores: 
[]

Sorted List of Temp Test Accuracies: 
[]

Average Training Accuracy for: (20, 0)
0.659117488312

Average Test Accuracy for: (20, 0)
0.643556404518

Elapsed Seconds: 1595.23227096
Total Time Elapsed: 00:26:35
# Num of nodes: 21, 0 -----------------------------------------------*****
## 0-kth fold --------------------------------
Training Time Elapsed: 00:05:35, 335.185370922
Training set score: 0.672011
Training set loss: 0.845964
MLP # layers: 3
MLP # outputs: 5
MLP # iterations: 500
MLP out_activation_: softmax
MLP classes: [0. 1. 2. 3. 4.]
Classifier saved to /home/paperspace/MSEE/cs280/cs280-mini-proj/src/ANN/_old_grid_search_5_tests_v2/../../../models/ann_entry_5_20_to_30_0_v2/ann_entry_5_v2_0/ann_0_21_0.pkl

Elapsed Seconds: 337.390791893
Total Time Elapsed: 00:05:37
Features in training dataset (80%):
Count: (205565,)
Counter({0.0: 41135, 3.0: 41135, 4.0: 41132, 2.0: 41083, 1.0: 41080})
Features in test dataset (20%):
Count: (51393,)
Counter({0.0: 10284, 3.0: 10284, 4.0: 10283, 1.0: 10271, 2.0: 10271})
Classification Report for Test Data (20%):
              precision    recall  f1-score   support

         0.0       0.74      0.73      0.73     10284
         1.0       0.62      0.56      0.59     10271
         2.0       0.57      0.46      0.51     10271
         3.0       0.57      0.63      0.60     10284
         4.0       0.78      0.93      0.85     10283

   micro avg       0.66      0.66      0.66     51393
   macro avg       0.66      0.66      0.66     51393
weighted avg       0.66      0.66      0.66     51393


Accuracy: 0.663047496741
## 1-kth fold --------------------------------
Training Time Elapsed: 00:05:39, 339.07081008
Training set score: 0.624383
Training set loss: 0.934340
MLP # layers: 3
MLP # outputs: 5
MLP # iterations: 500
MLP out_activation_: softmax
MLP classes: [0. 1. 2. 3. 4.]
Classifier saved to /home/paperspace/MSEE/cs280/cs280-mini-proj/src/ANN/_old_grid_search_5_tests_v2/../../../models/ann_entry_5_20_to_30_0_v2/ann_entry_5_v2_0/ann_1_21_0.pkl

Elapsed Seconds: 341.329744101
Total Time Elapsed: 00:05:41
Features in training dataset (80%):
Count: (205566,)
Counter({0.0: 41135, 3.0: 41135, 4.0: 41132, 2.0: 41083, 1.0: 41081})
Features in test dataset (20%):
Count: (51392,)
Counter({0.0: 10284, 3.0: 10284, 4.0: 10283, 2.0: 10271, 1.0: 10270})
Classification Report for Test Data (20%):
              precision    recall  f1-score   support

         0.0       0.76      0.74      0.75     10284
         1.0       0.53      0.56      0.55     10270
         2.0       0.55      0.42      0.48     10271
         3.0       0.54      0.61      0.58     10284
         4.0       0.80      0.86      0.82     10283

   micro avg       0.64      0.64      0.64     51392
   macro avg       0.64      0.64      0.63     51392
weighted avg       0.64      0.64      0.63     51392


Accuracy: 0.638192714819
## 2-kth fold --------------------------------
Training Time Elapsed: 00:04:14, 254.803313971
Training set score: 0.644664
Training set loss: 0.892417
MLP # layers: 3
MLP # outputs: 5
MLP # iterations: 375
MLP out_activation_: softmax
MLP classes: [0. 1. 2. 3. 4.]
Classifier saved to /home/paperspace/MSEE/cs280/cs280-mini-proj/src/ANN/_old_grid_search_5_tests_v2/../../../models/ann_entry_5_20_to_30_0_v2/ann_entry_5_v2_0/ann_2_21_0.pkl

Elapsed Seconds: 257.458749056
Total Time Elapsed: 00:04:17
Features in training dataset (80%):
Count: (205566,)
Counter({0.0: 41135, 3.0: 41135, 4.0: 41132, 2.0: 41083, 1.0: 41081})
Features in test dataset (20%):
Count: (51392,)
Counter({0.0: 10284, 3.0: 10284, 4.0: 10283, 2.0: 10271, 1.0: 10270})
Classification Report for Test Data (20%):
              precision    recall  f1-score   support

         0.0       0.75      0.67      0.71     10284
         1.0       0.61      0.60      0.60     10270
         2.0       0.54      0.45      0.49     10271
         3.0       0.55      0.65      0.60     10284
         4.0       0.79      0.88      0.83     10283

   micro avg       0.65      0.65      0.65     51392
   macro avg       0.65      0.65      0.65     51392
weighted avg       0.65      0.65      0.65     51392


Accuracy: 0.648583437111
## 3-kth fold --------------------------------
Training Time Elapsed: 00:05:38, 338.05370903
Training set score: 0.709397
Training set loss: 0.788643
MLP # layers: 3
MLP # outputs: 5
MLP # iterations: 500
MLP out_activation_: softmax
MLP classes: [0. 1. 2. 3. 4.]
Classifier saved to /home/paperspace/MSEE/cs280/cs280-mini-proj/src/ANN/_old_grid_search_5_tests_v2/../../../models/ann_entry_5_20_to_30_0_v2/ann_entry_5_v2_0/ann_3_21_0.pkl

Elapsed Seconds: 340.466137171
Total Time Elapsed: 00:05:40
Features in training dataset (80%):
Count: (205566,)
Counter({0.0: 41135, 3.0: 41135, 4.0: 41132, 2.0: 41083, 1.0: 41081})
Features in test dataset (20%):
Count: (51392,)
Counter({0.0: 10284, 3.0: 10284, 4.0: 10283, 2.0: 10271, 1.0: 10270})
Classification Report for Test Data (20%):
              precision    recall  f1-score   support

         0.0       0.68      0.76      0.72     10284
         1.0       0.55      0.60      0.57     10270
         2.0       0.49      0.56      0.52     10271
         3.0       0.55      0.48      0.52     10284
         4.0       0.89      0.69      0.78     10283

   micro avg       0.62      0.62      0.62     51392
   macro avg       0.63      0.62      0.62     51392
weighted avg       0.63      0.62      0.62     51392


Accuracy: 0.619376556663
## 4-kth fold --------------------------------
Training Time Elapsed: 00:04:33, 273.704526901
Training set score: 0.653751
Training set loss: 0.884342
MLP # layers: 3
MLP # outputs: 5
MLP # iterations: 410
MLP out_activation_: softmax
MLP classes: [0. 1. 2. 3. 4.]
Classifier saved to /home/paperspace/MSEE/cs280/cs280-mini-proj/src/ANN/_old_grid_search_5_tests_v2/../../../models/ann_entry_5_20_to_30_0_v2/ann_entry_5_v2_0/ann_4_21_0.pkl

Elapsed Seconds: 276.089599133
Total Time Elapsed: 00:04:36
Features in training dataset (80%):
Count: (205569,)
Counter({0.0: 41136, 3.0: 41136, 4.0: 41132, 2.0: 41084, 1.0: 41081})
Features in test dataset (20%):
Count: (51389,)
Counter({0.0: 10283, 3.0: 10283, 4.0: 10283, 1.0: 10270, 2.0: 10270})
Classification Report for Test Data (20%):
              precision    recall  f1-score   support

         0.0       0.74      0.71      0.73     10283
         1.0       0.59      0.53      0.56     10270
         2.0       0.54      0.46      0.50     10270
         3.0       0.56      0.62      0.59     10283
         4.0       0.78      0.90      0.83     10283

   micro avg       0.65      0.65      0.65     51389
   macro avg       0.64      0.65      0.64     51389
weighted avg       0.64      0.65      0.64     51389


Accuracy: 0.647220222227
Sorted List of Temp Training Scores: 
[[(20, 0), 0.6591174883122206]]

Sorted List of Temp Test Accuracies: 
[[(20, 0), 0.6435564045184098]]

Average Training Accuracy for: (21, 0)
0.660841492034

Average Test Accuracy for: (21, 0)
0.643284085512

Elapsed Seconds: 1554.88337493
Total Time Elapsed: 00:25:54
# Num of nodes: 22, 0 -----------------------------------------------*****
## 0-kth fold --------------------------------
Training Time Elapsed: 00:05:38, 338.50084281
Training set score: 0.717836
Training set loss: 0.785756
MLP # layers: 3
MLP # outputs: 5
MLP # iterations: 500
MLP out_activation_: softmax
MLP classes: [0. 1. 2. 3. 4.]
Classifier saved to /home/paperspace/MSEE/cs280/cs280-mini-proj/src/ANN/_old_grid_search_5_tests_v2/../../../models/ann_entry_5_20_to_30_0_v2/ann_entry_5_v2_0/ann_0_22_0.pkl

Elapsed Seconds: 340.682041883
Total Time Elapsed: 00:05:40
Features in training dataset (80%):
Count: (205565,)
Counter({0.0: 41135, 3.0: 41135, 4.0: 41132, 2.0: 41083, 1.0: 41080})
Features in test dataset (20%):
Count: (51393,)
Counter({0.0: 10284, 3.0: 10284, 4.0: 10283, 1.0: 10271, 2.0: 10271})
Classification Report for Test Data (20%):
              precision    recall  f1-score   support

         0.0       0.84      0.72      0.78     10284
         1.0       0.72      0.63      0.67     10271
         2.0       0.60      0.58      0.59     10271
         3.0       0.62      0.67      0.65     10284
         4.0       0.77      0.92      0.84     10283

   micro avg       0.71      0.71      0.71     51393
   macro avg       0.71      0.71      0.70     51393
weighted avg       0.71      0.71      0.70     51393


Accuracy: 0.706224583114
## 1-kth fold --------------------------------
Training Time Elapsed: 00:05:42, 342.824486017
Training set score: 0.692342
Training set loss: 0.819112
MLP # layers: 3
MLP # outputs: 5
MLP # iterations: 500
MLP out_activation_: softmax
MLP classes: [0. 1. 2. 3. 4.]
Classifier saved to /home/paperspace/MSEE/cs280/cs280-mini-proj/src/ANN/_old_grid_search_5_tests_v2/../../../models/ann_entry_5_20_to_30_0_v2/ann_entry_5_v2_0/ann_1_22_0.pkl

Elapsed Seconds: 345.056622028
Total Time Elapsed: 00:05:45
Features in training dataset (80%):
Count: (205566,)
Counter({0.0: 41135, 3.0: 41135, 4.0: 41132, 2.0: 41083, 1.0: 41081})
Features in test dataset (20%):
Count: (51392,)
Counter({0.0: 10284, 3.0: 10284, 4.0: 10283, 2.0: 10271, 1.0: 10270})
Classification Report for Test Data (20%):
              precision    recall  f1-score   support

         0.0       0.83      0.76      0.79     10284
         1.0       0.64      0.65      0.64     10270
         2.0       0.60      0.55      0.57     10271
         3.0       0.63      0.68      0.65     10284
         4.0       0.83      0.87      0.85     10283

   micro avg       0.70      0.70      0.70     51392
   macro avg       0.70      0.70      0.70     51392
weighted avg       0.70      0.70      0.70     51392


Accuracy: 0.703553082192
## 2-kth fold --------------------------------
Training Time Elapsed: 00:05:40, 340.656147957
Training set score: 0.684578
Training set loss: 0.836763
MLP # layers: 3
MLP # outputs: 5
MLP # iterations: 500
MLP out_activation_: softmax
MLP classes: [0. 1. 2. 3. 4.]
Classifier saved to /home/paperspace/MSEE/cs280/cs280-mini-proj/src/ANN/_old_grid_search_5_tests_v2/../../../models/ann_entry_5_20_to_30_0_v2/ann_entry_5_v2_0/ann_2_22_0.pkl

Elapsed Seconds: 342.689121962
Total Time Elapsed: 00:05:42
Features in training dataset (80%):
Count: (205566,)
Counter({0.0: 41135, 3.0: 41135, 4.0: 41132, 2.0: 41083, 1.0: 41081})
Features in test dataset (20%):
Count: (51392,)
Counter({0.0: 10284, 3.0: 10284, 4.0: 10283, 2.0: 10271, 1.0: 10270})
Classification Report for Test Data (20%):
              precision    recall  f1-score   support

         0.0       0.77      0.71      0.73     10284
         1.0       0.66      0.62      0.64     10270
         2.0       0.61      0.54      0.57     10271
         3.0       0.59      0.70      0.64     10284
         4.0       0.83      0.88      0.85     10283

   micro avg       0.69      0.69      0.69     51392
   macro avg       0.69      0.69      0.69     51392
weighted avg       0.69      0.69      0.69     51392


Accuracy: 0.688181039851
## 3-kth fold --------------------------------
Training Time Elapsed: 00:05:39, 339.040068865
Training set score: 0.689487
Training set loss: 0.809670
MLP # layers: 3
MLP # outputs: 5
MLP # iterations: 500
MLP out_activation_: softmax
MLP classes: [0. 1. 2. 3. 4.]
Classifier saved to /home/paperspace/MSEE/cs280/cs280-mini-proj/src/ANN/_old_grid_search_5_tests_v2/../../../models/ann_entry_5_20_to_30_0_v2/ann_entry_5_v2_0/ann_3_22_0.pkl

Elapsed Seconds: 341.284961939
Total Time Elapsed: 00:05:41
Features in training dataset (80%):
Count: (205566,)
Counter({0.0: 41135, 3.0: 41135, 4.0: 41132, 2.0: 41083, 1.0: 41081})
Features in test dataset (20%):
Count: (51392,)
Counter({0.0: 10284, 3.0: 10284, 4.0: 10283, 2.0: 10271, 1.0: 10270})
Classification Report for Test Data (20%):
              precision    recall  f1-score   support

         0.0       0.69      0.75      0.72     10284
         1.0       0.54      0.61      0.57     10270
         2.0       0.49      0.46      0.48     10271
         3.0       0.51      0.54      0.52     10284
         4.0       0.90      0.72      0.80     10283

   micro avg       0.61      0.61      0.61     51392
   macro avg       0.63      0.61      0.62     51392
weighted avg       0.63      0.61      0.62     51392


Accuracy: 0.613967154421
## 4-kth fold --------------------------------
Training Time Elapsed: 00:05:58, 358.245239019
Training set score: 0.708424
Training set loss: 0.805677
MLP # layers: 3
MLP # outputs: 5
MLP # iterations: 500
MLP out_activation_: softmax
MLP classes: [0. 1. 2. 3. 4.]
Classifier saved to /home/paperspace/MSEE/cs280/cs280-mini-proj/src/ANN/_old_grid_search_5_tests_v2/../../../models/ann_entry_5_20_to_30_0_v2/ann_entry_5_v2_0/ann_4_22_0.pkl

Elapsed Seconds: 360.66561985
Total Time Elapsed: 00:06:00
Features in training dataset (80%):
Count: (205569,)
Counter({0.0: 41136, 3.0: 41136, 4.0: 41132, 2.0: 41084, 1.0: 41081})
Features in test dataset (20%):
Count: (51389,)
Counter({0.0: 10283, 3.0: 10283, 4.0: 10283, 1.0: 10270, 2.0: 10270})
Classification Report for Test Data (20%):
              precision    recall  f1-score   support

         0.0       0.78      0.75      0.76     10283
         1.0       0.64      0.58      0.61     10270
         2.0       0.60      0.63      0.62     10270
         3.0       0.67      0.66      0.66     10283
         4.0       0.81      0.89      0.85     10283

   micro avg       0.70      0.70      0.70     51389
   macro avg       0.70      0.70      0.70     51389
weighted avg       0.70      0.70      0.70     51389


Accuracy: 0.700986592461
Sorted List of Temp Training Scores: 
[[(21, 0), 0.6608414920340916], [(20, 0), 0.6591174883122206]]

Sorted List of Temp Test Accuracies: 
[[(20, 0), 0.6435564045184098], [(21, 0), 0.6432840855120249]]

Average Training Accuracy for: (22, 0)
0.698533407825

Average Test Accuracy for: (22, 0)
0.682582490408

Elapsed Seconds: 1732.291219
Total Time Elapsed: 00:28:52
# Num of nodes: 23, 0 -----------------------------------------------*****
## 0-kth fold --------------------------------
Training Time Elapsed: 00:05:28, 328.018004894
Training set score: 0.671603
Training set loss: 0.847401
MLP # layers: 3
MLP # outputs: 5
MLP # iterations: 457
MLP out_activation_: softmax
MLP classes: [0. 1. 2. 3. 4.]
Classifier saved to /home/paperspace/MSEE/cs280/cs280-mini-proj/src/ANN/_old_grid_search_5_tests_v2/../../../models/ann_entry_5_20_to_30_0_v2/ann_entry_5_v2_0/ann_0_23_0.pkl

Elapsed Seconds: 330.650415897
Total Time Elapsed: 00:05:30
Features in training dataset (80%):
Count: (205565,)
Counter({0.0: 41135, 3.0: 41135, 4.0: 41132, 2.0: 41083, 1.0: 41080})
Features in test dataset (20%):
Count: (51393,)
Counter({0.0: 10284, 3.0: 10284, 4.0: 10283, 1.0: 10271, 2.0: 10271})
Classification Report for Test Data (20%):
              precision    recall  f1-score   support

         0.0       0.76      0.72      0.74     10284
         1.0       0.62      0.56      0.59     10271
         2.0       0.57      0.47      0.51     10271
         3.0       0.57      0.66      0.61     10284
         4.0       0.78      0.92      0.84     10283

   micro avg       0.66      0.66      0.66     51393
   macro avg       0.66      0.66      0.66     51393
weighted avg       0.66      0.66      0.66     51393


Accuracy: 0.664584671064
## 1-kth fold --------------------------------
Training Time Elapsed: 00:06:14, 374.622653961
Training set score: 0.638632
Training set loss: 0.900745
MLP # layers: 3
MLP # outputs: 5
MLP # iterations: 500
MLP out_activation_: softmax
MLP classes: [0. 1. 2. 3. 4.]
Classifier saved to /home/paperspace/MSEE/cs280/cs280-mini-proj/src/ANN/_old_grid_search_5_tests_v2/../../../models/ann_entry_5_20_to_30_0_v2/ann_entry_5_v2_0/ann_1_23_0.pkl

Elapsed Seconds: 377.196327925
Total Time Elapsed: 00:06:17
Features in training dataset (80%):
Count: (205566,)
Counter({0.0: 41135, 3.0: 41135, 4.0: 41132, 2.0: 41083, 1.0: 41081})
Features in test dataset (20%):
Count: (51392,)
Counter({0.0: 10284, 3.0: 10284, 4.0: 10283, 2.0: 10271, 1.0: 10270})
Classification Report for Test Data (20%):
              precision    recall  f1-score   support

         0.0       0.74      0.74      0.74     10284
         1.0       0.57      0.50      0.54     10270
         2.0       0.48      0.48      0.48     10271
         3.0       0.59      0.60      0.59     10284
         4.0       0.81      0.90      0.85     10283

   micro avg       0.64      0.64      0.64     51392
   macro avg       0.64      0.64      0.64     51392
weighted avg       0.64      0.64      0.64     51392


Accuracy: 0.643154576588
## 2-kth fold --------------------------------
Training Time Elapsed: 00:06:12, 372.35324502
Training set score: 0.689574
Training set loss: 0.820799
MLP # layers: 3
MLP # outputs: 5
MLP # iterations: 500
MLP out_activation_: softmax
MLP classes: [0. 1. 2. 3. 4.]
Classifier saved to /home/paperspace/MSEE/cs280/cs280-mini-proj/src/ANN/_old_grid_search_5_tests_v2/../../../models/ann_entry_5_20_to_30_0_v2/ann_entry_5_v2_0/ann_2_23_0.pkl

Elapsed Seconds: 374.612864017
Total Time Elapsed: 00:06:14
Features in training dataset (80%):
Count: (205566,)
Counter({0.0: 41135, 3.0: 41135, 4.0: 41132, 2.0: 41083, 1.0: 41081})
Features in test dataset (20%):
Count: (51392,)
Counter({0.0: 10284, 3.0: 10284, 4.0: 10283, 2.0: 10271, 1.0: 10270})
Classification Report for Test Data (20%):
              precision    recall  f1-score   support

         0.0       0.80      0.73      0.76     10284
         1.0       0.70      0.62      0.65     10270
         2.0       0.58      0.56      0.57     10271
         3.0       0.59      0.67      0.63     10284
         4.0       0.82      0.91      0.86     10283

   micro avg       0.70      0.70      0.70     51392
   macro avg       0.70      0.70      0.69     51392
weighted avg       0.70      0.70      0.70     51392


Accuracy: 0.696158935243
## 3-kth fold --------------------------------
Training Time Elapsed: 00:06:41, 401.84534502
Training set score: 0.689769
Training set loss: 0.824084
MLP # layers: 3
MLP # outputs: 5
MLP # iterations: 500
MLP out_activation_: softmax
MLP classes: [0. 1. 2. 3. 4.]
Classifier saved to /home/paperspace/MSEE/cs280/cs280-mini-proj/src/ANN/_old_grid_search_5_tests_v2/../../../models/ann_entry_5_20_to_30_0_v2/ann_entry_5_v2_0/ann_3_23_0.pkl

Elapsed Seconds: 404.39999485
Total Time Elapsed: 00:06:44
Features in training dataset (80%):
Count: (205566,)
Counter({0.0: 41135, 3.0: 41135, 4.0: 41132, 2.0: 41083, 1.0: 41081})
Features in test dataset (20%):
Count: (51392,)
Counter({0.0: 10284, 3.0: 10284, 4.0: 10283, 2.0: 10271, 1.0: 10270})
Classification Report for Test Data (20%):
              precision    recall  f1-score   support

         0.0       0.68      0.77      0.72     10284
         1.0       0.52      0.58      0.55     10270
         2.0       0.51      0.50      0.50     10271
         3.0       0.53      0.51      0.52     10284
         4.0       0.88      0.72      0.79     10283

   micro avg       0.62      0.62      0.62     51392
   macro avg       0.63      0.62      0.62     51392
weighted avg       0.63      0.62      0.62     51392


Accuracy: 0.616341064757
## 4-kth fold --------------------------------
Training Time Elapsed: 00:07:12, 432.960142851
Training set score: 0.676955
Training set loss: 0.840528
MLP # layers: 3
MLP # outputs: 5
MLP # iterations: 500
MLP out_activation_: softmax
MLP classes: [0. 1. 2. 3. 4.]
Classifier saved to /home/paperspace/MSEE/cs280/cs280-mini-proj/src/ANN/_old_grid_search_5_tests_v2/../../../models/ann_entry_5_20_to_30_0_v2/ann_entry_5_v2_0/ann_4_23_0.pkl

Elapsed Seconds: 435.960258007
Total Time Elapsed: 00:07:15
Features in training dataset (80%):
Count: (205569,)
Counter({0.0: 41136, 3.0: 41136, 4.0: 41132, 2.0: 41084, 1.0: 41081})
Features in test dataset (20%):
Count: (51389,)
Counter({0.0: 10283, 3.0: 10283, 4.0: 10283, 1.0: 10270, 2.0: 10270})
Classification Report for Test Data (20%):
              precision    recall  f1-score   support

         0.0       0.78      0.77      0.78     10283
         1.0       0.62      0.59      0.61     10270
         2.0       0.57      0.49      0.52     10270
         3.0       0.57      0.62      0.59     10283
         4.0       0.80      0.91      0.85     10283

   micro avg       0.68      0.68      0.68     51389
   macro avg       0.67      0.68      0.67     51389
weighted avg       0.67      0.68      0.67     51389


Accuracy: 0.675377999183
Sorted List of Temp Training Scores: 
[[(22, 0), 0.6985334078246412], [(21, 0), 0.6608414920340916], [(20, 0), 0.6591174883122206]]

Sorted List of Temp Test Accuracies: 
[[(22, 0), 0.6825824904078233], [(20, 0), 0.6435564045184098], [(21, 0), 0.6432840855120249]]

Average Training Accuracy for: (23, 0)
0.673306520278

Average Test Accuracy for: (23, 0)
0.659123449367

Elapsed Seconds: 1925.15057898
Total Time Elapsed: 00:32:05
# Num of nodes: 24, 0 -----------------------------------------------*****
## 0-kth fold --------------------------------
Training Time Elapsed: 00:06:01, 361.233777046
Training set score: 0.690463
Training set loss: 0.837111
MLP # layers: 3
MLP # outputs: 5
MLP # iterations: 500
MLP out_activation_: softmax
MLP classes: [0. 1. 2. 3. 4.]
Classifier saved to /home/paperspace/MSEE/cs280/cs280-mini-proj/src/ANN/_old_grid_search_5_tests_v2/../../../models/ann_entry_5_20_to_30_0_v2/ann_entry_5_v2_0/ann_0_24_0.pkl

Elapsed Seconds: 364.021559
Total Time Elapsed: 00:06:04
Features in training dataset (80%):
Count: (205565,)
Counter({0.0: 41135, 3.0: 41135, 4.0: 41132, 2.0: 41083, 1.0: 41080})
Features in test dataset (20%):
Count: (51393,)
Counter({0.0: 10284, 3.0: 10284, 4.0: 10283, 1.0: 10271, 2.0: 10271})
Classification Report for Test Data (20%):
              precision    recall  f1-score   support

         0.0       0.74      0.68      0.71     10284
         1.0       0.65      0.55      0.59     10271
         2.0       0.58      0.57      0.58     10271
         3.0       0.62      0.66      0.64     10284
         4.0       0.78      0.94      0.85     10283

   micro avg       0.68      0.68      0.68     51393
   macro avg       0.67      0.68      0.67     51393
weighted avg       0.67      0.68      0.67     51393


Accuracy: 0.678224660946
## 1-kth fold --------------------------------
Training Time Elapsed: 00:05:50, 350.656497955
Training set score: 0.716257
Training set loss: 0.790091
MLP # layers: 3
MLP # outputs: 5
MLP # iterations: 500
MLP out_activation_: softmax
MLP classes: [0. 1. 2. 3. 4.]
Classifier saved to /home/paperspace/MSEE/cs280/cs280-mini-proj/src/ANN/_old_grid_search_5_tests_v2/../../../models/ann_entry_5_20_to_30_0_v2/ann_entry_5_v2_0/ann_1_24_0.pkl

Elapsed Seconds: 352.855815887
Total Time Elapsed: 00:05:52
Features in training dataset (80%):
Count: (205566,)
Counter({0.0: 41135, 3.0: 41135, 4.0: 41132, 2.0: 41083, 1.0: 41081})
Features in test dataset (20%):
Count: (51392,)
Counter({0.0: 10284, 3.0: 10284, 4.0: 10283, 2.0: 10271, 1.0: 10270})
Classification Report for Test Data (20%):
              precision    recall  f1-score   support

         0.0       0.81      0.81      0.81     10284
         1.0       0.70      0.62      0.66     10270
         2.0       0.63      0.62      0.63     10271
         3.0       0.66      0.71      0.69     10284
         4.0       0.85      0.88      0.87     10283

   micro avg       0.73      0.73      0.73     51392
   macro avg       0.73      0.73      0.73     51392
weighted avg       0.73      0.73      0.73     51392


Accuracy: 0.729374221669
## 2-kth fold --------------------------------
Training Time Elapsed: 00:05:50, 350.212509155
Training set score: 0.689847
Training set loss: 0.814805
MLP # layers: 3
MLP # outputs: 5
MLP # iterations: 500
MLP out_activation_: softmax
MLP classes: [0. 1. 2. 3. 4.]
Classifier saved to /home/paperspace/MSEE/cs280/cs280-mini-proj/src/ANN/_old_grid_search_5_tests_v2/../../../models/ann_entry_5_20_to_30_0_v2/ann_entry_5_v2_0/ann_2_24_0.pkl

Elapsed Seconds: 352.511534929
Total Time Elapsed: 00:05:52
Features in training dataset (80%):
Count: (205566,)
Counter({0.0: 41135, 3.0: 41135, 4.0: 41132, 2.0: 41083, 1.0: 41081})
Features in test dataset (20%):
Count: (51392,)
Counter({0.0: 10284, 3.0: 10284, 4.0: 10283, 2.0: 10271, 1.0: 10270})
Classification Report for Test Data (20%):
              precision    recall  f1-score   support

         0.0       0.76      0.72      0.74     10284
         1.0       0.67      0.57      0.62     10270
         2.0       0.59      0.56      0.57     10271
         3.0       0.61      0.74      0.67     10284
         4.0       0.84      0.85      0.84     10283

   micro avg       0.69      0.69      0.69     51392
   macro avg       0.69      0.69      0.69     51392
weighted avg       0.69      0.69      0.69     51392


Accuracy: 0.689912826899
## 3-kth fold --------------------------------
Training Time Elapsed: 00:05:58, 358.661412954
Training set score: 0.707894
Training set loss: 0.790232
MLP # layers: 3
MLP # outputs: 5
MLP # iterations: 500
MLP out_activation_: softmax
MLP classes: [0. 1. 2. 3. 4.]
Classifier saved to /home/paperspace/MSEE/cs280/cs280-mini-proj/src/ANN/_old_grid_search_5_tests_v2/../../../models/ann_entry_5_20_to_30_0_v2/ann_entry_5_v2_0/ann_3_24_0.pkl

Elapsed Seconds: 361.295537949
Total Time Elapsed: 00:06:01
Features in training dataset (80%):
Count: (205566,)
Counter({0.0: 41135, 3.0: 41135, 4.0: 41132, 2.0: 41083, 1.0: 41081})
Features in test dataset (20%):
Count: (51392,)
Counter({0.0: 10284, 3.0: 10284, 4.0: 10283, 2.0: 10271, 1.0: 10270})
Classification Report for Test Data (20%):
              precision    recall  f1-score   support

         0.0       0.66      0.75      0.70     10284
         1.0       0.59      0.58      0.59     10270
         2.0       0.52      0.58      0.55     10271
         3.0       0.57      0.53      0.55     10284
         4.0       0.88      0.71      0.79     10283

   micro avg       0.63      0.63      0.63     51392
   macro avg       0.64      0.63      0.63     51392
weighted avg       0.64      0.63      0.63     51392


Accuracy: 0.631323941469
## 4-kth fold --------------------------------
Training Time Elapsed: 00:06:09, 369.419023037
Training set score: 0.722390
Training set loss: 0.786299
MLP # layers: 3
MLP # outputs: 5
MLP # iterations: 500
MLP out_activation_: softmax
MLP classes: [0. 1. 2. 3. 4.]
Classifier saved to /home/paperspace/MSEE/cs280/cs280-mini-proj/src/ANN/_old_grid_search_5_tests_v2/../../../models/ann_entry_5_20_to_30_0_v2/ann_entry_5_v2_0/ann_4_24_0.pkl

Elapsed Seconds: 372.017348051
Total Time Elapsed: 00:06:12
Features in training dataset (80%):
Count: (205569,)
Counter({0.0: 41136, 3.0: 41136, 4.0: 41132, 2.0: 41084, 1.0: 41081})
Features in test dataset (20%):
Count: (51389,)
Counter({0.0: 10283, 3.0: 10283, 4.0: 10283, 1.0: 10270, 2.0: 10270})
Classification Report for Test Data (20%):
              precision    recall  f1-score   support

         0.0       0.79      0.77      0.78     10283
         1.0       0.68      0.63      0.65     10270
         2.0       0.64      0.63      0.64     10270
         3.0       0.66      0.67      0.66     10283
         4.0       0.80      0.89      0.84     10283

   micro avg       0.72      0.72      0.72     51389
   macro avg       0.72      0.72      0.72     51389
weighted avg       0.72      0.72      0.72     51389


Accuracy: 0.717332503065
Sorted List of Temp Training Scores: 
[[(22, 0), 0.6985334078246412], [(23, 0), 0.6733065202777768], [(21, 0), 0.6608414920340916], [(20, 0), 0.6591174883122206]]

Sorted List of Temp Test Accuracies: 
[[(22, 0), 0.6825824904078233], [(23, 0), 0.6591234493669307], [(20, 0), 0.6435564045184098], [(21, 0), 0.6432840855120249]]

Average Training Accuracy for: (24, 0)
0.70537007413

Average Test Accuracy for: (24, 0)
0.68923363081

Elapsed Seconds: 1804.78474498
Total Time Elapsed: 00:30:04
# Num of nodes: 25, 0 -----------------------------------------------*****
## 0-kth fold --------------------------------
Training Time Elapsed: 00:05:56, 356.754606009
Training set score: 0.679916
Training set loss: 0.836719
MLP # layers: 3
MLP # outputs: 5
MLP # iterations: 500
MLP out_activation_: softmax
MLP classes: [0. 1. 2. 3. 4.]
Classifier saved to /home/paperspace/MSEE/cs280/cs280-mini-proj/src/ANN/_old_grid_search_5_tests_v2/../../../models/ann_entry_5_20_to_30_0_v2/ann_entry_5_v2_0/ann_0_25_0.pkl

Elapsed Seconds: 359.024982929
Total Time Elapsed: 00:05:59
Features in training dataset (80%):
Count: (205565,)
Counter({0.0: 41135, 3.0: 41135, 4.0: 41132, 2.0: 41083, 1.0: 41080})
Features in test dataset (20%):
Count: (51393,)
Counter({0.0: 10284, 3.0: 10284, 4.0: 10283, 1.0: 10271, 2.0: 10271})
Classification Report for Test Data (20%):
              precision    recall  f1-score   support

         0.0       0.73      0.75      0.74     10284
         1.0       0.65      0.51      0.57     10271
         2.0       0.57      0.48      0.52     10271
         3.0       0.58      0.68      0.62     10284
         4.0       0.79      0.93      0.85     10283

   micro avg       0.67      0.67      0.67     51393
   macro avg       0.66      0.67      0.66     51393
weighted avg       0.66      0.67      0.66     51393


Accuracy: 0.668126009379
## 1-kth fold --------------------------------
Training Time Elapsed: 00:05:00, 300.625699997
Training set score: 0.662804
Training set loss: 0.882604
MLP # layers: 3
MLP # outputs: 5
MLP # iterations: 415
MLP out_activation_: softmax
MLP classes: [0. 1. 2. 3. 4.]
Classifier saved to /home/paperspace/MSEE/cs280/cs280-mini-proj/src/ANN/_old_grid_search_5_tests_v2/../../../models/ann_entry_5_20_to_30_0_v2/ann_entry_5_v2_0/ann_1_25_0.pkl

Elapsed Seconds: 302.670913935
Total Time Elapsed: 00:05:02
Features in training dataset (80%):
Count: (205566,)
Counter({0.0: 41135, 3.0: 41135, 4.0: 41132, 2.0: 41083, 1.0: 41081})
Features in test dataset (20%):
Count: (51392,)
Counter({0.0: 10284, 3.0: 10284, 4.0: 10283, 2.0: 10271, 1.0: 10270})
Classification Report for Test Data (20%):
              precision    recall  f1-score   support

         0.0       0.79      0.74      0.77     10284
         1.0       0.59      0.57      0.58     10270
         2.0       0.56      0.55      0.56     10271
         3.0       0.63      0.61      0.62     10284
         4.0       0.78      0.89      0.83     10283

   micro avg       0.67      0.67      0.67     51392
   macro avg       0.67      0.67      0.67     51392
weighted avg       0.67      0.67      0.67     51392


Accuracy: 0.672536581569
## 2-kth fold --------------------------------
Training Time Elapsed: 00:05:31, 331.8105371
Training set score: 0.685931
Training set loss: 0.819646
MLP # layers: 3
MLP # outputs: 5
MLP # iterations: 453
MLP out_activation_: softmax
MLP classes: [0. 1. 2. 3. 4.]
Classifier saved to /home/paperspace/MSEE/cs280/cs280-mini-proj/src/ANN/_old_grid_search_5_tests_v2/../../../models/ann_entry_5_20_to_30_0_v2/ann_entry_5_v2_0/ann_2_25_0.pkl

Elapsed Seconds: 334.073824883
Total Time Elapsed: 00:05:34
Features in training dataset (80%):
Count: (205566,)
Counter({0.0: 41135, 3.0: 41135, 4.0: 41132, 2.0: 41083, 1.0: 41081})
Features in test dataset (20%):
Count: (51392,)
Counter({0.0: 10284, 3.0: 10284, 4.0: 10283, 2.0: 10271, 1.0: 10270})
Classification Report for Test Data (20%):
              precision    recall  f1-score   support

         0.0       0.83      0.68      0.75     10284
         1.0       0.66      0.67      0.67     10270
         2.0       0.61      0.51      0.55     10271
         3.0       0.57      0.70      0.62     10284
         4.0       0.82      0.89      0.85     10283

   micro avg       0.69      0.69      0.69     51392
   macro avg       0.70      0.69      0.69     51392
weighted avg       0.70      0.69      0.69     51392


Accuracy: 0.690399283935
## 3-kth fold --------------------------------
Training Time Elapsed: 00:06:01, 361.131021976
Training set score: 0.726326
Training set loss: 0.753159
MLP # layers: 3
MLP # outputs: 5
MLP # iterations: 500
MLP out_activation_: softmax
MLP classes: [0. 1. 2. 3. 4.]
Classifier saved to /home/paperspace/MSEE/cs280/cs280-mini-proj/src/ANN/_old_grid_search_5_tests_v2/../../../models/ann_entry_5_20_to_30_0_v2/ann_entry_5_v2_0/ann_3_25_0.pkl

Elapsed Seconds: 363.538527966
Total Time Elapsed: 00:06:03
Features in training dataset (80%):
Count: (205566,)
Counter({0.0: 41135, 3.0: 41135, 4.0: 41132, 2.0: 41083, 1.0: 41081})
Features in test dataset (20%):
Count: (51392,)
Counter({0.0: 10284, 3.0: 10284, 4.0: 10283, 2.0: 10271, 1.0: 10270})
Classification Report for Test Data (20%):
              precision    recall  f1-score   support

         0.0       0.68      0.77      0.72     10284
         1.0       0.56      0.59      0.58     10270
         2.0       0.52      0.54      0.53     10271
         3.0       0.58      0.56      0.57     10284
         4.0       0.89      0.70      0.79     10283

   micro avg       0.63      0.63      0.63     51392
   macro avg       0.64      0.63      0.64     51392
weighted avg       0.64      0.63      0.64     51392


Accuracy: 0.63389243462
## 4-kth fold --------------------------------
Training Time Elapsed: 00:06:05, 365.13628006
Training set score: 0.702085
Training set loss: 0.798648
MLP # layers: 3
MLP # outputs: 5
MLP # iterations: 500
MLP out_activation_: softmax
MLP classes: [0. 1. 2. 3. 4.]
Classifier saved to /home/paperspace/MSEE/cs280/cs280-mini-proj/src/ANN/_old_grid_search_5_tests_v2/../../../models/ann_entry_5_20_to_30_0_v2/ann_entry_5_v2_0/ann_4_25_0.pkl

Elapsed Seconds: 367.430781126
Total Time Elapsed: 00:06:07
Features in training dataset (80%):
Count: (205569,)
Counter({0.0: 41136, 3.0: 41136, 4.0: 41132, 2.0: 41084, 1.0: 41081})
Features in test dataset (20%):
Count: (51389,)
Counter({0.0: 10283, 3.0: 10283, 4.0: 10283, 1.0: 10270, 2.0: 10270})
Classification Report for Test Data (20%):
              precision    recall  f1-score   support

         0.0       0.75      0.77      0.76     10283
         1.0       0.65      0.60      0.62     10270
         2.0       0.64      0.54      0.59     10270
         3.0       0.63      0.70      0.66     10283
         4.0       0.81      0.87      0.84     10283

   micro avg       0.70      0.70      0.70     51389
   macro avg       0.69      0.70      0.69     51389
weighted avg       0.69      0.70      0.69     51389


Accuracy: 0.696257954037
Sorted List of Temp Training Scores: 
[[(24, 0), 0.705370074129694], [(22, 0), 0.6985334078246412], [(23, 0), 0.6733065202777768], [(21, 0), 0.6608414920340916], [(20, 0), 0.6591174883122206]]

Sorted List of Temp Test Accuracies: 
[[(24, 0), 0.6892336308096523], [(22, 0), 0.6825824904078233], [(23, 0), 0.6591234493669307], [(20, 0), 0.6435564045184098], [(21, 0), 0.6432840855120249]]

Average Training Accuracy for: (25, 0)
0.691412562058

Average Test Accuracy for: (25, 0)
0.672242452708

Elapsed Seconds: 1728.52279997
Total Time Elapsed: 00:28:48
# Num of nodes: 26, 0 -----------------------------------------------*****
## 0-kth fold --------------------------------
Training Time Elapsed: 00:06:06, 366.014492035
Training set score: 0.709596
Training set loss: 0.798561
MLP # layers: 3
MLP # outputs: 5
MLP # iterations: 500
MLP out_activation_: softmax
MLP classes: [0. 1. 2. 3. 4.]
Classifier saved to /home/paperspace/MSEE/cs280/cs280-mini-proj/src/ANN/_old_grid_search_5_tests_v2/../../../models/ann_entry_5_20_to_30_0_v2/ann_entry_5_v2_0/ann_0_26_0.pkl

Elapsed Seconds: 368.109011889
Total Time Elapsed: 00:06:08
Features in training dataset (80%):
Count: (205565,)
Counter({0.0: 41135, 3.0: 41135, 4.0: 41132, 2.0: 41083, 1.0: 41080})
Features in test dataset (20%):
Count: (51393,)
Counter({0.0: 10284, 3.0: 10284, 4.0: 10283, 1.0: 10271, 2.0: 10271})
Classification Report for Test Data (20%):
              precision    recall  f1-score   support

         0.0       0.81      0.71      0.75     10284
         1.0       0.68      0.58      0.63     10271
         2.0       0.58      0.55      0.57     10271
         3.0       0.63      0.73      0.67     10284
         4.0       0.79      0.91      0.84     10283

   micro avg       0.70      0.70      0.70     51393
   macro avg       0.70      0.70      0.69     51393
weighted avg       0.70      0.70      0.69     51393


Accuracy: 0.69587297881
## 1-kth fold --------------------------------
Training Time Elapsed: 00:06:03, 363.134866953
Training set score: 0.690863
Training set loss: 0.820249
MLP # layers: 3
MLP # outputs: 5
MLP # iterations: 500
MLP out_activation_: softmax
MLP classes: [0. 1. 2. 3. 4.]
Classifier saved to /home/paperspace/MSEE/cs280/cs280-mini-proj/src/ANN/_old_grid_search_5_tests_v2/../../../models/ann_entry_5_20_to_30_0_v2/ann_entry_5_v2_0/ann_1_26_0.pkl

Elapsed Seconds: 365.437071085
Total Time Elapsed: 00:06:05
Features in training dataset (80%):
Count: (205566,)
Counter({0.0: 41135, 3.0: 41135, 4.0: 41132, 2.0: 41083, 1.0: 41081})
Features in test dataset (20%):
Count: (51392,)
Counter({0.0: 10284, 3.0: 10284, 4.0: 10283, 2.0: 10271, 1.0: 10270})
Classification Report for Test Data (20%):
              precision    recall  f1-score   support

         0.0       0.82      0.77      0.79     10284
         1.0       0.63      0.65      0.64     10270
         2.0       0.61      0.53      0.57     10271
         3.0       0.62      0.68      0.65     10284
         4.0       0.83      0.88      0.86     10283

   micro avg       0.70      0.70      0.70     51392
   macro avg       0.70      0.70      0.70     51392
weighted avg       0.70      0.70      0.70     51392


Accuracy: 0.702910958904
## 2-kth fold --------------------------------
Training Time Elapsed: 00:06:07, 367.868050098
Training set score: 0.684486
Training set loss: 0.811674
MLP # layers: 3
MLP # outputs: 5
MLP # iterations: 500
MLP out_activation_: softmax
MLP classes: [0. 1. 2. 3. 4.]
Classifier saved to /home/paperspace/MSEE/cs280/cs280-mini-proj/src/ANN/_old_grid_search_5_tests_v2/../../../models/ann_entry_5_20_to_30_0_v2/ann_entry_5_v2_0/ann_2_26_0.pkl

Elapsed Seconds: 370.195664883
Total Time Elapsed: 00:06:10
Features in training dataset (80%):
Count: (205566,)
Counter({0.0: 41135, 3.0: 41135, 4.0: 41132, 2.0: 41083, 1.0: 41081})
Features in test dataset (20%):
Count: (51392,)
Counter({0.0: 10284, 3.0: 10284, 4.0: 10283, 2.0: 10271, 1.0: 10270})
Classification Report for Test Data (20%):
              precision    recall  f1-score   support

         0.0       0.81      0.70      0.75     10284
         1.0       0.65      0.66      0.66     10270
         2.0       0.59      0.51      0.55     10271
         3.0       0.59      0.69      0.63     10284
         4.0       0.82      0.89      0.85     10283

   micro avg       0.69      0.69      0.69     51392
   macro avg       0.69      0.69      0.69     51392
weighted avg       0.69      0.69      0.69     51392


Accuracy: 0.689484744707
## 3-kth fold --------------------------------
Training Time Elapsed: 00:06:09, 369.710172892
Training set score: 0.727027
Training set loss: 0.749574
MLP # layers: 3
MLP # outputs: 5
MLP # iterations: 500
MLP out_activation_: softmax
MLP classes: [0. 1. 2. 3. 4.]
Classifier saved to /home/paperspace/MSEE/cs280/cs280-mini-proj/src/ANN/_old_grid_search_5_tests_v2/../../../models/ann_entry_5_20_to_30_0_v2/ann_entry_5_v2_0/ann_3_26_0.pkl

Elapsed Seconds: 371.929955006
Total Time Elapsed: 00:06:11
Features in training dataset (80%):
Count: (205566,)
Counter({0.0: 41135, 3.0: 41135, 4.0: 41132, 2.0: 41083, 1.0: 41081})
Features in test dataset (20%):
Count: (51392,)
Counter({0.0: 10284, 3.0: 10284, 4.0: 10283, 2.0: 10271, 1.0: 10270})
Classification Report for Test Data (20%):
              precision    recall  f1-score   support

         0.0       0.66      0.77      0.71     10284
         1.0       0.55      0.57      0.56     10270
         2.0       0.53      0.55      0.54     10271
         3.0       0.58      0.57      0.58     10284
         4.0       0.90      0.71      0.80     10283

   micro avg       0.63      0.63      0.63     51392
   macro avg       0.64      0.63      0.64     51392
weighted avg       0.64      0.63      0.64     51392


Accuracy: 0.634203767123
## 4-kth fold --------------------------------
Training Time Elapsed: 00:06:16, 376.612754822
Training set score: 0.720892
Training set loss: 0.775652
MLP # layers: 3
MLP # outputs: 5
MLP # iterations: 500
MLP out_activation_: softmax
MLP classes: [0. 1. 2. 3. 4.]
Classifier saved to /home/paperspace/MSEE/cs280/cs280-mini-proj/src/ANN/_old_grid_search_5_tests_v2/../../../models/ann_entry_5_20_to_30_0_v2/ann_entry_5_v2_0/ann_4_26_0.pkl

Elapsed Seconds: 378.975980043
Total Time Elapsed: 00:06:18
Features in training dataset (80%):
Count: (205569,)
Counter({0.0: 41136, 3.0: 41136, 4.0: 41132, 2.0: 41084, 1.0: 41081})
Features in test dataset (20%):
Count: (51389,)
Counter({0.0: 10283, 3.0: 10283, 4.0: 10283, 1.0: 10270, 2.0: 10270})
Classification Report for Test Data (20%):
              precision    recall  f1-score   support

         0.0       0.78      0.75      0.77     10283
         1.0       0.65      0.59      0.62     10270
         2.0       0.63      0.64      0.64     10270
         3.0       0.67      0.67      0.67     10283
         4.0       0.82      0.90      0.86     10283

   micro avg       0.71      0.71      0.71     51389
   macro avg       0.71      0.71      0.71     51389
weighted avg       0.71      0.71      0.71     51389


Accuracy: 0.712059000954
Sorted List of Temp Training Scores: 
[[(24, 0), 0.705370074129694], [(22, 0), 0.6985334078246412], [(25, 0), 0.6914125620579616], [(23, 0), 0.6733065202777768], [(21, 0), 0.6608414920340916], [(20, 0), 0.6591174883122206]]

Sorted List of Temp Test Accuracies: 
[[(24, 0), 0.6892336308096523], [(22, 0), 0.6825824904078233], [(25, 0), 0.6722424527080196], [(23, 0), 0.6591234493669307], [(20, 0), 0.6435564045184098], [(21, 0), 0.6432840855120249]]

Average Training Accuracy for: (26, 0)
0.70657263061

Average Test Accuracy for: (26, 0)
0.6869062901

Elapsed Seconds: 1856.96502399
Total Time Elapsed: 00:30:56
# Num of nodes: 27, 0 -----------------------------------------------*****
## 0-kth fold --------------------------------
Training Time Elapsed: 00:06:16, 376.128223181
Training set score: 0.669268
Training set loss: 0.853134
MLP # layers: 3
MLP # outputs: 5
MLP # iterations: 500
MLP out_activation_: softmax
MLP classes: [0. 1. 2. 3. 4.]
Classifier saved to /home/paperspace/MSEE/cs280/cs280-mini-proj/src/ANN/_old_grid_search_5_tests_v2/../../../models/ann_entry_5_20_to_30_0_v2/ann_entry_5_v2_0/ann_0_27_0.pkl

Elapsed Seconds: 378.420583963
Total Time Elapsed: 00:06:18
Features in training dataset (80%):
Count: (205565,)
Counter({0.0: 41135, 3.0: 41135, 4.0: 41132, 2.0: 41083, 1.0: 41080})
Features in test dataset (20%):
Count: (51393,)
Counter({0.0: 10284, 3.0: 10284, 4.0: 10283, 1.0: 10271, 2.0: 10271})
Classification Report for Test Data (20%):
              precision    recall  f1-score   support

         0.0       0.77      0.70      0.73     10284
         1.0       0.62      0.59      0.60     10271
         2.0       0.57      0.44      0.49     10271
         3.0       0.55      0.64      0.59     10284
         4.0       0.76      0.92      0.83     10283

   micro avg       0.66      0.66      0.66     51393
   macro avg       0.65      0.66      0.65     51393
weighted avg       0.65      0.66      0.65     51393


Accuracy: 0.657365789115
## 1-kth fold --------------------------------
Training Time Elapsed: 00:06:19, 379.947489023
Training set score: 0.674606
Training set loss: 0.822830
MLP # layers: 3
MLP # outputs: 5
MLP # iterations: 500
MLP out_activation_: softmax
MLP classes: [0. 1. 2. 3. 4.]
Classifier saved to /home/paperspace/MSEE/cs280/cs280-mini-proj/src/ANN/_old_grid_search_5_tests_v2/../../../models/ann_entry_5_20_to_30_0_v2/ann_entry_5_v2_0/ann_1_27_0.pkl

Elapsed Seconds: 382.043975115
Total Time Elapsed: 00:06:22
Features in training dataset (80%):
Count: (205566,)
Counter({0.0: 41135, 3.0: 41135, 4.0: 41132, 2.0: 41083, 1.0: 41081})
Features in test dataset (20%):
Count: (51392,)
Counter({0.0: 10284, 3.0: 10284, 4.0: 10283, 2.0: 10271, 1.0: 10270})
Classification Report for Test Data (20%):
              precision    recall  f1-score   support

         0.0       0.80      0.78      0.79     10284
         1.0       0.64      0.59      0.62     10270
         2.0       0.56      0.53      0.54     10271
         3.0       0.58      0.63      0.61     10284
         4.0       0.83      0.89      0.86     10283

   micro avg       0.68      0.68      0.68     51392
   macro avg       0.68      0.68      0.68     51392
weighted avg       0.68      0.68      0.68     51392


Accuracy: 0.684989881694
## 2-kth fold --------------------------------
Training Time Elapsed: 00:05:34, 334.284522057
Training set score: 0.654763
Training set loss: 0.865207
MLP # layers: 3
MLP # outputs: 5
MLP # iterations: 446
MLP out_activation_: softmax
MLP classes: [0. 1. 2. 3. 4.]
Classifier saved to /home/paperspace/MSEE/cs280/cs280-mini-proj/src/ANN/_old_grid_search_5_tests_v2/../../../models/ann_entry_5_20_to_30_0_v2/ann_entry_5_v2_0/ann_2_27_0.pkl

Elapsed Seconds: 336.553599834
Total Time Elapsed: 00:05:36
Features in training dataset (80%):
Count: (205566,)
Counter({0.0: 41135, 3.0: 41135, 4.0: 41132, 2.0: 41083, 1.0: 41081})
Features in test dataset (20%):
Count: (51392,)
Counter({0.0: 10284, 3.0: 10284, 4.0: 10283, 2.0: 10271, 1.0: 10270})
Classification Report for Test Data (20%):
              precision    recall  f1-score   support

         0.0       0.77      0.70      0.73     10284
         1.0       0.64      0.59      0.61     10270
         2.0       0.52      0.48      0.50     10271
         3.0       0.57      0.63      0.60     10284
         4.0       0.79      0.90      0.84     10283

   micro avg       0.66      0.66      0.66     51392
   macro avg       0.66      0.66      0.66     51392
weighted avg       0.66      0.66      0.66     51392


Accuracy: 0.659071450809
## 3-kth fold --------------------------------
Training Time Elapsed: 00:06:04, 364.948441982
Training set score: 0.671624
Training set loss: 0.841310
MLP # layers: 3
MLP # outputs: 5
MLP # iterations: 500
MLP out_activation_: softmax
MLP classes: [0. 1. 2. 3. 4.]
Classifier saved to /home/paperspace/MSEE/cs280/cs280-mini-proj/src/ANN/_old_grid_search_5_tests_v2/../../../models/ann_entry_5_20_to_30_0_v2/ann_entry_5_v2_0/ann_3_27_0.pkl

Elapsed Seconds: 367.652002811
Total Time Elapsed: 00:06:07
Features in training dataset (80%):
Count: (205566,)
Counter({0.0: 41135, 3.0: 41135, 4.0: 41132, 2.0: 41083, 1.0: 41081})
Features in test dataset (20%):
Count: (51392,)
Counter({0.0: 10284, 3.0: 10284, 4.0: 10283, 2.0: 10271, 1.0: 10270})
Classification Report for Test Data (20%):
              precision    recall  f1-score   support

         0.0       0.64      0.79      0.71     10284
         1.0       0.57      0.54      0.55     10270
         2.0       0.49      0.51      0.50     10271
         3.0       0.51      0.50      0.50     10284
         4.0       0.88      0.70      0.78     10283

   micro avg       0.61      0.61      0.61     51392
   macro avg       0.62      0.61      0.61     51392
weighted avg       0.62      0.61      0.61     51392


Accuracy: 0.606514632628
## 4-kth fold --------------------------------
Training Time Elapsed: 00:06:07, 367.297612906
Training set score: 0.687594
Training set loss: 0.821926
MLP # layers: 3
MLP # outputs: 5
MLP # iterations: 500
MLP out_activation_: softmax
MLP classes: [0. 1. 2. 3. 4.]
Classifier saved to /home/paperspace/MSEE/cs280/cs280-mini-proj/src/ANN/_old_grid_search_5_tests_v2/../../../models/ann_entry_5_20_to_30_0_v2/ann_entry_5_v2_0/ann_4_27_0.pkl

Elapsed Seconds: 369.482023001
Total Time Elapsed: 00:06:09
Features in training dataset (80%):
Count: (205569,)
Counter({0.0: 41136, 3.0: 41136, 4.0: 41132, 2.0: 41084, 1.0: 41081})
Features in test dataset (20%):
Count: (51389,)
Counter({0.0: 10283, 3.0: 10283, 4.0: 10283, 1.0: 10270, 2.0: 10270})
Classification Report for Test Data (20%):
              precision    recall  f1-score   support

         0.0       0.77      0.74      0.76     10283
         1.0       0.61      0.57      0.59     10270
         2.0       0.56      0.50      0.53     10270
         3.0       0.57      0.63      0.60     10283
         4.0       0.81      0.90      0.85     10283

   micro avg       0.67      0.67      0.67     51389
   macro avg       0.67      0.67      0.67     51389
weighted avg       0.67      0.67      0.67     51389


Accuracy: 0.669150985619
Sorted List of Temp Training Scores: 
[[(26, 0), 0.706572630610314], [(24, 0), 0.705370074129694], [(22, 0), 0.6985334078246412], [(25, 0), 0.6914125620579616], [(23, 0), 0.6733065202777768], [(21, 0), 0.6608414920340916], [(20, 0), 0.6591174883122206]]

Sorted List of Temp Test Accuracies: 
[[(24, 0), 0.6892336308096523], [(26, 0), 0.68690629009972], [(22, 0), 0.6825824904078233], [(25, 0), 0.6722424527080196], [(23, 0), 0.6591234493669307], [(20, 0), 0.6435564045184098], [(21, 0), 0.6432840855120249]]

Average Training Accuracy for: (27, 0)
0.671570791362

Average Test Accuracy for: (27, 0)
0.655418547973

Elapsed Seconds: 1836.34523106
Total Time Elapsed: 00:30:36
# Num of nodes: 28, 0 -----------------------------------------------*****
## 0-kth fold --------------------------------
Training Time Elapsed: 00:06:09, 369.056466103
Training set score: 0.734799
Training set loss: 0.750338
MLP # layers: 3
MLP # outputs: 5
MLP # iterations: 500
MLP out_activation_: softmax
MLP classes: [0. 1. 2. 3. 4.]
Classifier saved to /home/paperspace/MSEE/cs280/cs280-mini-proj/src/ANN/_old_grid_search_5_tests_v2/../../../models/ann_entry_5_20_to_30_0_v2/ann_entry_5_v2_0/ann_0_28_0.pkl

Elapsed Seconds: 371.377923965
Total Time Elapsed: 00:06:11
Features in training dataset (80%):
Count: (205565,)
Counter({0.0: 41135, 3.0: 41135, 4.0: 41132, 2.0: 41083, 1.0: 41080})
Features in test dataset (20%):
Count: (51393,)
Counter({0.0: 10284, 3.0: 10284, 4.0: 10283, 1.0: 10271, 2.0: 10271})
Classification Report for Test Data (20%):
              precision    recall  f1-score   support

         0.0       0.80      0.73      0.76     10284
         1.0       0.72      0.62      0.66     10271
         2.0       0.60      0.59      0.60     10271
         3.0       0.65      0.70      0.67     10284
         4.0       0.80      0.94      0.86     10283

   micro avg       0.72      0.72      0.72     51393
   macro avg       0.71      0.72      0.71     51393
weighted avg       0.71      0.72      0.71     51393


Accuracy: 0.715194676318
## 1-kth fold --------------------------------
Training Time Elapsed: 00:06:12, 372.094887972
Training set score: 0.708794
Training set loss: 0.789258
MLP # layers: 3
MLP # outputs: 5
MLP # iterations: 500
MLP out_activation_: softmax
MLP classes: [0. 1. 2. 3. 4.]
Classifier saved to /home/paperspace/MSEE/cs280/cs280-mini-proj/src/ANN/_old_grid_search_5_tests_v2/../../../models/ann_entry_5_20_to_30_0_v2/ann_entry_5_v2_0/ann_1_28_0.pkl

Elapsed Seconds: 374.55474782
Total Time Elapsed: 00:06:14
Features in training dataset (80%):
Count: (205566,)
Counter({0.0: 41135, 3.0: 41135, 4.0: 41132, 2.0: 41083, 1.0: 41081})
Features in test dataset (20%):
Count: (51392,)
Counter({0.0: 10284, 3.0: 10284, 4.0: 10283, 2.0: 10271, 1.0: 10270})
Classification Report for Test Data (20%):
              precision    recall  f1-score   support

         0.0       0.79      0.77      0.78     10284
         1.0       0.67      0.61      0.64     10270
         2.0       0.64      0.60      0.62     10271
         3.0       0.66      0.71      0.68     10284
         4.0       0.80      0.89      0.85     10283

   micro avg       0.72      0.72      0.72     51392
   macro avg       0.71      0.72      0.71     51392
weighted avg       0.71      0.72      0.71     51392


Accuracy: 0.715850716065
## 2-kth fold --------------------------------
Training Time Elapsed: 00:06:07, 367.964057207
Training set score: 0.735871
Training set loss: 0.745928
MLP # layers: 3
MLP # outputs: 5
MLP # iterations: 500
MLP out_activation_: softmax
MLP classes: [0. 1. 2. 3. 4.]
Classifier saved to /home/paperspace/MSEE/cs280/cs280-mini-proj/src/ANN/_old_grid_search_5_tests_v2/../../../models/ann_entry_5_20_to_30_0_v2/ann_entry_5_v2_0/ann_2_28_0.pkl

Elapsed Seconds: 370.189193964
Total Time Elapsed: 00:06:10
Features in training dataset (80%):
Count: (205566,)
Counter({0.0: 41135, 3.0: 41135, 4.0: 41132, 2.0: 41083, 1.0: 41081})
Features in test dataset (20%):
Count: (51392,)
Counter({0.0: 10284, 3.0: 10284, 4.0: 10283, 2.0: 10271, 1.0: 10270})
Classification Report for Test Data (20%):
              precision    recall  f1-score   support

         0.0       0.82      0.72      0.77     10284
         1.0       0.74      0.66      0.70     10270
         2.0       0.66      0.64      0.65     10271
         3.0       0.66      0.77      0.71     10284
         4.0       0.83      0.90      0.87     10283

   micro avg       0.74      0.74      0.74     51392
   macro avg       0.74      0.74      0.74     51392
weighted avg       0.74      0.74      0.74     51392


Accuracy: 0.739784402242
## 3-kth fold --------------------------------
Training Time Elapsed: 00:06:08, 368.625906944
Training set score: 0.736605
Training set loss: 0.740895
MLP # layers: 3
MLP # outputs: 5
MLP # iterations: 500
MLP out_activation_: softmax
MLP classes: [0. 1. 2. 3. 4.]
Classifier saved to /home/paperspace/MSEE/cs280/cs280-mini-proj/src/ANN/_old_grid_search_5_tests_v2/../../../models/ann_entry_5_20_to_30_0_v2/ann_entry_5_v2_0/ann_3_28_0.pkl

Elapsed Seconds: 370.882959127
Total Time Elapsed: 00:06:10
Features in training dataset (80%):
Count: (205566,)
Counter({0.0: 41135, 3.0: 41135, 4.0: 41132, 2.0: 41083, 1.0: 41081})
Features in test dataset (20%):
Count: (51392,)
Counter({0.0: 10284, 3.0: 10284, 4.0: 10283, 2.0: 10271, 1.0: 10270})
Classification Report for Test Data (20%):
              precision    recall  f1-score   support

         0.0       0.69      0.77      0.73     10284
         1.0       0.56      0.63      0.59     10270
         2.0       0.52      0.53      0.52     10271
         3.0       0.56      0.54      0.55     10284
         4.0       0.89      0.69      0.78     10283

   micro avg       0.63      0.63      0.63     51392
   macro avg       0.64      0.63      0.63     51392
weighted avg       0.64      0.63      0.63     51392


Accuracy: 0.631576899128
## 4-kth fold --------------------------------
Training Time Elapsed: 00:06:07, 367.873387098
Training set score: 0.706619
Training set loss: 0.790610
MLP # layers: 3
MLP # outputs: 5
MLP # iterations: 500
MLP out_activation_: softmax
MLP classes: [0. 1. 2. 3. 4.]
Classifier saved to /home/paperspace/MSEE/cs280/cs280-mini-proj/src/ANN/_old_grid_search_5_tests_v2/../../../models/ann_entry_5_20_to_30_0_v2/ann_entry_5_v2_0/ann_4_28_0.pkl

Elapsed Seconds: 370.194414139
Total Time Elapsed: 00:06:10
Features in training dataset (80%):
Count: (205569,)
Counter({0.0: 41136, 3.0: 41136, 4.0: 41132, 2.0: 41084, 1.0: 41081})
Features in test dataset (20%):
Count: (51389,)
Counter({0.0: 10283, 3.0: 10283, 4.0: 10283, 1.0: 10270, 2.0: 10270})
Classification Report for Test Data (20%):
              precision    recall  f1-score   support

         0.0       0.79      0.75      0.77     10283
         1.0       0.64      0.62      0.63     10270
         2.0       0.61      0.60      0.60     10270
         3.0       0.66      0.66      0.66     10283
         4.0       0.80      0.89      0.84     10283

   micro avg       0.70      0.70      0.70     51389
   macro avg       0.70      0.70      0.70     51389
weighted avg       0.70      0.70      0.70     51389


Accuracy: 0.702387670513
Sorted List of Temp Training Scores: 
[[(26, 0), 0.706572630610314], [(24, 0), 0.705370074129694], [(22, 0), 0.6985334078246412], [(25, 0), 0.6914125620579616], [(23, 0), 0.6733065202777768], [(27, 0), 0.6715707913621791], [(21, 0), 0.6608414920340916], [(20, 0), 0.6591174883122206]]

Sorted List of Temp Test Accuracies: 
[[(24, 0), 0.6892336308096523], [(26, 0), 0.68690629009972], [(22, 0), 0.6825824904078233], [(25, 0), 0.6722424527080196], [(23, 0), 0.6591234493669307], [(27, 0), 0.6554185479731], [(20, 0), 0.6435564045184098], [(21, 0), 0.6432840855120249]]

Average Training Accuracy for: (28, 0)
0.724537729918

Average Test Accuracy for: (28, 0)
0.700958872853

Elapsed Seconds: 1859.36559701
Total Time Elapsed: 00:30:59
# Num of nodes: 29, 0 -----------------------------------------------*****
## 0-kth fold --------------------------------
Training Time Elapsed: 00:06:24, 384.931207895
Training set score: 0.733452
Training set loss: 0.743236
MLP # layers: 3
MLP # outputs: 5
MLP # iterations: 500
MLP out_activation_: softmax
MLP classes: [0. 1. 2. 3. 4.]
Classifier saved to /home/paperspace/MSEE/cs280/cs280-mini-proj/src/ANN/_old_grid_search_5_tests_v2/../../../models/ann_entry_5_20_to_30_0_v2/ann_entry_5_v2_0/ann_0_29_0.pkl

Elapsed Seconds: 387.119083166
Total Time Elapsed: 00:06:27
Features in training dataset (80%):
Count: (205565,)
Counter({0.0: 41135, 3.0: 41135, 4.0: 41132, 2.0: 41083, 1.0: 41080})
Features in test dataset (20%):
Count: (51393,)
Counter({0.0: 10284, 3.0: 10284, 4.0: 10283, 1.0: 10271, 2.0: 10271})
Classification Report for Test Data (20%):
              precision    recall  f1-score   support

         0.0       0.83      0.73      0.78     10284
         1.0       0.74      0.66      0.69     10271
         2.0       0.64      0.60      0.61     10271
         3.0       0.64      0.72      0.68     10284
         4.0       0.79      0.93      0.86     10283

   micro avg       0.73      0.73      0.73     51393
   macro avg       0.73      0.73      0.72     51393
weighted avg       0.73      0.73      0.72     51393


Accuracy: 0.725993812387
## 1-kth fold --------------------------------
Training Time Elapsed: 00:06:15, 375.143058062
Training set score: 0.672830
Training set loss: 0.826555
MLP # layers: 3
MLP # outputs: 5
MLP # iterations: 497
MLP out_activation_: softmax
MLP classes: [0. 1. 2. 3. 4.]
Classifier saved to /home/paperspace/MSEE/cs280/cs280-mini-proj/src/ANN/_old_grid_search_5_tests_v2/../../../models/ann_entry_5_20_to_30_0_v2/ann_entry_5_v2_0/ann_1_29_0.pkl

Elapsed Seconds: 377.19118619
Total Time Elapsed: 00:06:17
Features in training dataset (80%):
Count: (205566,)
Counter({0.0: 41135, 3.0: 41135, 4.0: 41132, 2.0: 41083, 1.0: 41081})
Features in test dataset (20%):
Count: (51392,)
Counter({0.0: 10284, 3.0: 10284, 4.0: 10283, 2.0: 10271, 1.0: 10270})
Classification Report for Test Data (20%):
              precision    recall  f1-score   support

         0.0       0.81      0.77      0.79     10284
         1.0       0.62      0.60      0.61     10270
         2.0       0.56      0.49      0.52     10271
         3.0       0.57      0.67      0.62     10284
         4.0       0.83      0.87      0.85     10283

   micro avg       0.68      0.68      0.68     51392
   macro avg       0.68      0.68      0.68     51392
weighted avg       0.68      0.68      0.68     51392


Accuracy: 0.678179483188
## 2-kth fold --------------------------------
Training Time Elapsed: 00:06:15, 375.282518864
Training set score: 0.704708
Training set loss: 0.795727
MLP # layers: 3
MLP # outputs: 5
MLP # iterations: 500
MLP out_activation_: softmax
MLP classes: [0. 1. 2. 3. 4.]
Classifier saved to /home/paperspace/MSEE/cs280/cs280-mini-proj/src/ANN/_old_grid_search_5_tests_v2/../../../models/ann_entry_5_20_to_30_0_v2/ann_entry_5_v2_0/ann_2_29_0.pkl

Elapsed Seconds: 377.709140062
Total Time Elapsed: 00:06:17
Features in training dataset (80%):
Count: (205566,)
Counter({0.0: 41135, 3.0: 41135, 4.0: 41132, 2.0: 41083, 1.0: 41081})
Features in test dataset (20%):
Count: (51392,)
Counter({0.0: 10284, 3.0: 10284, 4.0: 10283, 2.0: 10271, 1.0: 10270})
Classification Report for Test Data (20%):
              precision    recall  f1-score   support

         0.0       0.78      0.74      0.76     10284
         1.0       0.70      0.62      0.65     10270
         2.0       0.60      0.54      0.57     10271
         3.0       0.64      0.73      0.68     10284
         4.0       0.80      0.91      0.85     10283

   micro avg       0.71      0.71      0.71     51392
   macro avg       0.70      0.71      0.70     51392
weighted avg       0.70      0.71      0.70     51392


Accuracy: 0.707133405978
## 3-kth fold --------------------------------
Training Time Elapsed: 00:06:16, 376.973335981
Training set score: 0.694293
Training set loss: 0.796276
MLP # layers: 3
MLP # outputs: 5
MLP # iterations: 500
MLP out_activation_: softmax
MLP classes: [0. 1. 2. 3. 4.]
Classifier saved to /home/paperspace/MSEE/cs280/cs280-mini-proj/src/ANN/_old_grid_search_5_tests_v2/../../../models/ann_entry_5_20_to_30_0_v2/ann_entry_5_v2_0/ann_3_29_0.pkl

Elapsed Seconds: 379.218365192
Total Time Elapsed: 00:06:19
Features in training dataset (80%):
Count: (205566,)
Counter({0.0: 41135, 3.0: 41135, 4.0: 41132, 2.0: 41083, 1.0: 41081})
Features in test dataset (20%):
Count: (51392,)
Counter({0.0: 10284, 3.0: 10284, 4.0: 10283, 2.0: 10271, 1.0: 10270})
Classification Report for Test Data (20%):
              precision    recall  f1-score   support

         0.0       0.65      0.76      0.70     10284
         1.0       0.53      0.56      0.54     10270
         2.0       0.52      0.50      0.51     10271
         3.0       0.56      0.55      0.56     10284
         4.0       0.88      0.72      0.79     10283

   micro avg       0.62      0.62      0.62     51392
   macro avg       0.63      0.62      0.62     51392
weighted avg       0.63      0.62      0.62     51392


Accuracy: 0.618792808219
## 4-kth fold --------------------------------
Training Time Elapsed: 00:06:16, 376.850157976
Training set score: 0.693164
Training set loss: 0.811786
MLP # layers: 3
MLP # outputs: 5
MLP # iterations: 500
MLP out_activation_: softmax
MLP classes: [0. 1. 2. 3. 4.]
Classifier saved to /home/paperspace/MSEE/cs280/cs280-mini-proj/src/ANN/_old_grid_search_5_tests_v2/../../../models/ann_entry_5_20_to_30_0_v2/ann_entry_5_v2_0/ann_4_29_0.pkl

Elapsed Seconds: 379.237208843
Total Time Elapsed: 00:06:19
Features in training dataset (80%):
Count: (205569,)
Counter({0.0: 41136, 3.0: 41136, 4.0: 41132, 2.0: 41084, 1.0: 41081})
Features in test dataset (20%):
Count: (51389,)
Counter({0.0: 10283, 3.0: 10283, 4.0: 10283, 1.0: 10270, 2.0: 10270})
Classification Report for Test Data (20%):
              precision    recall  f1-score   support

         0.0       0.78      0.77      0.78     10283
         1.0       0.63      0.57      0.60     10270
         2.0       0.59      0.54      0.56     10270
         3.0       0.59      0.65      0.62     10283
         4.0       0.82      0.89      0.85     10283

   micro avg       0.68      0.68      0.68     51389
   macro avg       0.68      0.68      0.68     51389
weighted avg       0.68      0.68      0.68     51389


Accuracy: 0.683784467493
Sorted List of Temp Training Scores: 
[[(28, 0), 0.7245377299180271], [(26, 0), 0.706572630610314], [(24, 0), 0.705370074129694], [(22, 0), 0.6985334078246412], [(25, 0), 0.6914125620579616], [(23, 0), 0.6733065202777768], [(27, 0), 0.6715707913621791], [(21, 0), 0.6608414920340916], [(20, 0), 0.6591174883122206]]

Sorted List of Temp Test Accuracies: 
[[(28, 0), 0.7009588728531103], [(24, 0), 0.6892336308096523], [(26, 0), 0.68690629009972], [(22, 0), 0.6825824904078233], [(25, 0), 0.6722424527080196], [(23, 0), 0.6591234493669307], [(27, 0), 0.6554185479731], [(20, 0), 0.6435564045184098], [(21, 0), 0.6432840855120249]]

Average Training Accuracy for: (29, 0)
0.699689300721

Average Test Accuracy for: (29, 0)
0.682776795453

Elapsed Seconds: 1902.24855804
Total Time Elapsed: 00:31:42
# Num of nodes: 30, 0 -----------------------------------------------*****
## 0-kth fold --------------------------------
Training Time Elapsed: 00:06:16, 376.076581955
Training set score: 0.722516
Training set loss: 0.763452
MLP # layers: 3
MLP # outputs: 5
MLP # iterations: 500
MLP out_activation_: softmax
MLP classes: [0. 1. 2. 3. 4.]
Classifier saved to /home/paperspace/MSEE/cs280/cs280-mini-proj/src/ANN/_old_grid_search_5_tests_v2/../../../models/ann_entry_5_20_to_30_0_v2/ann_entry_5_v2_0/ann_0_30_0.pkl

Elapsed Seconds: 378.457478046
Total Time Elapsed: 00:06:18
Features in training dataset (80%):
Count: (205565,)
Counter({0.0: 41135, 3.0: 41135, 4.0: 41132, 2.0: 41083, 1.0: 41080})
Features in test dataset (20%):
Count: (51393,)
Counter({0.0: 10284, 3.0: 10284, 4.0: 10283, 1.0: 10271, 2.0: 10271})
Classification Report for Test Data (20%):
              precision    recall  f1-score   support

         0.0       0.81      0.70      0.75     10284
         1.0       0.71      0.61      0.66     10271
         2.0       0.61      0.63      0.62     10271
         3.0       0.66      0.67      0.66     10284
         4.0       0.78      0.93      0.85     10283

   micro avg       0.71      0.71      0.71     51393
   macro avg       0.71      0.71      0.71     51393
weighted avg       0.71      0.71      0.71     51393


Accuracy: 0.711069600918
## 1-kth fold --------------------------------
Training Time Elapsed: 00:06:18, 378.413888931
Training set score: 0.684641
Training set loss: 0.812726
MLP # layers: 3
MLP # outputs: 5
MLP # iterations: 500
MLP out_activation_: softmax
MLP classes: [0. 1. 2. 3. 4.]
Classifier saved to /home/paperspace/MSEE/cs280/cs280-mini-proj/src/ANN/_old_grid_search_5_tests_v2/../../../models/ann_entry_5_20_to_30_0_v2/ann_entry_5_v2_0/ann_1_30_0.pkl

Elapsed Seconds: 380.564494133
Total Time Elapsed: 00:06:20
Features in training dataset (80%):
Count: (205566,)
Counter({0.0: 41135, 3.0: 41135, 4.0: 41132, 2.0: 41083, 1.0: 41081})
Features in test dataset (20%):
Count: (51392,)
Counter({0.0: 10284, 3.0: 10284, 4.0: 10283, 2.0: 10271, 1.0: 10270})
Classification Report for Test Data (20%):
              precision    recall  f1-score   support

         0.0       0.81      0.75      0.78     10284
         1.0       0.63      0.63      0.63     10270
         2.0       0.58      0.55      0.57     10271
         3.0       0.61      0.65      0.63     10284
         4.0       0.84      0.89      0.86     10283

   micro avg       0.69      0.69      0.69     51392
   macro avg       0.69      0.69      0.69     51392
weighted avg       0.69      0.69      0.69     51392


Accuracy: 0.694680105853
## 2-kth fold --------------------------------
Training Time Elapsed: 00:06:20, 380.051964998
Training set score: 0.727003
Training set loss: 0.756392
MLP # layers: 3
MLP # outputs: 5
MLP # iterations: 500
MLP out_activation_: softmax
MLP classes: [0. 1. 2. 3. 4.]
Classifier saved to /home/paperspace/MSEE/cs280/cs280-mini-proj/src/ANN/_old_grid_search_5_tests_v2/../../../models/ann_entry_5_20_to_30_0_v2/ann_entry_5_v2_0/ann_2_30_0.pkl

Elapsed Seconds: 382.302540064
Total Time Elapsed: 00:06:22
Features in training dataset (80%):
Count: (205566,)
Counter({0.0: 41135, 3.0: 41135, 4.0: 41132, 2.0: 41083, 1.0: 41081})
Features in test dataset (20%):
Count: (51392,)
Counter({0.0: 10284, 3.0: 10284, 4.0: 10283, 2.0: 10271, 1.0: 10270})
Classification Report for Test Data (20%):
              precision    recall  f1-score   support

         0.0       0.79      0.71      0.75     10284
         1.0       0.73      0.63      0.67     10270
         2.0       0.63      0.67      0.65     10271
         3.0       0.67      0.74      0.71     10284
         4.0       0.83      0.90      0.86     10283

   micro avg       0.73      0.73      0.73     51392
   macro avg       0.73      0.73      0.73     51392
weighted avg       0.73      0.73      0.73     51392


Accuracy: 0.729724470735
## 3-kth fold --------------------------------
Training Time Elapsed: 00:06:15, 375.088297129
Training set score: 0.730092
Training set loss: 0.739008
MLP # layers: 3
MLP # outputs: 5
MLP # iterations: 500
MLP out_activation_: softmax
MLP classes: [0. 1. 2. 3. 4.]
Classifier saved to /home/paperspace/MSEE/cs280/cs280-mini-proj/src/ANN/_old_grid_search_5_tests_v2/../../../models/ann_entry_5_20_to_30_0_v2/ann_entry_5_v2_0/ann_3_30_0.pkl

Elapsed Seconds: 377.196040869
Total Time Elapsed: 00:06:17
Features in training dataset (80%):
Count: (205566,)
Counter({0.0: 41135, 3.0: 41135, 4.0: 41132, 2.0: 41083, 1.0: 41081})
Features in test dataset (20%):
Count: (51392,)
Counter({0.0: 10284, 3.0: 10284, 4.0: 10283, 2.0: 10271, 1.0: 10270})
Classification Report for Test Data (20%):
              precision    recall  f1-score   support

         0.0       0.67      0.75      0.71     10284
         1.0       0.62      0.60      0.61     10270
         2.0       0.54      0.63      0.58     10271
         3.0       0.57      0.55      0.56     10284
         4.0       0.90      0.70      0.79     10283

   micro avg       0.65      0.65      0.65     51392
   macro avg       0.66      0.65      0.65     51392
weighted avg       0.66      0.65      0.65     51392


Accuracy: 0.646092777086
## 4-kth fold --------------------------------
Training Time Elapsed: 00:06:10, 370.759925127
Training set score: 0.731438
Training set loss: 0.746932
MLP # layers: 3
MLP # outputs: 5
MLP # iterations: 500
MLP out_activation_: softmax
MLP classes: [0. 1. 2. 3. 4.]
Classifier saved to /home/paperspace/MSEE/cs280/cs280-mini-proj/src/ANN/_old_grid_search_5_tests_v2/../../../models/ann_entry_5_20_to_30_0_v2/ann_entry_5_v2_0/ann_4_30_0.pkl

Elapsed Seconds: 373.096242189
Total Time Elapsed: 00:06:13
Features in training dataset (80%):
Count: (205569,)
Counter({0.0: 41136, 3.0: 41136, 4.0: 41132, 2.0: 41084, 1.0: 41081})
Features in test dataset (20%):
Count: (51389,)
Counter({0.0: 10283, 3.0: 10283, 4.0: 10283, 1.0: 10270, 2.0: 10270})
Classification Report for Test Data (20%):
              precision    recall  f1-score   support

         0.0       0.81      0.77      0.79     10283
         1.0       0.68      0.64      0.66     10270
         2.0       0.65      0.65      0.65     10270
         3.0       0.68      0.70      0.69     10283
         4.0       0.82      0.90      0.86     10283

   micro avg       0.73      0.73      0.73     51389
   macro avg       0.73      0.73      0.73     51389
weighted avg       0.73      0.73      0.73     51389


Accuracy: 0.731771390765
Sorted List of Temp Training Scores: 
[[(28, 0), 0.7245377299180271], [(26, 0), 0.706572630610314], [(24, 0), 0.705370074129694], [(29, 0), 0.6996893007210809], [(22, 0), 0.6985334078246412], [(25, 0), 0.6914125620579616], [(23, 0), 0.6733065202777768], [(27, 0), 0.6715707913621791], [(21, 0), 0.6608414920340916], [(20, 0), 0.6591174883122206]]

Sorted List of Temp Test Accuracies: 
[[(28, 0), 0.7009588728531103], [(24, 0), 0.6892336308096523], [(26, 0), 0.68690629009972], [(29, 0), 0.6827767954529501], [(22, 0), 0.6825824904078233], [(25, 0), 0.6722424527080196], [(23, 0), 0.6591234493669307], [(27, 0), 0.6554185479731], [(20, 0), 0.6435564045184098], [(21, 0), 0.6432840855120249]]

Average Training Accuracy for: (30, 0)
0.719137919891

Average Test Accuracy for: (30, 0)
0.702667669071

Elapsed Seconds: 1893.76885295
Total Time Elapsed: 00:31:33
List of Training Scores: 
[[(20, 0), 0.6591174883122206], [(21, 0), 0.6608414920340916], [(22, 0), 0.6985334078246412], [(23, 0), 0.6733065202777768], [(24, 0), 0.705370074129694], [(25, 0), 0.6914125620579616], [(26, 0), 0.706572630610314], [(27, 0), 0.6715707913621791], [(28, 0), 0.7245377299180271], [(29, 0), 0.6996893007210809], [(30, 0), 0.7191379198911052]]

List of Test Accuracies: 
[[(20, 0), 0.6435564045184098], [(21, 0), 0.6432840855120249], [(22, 0), 0.6825824904078233], [(23, 0), 0.6591234493669307], [(24, 0), 0.6892336308096523], [(25, 0), 0.6722424527080196], [(26, 0), 0.68690629009972], [(27, 0), 0.6554185479731], [(28, 0), 0.7009588728531103], [(29, 0), 0.6827767954529501], [(30, 0), 0.7026676690713394]]

Sorted List of Training Scores: 
[[(28, 0), 0.7245377299180271], [(30, 0), 0.7191379198911052], [(26, 0), 0.706572630610314], [(24, 0), 0.705370074129694], [(29, 0), 0.6996893007210809], [(22, 0), 0.6985334078246412], [(25, 0), 0.6914125620579616], [(23, 0), 0.6733065202777768], [(27, 0), 0.6715707913621791], [(21, 0), 0.6608414920340916], [(20, 0), 0.6591174883122206]]

Sorted List of Test Accuracies: 
[[(30, 0), 0.7026676690713394], [(28, 0), 0.7009588728531103], [(24, 0), 0.6892336308096523], [(26, 0), 0.68690629009972], [(29, 0), 0.6827767954529501], [(22, 0), 0.6825824904078233], [(25, 0), 0.6722424527080196], [(23, 0), 0.6591234493669307], [(27, 0), 0.6554185479731], [(20, 0), 0.6435564045184098], [(21, 0), 0.6432840855120249]]

Elapsed Seconds: 19689.5589261
Total Time Elapsed: 05:28:09
