# ann_entry_5_v2_7
['station', 'month', 'day_of_the_week', 'hour', 'holiday_type', 'payday_type']
# Num of nodes: 20, 0 -----------------------------------------------*****
## 0-kth fold --------------------------------
Training Time Elapsed: 00:05:45, 345.895704985
Training set score: 0.696150
Training set loss: 0.785269
MLP # layers: 3
MLP # outputs: 5
MLP # iterations: 500
MLP out_activation_: softmax
MLP classes: [0. 1. 2. 3. 4.]
Classifier saved to /home/paperspace/MSEE/cs280/cs280-mini-proj/src/ANN/_old_grid_search_5_tests_v2/../../../models/ann_entry_5_20_to_30_0_v2/ann_entry_5_v2_7/ann_0_20_0.pkl

Elapsed Seconds: 348.585079908
Total Time Elapsed: 00:05:48
Features in training dataset (80%):
Count: (205565,)
Counter({0.0: 41135, 3.0: 41135, 4.0: 41132, 2.0: 41083, 1.0: 41080})
Features in test dataset (20%):
Count: (51393,)
Counter({0.0: 10284, 3.0: 10284, 4.0: 10283, 1.0: 10271, 2.0: 10271})
Classification Report for Test Data (20%):
              precision    recall  f1-score   support

         0.0       0.82      0.76      0.79     10284
         1.0       0.68      0.62      0.65     10271
         2.0       0.56      0.52      0.54     10271
         3.0       0.58      0.67      0.62     10284
         4.0       0.83      0.88      0.85     10283

   micro avg       0.69      0.69      0.69     51393
   macro avg       0.69      0.69      0.69     51393
weighted avg       0.69      0.69      0.69     51393


Accuracy: 0.689082170724
## 1-kth fold --------------------------------
Training Time Elapsed: 00:05:46, 346.096301079
Training set score: 0.678823
Training set loss: 0.825529
MLP # layers: 3
MLP # outputs: 5
MLP # iterations: 500
MLP out_activation_: softmax
MLP classes: [0. 1. 2. 3. 4.]
Classifier saved to /home/paperspace/MSEE/cs280/cs280-mini-proj/src/ANN/_old_grid_search_5_tests_v2/../../../models/ann_entry_5_20_to_30_0_v2/ann_entry_5_v2_7/ann_1_20_0.pkl

Elapsed Seconds: 348.60581398
Total Time Elapsed: 00:05:48
Features in training dataset (80%):
Count: (205566,)
Counter({0.0: 41135, 3.0: 41135, 4.0: 41132, 2.0: 41083, 1.0: 41081})
Features in test dataset (20%):
Count: (51392,)
Counter({0.0: 10284, 3.0: 10284, 4.0: 10283, 2.0: 10271, 1.0: 10270})
Classification Report for Test Data (20%):
              precision    recall  f1-score   support

         0.0       0.74      0.80      0.77     10284
         1.0       0.61      0.54      0.57     10270
         2.0       0.58      0.53      0.56     10271
         3.0       0.62      0.67      0.65     10284
         4.0       0.86      0.90      0.88     10283

   micro avg       0.69      0.69      0.69     51392
   macro avg       0.68      0.69      0.68     51392
weighted avg       0.68      0.69      0.68     51392


Accuracy: 0.687791874222
## 2-kth fold --------------------------------
Training Time Elapsed: 00:05:46, 346.233733177
Training set score: 0.697158
Training set loss: 0.776792
MLP # layers: 3
MLP # outputs: 5
MLP # iterations: 500
MLP out_activation_: softmax
MLP classes: [0. 1. 2. 3. 4.]
Classifier saved to /home/paperspace/MSEE/cs280/cs280-mini-proj/src/ANN/_old_grid_search_5_tests_v2/../../../models/ann_entry_5_20_to_30_0_v2/ann_entry_5_v2_7/ann_2_20_0.pkl

Elapsed Seconds: 348.826393843
Total Time Elapsed: 00:05:48
Features in training dataset (80%):
Count: (205566,)
Counter({0.0: 41135, 3.0: 41135, 4.0: 41132, 2.0: 41083, 1.0: 41081})
Features in test dataset (20%):
Count: (51392,)
Counter({0.0: 10284, 3.0: 10284, 4.0: 10283, 2.0: 10271, 1.0: 10270})
Classification Report for Test Data (20%):
              precision    recall  f1-score   support

         0.0       0.82      0.71      0.76     10284
         1.0       0.66      0.66      0.66     10270
         2.0       0.59      0.55      0.57     10271
         3.0       0.57      0.68      0.62     10284
         4.0       0.83      0.84      0.83     10283

   micro avg       0.69      0.69      0.69     51392
   macro avg       0.69      0.69      0.69     51392
weighted avg       0.69      0.69      0.69     51392


Accuracy: 0.687966998755
## 3-kth fold --------------------------------
Training Time Elapsed: 00:05:37, 337.373924017
Training set score: 0.692415
Training set loss: 0.783306
MLP # layers: 3
MLP # outputs: 5
MLP # iterations: 486
MLP out_activation_: softmax
MLP classes: [0. 1. 2. 3. 4.]
Classifier saved to /home/paperspace/MSEE/cs280/cs280-mini-proj/src/ANN/_old_grid_search_5_tests_v2/../../../models/ann_entry_5_20_to_30_0_v2/ann_entry_5_v2_7/ann_3_20_0.pkl

Elapsed Seconds: 339.393745184
Total Time Elapsed: 00:05:39
Features in training dataset (80%):
Count: (205566,)
Counter({0.0: 41135, 3.0: 41135, 4.0: 41132, 2.0: 41083, 1.0: 41081})
Features in test dataset (20%):
Count: (51392,)
Counter({0.0: 10284, 3.0: 10284, 4.0: 10283, 2.0: 10271, 1.0: 10270})
Classification Report for Test Data (20%):
              precision    recall  f1-score   support

         0.0       0.70      0.80      0.75     10284
         1.0       0.58      0.61      0.59     10270
         2.0       0.49      0.54      0.51     10271
         3.0       0.52      0.51      0.51     10284
         4.0       0.91      0.67      0.77     10283

   micro avg       0.62      0.62      0.62     51392
   macro avg       0.64      0.62      0.63     51392
weighted avg       0.64      0.62      0.63     51392


Accuracy: 0.624630292653
## 4-kth fold --------------------------------
Training Time Elapsed: 00:05:14, 314.827363014
Training set score: 0.682982
Training set loss: 0.802888
MLP # layers: 3
MLP # outputs: 5
MLP # iterations: 460
MLP out_activation_: softmax
MLP classes: [0. 1. 2. 3. 4.]
Classifier saved to /home/paperspace/MSEE/cs280/cs280-mini-proj/src/ANN/_old_grid_search_5_tests_v2/../../../models/ann_entry_5_20_to_30_0_v2/ann_entry_5_v2_7/ann_4_20_0.pkl

Elapsed Seconds: 316.755309105
Total Time Elapsed: 00:05:16
Features in training dataset (80%):
Count: (205569,)
Counter({0.0: 41136, 3.0: 41136, 4.0: 41132, 2.0: 41084, 1.0: 41081})
Features in test dataset (20%):
Count: (51389,)
Counter({0.0: 10283, 3.0: 10283, 4.0: 10283, 1.0: 10270, 2.0: 10270})
Classification Report for Test Data (20%):
              precision    recall  f1-score   support

         0.0       0.81      0.76      0.78     10283
         1.0       0.63      0.60      0.61     10270
         2.0       0.55      0.55      0.55     10270
         3.0       0.58      0.62      0.60     10283
         4.0       0.81      0.86      0.83     10283

   micro avg       0.68      0.68      0.68     51389
   macro avg       0.68      0.68      0.68     51389
weighted avg       0.68      0.68      0.68     51389


Accuracy: 0.676117457043
Sorted List of Temp Training Scores: 
[]

Sorted List of Temp Test Accuracies: 
[]

Average Training Accuracy for: (20, 0)
0.689505703475

Average Test Accuracy for: (20, 0)
0.673117758679

Elapsed Seconds: 1704.04890108
Total Time Elapsed: 00:28:24
# Num of nodes: 21, 0 -----------------------------------------------*****
## 0-kth fold --------------------------------
Training Time Elapsed: 00:05:53, 353.962270021
Training set score: 0.719028
Training set loss: 0.760679
MLP # layers: 3
MLP # outputs: 5
MLP # iterations: 500
MLP out_activation_: softmax
MLP classes: [0. 1. 2. 3. 4.]
Classifier saved to /home/paperspace/MSEE/cs280/cs280-mini-proj/src/ANN/_old_grid_search_5_tests_v2/../../../models/ann_entry_5_20_to_30_0_v2/ann_entry_5_v2_7/ann_0_21_0.pkl

Elapsed Seconds: 356.365360975
Total Time Elapsed: 00:05:56
Features in training dataset (80%):
Count: (205565,)
Counter({0.0: 41135, 3.0: 41135, 4.0: 41132, 2.0: 41083, 1.0: 41080})
Features in test dataset (20%):
Count: (51393,)
Counter({0.0: 10284, 3.0: 10284, 4.0: 10283, 1.0: 10271, 2.0: 10271})
Classification Report for Test Data (20%):
              precision    recall  f1-score   support

         0.0       0.80      0.75      0.77     10284
         1.0       0.69      0.62      0.65     10271
         2.0       0.57      0.55      0.56     10271
         3.0       0.63      0.68      0.66     10284
         4.0       0.80      0.89      0.85     10283

   micro avg       0.70      0.70      0.70     51393
   macro avg       0.70      0.70      0.70     51393
weighted avg       0.70      0.70      0.70     51393


Accuracy: 0.699433775028
## 1-kth fold --------------------------------
Training Time Elapsed: 00:05:54, 354.239908934
Training set score: 0.643749
Training set loss: 0.882481
MLP # layers: 3
MLP # outputs: 5
MLP # iterations: 500
MLP out_activation_: softmax
MLP classes: [0. 1. 2. 3. 4.]
Classifier saved to /home/paperspace/MSEE/cs280/cs280-mini-proj/src/ANN/_old_grid_search_5_tests_v2/../../../models/ann_entry_5_20_to_30_0_v2/ann_entry_5_v2_7/ann_1_21_0.pkl

Elapsed Seconds: 356.303884983
Total Time Elapsed: 00:05:56
Features in training dataset (80%):
Count: (205566,)
Counter({0.0: 41135, 3.0: 41135, 4.0: 41132, 2.0: 41083, 1.0: 41081})
Features in test dataset (20%):
Count: (51392,)
Counter({0.0: 10284, 3.0: 10284, 4.0: 10283, 2.0: 10271, 1.0: 10270})
Classification Report for Test Data (20%):
              precision    recall  f1-score   support

         0.0       0.73      0.78      0.76     10284
         1.0       0.58      0.55      0.57     10270
         2.0       0.51      0.42      0.46     10271
         3.0       0.57      0.64      0.61     10284
         4.0       0.83      0.84      0.84     10283

   micro avg       0.65      0.65      0.65     51392
   macro avg       0.64      0.65      0.65     51392
weighted avg       0.64      0.65      0.65     51392


Accuracy: 0.649536892902
## 2-kth fold --------------------------------
Training Time Elapsed: 00:05:00, 300.300179958
Training set score: 0.658358
Training set loss: 0.840927
MLP # layers: 3
MLP # outputs: 5
MLP # iterations: 423
MLP out_activation_: softmax
MLP classes: [0. 1. 2. 3. 4.]
Classifier saved to /home/paperspace/MSEE/cs280/cs280-mini-proj/src/ANN/_old_grid_search_5_tests_v2/../../../models/ann_entry_5_20_to_30_0_v2/ann_entry_5_v2_7/ann_2_21_0.pkl

Elapsed Seconds: 302.513278008
Total Time Elapsed: 00:05:02
Features in training dataset (80%):
Count: (205566,)
Counter({0.0: 41135, 3.0: 41135, 4.0: 41132, 2.0: 41083, 1.0: 41081})
Features in test dataset (20%):
Count: (51392,)
Counter({0.0: 10284, 3.0: 10284, 4.0: 10283, 2.0: 10271, 1.0: 10270})
Classification Report for Test Data (20%):
              precision    recall  f1-score   support

         0.0       0.78      0.70      0.74     10284
         1.0       0.64      0.58      0.61     10270
         2.0       0.52      0.48      0.50     10271
         3.0       0.56      0.67      0.61     10284
         4.0       0.80      0.85      0.83     10283

   micro avg       0.66      0.66      0.66     51392
   macro avg       0.66      0.66      0.65     51392
weighted avg       0.66      0.66      0.65     51392


Accuracy: 0.655802459527
## 3-kth fold --------------------------------
Training Time Elapsed: 00:05:19, 319.707283974
Training set score: 0.667907
Training set loss: 0.833484
MLP # layers: 3
MLP # outputs: 5
MLP # iterations: 451
MLP out_activation_: softmax
MLP classes: [0. 1. 2. 3. 4.]
Classifier saved to /home/paperspace/MSEE/cs280/cs280-mini-proj/src/ANN/_old_grid_search_5_tests_v2/../../../models/ann_entry_5_20_to_30_0_v2/ann_entry_5_v2_7/ann_3_21_0.pkl

Elapsed Seconds: 322.226992846
Total Time Elapsed: 00:05:22
Features in training dataset (80%):
Count: (205566,)
Counter({0.0: 41135, 3.0: 41135, 4.0: 41132, 2.0: 41083, 1.0: 41081})
Features in test dataset (20%):
Count: (51392,)
Counter({0.0: 10284, 3.0: 10284, 4.0: 10283, 2.0: 10271, 1.0: 10270})
Classification Report for Test Data (20%):
              precision    recall  f1-score   support

         0.0       0.67      0.77      0.72     10284
         1.0       0.54      0.56      0.55     10270
         2.0       0.47      0.52      0.50     10271
         3.0       0.57      0.51      0.54     10284
         4.0       0.88      0.71      0.78     10283

   micro avg       0.61      0.61      0.61     51392
   macro avg       0.62      0.61      0.62     51392
weighted avg       0.62      0.61      0.62     51392


Accuracy: 0.613792029888
## 4-kth fold --------------------------------
Training Time Elapsed: 00:05:54, 354.272787094
Training set score: 0.686246
Training set loss: 0.804615
MLP # layers: 3
MLP # outputs: 5
MLP # iterations: 500
MLP out_activation_: softmax
MLP classes: [0. 1. 2. 3. 4.]
Classifier saved to /home/paperspace/MSEE/cs280/cs280-mini-proj/src/ANN/_old_grid_search_5_tests_v2/../../../models/ann_entry_5_20_to_30_0_v2/ann_entry_5_v2_7/ann_4_21_0.pkl

Elapsed Seconds: 356.517289877
Total Time Elapsed: 00:05:56
Features in training dataset (80%):
Count: (205569,)
Counter({0.0: 41136, 3.0: 41136, 4.0: 41132, 2.0: 41084, 1.0: 41081})
Features in test dataset (20%):
Count: (51389,)
Counter({0.0: 10283, 3.0: 10283, 4.0: 10283, 1.0: 10270, 2.0: 10270})
Classification Report for Test Data (20%):
              precision    recall  f1-score   support

         0.0       0.78      0.75      0.77     10283
         1.0       0.60      0.61      0.60     10270
         2.0       0.55      0.47      0.51     10270
         3.0       0.57      0.61      0.59     10283
         4.0       0.82      0.90      0.86     10283

   micro avg       0.67      0.67      0.67     51389
   macro avg       0.66      0.67      0.66     51389
weighted avg       0.66      0.67      0.66     51389


Accuracy: 0.66780828582
Sorted List of Temp Training Scores: 
[[(20, 0), 0.6895057034748622]]

Sorted List of Temp Test Accuracies: 
[[(20, 0), 0.6731177586791735]]

Average Training Accuracy for: (21, 0)
0.675057801668

Average Test Accuracy for: (21, 0)
0.657274688633

Elapsed Seconds: 1695.68813205
Total Time Elapsed: 00:28:15
# Num of nodes: 22, 0 -----------------------------------------------*****
## 0-kth fold --------------------------------
Training Time Elapsed: 00:06:00, 360.977658033
Training set score: 0.711186
Training set loss: 0.772001
MLP # layers: 3
MLP # outputs: 5
MLP # iterations: 500
MLP out_activation_: softmax
MLP classes: [0. 1. 2. 3. 4.]
Classifier saved to /home/paperspace/MSEE/cs280/cs280-mini-proj/src/ANN/_old_grid_search_5_tests_v2/../../../models/ann_entry_5_20_to_30_0_v2/ann_entry_5_v2_7/ann_0_22_0.pkl

Elapsed Seconds: 363.256191969
Total Time Elapsed: 00:06:03
Features in training dataset (80%):
Count: (205565,)
Counter({0.0: 41135, 3.0: 41135, 4.0: 41132, 2.0: 41083, 1.0: 41080})
Features in test dataset (20%):
Count: (51393,)
Counter({0.0: 10284, 3.0: 10284, 4.0: 10283, 1.0: 10271, 2.0: 10271})
Classification Report for Test Data (20%):
              precision    recall  f1-score   support

         0.0       0.82      0.75      0.78     10284
         1.0       0.69      0.62      0.65     10271
         2.0       0.55      0.57      0.56     10271
         3.0       0.63      0.65      0.64     10284
         4.0       0.78      0.87      0.82     10283

   micro avg       0.69      0.69      0.69     51393
   macro avg       0.69      0.69      0.69     51393
weighted avg       0.69      0.69      0.69     51393


Accuracy: 0.693479656763
## 1-kth fold --------------------------------
Training Time Elapsed: 00:05:21, 321.843195915
Training set score: 0.641779
Training set loss: 0.869591
MLP # layers: 3
MLP # outputs: 5
MLP # iterations: 442
MLP out_activation_: softmax
MLP classes: [0. 1. 2. 3. 4.]
Classifier saved to /home/paperspace/MSEE/cs280/cs280-mini-proj/src/ANN/_old_grid_search_5_tests_v2/../../../models/ann_entry_5_20_to_30_0_v2/ann_entry_5_v2_7/ann_1_22_0.pkl

Elapsed Seconds: 324.135948896
Total Time Elapsed: 00:05:24
Features in training dataset (80%):
Count: (205566,)
Counter({0.0: 41135, 3.0: 41135, 4.0: 41132, 2.0: 41083, 1.0: 41081})
Features in test dataset (20%):
Count: (51392,)
Counter({0.0: 10284, 3.0: 10284, 4.0: 10283, 2.0: 10271, 1.0: 10270})
Classification Report for Test Data (20%):
              precision    recall  f1-score   support

         0.0       0.74      0.78      0.76     10284
         1.0       0.59      0.51      0.54     10270
         2.0       0.51      0.51      0.51     10271
         3.0       0.59      0.61      0.60     10284
         4.0       0.84      0.87      0.85     10283

   micro avg       0.66      0.66      0.66     51392
   macro avg       0.65      0.66      0.65     51392
weighted avg       0.65      0.66      0.65     51392


Accuracy: 0.655744084682
## 2-kth fold --------------------------------
Training Time Elapsed: 00:06:00, 360.40161705
Training set score: 0.711669
Training set loss: 0.760810
MLP # layers: 3
MLP # outputs: 5
MLP # iterations: 500
MLP out_activation_: softmax
MLP classes: [0. 1. 2. 3. 4.]
Classifier saved to /home/paperspace/MSEE/cs280/cs280-mini-proj/src/ANN/_old_grid_search_5_tests_v2/../../../models/ann_entry_5_20_to_30_0_v2/ann_entry_5_v2_7/ann_2_22_0.pkl

Elapsed Seconds: 362.767262936
Total Time Elapsed: 00:06:02
Features in training dataset (80%):
Count: (205566,)
Counter({0.0: 41135, 3.0: 41135, 4.0: 41132, 2.0: 41083, 1.0: 41081})
Features in test dataset (20%):
Count: (51392,)
Counter({0.0: 10284, 3.0: 10284, 4.0: 10283, 2.0: 10271, 1.0: 10270})
Classification Report for Test Data (20%):
              precision    recall  f1-score   support

         0.0       0.83      0.72      0.77     10284
         1.0       0.68      0.70      0.69     10270
         2.0       0.62      0.54      0.58     10271
         3.0       0.59      0.73      0.65     10284
         4.0       0.85      0.84      0.84     10283

   micro avg       0.71      0.71      0.71     51392
   macro avg       0.71      0.71      0.71     51392
weighted avg       0.71      0.71      0.71     51392


Accuracy: 0.706802615193
## 3-kth fold --------------------------------
Training Time Elapsed: 00:06:15, 375.36206007
Training set score: 0.687473
Training set loss: 0.795997
MLP # layers: 3
MLP # outputs: 5
MLP # iterations: 500
MLP out_activation_: softmax
MLP classes: [0. 1. 2. 3. 4.]
Classifier saved to /home/paperspace/MSEE/cs280/cs280-mini-proj/src/ANN/_old_grid_search_5_tests_v2/../../../models/ann_entry_5_20_to_30_0_v2/ann_entry_5_v2_7/ann_3_22_0.pkl

Elapsed Seconds: 377.543888092
Total Time Elapsed: 00:06:17
Features in training dataset (80%):
Count: (205566,)
Counter({0.0: 41135, 3.0: 41135, 4.0: 41132, 2.0: 41083, 1.0: 41081})
Features in test dataset (20%):
Count: (51392,)
Counter({0.0: 10284, 3.0: 10284, 4.0: 10283, 2.0: 10271, 1.0: 10270})
Classification Report for Test Data (20%):
              precision    recall  f1-score   support

         0.0       0.72      0.78      0.75     10284
         1.0       0.58      0.64      0.61     10270
         2.0       0.51      0.53      0.52     10271
         3.0       0.50      0.50      0.50     10284
         4.0       0.90      0.70      0.79     10283

   micro avg       0.63      0.63      0.63     51392
   macro avg       0.64      0.63      0.63     51392
weighted avg       0.64      0.63      0.63     51392


Accuracy: 0.629475404732
## 4-kth fold --------------------------------
Training Time Elapsed: 00:06:23, 383.060758114
Training set score: 0.691578
Training set loss: 0.788413
MLP # layers: 3
MLP # outputs: 5
MLP # iterations: 500
MLP out_activation_: softmax
MLP classes: [0. 1. 2. 3. 4.]
Classifier saved to /home/paperspace/MSEE/cs280/cs280-mini-proj/src/ANN/_old_grid_search_5_tests_v2/../../../models/ann_entry_5_20_to_30_0_v2/ann_entry_5_v2_7/ann_4_22_0.pkl

Elapsed Seconds: 385.543664932
Total Time Elapsed: 00:06:25
Features in training dataset (80%):
Count: (205569,)
Counter({0.0: 41136, 3.0: 41136, 4.0: 41132, 2.0: 41084, 1.0: 41081})
Features in test dataset (20%):
Count: (51389,)
Counter({0.0: 10283, 3.0: 10283, 4.0: 10283, 1.0: 10270, 2.0: 10270})
Classification Report for Test Data (20%):
              precision    recall  f1-score   support

         0.0       0.80      0.74      0.77     10283
         1.0       0.60      0.64      0.62     10270
         2.0       0.56      0.46      0.51     10270
         3.0       0.58      0.63      0.60     10283
         4.0       0.82      0.89      0.86     10283

   micro avg       0.67      0.67      0.67     51389
   macro avg       0.67      0.67      0.67     51389
weighted avg       0.67      0.67      0.67     51389


Accuracy: 0.671992060558
Sorted List of Temp Training Scores: 
[[(20, 0), 0.6895057034748622], [(21, 0), 0.6750578016682167]]

Sorted List of Temp Test Accuracies: 
[[(20, 0), 0.6731177586791735], [(21, 0), 0.6572746886327929]]

Average Training Accuracy for: (22, 0)
0.688737083421

Average Test Accuracy for: (22, 0)
0.671498764386

Elapsed Seconds: 1815.39147997
Total Time Elapsed: 00:30:15
# Num of nodes: 23, 0 -----------------------------------------------*****
## 0-kth fold --------------------------------
Training Time Elapsed: 00:06:32, 392.964810848
Training set score: 0.697288
Training set loss: 0.790641
MLP # layers: 3
MLP # outputs: 5
MLP # iterations: 500
MLP out_activation_: softmax
MLP classes: [0. 1. 2. 3. 4.]
Classifier saved to /home/paperspace/MSEE/cs280/cs280-mini-proj/src/ANN/_old_grid_search_5_tests_v2/../../../models/ann_entry_5_20_to_30_0_v2/ann_entry_5_v2_7/ann_0_23_0.pkl

Elapsed Seconds: 395.290642977
Total Time Elapsed: 00:06:35
Features in training dataset (80%):
Count: (205565,)
Counter({0.0: 41135, 3.0: 41135, 4.0: 41132, 2.0: 41083, 1.0: 41080})
Features in test dataset (20%):
Count: (51393,)
Counter({0.0: 10284, 3.0: 10284, 4.0: 10283, 1.0: 10271, 2.0: 10271})
Classification Report for Test Data (20%):
              precision    recall  f1-score   support

         0.0       0.76      0.76      0.76     10284
         1.0       0.68      0.58      0.62     10271
         2.0       0.55      0.48      0.51     10271
         3.0       0.59      0.70      0.64     10284
         4.0       0.81      0.89      0.85     10283

   micro avg       0.68      0.68      0.68     51393
   macro avg       0.68      0.68      0.68     51393
weighted avg       0.68      0.68      0.68     51393


Accuracy: 0.680870935731
## 1-kth fold --------------------------------
Training Time Elapsed: 00:06:38, 398.811666965
Training set score: 0.720435
Training set loss: 0.741682
MLP # layers: 3
MLP # outputs: 5
MLP # iterations: 500
MLP out_activation_: softmax
MLP classes: [0. 1. 2. 3. 4.]
Classifier saved to /home/paperspace/MSEE/cs280/cs280-mini-proj/src/ANN/_old_grid_search_5_tests_v2/../../../models/ann_entry_5_20_to_30_0_v2/ann_entry_5_v2_7/ann_1_23_0.pkl

Elapsed Seconds: 401.279782057
Total Time Elapsed: 00:06:41
Features in training dataset (80%):
Count: (205566,)
Counter({0.0: 41135, 3.0: 41135, 4.0: 41132, 2.0: 41083, 1.0: 41081})
Features in test dataset (20%):
Count: (51392,)
Counter({0.0: 10284, 3.0: 10284, 4.0: 10283, 2.0: 10271, 1.0: 10270})
Classification Report for Test Data (20%):
              precision    recall  f1-score   support

         0.0       0.80      0.79      0.79     10284
         1.0       0.66      0.64      0.65     10270
         2.0       0.64      0.60      0.62     10271
         3.0       0.66      0.72      0.69     10284
         4.0       0.86      0.87      0.87     10283

   micro avg       0.73      0.73      0.73     51392
   macro avg       0.73      0.73      0.73     51392
weighted avg       0.73      0.73      0.73     51392


Accuracy: 0.725540940224
## 2-kth fold --------------------------------
Training Time Elapsed: 00:07:13, 433.498800993
Training set score: 0.700631
Training set loss: 0.773648
MLP # layers: 3
MLP # outputs: 5
MLP # iterations: 500
MLP out_activation_: softmax
MLP classes: [0. 1. 2. 3. 4.]
Classifier saved to /home/paperspace/MSEE/cs280/cs280-mini-proj/src/ANN/_old_grid_search_5_tests_v2/../../../models/ann_entry_5_20_to_30_0_v2/ann_entry_5_v2_7/ann_2_23_0.pkl

Elapsed Seconds: 436.011124849
Total Time Elapsed: 00:07:16
Features in training dataset (80%):
Count: (205566,)
Counter({0.0: 41135, 3.0: 41135, 4.0: 41132, 2.0: 41083, 1.0: 41081})
Features in test dataset (20%):
Count: (51392,)
Counter({0.0: 10284, 3.0: 10284, 4.0: 10283, 2.0: 10271, 1.0: 10270})
Classification Report for Test Data (20%):
              precision    recall  f1-score   support

         0.0       0.82      0.73      0.77     10284
         1.0       0.68      0.64      0.66     10270
         2.0       0.58      0.52      0.55     10271
         3.0       0.58      0.71      0.64     10284
         4.0       0.82      0.86      0.84     10283

   micro avg       0.69      0.69      0.69     51392
   macro avg       0.70      0.69      0.69     51392
weighted avg       0.70      0.69      0.69     51392


Accuracy: 0.691917029888
## 3-kth fold --------------------------------
Training Time Elapsed: 00:07:24, 444.367583036
Training set score: 0.616746
Training set loss: 0.932177
MLP # layers: 3
MLP # outputs: 5
MLP # iterations: 500
MLP out_activation_: softmax
MLP classes: [0. 1. 2. 3. 4.]
Classifier saved to /home/paperspace/MSEE/cs280/cs280-mini-proj/src/ANN/_old_grid_search_5_tests_v2/../../../models/ann_entry_5_20_to_30_0_v2/ann_entry_5_v2_7/ann_3_23_0.pkl

Elapsed Seconds: 447.006065845
Total Time Elapsed: 00:07:27
Features in training dataset (80%):
Count: (205566,)
Counter({0.0: 41135, 3.0: 41135, 4.0: 41132, 2.0: 41083, 1.0: 41081})
Features in test dataset (20%):
Count: (51392,)
Counter({0.0: 10284, 3.0: 10284, 4.0: 10283, 2.0: 10271, 1.0: 10270})
Classification Report for Test Data (20%):
              precision    recall  f1-score   support

         0.0       0.63      0.78      0.70     10284
         1.0       0.44      0.44      0.44     10270
         2.0       0.55      0.56      0.55     10271
         3.0       0.44      0.43      0.43     10284
         4.0       0.85      0.66      0.74     10283

   micro avg       0.57      0.57      0.57     51392
   macro avg       0.58      0.57      0.57     51392
weighted avg       0.58      0.57      0.57     51392


Accuracy: 0.572832347447
## 4-kth fold --------------------------------
Training Time Elapsed: 00:06:13, 373.379277945
Training set score: 0.695698
Training set loss: 0.801612
MLP # layers: 3
MLP # outputs: 5
MLP # iterations: 500
MLP out_activation_: softmax
MLP classes: [0. 1. 2. 3. 4.]
Classifier saved to /home/paperspace/MSEE/cs280/cs280-mini-proj/src/ANN/_old_grid_search_5_tests_v2/../../../models/ann_entry_5_20_to_30_0_v2/ann_entry_5_v2_7/ann_4_23_0.pkl

Elapsed Seconds: 375.667837143
Total Time Elapsed: 00:06:15
Features in training dataset (80%):
Count: (205569,)
Counter({0.0: 41136, 3.0: 41136, 4.0: 41132, 2.0: 41084, 1.0: 41081})
Features in test dataset (20%):
Count: (51389,)
Counter({0.0: 10283, 3.0: 10283, 4.0: 10283, 1.0: 10270, 2.0: 10270})
Classification Report for Test Data (20%):
              precision    recall  f1-score   support

         0.0       0.77      0.76      0.77     10283
         1.0       0.63      0.61      0.62     10270
         2.0       0.59      0.54      0.56     10270
         3.0       0.61      0.63      0.62     10283
         4.0       0.81      0.89      0.85     10283

   micro avg       0.68      0.68      0.68     51389
   macro avg       0.68      0.68      0.68     51389
weighted avg       0.68      0.68      0.68     51389


Accuracy: 0.68425149351
Sorted List of Temp Training Scores: 
[[(20, 0), 0.6895057034748622], [(22, 0), 0.6887370834206161], [(21, 0), 0.6750578016682167]]

Sorted List of Temp Test Accuracies: 
[[(20, 0), 0.6731177586791735], [(22, 0), 0.6714987643856044], [(21, 0), 0.6572746886327929]]

Average Training Accuracy for: (23, 0)
0.686159783421

Average Test Accuracy for: (23, 0)
0.67108254936

Elapsed Seconds: 2057.22649884
Total Time Elapsed: 00:34:17
# Num of nodes: 24, 0 -----------------------------------------------*****
## 0-kth fold --------------------------------
Training Time Elapsed: 00:04:57, 297.256739855
Training set score: 0.697930
Training set loss: 0.773304
MLP # layers: 3
MLP # outputs: 5
MLP # iterations: 405
MLP out_activation_: softmax
MLP classes: [0. 1. 2. 3. 4.]
Classifier saved to /home/paperspace/MSEE/cs280/cs280-mini-proj/src/ANN/_old_grid_search_5_tests_v2/../../../models/ann_entry_5_20_to_30_0_v2/ann_entry_5_v2_7/ann_0_24_0.pkl

Elapsed Seconds: 299.577188969
Total Time Elapsed: 00:04:59
Features in training dataset (80%):
Count: (205565,)
Counter({0.0: 41135, 3.0: 41135, 4.0: 41132, 2.0: 41083, 1.0: 41080})
Features in test dataset (20%):
Count: (51393,)
Counter({0.0: 10284, 3.0: 10284, 4.0: 10283, 1.0: 10271, 2.0: 10271})
Classification Report for Test Data (20%):
              precision    recall  f1-score   support

         0.0       0.81      0.77      0.79     10284
         1.0       0.68      0.63      0.65     10271
         2.0       0.55      0.51      0.53     10271
         3.0       0.57      0.60      0.59     10284
         4.0       0.79      0.92      0.85     10283

   micro avg       0.68      0.68      0.68     51393
   macro avg       0.68      0.68      0.68     51393
weighted avg       0.68      0.68      0.68     51393


Accuracy: 0.684081489697
## 1-kth fold --------------------------------
Training Time Elapsed: 00:06:14, 374.350551128
Training set score: 0.699994
Training set loss: 0.766001
MLP # layers: 3
MLP # outputs: 5
MLP # iterations: 500
MLP out_activation_: softmax
MLP classes: [0. 1. 2. 3. 4.]
Classifier saved to /home/paperspace/MSEE/cs280/cs280-mini-proj/src/ANN/_old_grid_search_5_tests_v2/../../../models/ann_entry_5_20_to_30_0_v2/ann_entry_5_v2_7/ann_1_24_0.pkl

Elapsed Seconds: 376.549588919
Total Time Elapsed: 00:06:16
Features in training dataset (80%):
Count: (205566,)
Counter({0.0: 41135, 3.0: 41135, 4.0: 41132, 2.0: 41083, 1.0: 41081})
Features in test dataset (20%):
Count: (51392,)
Counter({0.0: 10284, 3.0: 10284, 4.0: 10283, 2.0: 10271, 1.0: 10270})
Classification Report for Test Data (20%):
              precision    recall  f1-score   support

         0.0       0.80      0.81      0.80     10284
         1.0       0.67      0.63      0.65     10270
         2.0       0.59      0.56      0.58     10271
         3.0       0.61      0.65      0.63     10284
         4.0       0.85      0.89      0.87     10283

   micro avg       0.71      0.71      0.71     51392
   macro avg       0.70      0.71      0.71     51392
weighted avg       0.70      0.71      0.71     51392


Accuracy: 0.707230697385
## 2-kth fold --------------------------------
Training Time Elapsed: 00:06:26, 386.353268147
Training set score: 0.741100
Training set loss: 0.713624
MLP # layers: 3
MLP # outputs: 5
MLP # iterations: 500
MLP out_activation_: softmax
MLP classes: [0. 1. 2. 3. 4.]
Classifier saved to /home/paperspace/MSEE/cs280/cs280-mini-proj/src/ANN/_old_grid_search_5_tests_v2/../../../models/ann_entry_5_20_to_30_0_v2/ann_entry_5_v2_7/ann_2_24_0.pkl

Elapsed Seconds: 388.874776125
Total Time Elapsed: 00:06:28
Features in training dataset (80%):
Count: (205566,)
Counter({0.0: 41135, 3.0: 41135, 4.0: 41132, 2.0: 41083, 1.0: 41081})
Features in test dataset (20%):
Count: (51392,)
Counter({0.0: 10284, 3.0: 10284, 4.0: 10283, 2.0: 10271, 1.0: 10270})
Classification Report for Test Data (20%):
              precision    recall  f1-score   support

         0.0       0.80      0.73      0.77     10284
         1.0       0.71      0.66      0.68     10270
         2.0       0.64      0.66      0.65     10271
         3.0       0.69      0.71      0.70     10284
         4.0       0.82      0.91      0.86     10283

   micro avg       0.73      0.73      0.73     51392
   macro avg       0.73      0.73      0.73     51392
weighted avg       0.73      0.73      0.73     51392


Accuracy: 0.732370797011
## 3-kth fold --------------------------------
Training Time Elapsed: 00:05:36, 336.874909878
Training set score: 0.684612
Training set loss: 0.787958
MLP # layers: 3
MLP # outputs: 5
MLP # iterations: 446
MLP out_activation_: softmax
MLP classes: [0. 1. 2. 3. 4.]
Classifier saved to /home/paperspace/MSEE/cs280/cs280-mini-proj/src/ANN/_old_grid_search_5_tests_v2/../../../models/ann_entry_5_20_to_30_0_v2/ann_entry_5_v2_7/ann_3_24_0.pkl

Elapsed Seconds: 339.506994963
Total Time Elapsed: 00:05:39
Features in training dataset (80%):
Count: (205566,)
Counter({0.0: 41135, 3.0: 41135, 4.0: 41132, 2.0: 41083, 1.0: 41081})
Features in test dataset (20%):
Count: (51392,)
Counter({0.0: 10284, 3.0: 10284, 4.0: 10283, 2.0: 10271, 1.0: 10270})
Classification Report for Test Data (20%):
              precision    recall  f1-score   support

         0.0       0.66      0.83      0.73     10284
         1.0       0.60      0.51      0.55     10270
         2.0       0.47      0.52      0.49     10271
         3.0       0.52      0.51      0.51     10284
         4.0       0.91      0.72      0.81     10283

   micro avg       0.62      0.62      0.62     51392
   macro avg       0.63      0.62      0.62     51392
weighted avg       0.63      0.62      0.62     51392


Accuracy: 0.618364726027
## 4-kth fold --------------------------------
Training Time Elapsed: 00:05:23, 323.984143019
Training set score: 0.705481
Training set loss: 0.767257
MLP # layers: 3
MLP # outputs: 5
MLP # iterations: 433
MLP out_activation_: softmax
MLP classes: [0. 1. 2. 3. 4.]
Classifier saved to /home/paperspace/MSEE/cs280/cs280-mini-proj/src/ANN/_old_grid_search_5_tests_v2/../../../models/ann_entry_5_20_to_30_0_v2/ann_entry_5_v2_7/ann_4_24_0.pkl

Elapsed Seconds: 326.521334887
Total Time Elapsed: 00:05:26
Features in training dataset (80%):
Count: (205569,)
Counter({0.0: 41136, 3.0: 41136, 4.0: 41132, 2.0: 41084, 1.0: 41081})
Features in test dataset (20%):
Count: (51389,)
Counter({0.0: 10283, 3.0: 10283, 4.0: 10283, 1.0: 10270, 2.0: 10270})
Classification Report for Test Data (20%):
              precision    recall  f1-score   support

         0.0       0.81      0.77      0.79     10283
         1.0       0.65      0.63      0.64     10270
         2.0       0.58      0.50      0.54     10270
         3.0       0.59      0.66      0.62     10283
         4.0       0.82      0.90      0.86     10283

   micro avg       0.69      0.69      0.69     51389
   macro avg       0.69      0.69      0.69     51389
weighted avg       0.69      0.69      0.69     51389


Accuracy: 0.692404989395
Sorted List of Temp Training Scores: 
[[(20, 0), 0.6895057034748622], [(22, 0), 0.6887370834206161], [(23, 0), 0.6861597834205251], [(21, 0), 0.6750578016682167]]

Sorted List of Temp Test Accuracies: 
[[(20, 0), 0.6731177586791735], [(22, 0), 0.6714987643856044], [(23, 0), 0.6710825493599969], [(21, 0), 0.6572746886327929]]

Average Training Accuracy for: (24, 0)
0.705823513117

Average Test Accuracy for: (24, 0)
0.686890539903

Elapsed Seconds: 1733.19295597
Total Time Elapsed: 00:28:53
# Num of nodes: 25, 0 -----------------------------------------------*****
## 0-kth fold --------------------------------
Training Time Elapsed: 00:06:25, 385.366750002
Training set score: 0.686128
Training set loss: 0.807596
MLP # layers: 3
MLP # outputs: 5
MLP # iterations: 500
MLP out_activation_: softmax
MLP classes: [0. 1. 2. 3. 4.]
Classifier saved to /home/paperspace/MSEE/cs280/cs280-mini-proj/src/ANN/_old_grid_search_5_tests_v2/../../../models/ann_entry_5_20_to_30_0_v2/ann_entry_5_v2_7/ann_0_25_0.pkl

Elapsed Seconds: 387.850847006
Total Time Elapsed: 00:06:27
Features in training dataset (80%):
Count: (205565,)
Counter({0.0: 41135, 3.0: 41135, 4.0: 41132, 2.0: 41083, 1.0: 41080})
Features in test dataset (20%):
Count: (51393,)
Counter({0.0: 10284, 3.0: 10284, 4.0: 10283, 1.0: 10271, 2.0: 10271})
Classification Report for Test Data (20%):
              precision    recall  f1-score   support

         0.0       0.80      0.76      0.78     10284
         1.0       0.67      0.61      0.64     10271
         2.0       0.56      0.51      0.53     10271
         3.0       0.58      0.59      0.59     10284
         4.0       0.76      0.91      0.83     10283

   micro avg       0.68      0.68      0.68     51393
   macro avg       0.67      0.68      0.67     51393
weighted avg       0.67      0.68      0.67     51393


Accuracy: 0.676512365497
## 1-kth fold --------------------------------
Training Time Elapsed: 00:06:23, 383.982152939
Training set score: 0.714841
Training set loss: 0.768953
MLP # layers: 3
MLP # outputs: 5
MLP # iterations: 500
MLP out_activation_: softmax
MLP classes: [0. 1. 2. 3. 4.]
Classifier saved to /home/paperspace/MSEE/cs280/cs280-mini-proj/src/ANN/_old_grid_search_5_tests_v2/../../../models/ann_entry_5_20_to_30_0_v2/ann_entry_5_v2_7/ann_1_25_0.pkl

Elapsed Seconds: 386.501094818
Total Time Elapsed: 00:06:26
Features in training dataset (80%):
Count: (205566,)
Counter({0.0: 41135, 3.0: 41135, 4.0: 41132, 2.0: 41083, 1.0: 41081})
Features in test dataset (20%):
Count: (51392,)
Counter({0.0: 10284, 3.0: 10284, 4.0: 10283, 2.0: 10271, 1.0: 10270})
Classification Report for Test Data (20%):
              precision    recall  f1-score   support

         0.0       0.80      0.83      0.81     10284
         1.0       0.68      0.66      0.67     10270
         2.0       0.64      0.59      0.61     10271
         3.0       0.67      0.69      0.68     10284
         4.0       0.85      0.87      0.86     10283

   micro avg       0.73      0.73      0.73     51392
   macro avg       0.73      0.73      0.73     51392
weighted avg       0.73      0.73      0.73     51392


Accuracy: 0.729802303861
## 2-kth fold --------------------------------
Training Time Elapsed: 00:06:24, 384.431111097
Training set score: 0.693602
Training set loss: 0.802008
MLP # layers: 3
MLP # outputs: 5
MLP # iterations: 500
MLP out_activation_: softmax
MLP classes: [0. 1. 2. 3. 4.]
Classifier saved to /home/paperspace/MSEE/cs280/cs280-mini-proj/src/ANN/_old_grid_search_5_tests_v2/../../../models/ann_entry_5_20_to_30_0_v2/ann_entry_5_v2_7/ann_2_25_0.pkl

Elapsed Seconds: 386.837359905
Total Time Elapsed: 00:06:26
Features in training dataset (80%):
Count: (205566,)
Counter({0.0: 41135, 3.0: 41135, 4.0: 41132, 2.0: 41083, 1.0: 41081})
Features in test dataset (20%):
Count: (51392,)
Counter({0.0: 10284, 3.0: 10284, 4.0: 10283, 2.0: 10271, 1.0: 10270})
Classification Report for Test Data (20%):
              precision    recall  f1-score   support

         0.0       0.80      0.74      0.77     10284
         1.0       0.69      0.66      0.68     10270
         2.0       0.60      0.55      0.57     10271
         3.0       0.58      0.65      0.61     10284
         4.0       0.80      0.85      0.83     10283

   micro avg       0.69      0.69      0.69     51392
   macro avg       0.69      0.69      0.69     51392
weighted avg       0.69      0.69      0.69     51392


Accuracy: 0.69248132005
## 3-kth fold --------------------------------
Training Time Elapsed: 00:06:27, 387.066910028
Training set score: 0.734625
Training set loss: 0.743488
MLP # layers: 3
MLP # outputs: 5
MLP # iterations: 500
MLP out_activation_: softmax
MLP classes: [0. 1. 2. 3. 4.]
Classifier saved to /home/paperspace/MSEE/cs280/cs280-mini-proj/src/ANN/_old_grid_search_5_tests_v2/../../../models/ann_entry_5_20_to_30_0_v2/ann_entry_5_v2_7/ann_3_25_0.pkl

Elapsed Seconds: 389.443619013
Total Time Elapsed: 00:06:29
Features in training dataset (80%):
Count: (205566,)
Counter({0.0: 41135, 3.0: 41135, 4.0: 41132, 2.0: 41083, 1.0: 41081})
Features in test dataset (20%):
Count: (51392,)
Counter({0.0: 10284, 3.0: 10284, 4.0: 10283, 2.0: 10271, 1.0: 10270})
Classification Report for Test Data (20%):
              precision    recall  f1-score   support

         0.0       0.73      0.80      0.77     10284
         1.0       0.60      0.64      0.62     10270
         2.0       0.52      0.58      0.55     10271
         3.0       0.60      0.53      0.56     10284
         4.0       0.83      0.69      0.75     10283

   micro avg       0.65      0.65      0.65     51392
   macro avg       0.66      0.65      0.65     51392
weighted avg       0.66      0.65      0.65     51392


Accuracy: 0.649945516812
## 4-kth fold --------------------------------
Training Time Elapsed: 00:06:18, 378.335348129
Training set score: 0.738472
Training set loss: 0.715976
MLP # layers: 3
MLP # outputs: 5
MLP # iterations: 500
MLP out_activation_: softmax
MLP classes: [0. 1. 2. 3. 4.]
Classifier saved to /home/paperspace/MSEE/cs280/cs280-mini-proj/src/ANN/_old_grid_search_5_tests_v2/../../../models/ann_entry_5_20_to_30_0_v2/ann_entry_5_v2_7/ann_4_25_0.pkl

Elapsed Seconds: 380.624192953
Total Time Elapsed: 00:06:20
Features in training dataset (80%):
Count: (205569,)
Counter({0.0: 41136, 3.0: 41136, 4.0: 41132, 2.0: 41084, 1.0: 41081})
Features in test dataset (20%):
Count: (51389,)
Counter({0.0: 10283, 3.0: 10283, 4.0: 10283, 1.0: 10270, 2.0: 10270})
Classification Report for Test Data (20%):
              precision    recall  f1-score   support

         0.0       0.81      0.78      0.80     10283
         1.0       0.67      0.65      0.66     10270
         2.0       0.64      0.62      0.63     10270
         3.0       0.68      0.68      0.68     10283
         4.0       0.82      0.89      0.85     10283

   micro avg       0.72      0.72      0.72     51389
   macro avg       0.72      0.72      0.72     51389
weighted avg       0.72      0.72      0.72     51389


Accuracy: 0.724571406332
Sorted List of Temp Training Scores: 
[[(24, 0), 0.705823513117384], [(20, 0), 0.6895057034748622], [(22, 0), 0.6887370834206161], [(23, 0), 0.6861597834205251], [(21, 0), 0.6750578016682167]]

Sorted List of Temp Test Accuracies: 
[[(24, 0), 0.6868905399030141], [(20, 0), 0.6731177586791735], [(22, 0), 0.6714987643856044], [(23, 0), 0.6710825493599969], [(21, 0), 0.6572746886327929]]

Average Training Accuracy for: (25, 0)
0.713533824379

Average Test Accuracy for: (25, 0)
0.69466258251

Elapsed Seconds: 1933.52918792
Total Time Elapsed: 00:32:13
# Num of nodes: 26, 0 -----------------------------------------------*****
## 0-kth fold --------------------------------
Training Time Elapsed: 00:06:27, 387.016873121
Training set score: 0.692885
Training set loss: 0.793868
MLP # layers: 3
MLP # outputs: 5
MLP # iterations: 500
MLP out_activation_: softmax
MLP classes: [0. 1. 2. 3. 4.]
Classifier saved to /home/paperspace/MSEE/cs280/cs280-mini-proj/src/ANN/_old_grid_search_5_tests_v2/../../../models/ann_entry_5_20_to_30_0_v2/ann_entry_5_v2_7/ann_0_26_0.pkl

Elapsed Seconds: 389.364315987
Total Time Elapsed: 00:06:29
Features in training dataset (80%):
Count: (205565,)
Counter({0.0: 41135, 3.0: 41135, 4.0: 41132, 2.0: 41083, 1.0: 41080})
Features in test dataset (20%):
Count: (51393,)
Counter({0.0: 10284, 3.0: 10284, 4.0: 10283, 1.0: 10271, 2.0: 10271})
Classification Report for Test Data (20%):
              precision    recall  f1-score   support

         0.0       0.78      0.75      0.76     10284
         1.0       0.66      0.61      0.63     10271
         2.0       0.58      0.53      0.55     10271
         3.0       0.62      0.63      0.62     10284
         4.0       0.79      0.92      0.85     10283

   micro avg       0.69      0.69      0.69     51393
   macro avg       0.68      0.69      0.68     51393
weighted avg       0.68      0.69      0.68     51393


Accuracy: 0.688654096861
## 1-kth fold --------------------------------
Training Time Elapsed: 00:06:30, 390.547140121
Training set score: 0.688168
Training set loss: 0.807319
MLP # layers: 3
MLP # outputs: 5
MLP # iterations: 500
MLP out_activation_: softmax
MLP classes: [0. 1. 2. 3. 4.]
Classifier saved to /home/paperspace/MSEE/cs280/cs280-mini-proj/src/ANN/_old_grid_search_5_tests_v2/../../../models/ann_entry_5_20_to_30_0_v2/ann_entry_5_v2_7/ann_1_26_0.pkl

Elapsed Seconds: 392.781897068
Total Time Elapsed: 00:06:32
Features in training dataset (80%):
Count: (205566,)
Counter({0.0: 41135, 3.0: 41135, 4.0: 41132, 2.0: 41083, 1.0: 41081})
Features in test dataset (20%):
Count: (51392,)
Counter({0.0: 10284, 3.0: 10284, 4.0: 10283, 2.0: 10271, 1.0: 10270})
Classification Report for Test Data (20%):
              precision    recall  f1-score   support

         0.0       0.81      0.73      0.77     10284
         1.0       0.59      0.63      0.61     10270
         2.0       0.58      0.53      0.55     10271
         3.0       0.63      0.67      0.65     10284
         4.0       0.84      0.87      0.86     10283

   micro avg       0.69      0.69      0.69     51392
   macro avg       0.69      0.69      0.69     51392
weighted avg       0.69      0.69      0.69     51392


Accuracy: 0.686390877958
## 2-kth fold --------------------------------
Training Time Elapsed: 00:05:29, 329.800815105
Training set score: 0.656573
Training set loss: 0.836508
MLP # layers: 3
MLP # outputs: 5
MLP # iterations: 419
MLP out_activation_: softmax
MLP classes: [0. 1. 2. 3. 4.]
Classifier saved to /home/paperspace/MSEE/cs280/cs280-mini-proj/src/ANN/_old_grid_search_5_tests_v2/../../../models/ann_entry_5_20_to_30_0_v2/ann_entry_5_v2_7/ann_2_26_0.pkl

Elapsed Seconds: 331.890316963
Total Time Elapsed: 00:05:31
Features in training dataset (80%):
Count: (205566,)
Counter({0.0: 41135, 3.0: 41135, 4.0: 41132, 2.0: 41083, 1.0: 41081})
Features in test dataset (20%):
Count: (51392,)
Counter({0.0: 10284, 3.0: 10284, 4.0: 10283, 2.0: 10271, 1.0: 10270})
Classification Report for Test Data (20%):
              precision    recall  f1-score   support

         0.0       0.76      0.70      0.73     10284
         1.0       0.62      0.57      0.60     10270
         2.0       0.51      0.46      0.48     10271
         3.0       0.56      0.67      0.61     10284
         4.0       0.81      0.88      0.84     10283

   micro avg       0.65      0.65      0.65     51392
   macro avg       0.65      0.65      0.65     51392
weighted avg       0.65      0.65      0.65     51392


Accuracy: 0.654926836862
## 3-kth fold --------------------------------
Training Time Elapsed: 00:06:31, 391.830543995
Training set score: 0.712837
Training set loss: 0.760013
MLP # layers: 3
MLP # outputs: 5
MLP # iterations: 500
MLP out_activation_: softmax
MLP classes: [0. 1. 2. 3. 4.]
Classifier saved to /home/paperspace/MSEE/cs280/cs280-mini-proj/src/ANN/_old_grid_search_5_tests_v2/../../../models/ann_entry_5_20_to_30_0_v2/ann_entry_5_v2_7/ann_3_26_0.pkl

Elapsed Seconds: 394.183597088
Total Time Elapsed: 00:06:34
Features in training dataset (80%):
Count: (205566,)
Counter({0.0: 41135, 3.0: 41135, 4.0: 41132, 2.0: 41083, 1.0: 41081})
Features in test dataset (20%):
Count: (51392,)
Counter({0.0: 10284, 3.0: 10284, 4.0: 10283, 2.0: 10271, 1.0: 10270})
Classification Report for Test Data (20%):
              precision    recall  f1-score   support

         0.0       0.68      0.79      0.73     10284
         1.0       0.57      0.59      0.58     10270
         2.0       0.56      0.56      0.56     10271
         3.0       0.57      0.58      0.58     10284
         4.0       0.91      0.71      0.80     10283

   micro avg       0.65      0.65      0.65     51392
   macro avg       0.66      0.65      0.65     51392
weighted avg       0.66      0.65      0.65     51392


Accuracy: 0.645800902864
## 4-kth fold --------------------------------
Training Time Elapsed: 00:06:34, 394.069691896
Training set score: 0.670646
Training set loss: 0.814627
MLP # layers: 3
MLP # outputs: 5
MLP # iterations: 500
MLP out_activation_: softmax
MLP classes: [0. 1. 2. 3. 4.]
Classifier saved to /home/paperspace/MSEE/cs280/cs280-mini-proj/src/ANN/_old_grid_search_5_tests_v2/../../../models/ann_entry_5_20_to_30_0_v2/ann_entry_5_v2_7/ann_4_26_0.pkl

Elapsed Seconds: 396.416042089
Total Time Elapsed: 00:06:36
Features in training dataset (80%):
Count: (205569,)
Counter({0.0: 41136, 3.0: 41136, 4.0: 41132, 2.0: 41084, 1.0: 41081})
Features in test dataset (20%):
Count: (51389,)
Counter({0.0: 10283, 3.0: 10283, 4.0: 10283, 1.0: 10270, 2.0: 10270})
Classification Report for Test Data (20%):
              precision    recall  f1-score   support

         0.0       0.78      0.78      0.78     10283
         1.0       0.61      0.55      0.58     10270
         2.0       0.50      0.49      0.50     10270
         3.0       0.57      0.57      0.57     10283
         4.0       0.80      0.89      0.84     10283

   micro avg       0.66      0.66      0.66     51389
   macro avg       0.65      0.66      0.65     51389
weighted avg       0.65      0.66      0.65     51389


Accuracy: 0.655918581798
Sorted List of Temp Training Scores: 
[[(25, 0), 0.7135338243792784], [(24, 0), 0.705823513117384], [(20, 0), 0.6895057034748622], [(22, 0), 0.6887370834206161], [(23, 0), 0.6861597834205251], [(21, 0), 0.6750578016682167]]

Sorted List of Temp Test Accuracies: 
[[(25, 0), 0.6946625825103265], [(24, 0), 0.6868905399030141], [(20, 0), 0.6731177586791735], [(22, 0), 0.6714987643856044], [(23, 0), 0.6710825493599969], [(21, 0), 0.6572746886327929]]

Average Training Accuracy for: (26, 0)
0.684221788572

Average Test Accuracy for: (26, 0)
0.666338259269

Elapsed Seconds: 1906.19686294
Total Time Elapsed: 00:31:46
# Num of nodes: 27, 0 -----------------------------------------------*****
## 0-kth fold --------------------------------
Training Time Elapsed: 00:06:37, 397.316406012
Training set score: 0.737407
Training set loss: 0.717902
MLP # layers: 3
MLP # outputs: 5
MLP # iterations: 500
MLP out_activation_: softmax
MLP classes: [0. 1. 2. 3. 4.]
Classifier saved to /home/paperspace/MSEE/cs280/cs280-mini-proj/src/ANN/_old_grid_search_5_tests_v2/../../../models/ann_entry_5_20_to_30_0_v2/ann_entry_5_v2_7/ann_0_27_0.pkl

Elapsed Seconds: 399.778309107
Total Time Elapsed: 00:06:39
Features in training dataset (80%):
Count: (205565,)
Counter({0.0: 41135, 3.0: 41135, 4.0: 41132, 2.0: 41083, 1.0: 41080})
Features in test dataset (20%):
Count: (51393,)
Counter({0.0: 10284, 3.0: 10284, 4.0: 10283, 1.0: 10271, 2.0: 10271})
Classification Report for Test Data (20%):
              precision    recall  f1-score   support

         0.0       0.79      0.76      0.77     10284
         1.0       0.72      0.63      0.67     10271
         2.0       0.60      0.59      0.60     10271
         3.0       0.64      0.66      0.65     10284
         4.0       0.79      0.92      0.85     10283

   micro avg       0.71      0.71      0.71     51393
   macro avg       0.71      0.71      0.71     51393
weighted avg       0.71      0.71      0.71     51393


Accuracy: 0.710524779639
## 1-kth fold --------------------------------
Training Time Elapsed: 00:06:25, 385.917335033
Training set score: 0.685668
Training set loss: 0.794165
MLP # layers: 3
MLP # outputs: 5
MLP # iterations: 500
MLP out_activation_: softmax
MLP classes: [0. 1. 2. 3. 4.]
Classifier saved to /home/paperspace/MSEE/cs280/cs280-mini-proj/src/ANN/_old_grid_search_5_tests_v2/../../../models/ann_entry_5_20_to_30_0_v2/ann_entry_5_v2_7/ann_1_27_0.pkl

Elapsed Seconds: 388.202418089
Total Time Elapsed: 00:06:28
Features in training dataset (80%):
Count: (205566,)
Counter({0.0: 41135, 3.0: 41135, 4.0: 41132, 2.0: 41083, 1.0: 41081})
Features in test dataset (20%):
Count: (51392,)
Counter({0.0: 10284, 3.0: 10284, 4.0: 10283, 2.0: 10271, 1.0: 10270})
Classification Report for Test Data (20%):
              precision    recall  f1-score   support

         0.0       0.79      0.81      0.80     10284
         1.0       0.65      0.61      0.63     10270
         2.0       0.57      0.53      0.55     10271
         3.0       0.59      0.64      0.62     10284
         4.0       0.85      0.87      0.86     10283

   micro avg       0.69      0.69      0.69     51392
   macro avg       0.69      0.69      0.69     51392
weighted avg       0.69      0.69      0.69     51392


Accuracy: 0.692851027397
## 2-kth fold --------------------------------
Training Time Elapsed: 00:06:27, 387.214596033
Training set score: 0.714170
Training set loss: 0.738517
MLP # layers: 3
MLP # outputs: 5
MLP # iterations: 500
MLP out_activation_: softmax
MLP classes: [0. 1. 2. 3. 4.]
Classifier saved to /home/paperspace/MSEE/cs280/cs280-mini-proj/src/ANN/_old_grid_search_5_tests_v2/../../../models/ann_entry_5_20_to_30_0_v2/ann_entry_5_v2_7/ann_2_27_0.pkl

Elapsed Seconds: 389.562842131
Total Time Elapsed: 00:06:29
Features in training dataset (80%):
Count: (205566,)
Counter({0.0: 41135, 3.0: 41135, 4.0: 41132, 2.0: 41083, 1.0: 41081})
Features in test dataset (20%):
Count: (51392,)
Counter({0.0: 10284, 3.0: 10284, 4.0: 10283, 2.0: 10271, 1.0: 10270})
Classification Report for Test Data (20%):
              precision    recall  f1-score   support

         0.0       0.83      0.77      0.79     10284
         1.0       0.70      0.66      0.68     10270
         2.0       0.62      0.55      0.58     10271
         3.0       0.61      0.71      0.65     10284
         4.0       0.85      0.91      0.88     10283

   micro avg       0.72      0.72      0.72     51392
   macro avg       0.72      0.72      0.72     51392
weighted avg       0.72      0.72      0.72     51392


Accuracy: 0.719178082192
## 3-kth fold --------------------------------
Training Time Elapsed: 00:06:25, 385.018390179
Training set score: 0.766800
Training set loss: 0.669819
MLP # layers: 3
MLP # outputs: 5
MLP # iterations: 500
MLP out_activation_: softmax
MLP classes: [0. 1. 2. 3. 4.]
Classifier saved to /home/paperspace/MSEE/cs280/cs280-mini-proj/src/ANN/_old_grid_search_5_tests_v2/../../../models/ann_entry_5_20_to_30_0_v2/ann_entry_5_v2_7/ann_3_27_0.pkl

Elapsed Seconds: 387.148078918
Total Time Elapsed: 00:06:27
Features in training dataset (80%):
Count: (205566,)
Counter({0.0: 41135, 3.0: 41135, 4.0: 41132, 2.0: 41083, 1.0: 41081})
Features in test dataset (20%):
Count: (51392,)
Counter({0.0: 10284, 3.0: 10284, 4.0: 10283, 2.0: 10271, 1.0: 10270})
Classification Report for Test Data (20%):
              precision    recall  f1-score   support

         0.0       0.75      0.81      0.78     10284
         1.0       0.63      0.69      0.66     10270
         2.0       0.57      0.63      0.59     10271
         3.0       0.61      0.57      0.59     10284
         4.0       0.93      0.71      0.81     10283

   micro avg       0.68      0.68      0.68     51392
   macro avg       0.69      0.68      0.68     51392
weighted avg       0.69      0.68      0.68     51392


Accuracy: 0.681759806974
## 4-kth fold --------------------------------
Training Time Elapsed: 00:06:28, 388.929005861
Training set score: 0.708088
Training set loss: 0.743970
MLP # layers: 3
MLP # outputs: 5
MLP # iterations: 500
MLP out_activation_: softmax
MLP classes: [0. 1. 2. 3. 4.]
Classifier saved to /home/paperspace/MSEE/cs280/cs280-mini-proj/src/ANN/_old_grid_search_5_tests_v2/../../../models/ann_entry_5_20_to_30_0_v2/ann_entry_5_v2_7/ann_4_27_0.pkl

Elapsed Seconds: 391.127098083
Total Time Elapsed: 00:06:31
Features in training dataset (80%):
Count: (205569,)
Counter({0.0: 41136, 3.0: 41136, 4.0: 41132, 2.0: 41084, 1.0: 41081})
Features in test dataset (20%):
Count: (51389,)
Counter({0.0: 10283, 3.0: 10283, 4.0: 10283, 1.0: 10270, 2.0: 10270})
Classification Report for Test Data (20%):
              precision    recall  f1-score   support

         0.0       0.80      0.76      0.78     10283
         1.0       0.65      0.67      0.66     10270
         2.0       0.59      0.52      0.56     10270
         3.0       0.62      0.64      0.63     10283
         4.0       0.82      0.91      0.86     10283

   micro avg       0.70      0.70      0.70     51389
   macro avg       0.70      0.70      0.70     51389
weighted avg       0.70      0.70      0.70     51389


Accuracy: 0.699468757905
Sorted List of Temp Training Scores: 
[[(25, 0), 0.7135338243792784], [(24, 0), 0.705823513117384], [(20, 0), 0.6895057034748622], [(22, 0), 0.6887370834206161], [(23, 0), 0.6861597834205251], [(26, 0), 0.6842217885719082], [(21, 0), 0.6750578016682167]]

Sorted List of Temp Test Accuracies: 
[[(25, 0), 0.6946625825103265], [(24, 0), 0.6868905399030141], [(20, 0), 0.6731177586791735], [(22, 0), 0.6714987643856044], [(23, 0), 0.6710825493599969], [(26, 0), 0.6663382592685575], [(21, 0), 0.6572746886327929]]

Average Training Accuracy for: (27, 0)
0.72242648409

Average Test Accuracy for: (27, 0)
0.700756490822

Elapsed Seconds: 1957.83389401
Total Time Elapsed: 00:32:37
# Num of nodes: 28, 0 -----------------------------------------------*****
## 0-kth fold --------------------------------
Training Time Elapsed: 00:06:32, 392.278574944
Training set score: 0.710009
Training set loss: 0.754041
MLP # layers: 3
MLP # outputs: 5
MLP # iterations: 500
MLP out_activation_: softmax
MLP classes: [0. 1. 2. 3. 4.]
Classifier saved to /home/paperspace/MSEE/cs280/cs280-mini-proj/src/ANN/_old_grid_search_5_tests_v2/../../../models/ann_entry_5_20_to_30_0_v2/ann_entry_5_v2_7/ann_0_28_0.pkl

Elapsed Seconds: 394.461666107
Total Time Elapsed: 00:06:34
Features in training dataset (80%):
Count: (205565,)
Counter({0.0: 41135, 3.0: 41135, 4.0: 41132, 2.0: 41083, 1.0: 41080})
Features in test dataset (20%):
Count: (51393,)
Counter({0.0: 10284, 3.0: 10284, 4.0: 10283, 1.0: 10271, 2.0: 10271})
Classification Report for Test Data (20%):
              precision    recall  f1-score   support

         0.0       0.81      0.77      0.79     10284
         1.0       0.70      0.60      0.65     10271
         2.0       0.60      0.52      0.56     10271
         3.0       0.58      0.67      0.62     10284
         4.0       0.80      0.92      0.86     10283

   micro avg       0.70      0.70      0.70     51393
   macro avg       0.70      0.70      0.70     51393
weighted avg       0.70      0.70      0.70     51393


Accuracy: 0.698188469247
## 1-kth fold --------------------------------
Training Time Elapsed: 00:06:30, 390.871737003
Training set score: 0.744637
Training set loss: 0.706674
MLP # layers: 3
MLP # outputs: 5
MLP # iterations: 500
MLP out_activation_: softmax
MLP classes: [0. 1. 2. 3. 4.]
Classifier saved to /home/paperspace/MSEE/cs280/cs280-mini-proj/src/ANN/_old_grid_search_5_tests_v2/../../../models/ann_entry_5_20_to_30_0_v2/ann_entry_5_v2_7/ann_1_28_0.pkl

Elapsed Seconds: 393.21645093
Total Time Elapsed: 00:06:33
Features in training dataset (80%):
Count: (205566,)
Counter({0.0: 41135, 3.0: 41135, 4.0: 41132, 2.0: 41083, 1.0: 41081})
Features in test dataset (20%):
Count: (51392,)
Counter({0.0: 10284, 3.0: 10284, 4.0: 10283, 2.0: 10271, 1.0: 10270})
Classification Report for Test Data (20%):
              precision    recall  f1-score   support

         0.0       0.81      0.83      0.82     10284
         1.0       0.72      0.66      0.69     10270
         2.0       0.67      0.67      0.67     10271
         3.0       0.71      0.73      0.72     10284
         4.0       0.87      0.89      0.88     10283

   micro avg       0.76      0.76      0.76     51392
   macro avg       0.75      0.76      0.76     51392
weighted avg       0.75      0.76      0.76     51392


Accuracy: 0.756207191781
## 2-kth fold --------------------------------
Training Time Elapsed: 00:06:22, 382.256908894
Training set score: 0.711256
Training set loss: 0.738139
MLP # layers: 3
MLP # outputs: 5
MLP # iterations: 500
MLP out_activation_: softmax
MLP classes: [0. 1. 2. 3. 4.]
Classifier saved to /home/paperspace/MSEE/cs280/cs280-mini-proj/src/ANN/_old_grid_search_5_tests_v2/../../../models/ann_entry_5_20_to_30_0_v2/ann_entry_5_v2_7/ann_2_28_0.pkl

Elapsed Seconds: 384.372488022
Total Time Elapsed: 00:06:24
Features in training dataset (80%):
Count: (205566,)
Counter({0.0: 41135, 3.0: 41135, 4.0: 41132, 2.0: 41083, 1.0: 41081})
Features in test dataset (20%):
Count: (51392,)
Counter({0.0: 10284, 3.0: 10284, 4.0: 10283, 2.0: 10271, 1.0: 10270})
Classification Report for Test Data (20%):
              precision    recall  f1-score   support

         0.0       0.81      0.76      0.78     10284
         1.0       0.69      0.63      0.66     10270
         2.0       0.61      0.57      0.59     10271
         3.0       0.62      0.68      0.65     10284
         4.0       0.82      0.90      0.86     10283

   micro avg       0.71      0.71      0.71     51392
   macro avg       0.71      0.71      0.71     51392
weighted avg       0.71      0.71      0.71     51392


Accuracy: 0.710013231631
## 3-kth fold --------------------------------
Training Time Elapsed: 00:06:45, 405.063941002
Training set score: 0.738347
Training set loss: 0.705225
MLP # layers: 3
MLP # outputs: 5
MLP # iterations: 500
MLP out_activation_: softmax
MLP classes: [0. 1. 2. 3. 4.]
Classifier saved to /home/paperspace/MSEE/cs280/cs280-mini-proj/src/ANN/_old_grid_search_5_tests_v2/../../../models/ann_entry_5_20_to_30_0_v2/ann_entry_5_v2_7/ann_3_28_0.pkl

Elapsed Seconds: 406.727892876
Total Time Elapsed: 00:06:46
Features in training dataset (80%):
Count: (205566,)
Counter({0.0: 41135, 3.0: 41135, 4.0: 41132, 2.0: 41083, 1.0: 41081})
Features in test dataset (20%):
Count: (51392,)
Counter({0.0: 10284, 3.0: 10284, 4.0: 10283, 2.0: 10271, 1.0: 10270})
Classification Report for Test Data (20%):
              precision    recall  f1-score   support

         0.0       0.69      0.79      0.74     10284
         1.0       0.59      0.61      0.60     10270
         2.0       0.54      0.63      0.58     10271
         3.0       0.61      0.53      0.57     10284
         4.0       0.92      0.73      0.81     10283

   micro avg       0.66      0.66      0.66     51392
   macro avg       0.67      0.66      0.66     51392
weighted avg       0.67      0.66      0.66     51392


Accuracy: 0.656755915318
## 4-kth fold --------------------------------
Training Time Elapsed: 00:06:27, 387.960327864
Training set score: 0.698437
Training set loss: 0.755535
MLP # layers: 3
MLP # outputs: 5
MLP # iterations: 500
MLP out_activation_: softmax
MLP classes: [0. 1. 2. 3. 4.]
Classifier saved to /home/paperspace/MSEE/cs280/cs280-mini-proj/src/ANN/_old_grid_search_5_tests_v2/../../../models/ann_entry_5_20_to_30_0_v2/ann_entry_5_v2_7/ann_4_28_0.pkl

Elapsed Seconds: 390.123187065
Total Time Elapsed: 00:06:30
Features in training dataset (80%):
Count: (205569,)
Counter({0.0: 41136, 3.0: 41136, 4.0: 41132, 2.0: 41084, 1.0: 41081})
Features in test dataset (20%):
Count: (51389,)
Counter({0.0: 10283, 3.0: 10283, 4.0: 10283, 1.0: 10270, 2.0: 10270})
Classification Report for Test Data (20%):
              precision    recall  f1-score   support

         0.0       0.75      0.79      0.77     10283
         1.0       0.64      0.60      0.62     10270
         2.0       0.56      0.48      0.52     10270
         3.0       0.57      0.60      0.59     10283
         4.0       0.81      0.90      0.85     10283

   micro avg       0.67      0.67      0.67     51389
   macro avg       0.67      0.67      0.67     51389
weighted avg       0.67      0.67      0.67     51389


Accuracy: 0.673957461714
Sorted List of Temp Training Scores: 
[[(27, 0), 0.7224264840896006], [(25, 0), 0.7135338243792784], [(24, 0), 0.705823513117384], [(20, 0), 0.6895057034748622], [(22, 0), 0.6887370834206161], [(23, 0), 0.6861597834205251], [(26, 0), 0.6842217885719082], [(21, 0), 0.6750578016682167]]

Sorted List of Temp Test Accuracies: 
[[(27, 0), 0.7007564908215056], [(25, 0), 0.6946625825103265], [(24, 0), 0.6868905399030141], [(20, 0), 0.6731177586791735], [(22, 0), 0.6714987643856044], [(23, 0), 0.6710825493599969], [(26, 0), 0.6663382592685575], [(21, 0), 0.6572746886327929]]

Average Training Accuracy for: (28, 0)
0.720537068093

Average Test Accuracy for: (28, 0)
0.699024453938

Elapsed Seconds: 1970.98260713
Total Time Elapsed: 00:32:50
# Num of nodes: 29, 0 -----------------------------------------------*****
## 0-kth fold --------------------------------
Training Time Elapsed: 00:04:56, 296.158449173
Training set score: 0.711609
Training set loss: 0.764702
MLP # layers: 3
MLP # outputs: 5
MLP # iterations: 376
MLP out_activation_: softmax
MLP classes: [0. 1. 2. 3. 4.]
Classifier saved to /home/paperspace/MSEE/cs280/cs280-mini-proj/src/ANN/_old_grid_search_5_tests_v2/../../../models/ann_entry_5_20_to_30_0_v2/ann_entry_5_v2_7/ann_0_29_0.pkl

Elapsed Seconds: 298.537924051
Total Time Elapsed: 00:04:58
Features in training dataset (80%):
Count: (205565,)
Counter({0.0: 41135, 3.0: 41135, 4.0: 41132, 2.0: 41083, 1.0: 41080})
Features in test dataset (20%):
Count: (51393,)
Counter({0.0: 10284, 3.0: 10284, 4.0: 10283, 1.0: 10271, 2.0: 10271})
Classification Report for Test Data (20%):
              precision    recall  f1-score   support

         0.0       0.78      0.76      0.77     10284
         1.0       0.66      0.61      0.64     10271
         2.0       0.58      0.54      0.56     10271
         3.0       0.63      0.65      0.64     10284
         4.0       0.80      0.92      0.85     10283

   micro avg       0.69      0.69      0.69     51393
   macro avg       0.69      0.69      0.69     51393
weighted avg       0.69      0.69      0.69     51393


Accuracy: 0.694666588835
## 1-kth fold --------------------------------
Training Time Elapsed: 00:06:34, 394.059958935
Training set score: 0.725835
Training set loss: 0.736973
MLP # layers: 3
MLP # outputs: 5
MLP # iterations: 500
MLP out_activation_: softmax
MLP classes: [0. 1. 2. 3. 4.]
Classifier saved to /home/paperspace/MSEE/cs280/cs280-mini-proj/src/ANN/_old_grid_search_5_tests_v2/../../../models/ann_entry_5_20_to_30_0_v2/ann_entry_5_v2_7/ann_1_29_0.pkl

Elapsed Seconds: 396.265599012
Total Time Elapsed: 00:06:36
Features in training dataset (80%):
Count: (205566,)
Counter({0.0: 41135, 3.0: 41135, 4.0: 41132, 2.0: 41083, 1.0: 41081})
Features in test dataset (20%):
Count: (51392,)
Counter({0.0: 10284, 3.0: 10284, 4.0: 10283, 2.0: 10271, 1.0: 10270})
Classification Report for Test Data (20%):
              precision    recall  f1-score   support

         0.0       0.82      0.77      0.80     10284
         1.0       0.65      0.67      0.66     10270
         2.0       0.64      0.57      0.60     10271
         3.0       0.68      0.74      0.71     10284
         4.0       0.86      0.90      0.88     10283

   micro avg       0.73      0.73      0.73     51392
   macro avg       0.73      0.73      0.73     51392
weighted avg       0.73      0.73      0.73     51392


Accuracy: 0.730094178082
## 2-kth fold --------------------------------
Training Time Elapsed: 00:06:35, 395.497090101
Training set score: 0.734922
Training set loss: 0.717766
MLP # layers: 3
MLP # outputs: 5
MLP # iterations: 500
MLP out_activation_: softmax
MLP classes: [0. 1. 2. 3. 4.]
Classifier saved to /home/paperspace/MSEE/cs280/cs280-mini-proj/src/ANN/_old_grid_search_5_tests_v2/../../../models/ann_entry_5_20_to_30_0_v2/ann_entry_5_v2_7/ann_2_29_0.pkl

Elapsed Seconds: 397.436902046
Total Time Elapsed: 00:06:37
Features in training dataset (80%):
Count: (205566,)
Counter({0.0: 41135, 3.0: 41135, 4.0: 41132, 2.0: 41083, 1.0: 41081})
Features in test dataset (20%):
Count: (51392,)
Counter({0.0: 10284, 3.0: 10284, 4.0: 10283, 2.0: 10271, 1.0: 10270})
Classification Report for Test Data (20%):
              precision    recall  f1-score   support

         0.0       0.79      0.75      0.77     10284
         1.0       0.71      0.66      0.68     10270
         2.0       0.65      0.62      0.63     10271
         3.0       0.67      0.74      0.70     10284
         4.0       0.83      0.90      0.86     10283

   micro avg       0.73      0.73      0.73     51392
   macro avg       0.73      0.73      0.73     51392
weighted avg       0.73      0.73      0.73     51392


Accuracy: 0.731923256538
## 3-kth fold --------------------------------
Training Time Elapsed: 00:06:36, 396.700794935
Training set score: 0.703633
Training set loss: 0.757007
MLP # layers: 3
MLP # outputs: 5
MLP # iterations: 500
MLP out_activation_: softmax
MLP classes: [0. 1. 2. 3. 4.]
Classifier saved to /home/paperspace/MSEE/cs280/cs280-mini-proj/src/ANN/_old_grid_search_5_tests_v2/../../../models/ann_entry_5_20_to_30_0_v2/ann_entry_5_v2_7/ann_3_29_0.pkl

Elapsed Seconds: 398.990498066
Total Time Elapsed: 00:06:38
Features in training dataset (80%):
Count: (205566,)
Counter({0.0: 41135, 3.0: 41135, 4.0: 41132, 2.0: 41083, 1.0: 41081})
Features in test dataset (20%):
Count: (51392,)
Counter({0.0: 10284, 3.0: 10284, 4.0: 10283, 2.0: 10271, 1.0: 10270})
Classification Report for Test Data (20%):
              precision    recall  f1-score   support

         0.0       0.71      0.81      0.76     10284
         1.0       0.58      0.63      0.61     10270
         2.0       0.53      0.54      0.53     10271
         3.0       0.56      0.55      0.55     10284
         4.0       0.92      0.72      0.81     10283

   micro avg       0.65      0.65      0.65     51392
   macro avg       0.66      0.65      0.65     51392
weighted avg       0.66      0.65      0.65     51392


Accuracy: 0.6487001868
## 4-kth fold --------------------------------
Training Time Elapsed: 00:06:37, 397.109660864
Training set score: 0.744266
Training set loss: 0.692709
MLP # layers: 3
MLP # outputs: 5
MLP # iterations: 500
MLP out_activation_: softmax
MLP classes: [0. 1. 2. 3. 4.]
Classifier saved to /home/paperspace/MSEE/cs280/cs280-mini-proj/src/ANN/_old_grid_search_5_tests_v2/../../../models/ann_entry_5_20_to_30_0_v2/ann_entry_5_v2_7/ann_4_29_0.pkl

Elapsed Seconds: 399.633033037
Total Time Elapsed: 00:06:39
Features in training dataset (80%):
Count: (205569,)
Counter({0.0: 41136, 3.0: 41136, 4.0: 41132, 2.0: 41084, 1.0: 41081})
Features in test dataset (20%):
Count: (51389,)
Counter({0.0: 10283, 3.0: 10283, 4.0: 10283, 1.0: 10270, 2.0: 10270})
Classification Report for Test Data (20%):
              precision    recall  f1-score   support

         0.0       0.79      0.75      0.77     10283
         1.0       0.67      0.64      0.65     10270
         2.0       0.66      0.67      0.66     10270
         3.0       0.68      0.67      0.68     10283
         4.0       0.82      0.90      0.86     10283

   micro avg       0.73      0.73      0.73     51389
   macro avg       0.72      0.73      0.72     51389
weighted avg       0.72      0.73      0.72     51389


Accuracy: 0.725485998949
Sorted List of Temp Training Scores: 
[[(27, 0), 0.7224264840896006], [(28, 0), 0.7205370680929104], [(25, 0), 0.7135338243792784], [(24, 0), 0.705823513117384], [(20, 0), 0.6895057034748622], [(22, 0), 0.6887370834206161], [(23, 0), 0.6861597834205251], [(26, 0), 0.6842217885719082], [(21, 0), 0.6750578016682167]]

Sorted List of Temp Test Accuracies: 
[[(27, 0), 0.7007564908215056], [(28, 0), 0.6990244539380288], [(25, 0), 0.6946625825103265], [(24, 0), 0.6868905399030141], [(20, 0), 0.6731177586791735], [(22, 0), 0.6714987643856044], [(23, 0), 0.6710825493599969], [(26, 0), 0.6663382592685575], [(21, 0), 0.6572746886327929]]

Average Training Accuracy for: (29, 0)
0.724053081552

Average Test Accuracy for: (29, 0)
0.706174041841

Elapsed Seconds: 1893.29676795
Total Time Elapsed: 00:31:33
# Num of nodes: 30, 0 -----------------------------------------------*****
## 0-kth fold --------------------------------
Training Time Elapsed: 00:06:40, 400.309419155
Training set score: 0.750089
Training set loss: 0.708384
MLP # layers: 3
MLP # outputs: 5
MLP # iterations: 500
MLP out_activation_: softmax
MLP classes: [0. 1. 2. 3. 4.]
Classifier saved to /home/paperspace/MSEE/cs280/cs280-mini-proj/src/ANN/_old_grid_search_5_tests_v2/../../../models/ann_entry_5_20_to_30_0_v2/ann_entry_5_v2_7/ann_0_30_0.pkl

Elapsed Seconds: 402.493832827
Total Time Elapsed: 00:06:42
Features in training dataset (80%):
Count: (205565,)
Counter({0.0: 41135, 3.0: 41135, 4.0: 41132, 2.0: 41083, 1.0: 41080})
Features in test dataset (20%):
Count: (51393,)
Counter({0.0: 10284, 3.0: 10284, 4.0: 10283, 1.0: 10271, 2.0: 10271})
Classification Report for Test Data (20%):
              precision    recall  f1-score   support

         0.0       0.82      0.77      0.80     10284
         1.0       0.73      0.66      0.69     10271
         2.0       0.63      0.59      0.61     10271
         3.0       0.65      0.68      0.67     10284
         4.0       0.78      0.93      0.85     10283

   micro avg       0.73      0.73      0.73     51393
   macro avg       0.72      0.73      0.72     51393
weighted avg       0.72      0.73      0.72     51393


Accuracy: 0.725799233359
## 1-kth fold --------------------------------
Training Time Elapsed: 00:06:39, 399.093826056
Training set score: 0.719219
Training set loss: 0.750660
MLP # layers: 3
MLP # outputs: 5
MLP # iterations: 500
MLP out_activation_: softmax
MLP classes: [0. 1. 2. 3. 4.]
Classifier saved to /home/paperspace/MSEE/cs280/cs280-mini-proj/src/ANN/_old_grid_search_5_tests_v2/../../../models/ann_entry_5_20_to_30_0_v2/ann_entry_5_v2_7/ann_1_30_0.pkl

Elapsed Seconds: 401.594619036
Total Time Elapsed: 00:06:41
Features in training dataset (80%):
Count: (205566,)
Counter({0.0: 41135, 3.0: 41135, 4.0: 41132, 2.0: 41083, 1.0: 41081})
Features in test dataset (20%):
Count: (51392,)
Counter({0.0: 10284, 3.0: 10284, 4.0: 10283, 2.0: 10271, 1.0: 10270})
Classification Report for Test Data (20%):
              precision    recall  f1-score   support

         0.0       0.81      0.83      0.82     10284
         1.0       0.67      0.66      0.66     10270
         2.0       0.64      0.52      0.57     10271
         3.0       0.65      0.74      0.69     10284
         4.0       0.86      0.90      0.88     10283

   micro avg       0.73      0.73      0.73     51392
   macro avg       0.73      0.73      0.73     51392
weighted avg       0.73      0.73      0.73     51392


Accuracy: 0.729568804483
## 2-kth fold --------------------------------
Training Time Elapsed: 00:06:04, 364.372966051
Training set score: 0.710487
Training set loss: 0.767628
MLP # layers: 3
MLP # outputs: 5
MLP # iterations: 500
MLP out_activation_: softmax
MLP classes: [0. 1. 2. 3. 4.]
Classifier saved to /home/paperspace/MSEE/cs280/cs280-mini-proj/src/ANN/_old_grid_search_5_tests_v2/../../../models/ann_entry_5_20_to_30_0_v2/ann_entry_5_v2_7/ann_2_30_0.pkl

Elapsed Seconds: 366.481709003
Total Time Elapsed: 00:06:06
Features in training dataset (80%):
Count: (205566,)
Counter({0.0: 41135, 3.0: 41135, 4.0: 41132, 2.0: 41083, 1.0: 41081})
Features in test dataset (20%):
Count: (51392,)
Counter({0.0: 10284, 3.0: 10284, 4.0: 10283, 2.0: 10271, 1.0: 10270})
Classification Report for Test Data (20%):
              precision    recall  f1-score   support

         0.0       0.80      0.76      0.78     10284
         1.0       0.69      0.64      0.67     10270
         2.0       0.63      0.55      0.59     10271
         3.0       0.62      0.70      0.66     10284
         4.0       0.83      0.91      0.87     10283

   micro avg       0.71      0.71      0.71     51392
   macro avg       0.71      0.71      0.71     51392
weighted avg       0.71      0.71      0.71     51392


Accuracy: 0.714488636364
## 3-kth fold --------------------------------
Training Time Elapsed: 00:05:26, 326.609956026
Training set score: 0.728355
Training set loss: 0.727125
MLP # layers: 3
MLP # outputs: 5
MLP # iterations: 500
MLP out_activation_: softmax
MLP classes: [0. 1. 2. 3. 4.]
Classifier saved to /home/paperspace/MSEE/cs280/cs280-mini-proj/src/ANN/_old_grid_search_5_tests_v2/../../../models/ann_entry_5_20_to_30_0_v2/ann_entry_5_v2_7/ann_3_30_0.pkl

Elapsed Seconds: 328.337568998
Total Time Elapsed: 00:05:28
Features in training dataset (80%):
Count: (205566,)
Counter({0.0: 41135, 3.0: 41135, 4.0: 41132, 2.0: 41083, 1.0: 41081})
Features in test dataset (20%):
Count: (51392,)
Counter({0.0: 10284, 3.0: 10284, 4.0: 10283, 2.0: 10271, 1.0: 10270})
Classification Report for Test Data (20%):
              precision    recall  f1-score   support

         0.0       0.73      0.82      0.77     10284
         1.0       0.58      0.65      0.61     10270
         2.0       0.53      0.56      0.54     10271
         3.0       0.58      0.52      0.55     10284
         4.0       0.89      0.72      0.80     10283

   micro avg       0.65      0.65      0.65     51392
   macro avg       0.66      0.65      0.65     51392
weighted avg       0.66      0.65      0.65     51392


Accuracy: 0.651560554172
## 4-kth fold --------------------------------
Training Time Elapsed: 00:05:20, 320.657362938
Training set score: 0.705374
Training set loss: 0.769351
MLP # layers: 3
MLP # outputs: 5
MLP # iterations: 500
MLP out_activation_: softmax
MLP classes: [0. 1. 2. 3. 4.]
Classifier saved to /home/paperspace/MSEE/cs280/cs280-mini-proj/src/ANN/_old_grid_search_5_tests_v2/../../../models/ann_entry_5_20_to_30_0_v2/ann_entry_5_v2_7/ann_4_30_0.pkl

Elapsed Seconds: 322.385469913
Total Time Elapsed: 00:05:22
Features in training dataset (80%):
Count: (205569,)
Counter({0.0: 41136, 3.0: 41136, 4.0: 41132, 2.0: 41084, 1.0: 41081})
Features in test dataset (20%):
Count: (51389,)
Counter({0.0: 10283, 3.0: 10283, 4.0: 10283, 1.0: 10270, 2.0: 10270})
Classification Report for Test Data (20%):
              precision    recall  f1-score   support

         0.0       0.78      0.76      0.77     10283
         1.0       0.63      0.56      0.59     10270
         2.0       0.60      0.56      0.58     10270
         3.0       0.60      0.66      0.63     10283
         4.0       0.82      0.89      0.85     10283

   micro avg       0.69      0.69      0.69     51389
   macro avg       0.68      0.69      0.68     51389
weighted avg       0.68      0.69      0.68     51389


Accuracy: 0.686975811944
Sorted List of Temp Training Scores: 
[[(29, 0), 0.7240530815521242], [(27, 0), 0.7224264840896006], [(28, 0), 0.7205370680929104], [(25, 0), 0.7135338243792784], [(24, 0), 0.705823513117384], [(20, 0), 0.6895057034748622], [(22, 0), 0.6887370834206161], [(23, 0), 0.6861597834205251], [(26, 0), 0.6842217885719082], [(21, 0), 0.6750578016682167]]

Sorted List of Temp Test Accuracies: 
[[(29, 0), 0.7061740418407846], [(27, 0), 0.7007564908215056], [(28, 0), 0.6990244539380288], [(25, 0), 0.6946625825103265], [(24, 0), 0.6868905399030141], [(20, 0), 0.6731177586791735], [(22, 0), 0.6714987643856044], [(23, 0), 0.6710825493599969], [(26, 0), 0.6663382592685575], [(21, 0), 0.6572746886327929]]

Average Training Accuracy for: (30, 0)
0.722704760483

Average Test Accuracy for: (30, 0)
0.701678608064

Elapsed Seconds: 1823.01094699
Total Time Elapsed: 00:30:23
List of Training Scores: 
[[(20, 0), 0.6895057034748622], [(21, 0), 0.6750578016682167], [(22, 0), 0.6887370834206161], [(23, 0), 0.6861597834205251], [(24, 0), 0.705823513117384], [(25, 0), 0.7135338243792784], [(26, 0), 0.6842217885719082], [(27, 0), 0.7224264840896006], [(28, 0), 0.7205370680929104], [(29, 0), 0.7240530815521242], [(30, 0), 0.7227047604829451]]

List of Test Accuracies: 
[[(20, 0), 0.6731177586791735], [(21, 0), 0.6572746886327929], [(22, 0), 0.6714987643856044], [(23, 0), 0.6710825493599969], [(24, 0), 0.6868905399030141], [(25, 0), 0.6946625825103265], [(26, 0), 0.6663382592685575], [(27, 0), 0.7007564908215056], [(28, 0), 0.6990244539380288], [(29, 0), 0.7061740418407846], [(30, 0), 0.7016786080642998]]

Sorted List of Training Scores: 
[[(29, 0), 0.7240530815521242], [(30, 0), 0.7227047604829451], [(27, 0), 0.7224264840896006], [(28, 0), 0.7205370680929104], [(25, 0), 0.7135338243792784], [(24, 0), 0.705823513117384], [(20, 0), 0.6895057034748622], [(22, 0), 0.6887370834206161], [(23, 0), 0.6861597834205251], [(26, 0), 0.6842217885719082], [(21, 0), 0.6750578016682167]]

Sorted List of Test Accuracies: 
[[(29, 0), 0.7061740418407846], [(30, 0), 0.7016786080642998], [(27, 0), 0.7007564908215056], [(28, 0), 0.6990244539380288], [(25, 0), 0.6946625825103265], [(24, 0), 0.6868905399030141], [(20, 0), 0.6731177586791735], [(22, 0), 0.6714987643856044], [(23, 0), 0.6710825493599969], [(26, 0), 0.6663382592685575], [(21, 0), 0.6572746886327929]]

Elapsed Seconds: 20490.3989239
Total Time Elapsed: 05:41:30
