{
    "detail": [{
        "hl": true,
        "hls": "uMs, 1 Ago",
        "hlsh": "1 Ago",
        "date": 14700096E5,
        "ts": "00:00",
        "ds": "Lunes, 1 Agosto 2016, 00:00 — 06:00",
        "icon": 17,
        "desc": "Overcast.",
        "temp": 26,
        "templow": 25,
        "baro": 1004,
        "wind": 3,
        "wd": 230,
        "hum": 100
    }, {
        "date": 14700312E5,
        "ts": "06:00",
        "ds": "Lunes, 1 Agosto 2016, 06:00 — 12:00",
        "icon": 6,
        "desc": "More clouds than sun.",
        "temp": 32,
        "templow": 26,
        "baro": 1006,
        "wind": 7,
        "wd": 0,
        "hum": 82
    }, {
        "date": 14700528E5,
        "ts": "12:00",
        "ds": "Lunes, 1 Agosto 2016, 12:00 — 18:00",
        "icon": 6,
        "desc": "More clouds than sun.",
        "temp": 32,
        "templow": 28,
        "baro": 1005,
        "wind": 19,
        "wd": 260,
        "hum": 77
    }, {
        "date": 14700744E5,
        "ts": "18:00",
        "ds": "Lunes, 1 Agosto 2016, 18:00 — 00:00",
        "icon": 34,
        "desc": "Light rain. Mostly cloudy.",
        "temp": 29,
        "templow": 27,
        "baro": 1007,
        "wind": 3,
        "wd": 0,
        "hum": 89
    }, {
        "hl": true,
        "hls": "uLw, 2 Ago",
        "hlsh": "2 Ago",
        "date": 1470096E6,
        "ts": "00:00",
        "ds": "Martes, 2 Agosto 2016, 00:00 — 06:00",
        "icon": 15,
        "desc": "Partly cloudy.",
        "temp": 28,
        "templow": 27,
        "baro": 1006,
        "wind": 3,
        "wd": 0,
        "hum": 97
    }, {
        "date": 14701176E5,
        "ts": "06:00",
        "ds": "Martes, 2 Agosto 2016, 06:00 — 12:00",
        "icon": 6,
        "desc": "Broken clouds.",
        "temp": 31,
        "templow": 27,
        "baro": 1007,
        "wind": 6,
        "wd": 0,
        "hum": 83
    }, {
        "date": 14701392E5,
        "ts": "12:00",
        "ds": "Martes, 2 Agosto 2016, 12:00 — 18:00",
        "icon": 18,
        "desc": "Light rain. Broken clouds.",
        "temp": 29,
        "templow": 27,
        "baro": 1007,
        "wind": 8,
        "wd": 260,
        "hum": 90
    }, {
        "date": 14701608E5,
        "ts": "18:00",
        "ds": "Martes, 2 Agosto 2016, 18:00 — 00:00",
        "icon": 14,
        "desc": "Passing clouds.",
        "temp": 28,
        "templow": 27,
        "baro": 1008,
        "wind": 1,
        "wd": 230,
        "hum": 94
    }, {
        "hl": true,
        "hls": "uLw, 3 Ago",
        "hlsh": "3 Ago",
        "date": 14701824E5,
        "ts": "00:00",
        "ds": "Miyerkules, 3 Agosto 2016, 00:00 — 06:00",
        "icon": 14,
        "desc": "Passing clouds.",
        "temp": 27,
        "templow": 26,
        "baro": 1007,
        "wind": 1,
        "wd": 0,
        "hum": 100
    }, {
        "date": 1470204E6,
        "ts": "06:00",
        "ds": "Miyerkules, 3 Agosto 2016, 06:00 — 12:00",
        "icon": 2,
        "desc": "Passing clouds.",
        "temp": 32,
        "templow": 26,
        "baro": 1009,
        "wind": 8,
        "wd": 0,
        "hum": 76
    }, {
        "date": 14702256E5,
        "ts": "12:00",
        "ds": "Miyerkules, 3 Agosto 2016, 12:00 — 18:00",
        "icon": 2,
        "desc": "Scattered clouds.",
        "temp": 35,
        "templow": 29,
        "baro": 1008,
        "wind": 16,
        "wd": 260,
        "hum": 72
    }, {
        "date": 14702472E5,
        "ts": "18:00",
        "ds": "Miyerkules, 3 Agosto 2016, 18:00 — 00:00",
        "icon": 14,
        "desc": "Passing clouds.",
        "temp": 29,
        "templow": 27,
        "baro": 1009,
        "wind": 7,
        "wd": 260,
        "hum": 91
    }, {
        "hl": true,
        "hls": "uLw, 4 Ago",
        "hlsh": "4 Ago",
        "date": 14702688E5,
        "ts": "00:00",
        "ds": "Huwebes, 4 Agosto 2016, 00:00 — 06:00",
        "icon": 14,
        "desc": "Passing clouds.",
        "temp": 27,
        "templow": 26,
        "baro": 1009,
        "wind": 0,
        "wd": 0,
        "hum": 100
    }, {
        "date": 14702904E5,
        "ts": "06:00",
        "ds": "Huwebes, 4 Agosto 2016, 06:00 — 12:00",
        "icon": 2,
        "desc": "Scattered clouds.",
        "temp": 31,
        "templow": 27,
        "baro": 1009,
        "wind": 6,
        "wd": 280,
        "hum": 86
    }, {
        "date": 1470312E6,
        "ts": "12:00",
        "ds": "Huwebes, 4 Agosto 2016, 12:00 — 18:00",
        "icon": 2,
        "desc": "Scattered clouds.",
        "temp": 32,
        "templow": 30,
        "baro": 1007,
        "wind": 20,
        "wd": 260,
        "hum": 71
    }, {
        "date": 14703336E5,
        "ts": "18:00",
        "ds": "Huwebes, 4 Agosto 2016, 18:00 — 00:00",
        "icon": 14,
        "desc": "Passing clouds.",
        "temp": 30,
        "templow": 28,
        "baro": 1009,
        "wind": 6,
        "wd": 260,
        "hum": 84
    }, {
        "hl": true,
        "hls": "uLw, 5 Ago",
        "hlsh": "5 Ago",
        "date": 14703552E5,
        "ts": "00:00",
        "ds": "Biyernes, 5 Agosto 2016, 00:00 — 06:00",
        "icon": 14,
        "desc": "Passing clouds.",
        "temp": 28,
        "templow": 27,
        "baro": 1009,
        "wind": 2,
        "wd": 0,
        "hum": 95
    }, {
        "date": 14703768E5,
        "ts": "06:00",
        "ds": "Biyernes, 5 Agosto 2016, 06:00 — 12:00",
        "icon": 2,
        "desc": "Passing clouds.",
        "temp": 32,
        "templow": 27,
        "baro": 1009,
        "wind": 12,
        "wd": 0,
        "hum": 81
    }, {
        "date": 14703984E5,
        "ts": "12:00",
        "ds": "Biyernes, 5 Agosto 2016, 12:00 — 18:00",
        "icon": 2,
        "desc": "Passing clouds.",
        "temp": 32,
        "templow": 27,
        "baro": 1007,
        "wind": 20,
        "wd": 260,
        "hum": 79
    }, {
        "date": 147042E7,
        "ts": "18:00",
        "ds": "Biyernes, 5 Agosto 2016, 18:00 — 00:00",
        "icon": 22,
        "desc": "Thunderstorms. Passing clouds.",
        "temp": 27,
        "templow": 25,
        "baro": 1008,
        "wind": 8,
        "wd": 0,
        "hum": 98
    }, {
        "hl": true,
        "hls": "uMg, 6 Ago",
        "hlsh": "6 Ago",
        "date": 14704416E5,
        "ts": "00:00",
        "ds": "Sabado, 6 Agosto 2016, 00:00 — 06:00",
        "icon": 34,
        "desc": "Light rain. Partly cloudy.",
        "temp": 27,
        "templow": 25,
        "baro": 1007,
        "wind": 3,
        "wd": 230,
        "hum": 92
    }, {
        "date": 14704632E5,
        "ts": "06:00",
        "ds": "Sabado, 6 Agosto 2016, 06:00 — 12:00",
        "icon": 6,
        "desc": "Partly sunny.",
        "temp": 33,
        "templow": 27,
        "baro": 1007,
        "wind": 9,
        "wd": 230,
        "hum": 76
    }, {
        "date": 14704848E5,
        "ts": "12:00",
        "ds": "Sabado, 6 Agosto 2016, 12:00 — 18:00",
        "icon": 6,
        "desc": "Broken clouds.",
        "temp": 33,
        "templow": 29,
        "baro": 1005,
        "wind": 27,
        "wd": 240,
        "hum": 75
    }, {
        "date": 14705064E5,
        "ts": "18:00",
        "ds": "Sabado, 6 Agosto 2016, 18:00 — 00:00",
        "icon": 22,
        "desc": "Thunderstorms. Mostly cloudy.",
        "temp": 29,
        "templow": 25,
        "baro": 1005,
        "wind": 8,
        "wd": 230,
        "hum": 89
    }, {
        "hl": true,
        "hls": "iSon, 7 Ago",
        "hlsh": "7 Ago",
        "date": 1470528E6,
        "ts": "00:00",
        "ds": "Linggo, 7 Agosto 2016, 00:00 — 06:00",
        "icon": 17,
        "desc": "Mostly cloudy.",
        "temp": 27,
        "templow": 26,
        "baro": 1005,
        "wind": 16,
        "wd": 260,
        "hum": 92
    }, {
        "date": 14705496E5,
        "ts": "06:00",
        "ds": "Linggo, 7 Agosto 2016, 06:00 — 12:00",
        "icon": 6,
        "desc": "Broken clouds.",
        "temp": 30,
        "templow": 26,
        "baro": 1006,
        "wind": 21,
        "wd": 250,
        "hum": 79
    }, {
        "date": 14705712E5,
        "ts": "12:00",
        "ds": "Linggo, 7 Agosto 2016, 12:00 — 18:00",
        "icon": 6,
        "desc": "Broken clouds.",
        "temp": 32,
        "templow": 28,
        "baro": 1005,
        "wind": 26,
        "wd": 240,
        "hum": 78
    }, {
        "date": 14705928E5,
        "ts": "18:00",
        "ds": "Linggo, 7 Agosto 2016, 18:00 — 00:00",
        "icon": 15,
        "desc": "Partly cloudy.",
        "temp": 28,
        "templow": 27,
        "baro": 1007,
        "wind": 15,
        "wd": 220,
        "hum": 84
    }, {
        "hl": true,
        "hls": "uMs, 8 Ago",
        "hlsh": "8 Ago",
        "date": 14706144E5,
        "ts": "00:00",
        "ds": "Lunes, 8 Agosto 2016, 00:00 — 06:00",
        "icon": 15,
        "desc": "Partly cloudy.",
        "temp": 27,
        "templow": 25,
        "baro": 1006,
        "wind": 9,
        "wd": 230,
        "hum": 91
    }, {
        "date": 1470636E6,
        "ts": "06:00",
        "ds": "Lunes, 8 Agosto 2016, 06:00 — 12:00",
        "icon": 18,
        "desc": "Light rain. More clouds than sun.",
        "temp": 29,
        "templow": 25,
        "baro": 1007,
        "wind": 16,
        "wd": 230,
        "hum": 94
    }, {
        "date": 14706576E5,
        "ts": "12:00",
        "ds": "Lunes, 8 Agosto 2016, 12:00 — 18:00",
        "icon": 18,
        "desc": "Light rain. More clouds than sun.",
        "temp": 28,
        "templow": 25,
        "baro": 1005,
        "wind": 18,
        "wd": 260,
        "hum": 93
    }, {
        "date": 14706792E5,
        "ts": "18:00",
        "ds": "Lunes, 8 Agosto 2016, 18:00 — 00:00",
        "icon": 34,
        "desc": "Light rain. Mostly cloudy.",
        "temp": 27,
        "templow": 25,
        "baro": 1006,
        "wind": 10,
        "wd": 270,
        "hum": 95
    }, {
        "hl": true,
        "hls": "uLw, 9 Ago",
        "hlsh": "9 Ago",
        "date": 14707008E5,
        "ts": "00:00",
        "ds": "Martes, 9 Agosto 2016, 00:00 — 06:00",
        "icon": 34,
        "desc": "Light rain. Mostly cloudy.",
        "temp": 26,
        "templow": 25,
        "baro": 1005,
        "wind": 13,
        "wd": 250,
        "hum": 99
    }, {
        "date": 14707224E5,
        "ts": "06:00",
        "ds": "Martes, 9 Agosto 2016, 06:00 — 12:00",
        "icon": 19,
        "desc": "Rain. More clouds than sun.",
        "temp": 26,
        "templow": 25,
        "baro": 1005,
        "wind": 14,
        "wd": 270,
        "hum": 99
    }, {
        "date": 1470744E6,
        "ts": "12:00",
        "ds": "Martes, 9 Agosto 2016, 12:00 — 18:00",
        "icon": 18,
        "desc": "Light rain. More clouds than sun.",
        "temp": 27,
        "templow": 25,
        "baro": 1004,
        "wind": 14,
        "wd": 270,
        "hum": 100
    }, {
        "date": 14707656E5,
        "ts": "18:00",
        "ds": "Martes, 9 Agosto 2016, 18:00 — 00:00",
        "icon": 34,
        "desc": "Light rain. Mostly cloudy.",
        "temp": 26,
        "templow": 25,
        "baro": 1005,
        "wind": 14,
        "wd": 280,
        "hum": 100
    }, {
        "hl": true,
        "hls": "uLw, 10 Ago",
        "hlsh": "10 Ago",
        "date": 14707872E5,
        "ts": "00:00",
        "ds": "Miyerkules, 10 Agosto 2016, 00:00 — 06:00",
        "icon": 34,
        "desc": "Light rain. Mostly cloudy.",
        "temp": 26,
        "templow": 24,
        "baro": 1005,
        "wind": 8,
        "wd": 240,
        "hum": 100
    }, {
        "date": 14708088E5,
        "ts": "06:00",
        "ds": "Miyerkules, 10 Agosto 2016, 06:00 — 12:00",
        "icon": 18,
        "desc": "Light rain. More clouds than sun.",
        "temp": 28,
        "templow": 25,
        "baro": 1006,
        "wind": 12,
        "wd": 220,
        "hum": 98
    }, {
        "date": 14708304E5,
        "ts": "12:00",
        "ds": "Miyerkules, 10 Agosto 2016, 12:00 — 18:00",
        "icon": 18,
        "desc": "Light rain. More clouds than sun.",
        "temp": 28,
        "templow": 26,
        "baro": 1005,
        "wind": 13,
        "wd": 230,
        "hum": 93
    }, {
        "date": 1470852E6,
        "ts": "18:00",
        "ds": "Miyerkules, 10 Agosto 2016, 18:00 — 00:00",
        "icon": 34,
        "desc": "Light rain. Mostly cloudy.",
        "temp": 26,
        "templow": 26,
        "baro": 1006,
        "wind": 4,
        "wd": 0,
        "hum": 100
    }, {
        "hl": true,
        "hls": "uLw, 11 Ago",
        "hlsh": "11 Ago",
        "date": 14708736E5,
        "ts": "00:00",
        "ds": "Huwebes, 11 Agosto 2016, 00:00 — 06:00",
        "icon": 34,
        "desc": "Light rain. Mostly cloudy.",
        "temp": 26,
        "templow": 25,
        "baro": 1006,
        "wind": 5,
        "wd": 0,
        "hum": 100
    }, {
        "date": 14708952E5,
        "ts": "06:00",
        "ds": "Huwebes, 11 Agosto 2016, 06:00 — 12:00",
        "icon": 6,
        "desc": "More clouds than sun.",
        "temp": 30,
        "templow": 25,
        "baro": 1007,
        "wind": 9,
        "wd": 0,
        "hum": 91
    }, {
        "date": 14709168E5,
        "ts": "12:00",
        "ds": "Huwebes, 11 Agosto 2016, 12:00 — 18:00",
        "icon": 18,
        "desc": "Light rain. More clouds than sun.",
        "temp": 30,
        "templow": 27,
        "baro": 1006,
        "wind": 16,
        "wd": 250,
        "hum": 90
    }, {
        "date": 14709384E5,
        "ts": "18:00",
        "ds": "Huwebes, 11 Agosto 2016, 18:00 — 00:00",
        "icon": 17,
        "desc": "Mostly cloudy.",
        "temp": 27,
        "templow": 27,
        "baro": 1008,
        "wind": 7,
        "wd": 0,
        "hum": 99
    }, {
        "hl": true,
        "hls": "uLw, 12 Ago",
        "hlsh": "12 Ago",
        "date": 147096E7,
        "ts": "00:00",
        "ds": "Biyernes, 12 Agosto 2016, 00:00 — 06:00",
        "icon": 17,
        "desc": "Mostly cloudy.",
        "temp": 28,
        "templow": 26,
        "baro": 1007,
        "wind": 16,
        "wd": 250,
        "hum": 99
    }, {
        "date": 14709816E5,
        "ts": "06:00",
        "ds": "Biyernes, 12 Agosto 2016, 06:00 — 12:00",
        "icon": 6,
        "desc": "Broken clouds.",
        "temp": 29,
        "templow": 26,
        "baro": 1008,
        "wind": 12,
        "wd": 200,
        "hum": 95
    }, {
        "date": 14710032E5,
        "ts": "12:00",
        "ds": "Biyernes, 12 Agosto 2016, 12:00 — 18:00",
        "icon": 18,
        "desc": "Sprinkles. More clouds than sun.",
        "temp": 29,
        "templow": 25,
        "baro": 863,
        "wind": 16,
        "wd": 280,
        "hum": 98
    }, {
        "date": 14710248E5,
        "ts": "18:00",
        "ds": "Biyernes, 12 Agosto 2016, 18:00 — 00:00",
        "icon": 34,
        "desc": "Light rain. Mostly cloudy.",
        "temp": 26,
        "templow": 25,
        "baro": 1007,
        "wind": 11,
        "wd": 0,
        "hum": 100
    }, {
        "hl": true,
        "hls": "uMg, 13 Ago",
        "hlsh": "13 Ago",
        "date": 14710464E5,
        "ts": "00:00",
        "ds": "Sabado, 13 Agosto 2016, 00:00 — 06:00",
        "icon": 17,
        "desc": "Mostly cloudy.",
        "temp": 26,
        "templow": 25,
        "baro": 1005,
        "wind": 4,
        "wd": 220,
        "hum": 100
    }, {
        "date": 1471068E6,
        "ts": "06:00",
        "ds": "Sabado, 13 Agosto 2016, 06:00 — 12:00",
        "icon": 18,
        "desc": "Light rain. More clouds than sun.",
        "temp": 28,
        "templow": 25,
        "baro": 1006,
        "wind": 5,
        "wd": 200,
        "hum": 100
    }, {
        "date": 14710896E5,
        "ts": "12:00",
        "ds": "Sabado, 13 Agosto 2016, 12:00 — 18:00",
        "icon": 18,
        "desc": "Light rain. More clouds than sun.",
        "temp": 28,
        "templow": 24,
        "baro": 1005,
        "wind": 7,
        "wd": 230,
        "hum": 100
    }, {
        "date": 14711112E5,
        "ts": "18:00",
        "ds": "Sabado, 13 Agosto 2016, 18:00 — 00:00",
        "icon": 34,
        "desc": "Light rain. Mostly cloudy.",
        "temp": 25,
        "templow": 24,
        "baro": 1006,
        "wind": 1,
        "wd": 0,
        "hum": 100
    }, {
        "hl": true,
        "hls": "iSon, 14 Ago",
        "hlsh": "14 Ago",
        "date": 14711328E5,
        "ts": "00:00",
        "ds": "Linggo, 14 Agosto 2016, 00:00 — 06:00",
        "icon": 17,
        "desc": "Mostly cloudy.",
        "temp": 26,
        "templow": 25,
        "baro": 1004,
        "wind": 2,
        "wd": 0,
        "hum": 100
    }, {
        "date": 14711544E5,
        "ts": "06:00",
        "ds": "Linggo, 14 Agosto 2016, 06:00 — 12:00",
        "icon": 6,
        "desc": "More clouds than sun.",
        "temp": 30,
        "templow": 26,
        "baro": 1005,
        "wind": 11,
        "wd": 0,
        "hum": 94
    }, {
        "date": 1471176E6,
        "ts": "12:00",
        "ds": "Linggo, 14 Agosto 2016, 12:00 — 18:00",
        "icon": 6,
        "desc": "Broken clouds.",
        "temp": 31,
        "templow": 29,
        "baro": 1004,
        "wind": 21,
        "wd": 240,
        "hum": 83
    }, {
        "date": 14711976E5,
        "ts": "18:00",
        "ds": "Linggo, 14 Agosto 2016, 18:00 — 00:00",
        "icon": 17,
        "desc": "Overcast.",
        "temp": 29,
        "templow": 28,
        "baro": 1005,
        "wind": 12,
        "wd": 240,
        "hum": 88
    }, {
        "hl": true,
        "hls": "uMs, 15 Ago",
        "hlsh": "15 Ago",
        "date": 14712192E5,
        "ts": "00:00",
        "ds": "Lunes, 15 Agosto 2016, 00:00 — 06:00",
        "icon": 17,
        "desc": "Mostly cloudy.",
        "temp": 29,
        "templow": 28,
        "baro": 1005,
        "wind": 17,
        "wd": 240,
        "hum": 92
    }, {
        "date": 14712408E5,
        "ts": "06:00",
        "ds": "Lunes, 15 Agosto 2016, 06:00 — 12:00",
        "icon": 6,
        "desc": "More clouds than sun.",
        "temp": 32,
        "templow": 28,
        "baro": 1005,
        "wind": 21,
        "wd": 240,
        "hum": 82
    }, {
        "date": 14712624E5,
        "ts": "12:00",
        "ds": "Lunes, 15 Agosto 2016, 12:00 — 18:00",
        "icon": 6,
        "desc": "Broken clouds.",
        "temp": 32,
        "templow": 28,
        "baro": 1004,
        "wind": 28,
        "wd": 250,
        "hum": 74
    }, {
        "date": 1471284E6,
        "ts": "18:00",
        "ds": "Lunes, 15 Agosto 2016, 18:00 — 00:00",
        "icon": 34,
        "desc": "Light rain. Mostly cloudy.",
        "temp": 28,
        "templow": 28,
        "baro": 1006,
        "wind": 6,
        "wd": 0,
        "hum": 96
    }, {
        "hl": true,
        "hls": "uLw, 16 Ago",
        "hlsh": "16 Ago",
        "date": 14713056E5,
        "ts": "00:00",
        "ds": "Martes, 16 Agosto 2016, 00:00 — 06:00",
        "icon": 17,
        "desc": "Mostly cloudy.",
        "temp": 28,
        "templow": 28,
        "baro": 1005,
        "wind": 5,
        "wd": 0,
        "hum": 100
    }, {
        "date": 14713272E5,
        "ts": "06:00",
        "ds": "Martes, 16 Agosto 2016, 06:00 — 12:00",
        "icon": 6,
        "desc": "More clouds than sun.",
        "temp": 31,
        "templow": 28,
        "baro": 1006,
        "wind": 15,
        "wd": 250,
        "hum": 89
    }, {
        "date": 14713488E5,
        "ts": "12:00",
        "ds": "Martes, 16 Agosto 2016, 12:00 — 18:00",
        "icon": 6,
        "desc": "More clouds than sun.",
        "temp": 31,
        "templow": 28,
        "baro": 1004,
        "wind": 21,
        "wd": 240,
        "hum": 79
    }, {
        "date": 14713704E5,
        "ts": "18:00",
        "ds": "Martes, 16 Agosto 2016, 18:00 — 00:00",
        "icon": 34,
        "desc": "Light rain. Overcast.",
        "temp": 28,
        "templow": 27,
        "baro": 1007,
        "wind": 8,
        "wd": 200,
        "hum": 98
    }, {
        "hl": true,
        "hls": "uLw, 17 Ago",
        "hlsh": "17 Ago",
        "date": 1471392E6,
        "ts": "00:00",
        "ds": "Miyerkules, 17 Agosto 2016, 00:00 — 06:00",
        "icon": 17,
        "desc": "Mostly cloudy.",
        "temp": 28,
        "templow": 28,
        "baro": 1006,
        "wind": 8,
        "wd": 230,
        "hum": 100
    }, {
        "date": 14714136E5,
        "ts": "06:00",
        "ds": "Miyerkules, 17 Agosto 2016, 06:00 — 12:00",
        "icon": 6,
        "desc": "Broken clouds.",
        "temp": 32,
        "templow": 28,
        "baro": 1006,
        "wind": 18,
        "wd": 240,
        "hum": 84
    }, {
        "date": 14714352E5,
        "ts": "12:00",
        "ds": "Miyerkules, 17 Agosto 2016, 12:00 — 18:00",
        "icon": 6,
        "desc": "Broken clouds.",
        "temp": 32,
        "templow": 30,
        "baro": 1005,
        "wind": 21,
        "wd": 230,
        "hum": 71
    }, {
        "date": 14714568E5,
        "ts": "18:00",
        "ds": "Miyerkules, 17 Agosto 2016, 18:00 — 00:00",
        "icon": 14,
        "desc": "Passing clouds.",
        "temp": 30,
        "templow": 28,
        "baro": 1006,
        "wind": 10,
        "wd": 230,
        "hum": 86
    }, {
        "hl": true,
        "hls": "uLw, 18 Ago",
        "hlsh": "18 Ago",
        "date": 14714784E5,
        "ts": "00:00",
        "ds": "Huwebes, 18 Agosto 2016, 00:00 — 06:00",
        "icon": 14,
        "desc": "Passing clouds.",
        "temp": 28,
        "templow": 27,
        "baro": 1005,
        "wind": 6,
        "wd": 230,
        "hum": 94
    }, {
        "date": 14715E8,
        "ts": "06:00",
        "ds": "Huwebes, 18 Agosto 2016, 06:00 — 12:00",
        "icon": 6,
        "desc": "Broken clouds.",
        "temp": 32,
        "templow": 28,
        "baro": 1006,
        "wind": 16,
        "wd": 260,
        "hum": 80
    }, {
        "date": 14715216E5,
        "ts": "12:00",
        "ds": "Huwebes, 18 Agosto 2016, 12:00 — 18:00",
        "icon": 2,
        "desc": "Scattered clouds.",
        "temp": 33,
        "templow": 30,
        "baro": 1005,
        "wind": 25,
        "wd": 250,
        "hum": 70
    }, {
        "date": 14715432E5,
        "ts": "18:00",
        "ds": "Huwebes, 18 Agosto 2016, 18:00 — 00:00",
        "icon": 14,
        "desc": "Passing clouds.",
        "temp": 30,
        "templow": 28,
        "baro": 1006,
        "wind": 4,
        "wd": 250,
        "hum": 90
    }, {
        "hl": true,
        "hls": "uLw, 19 Ago",
        "hlsh": "19 Ago",
        "date": 14715648E5,
        "ts": "00:00",
        "ds": "Biyernes, 19 Agosto 2016, 00:00 — 06:00",
        "icon": 14,
        "desc": "Passing clouds.",
        "temp": 28,
        "templow": 27,
        "baro": 1006,
        "wind": 3,
        "wd": 0,
        "hum": 99
    }, {
        "date": 14715864E5,
        "ts": "06:00",
        "ds": "Biyernes, 19 Agosto 2016, 06:00 — 12:00",
        "icon": 6,
        "desc": "Partly sunny.",
        "temp": 31,
        "templow": 27,
        "baro": 1007,
        "wind": 15,
        "wd": 260,
        "hum": 97
    }, {
        "date": 1471608E6,
        "ts": "12:00",
        "ds": "Biyernes, 19 Agosto 2016, 12:00 — 18:00",
        "icon": 6,
        "desc": "Broken clouds.",
        "temp": 31,
        "templow": 29,
        "baro": 1005,
        "wind": 26,
        "wd": 260,
        "hum": 85
    }, {
        "date": 14716296E5,
        "ts": "18:00",
        "ds": "Biyernes, 19 Agosto 2016, 18:00 — 00:00",
        "icon": 34,
        "desc": "Light rain. Mostly cloudy.",
        "temp": 29,
        "templow": 27,
        "baro": 1007,
        "wind": 16,
        "wd": 250,
        "hum": 99
    }, {
        "hl": true,
        "hls": "uMg, 20 Ago",
        "hlsh": "20 Ago",
        "date": 14716512E5,
        "ts": "00:00",
        "ds": "Sabado, 20 Agosto 2016, 00:00 — 06:00",
        "icon": 17,
        "desc": "Mostly cloudy.",
        "temp": 28,
        "templow": 27,
        "baro": 1006,
        "wind": 12,
        "wd": 280,
        "hum": 100
    }, {
        "date": 14716728E5,
        "ts": "06:00",
        "ds": "Sabado, 20 Agosto 2016, 06:00 — 12:00",
        "icon": 6,
        "desc": "Broken clouds.",
        "temp": 30,
        "templow": 27,
        "baro": 1006,
        "wind": 12,
        "wd": 290,
        "hum": 98
    }, {
        "date": 14716944E5,
        "ts": "12:00",
        "ds": "Sabado, 20 Agosto 2016, 12:00 — 18:00",
        "icon": 6,
        "desc": "More clouds than sun.",
        "temp": 29,
        "templow": 27,
        "baro": 1004,
        "wind": 14,
        "wd": 260,
        "hum": 94
    }, {
        "date": 1471716E6,
        "ts": "18:00",
        "ds": "Sabado, 20 Agosto 2016, 18:00 — 00:00",
        "icon": 14,
        "desc": "Passing clouds.",
        "temp": 28,
        "templow": 26,
        "baro": 1004,
        "wind": 7,
        "wd": 0,
        "hum": 99
    }, {
        "hl": true,
        "hls": "iSon, 21 Ago",
        "hlsh": "21 Ago",
        "date": 14717376E5,
        "ts": "00:00",
        "ds": "Linggo, 21 Agosto 2016, 00:00 — 06:00",
        "icon": 14,
        "desc": "Passing clouds.",
        "temp": 27,
        "templow": 26,
        "baro": 1003,
        "wind": 1,
        "wd": 220,
        "hum": 100
    }, {
        "date": 14717592E5,
        "ts": "06:00",
        "ds": "Linggo, 21 Agosto 2016, 06:00 — 12:00",
        "icon": 6,
        "desc": "Broken clouds.",
        "temp": 30,
        "templow": 26,
        "baro": 1003,
        "wind": 5,
        "wd": 260,
        "hum": 97
    }, {
        "date": 14717808E5,
        "ts": "12:00",
        "ds": "Linggo, 21 Agosto 2016, 12:00 — 18:00",
        "icon": 6,
        "desc": "Partly sunny.",
        "temp": 31,
        "templow": 28,
        "baro": 1001,
        "wind": 14,
        "wd": 260,
        "hum": 88
    }, {
        "date": 14718024E5,
        "ts": "18:00",
        "ds": "Linggo, 21 Agosto 2016, 18:00 — 00:00",
        "icon": 14,
        "desc": "Passing clouds.",
        "temp": 29,
        "templow": 26,
        "baro": 1003,
        "wind": 2,
        "wd": 220,
        "hum": 98
    }, {
        "hl": true,
        "hls": "uMs, 22 Ago",
        "hlsh": "22 Ago",
        "date": 1471824E6,
        "ts": "00:00",
        "ds": "Lunes, 22 Agosto 2016, 00:00 — 06:00",
        "icon": 14,
        "desc": "Passing clouds.",
        "temp": 26,
        "templow": 26,
        "baro": 1002,
        "wind": 0,
        "wd": 0,
        "hum": 100
    }, {
        "date": 14718456E5,
        "ts": "06:00",
        "ds": "Lunes, 22 Agosto 2016, 06:00 — 12:00",
        "icon": 6,
        "desc": "Partly sunny.",
        "temp": 33,
        "templow": 26,
        "baro": 1003,
        "wind": 7,
        "wd": 120,
        "hum": 77
    }, {
        "date": 14718672E5,
        "ts": "12:00",
        "ds": "Lunes, 22 Agosto 2016, 12:00 — 18:00",
        "icon": 6,
        "desc": "Broken clouds.",
        "temp": 34,
        "templow": 29,
        "baro": 1001,
        "wind": 15,
        "wd": 120,
        "hum": 66
    }, {
        "date": 14718888E5,
        "ts": "18:00",
        "ds": "Lunes, 22 Agosto 2016, 18:00 — 00:00",
        "icon": 15,
        "desc": "Partly cloudy.",
        "temp": 29,
        "templow": 28,
        "baro": 1004,
        "wind": 6,
        "wd": 0,
        "hum": 86
    }, {
        "hl": true,
        "hls": "uLw, 23 Ago",
        "hlsh": "23 Ago",
        "date": 14719104E5,
        "ts": "00:00",
        "ds": "Martes, 23 Agosto 2016, 00:00 — 06:00",
        "icon": 15,
        "desc": "Partly cloudy.",
        "temp": 28,
        "templow": 27,
        "baro": 1003,
        "wind": 0,
        "wd": 0,
        "hum": 96
    }, {
        "date": 1471932E6,
        "ts": "06:00",
        "ds": "Martes, 23 Agosto 2016, 06:00 — 12:00",
        "icon": 6,
        "desc": "Broken clouds.",
        "temp": 30,
        "templow": 27,
        "baro": 1005,
        "wind": 8,
        "wd": 230,
        "hum": 88
    }, {
        "date": 14719536E5,
        "ts": "12:00",
        "ds": "Martes, 23 Agosto 2016, 12:00 — 18:00",
        "icon": 6,
        "desc": "Broken clouds.",
        "temp": 31,
        "templow": 29,
        "baro": 1003,
        "wind": 16,
        "wd": 280,
        "hum": 76
    }, {
        "date": 14719752E5,
        "ts": "18:00",
        "ds": "Martes, 23 Agosto 2016, 18:00 — 00:00",
        "icon": 14,
        "desc": "Passing clouds.",
        "temp": 30,
        "templow": 27,
        "baro": 1004,
        "wind": 10,
        "wd": 230,
        "hum": 83
    }, {
        "hl": true,
        "hls": "uLw, 24 Ago",
        "hlsh": "24 Ago",
        "date": 14719968E5,
        "ts": "00:00",
        "ds": "Miyerkules, 24 Agosto 2016, 00:00 — 06:00",
        "icon": 14,
        "desc": "Passing clouds.",
        "temp": 28,
        "templow": 27,
        "baro": 1004,
        "wind": 5,
        "wd": 210,
        "hum": 98
    }, {
        "date": 14720184E5,
        "ts": "06:00",
        "ds": "Miyerkules, 24 Agosto 2016, 06:00 — 12:00",
        "icon": 2,
        "desc": "Passing clouds.",
        "temp": 31,
        "templow": 27,
        "baro": 1004,
        "wind": 17,
        "wd": 260,
        "hum": 84
    }, {
        "date": 147204E7,
        "ts": "12:00",
        "ds": "Miyerkules, 24 Agosto 2016, 12:00 — 18:00",
        "icon": 2,
        "desc": "Scattered clouds.",
        "temp": 32,
        "templow": 29,
        "baro": 1003,
        "wind": 26,
        "wd": 260,
        "hum": 80
    }, {
        "date": 14720616E5,
        "ts": "18:00",
        "ds": "Miyerkules, 24 Agosto 2016, 18:00 — 00:00",
        "icon": 14,
        "desc": "Passing clouds.",
        "temp": 29,
        "templow": 27,
        "baro": 1006,
        "wind": 11,
        "wd": 240,
        "hum": 93
    }, {
        "hl": true,
        "hls": "uLw, 25 Ago",
        "hlsh": "25 Ago",
        "date": 14720832E5,
        "ts": "00:00",
        "ds": "Huwebes, 25 Agosto 2016, 00:00 — 06:00",
        "icon": 15,
        "desc": "Partly cloudy.",
        "temp": 27,
        "templow": 27,
        "baro": 1006,
        "wind": 7,
        "wd": 0,
        "hum": 98
    }, {
        "date": 14721048E5,
        "ts": "06:00",
        "ds": "Huwebes, 25 Agosto 2016, 06:00 — 12:00",
        "icon": 6,
        "desc": "Broken clouds.",
        "temp": 31,
        "templow": 27,
        "baro": 1007,
        "wind": 16,
        "wd": 260,
        "hum": 95
    }, {
        "date": 14721264E5,
        "ts": "12:00",
        "ds": "Huwebes, 25 Agosto 2016, 12:00 — 18:00",
        "icon": 6,
        "desc": "Partly sunny.",
        "temp": 29,
        "templow": 28,
        "baro": 1005,
        "wind": 22,
        "wd": 260,
        "hum": 98
    }, {
        "date": 1472148E6,
        "ts": "18:00",
        "ds": "Huwebes, 25 Agosto 2016, 18:00 — 00:00",
        "icon": 22,
        "desc": "Thunderstorms. Mostly cloudy.",
        "temp": 29,
        "templow": 26,
        "baro": 1007,
        "wind": 11,
        "wd": 250,
        "hum": 100
    }, {
        "hl": true,
        "hls": "uLw, 26 Ago",
        "hlsh": "26 Ago",
        "date": 14721696E5,
        "ts": "00:00",
        "ds": "Biyernes, 26 Agosto 2016, 00:00 — 06:00",
        "icon": 34,
        "desc": "Light rain. Mostly cloudy.",
        "temp": 27,
        "templow": 25,
        "baro": 1007,
        "wind": 10,
        "wd": 260,
        "hum": 100
    }, {
        "date": 14721912E5,
        "ts": "06:00",
        "ds": "Biyernes, 26 Agosto 2016, 06:00 — 12:00",
        "icon": 18,
        "desc": "Light rain. More clouds than sun.",
        "temp": 30,
        "templow": 26,
        "baro": 1008,
        "wind": 16,
        "wd": 240,
        "hum": 97
    }, {
        "date": 14722128E5,
        "ts": "12:00",
        "ds": "Biyernes, 26 Agosto 2016, 12:00 — 18:00",
        "icon": 6,
        "desc": "Partly sunny.",
        "temp": 32,
        "templow": 26,
        "baro": 1007,
        "wind": 28,
        "wd": 260,
        "hum": 87
    }, {
        "date": 14722344E5,
        "ts": "18:00",
        "ds": "Biyernes, 26 Agosto 2016, 18:00 — 00:00",
        "icon": 14,
        "desc": "Passing clouds.",
        "temp": 27,
        "templow": 26,
        "baro": 1009,
        "wind": 12,
        "wd": 270,
        "hum": 100
    }, {
        "hl": true,
        "hls": "uMg, 27 Ago",
        "hlsh": "27 Ago",
        "date": 1472256E6,
        "ts": "00:00",
        "ds": "Sabado, 27 Agosto 2016, 00:00 — 06:00",
        "icon": 34,
        "desc": "Light rain. Mostly cloudy.",
        "temp": 27,
        "templow": 25,
        "baro": 1009,
        "wind": 8,
        "wd": 0,
        "hum": 100
    }, {
        "date": 14722776E5,
        "ts": "06:00",
        "ds": "Sabado, 27 Agosto 2016, 06:00 — 12:00",
        "icon": 6,
        "desc": "Broken clouds.",
        "temp": 31,
        "templow": 26,
        "baro": 1010,
        "wind": 11,
        "wd": 270,
        "hum": 93
    }, {
        "date": 14722992E5,
        "ts": "12:00",
        "ds": "Sabado, 27 Agosto 2016, 12:00 — 18:00",
        "icon": 6,
        "desc": "Broken clouds.",
        "temp": 31,
        "templow": 28,
        "baro": 1008,
        "wind": 26,
        "wd": 260,
        "hum": 86
    }, {
        "date": 14723208E5,
        "ts": "18:00",
        "ds": "Sabado, 27 Agosto 2016, 18:00 — 00:00",
        "icon": 15,
        "desc": "Partly cloudy.",
        "temp": 28,
        "templow": 25,
        "baro": 1010,
        "wind": 16,
        "wd": 270,
        "hum": 98
    }, {
        "hl": true,
        "hls": "iSon, 28 Ago",
        "hlsh": "28 Ago",
        "date": 14723424E5,
        "ts": "00:00",
        "ds": "Linggo, 28 Agosto 2016, 00:00 — 06:00",
        "icon": 34,
        "desc": "Light rain. Mostly cloudy.",
        "temp": 27,
        "templow": 26,
        "baro": 1009,
        "wind": 5,
        "wd": 200,
        "hum": 100
    }, {
        "date": 1472364E6,
        "ts": "06:00",
        "ds": "Linggo, 28 Agosto 2016, 06:00 — 12:00",
        "icon": 6,
        "desc": "Broken clouds.",
        "temp": 32,
        "templow": 26,
        "baro": 1009,
        "wind": 14,
        "wd": 240,
        "hum": 87
    }, {
        "date": 14723856E5,
        "ts": "12:00",
        "ds": "Linggo, 28 Agosto 2016, 12:00 — 18:00",
        "icon": 6,
        "desc": "Broken clouds.",
        "temp": 32,
        "templow": 27,
        "baro": 1009,
        "wind": 16,
        "wd": 300,
        "hum": 92
    }, {
        "date": 14724072E5,
        "ts": "18:00",
        "ds": "Linggo, 28 Agosto 2016, 18:00 — 00:00",
        "icon": 14,
        "desc": "Passing clouds.",
        "temp": 28,
        "templow": 28,
        "baro": 1009,
        "wind": 5,
        "wd": 320,
        "hum": 99
    }, {
        "hl": true,
        "hls": "uMs, 29 Ago",
        "hlsh": "29 Ago",
        "date": 14724288E5,
        "ts": "00:00",
        "ds": "Lunes, 29 Agosto 2016, 00:00 — 06:00",
        "icon": 14,
        "desc": "Passing clouds.",
        "temp": 28,
        "templow": 27,
        "baro": 1008,
        "wind": 4,
        "wd": 180,
        "hum": 100
    }, {
        "date": 14724504E5,
        "ts": "06:00",
        "ds": "Lunes, 29 Agosto 2016, 06:00 — 12:00",
        "icon": 6,
        "desc": "More clouds than sun.",
        "temp": 30,
        "templow": 27,
        "baro": 1010,
        "wind": 16,
        "wd": 260,
        "hum": 88
    }, {
        "date": 1472472E6,
        "ts": "12:00",
        "ds": "Lunes, 29 Agosto 2016, 12:00 — 18:00",
        "icon": 6,
        "desc": "Partly sunny.",
        "temp": 31,
        "templow": 29,
        "baro": 1008,
        "wind": 17,
        "wd": 330,
        "hum": 83
    }, {
        "date": 14724936E5,
        "ts": "18:00",
        "ds": "Lunes, 29 Agosto 2016, 18:00 — 00:00",
        "icon": 14,
        "desc": "Passing clouds.",
        "temp": 29,
        "templow": 28,
        "baro": 1010,
        "wind": 8,
        "wd": 220,
        "hum": 92
    }, {
        "hl": true,
        "hls": "uLw, 30 Ago",
        "hlsh": "30 Ago",
        "date": 14725152E5,
        "ts": "00:00",
        "ds": "Martes, 30 Agosto 2016, 00:00 — 06:00",
        "icon": 14,
        "desc": "Passing clouds.",
        "temp": 28,
        "templow": 25,
        "baro": 1010,
        "wind": 6,
        "wd": 0,
        "hum": 100
    }, {
        "date": 14725368E5,
        "ts": "06:00",
        "ds": "Martes, 30 Agosto 2016, 06:00 — 12:00",
        "icon": 18,
        "desc": "Light rain. More clouds than sun.",
        "temp": 30,
        "templow": 25,
        "baro": 1011,
        "wind": 11,
        "wd": 0,
        "hum": 98
    }, {
        "date": 14725584E5,
        "ts": "12:00",
        "ds": "Martes, 30 Agosto 2016, 12:00 — 18:00",
        "icon": 6,
        "desc": "Partly sunny.",
        "temp": 31,
        "templow": 29,
        "baro": 1009,
        "wind": 24,
        "wd": 260,
        "hum": 83
    }, {
        "date": 147258E7,
        "ts": "18:00",
        "ds": "Martes, 30 Agosto 2016, 18:00 — 00:00",
        "icon": 14,
        "desc": "Passing clouds.",
        "temp": 29,
        "templow": 27,
        "baro": 1011,
        "wind": 10,
        "wd": 250,
        "hum": 93
    }, {
        "hl": true,
        "hls": "uLw, 31 Ago",
        "hlsh": "31 Ago",
        "date": 14726016E5,
        "ts": "00:00",
        "ds": "Miyerkules, 31 Agosto 2016, 00:00 — 06:00",
        "icon": 14,
        "desc": "Passing clouds.",
        "temp": 27,
        "templow": 27,
        "baro": 1010,
        "wind": 5,
        "wd": 220,
        "hum": 100
    }, {
        "date": 14726232E5,
        "ts": "06:00",
        "ds": "Miyerkules, 31 Agosto 2016, 06:00 — 12:00",
        "icon": 2,
        "desc": "Scattered clouds.",
        "temp": 32,
        "templow": 27,
        "baro": 1010,
        "wind": 18,
        "wd": 230,
        "hum": 84
    }, {
        "date": 14726448E5,
        "ts": "12:00",
        "ds": "Miyerkules, 31 Agosto 2016, 12:00 — 18:00",
        "icon": 6,
        "desc": "Partly sunny.",
        "temp": 32,
        "templow": 29,
        "baro": 1009,
        "wind": 29,
        "wd": 250,
        "hum": 76
    }, {
        "date": 14726664E5,
        "ts": "18:00",
        "ds": "Miyerkules, 31 Agosto 2016, 18:00 — 00:00",
        "icon": 14,
        "desc": "Passing clouds.",
        "temp": 29,
        "templow": 28,
        "baro": 1011,
        "wind": 15,
        "wd": 260,
        "hum": 91
    }]
}