{
    "detail": [{
        "hl": true,
        "hls": "uLw, 1 Abr",
        "hlsh": "1 Abr",
        "date": 14594688E5,
        "ts": "00:00",
        "ds": "Biyernes, 1 Abril 2016, 00:00 — 06:00",
        "icon": 14,
        "desc": "Passing clouds.",
        "temp": 28,
        "templow": 27,
        "baro": 1012,
        "wind": 7,
        "wd": 120,
        "hum": 78
    }, {
        "date": 14594904E5,
        "ts": "06:00",
        "ds": "Biyernes, 1 Abril 2016, 06:00 — 12:00",
        "icon": 2,
        "desc": "Scattered clouds.",
        "temp": 34,
        "templow": 27,
        "baro": 1014,
        "wind": 11,
        "wd": 110,
        "hum": 68
    }, {
        "date": 1459512E6,
        "ts": "12:00",
        "ds": "Biyernes, 1 Abril 2016, 12:00 — 18:00",
        "icon": 2,
        "desc": "Scattered clouds.",
        "temp": 35,
        "templow": 30,
        "baro": 867,
        "wind": 16,
        "wd": 110,
        "hum": 55
    }, {
        "date": 14595336E5,
        "ts": "18:00",
        "ds": "Biyernes, 1 Abril 2016, 18:00 — 00:00",
        "icon": 14,
        "desc": "Passing clouds.",
        "temp": 30,
        "templow": 28,
        "baro": 1013,
        "wind": 14,
        "wd": 120,
        "hum": 67
    }, {
        "hl": true,
        "hls": "uMg, 2 Abr",
        "hlsh": "2 Abr",
        "date": 14595552E5,
        "ts": "00:00",
        "ds": "Sabado, 2 Abril 2016, 00:00 — 06:00",
        "icon": 14,
        "desc": "Passing clouds.",
        "temp": 28,
        "templow": 28,
        "baro": 1013,
        "wind": 11,
        "wd": 110,
        "hum": 72
    }, {
        "date": 14595768E5,
        "ts": "06:00",
        "ds": "Sabado, 2 Abril 2016, 06:00 — 12:00",
        "icon": 6,
        "desc": "Partly sunny.",
        "temp": 33,
        "templow": 28,
        "baro": 1015,
        "wind": 14,
        "wd": 110,
        "hum": 61
    }, {
        "date": 14595984E5,
        "ts": "12:00",
        "ds": "Sabado, 2 Abril 2016, 12:00 — 18:00",
        "icon": 6,
        "desc": "Partly sunny.",
        "temp": 35,
        "templow": 30,
        "baro": 1012,
        "wind": 18,
        "wd": 110,
        "hum": 50
    }, {
        "date": 145962E7,
        "ts": "18:00",
        "ds": "Sabado, 2 Abril 2016, 18:00 — 00:00",
        "icon": 14,
        "desc": "Passing clouds.",
        "temp": 30,
        "templow": 28,
        "baro": 1014,
        "wind": 14,
        "wd": 120,
        "hum": 66
    }, {
        "hl": true,
        "hls": "iSon, 3 Abr",
        "hlsh": "3 Abr",
        "date": 14596416E5,
        "ts": "00:00",
        "ds": "Linggo, 3 Abril 2016, 00:00 — 06:00",
        "icon": 14,
        "desc": "Passing clouds.",
        "temp": 28,
        "templow": 25,
        "baro": 1014,
        "wind": 8,
        "wd": 110,
        "hum": 74
    }, {
        "date": 14596632E5,
        "ts": "06:00",
        "ds": "Linggo, 3 Abril 2016, 06:00 — 12:00",
        "icon": 2,
        "desc": "Passing clouds.",
        "temp": 34,
        "templow": 25,
        "baro": 1015,
        "wind": 9,
        "wd": 0,
        "hum": 57
    }, {
        "date": 14596848E5,
        "ts": "12:00",
        "ds": "Linggo, 3 Abril 2016, 12:00 — 18:00",
        "icon": 2,
        "desc": "Passing clouds.",
        "temp": 34,
        "templow": 31,
        "baro": 1012,
        "wind": 20,
        "wd": 110,
        "hum": 48
    }, {
        "date": 14597064E5,
        "ts": "18:00",
        "ds": "Linggo, 3 Abril 2016, 18:00 — 00:00",
        "icon": 14,
        "desc": "Passing clouds.",
        "temp": 31,
        "templow": 27,
        "baro": 1013,
        "wind": 16,
        "wd": 110,
        "hum": 67
    }, {
        "hl": true,
        "hls": "uMs, 4 Abr",
        "hlsh": "4 Abr",
        "date": 1459728E6,
        "ts": "00:00",
        "ds": "Lunes, 4 Abril 2016, 00:00 — 06:00",
        "icon": 14,
        "desc": "Passing clouds.",
        "temp": 27,
        "templow": 25,
        "baro": 1013,
        "wind": 6,
        "wd": 80,
        "hum": 72
    }, {
        "date": 14597496E5,
        "ts": "06:00",
        "ds": "Lunes, 4 Abril 2016, 06:00 — 12:00",
        "icon": 2,
        "desc": "Scattered clouds.",
        "temp": 33,
        "templow": 26,
        "baro": 1014,
        "wind": 12,
        "wd": 110,
        "hum": 58
    }, {
        "date": 14597712E5,
        "ts": "12:00",
        "ds": "Lunes, 4 Abril 2016, 12:00 — 18:00",
        "icon": 2,
        "desc": "Scattered clouds.",
        "temp": 34,
        "templow": 31,
        "baro": 1011,
        "wind": 17,
        "wd": 120,
        "hum": 47
    }, {
        "date": 14597928E5,
        "ts": "18:00",
        "ds": "Lunes, 4 Abril 2016, 18:00 — 00:00",
        "icon": 14,
        "desc": "Passing clouds.",
        "temp": 31,
        "templow": 28,
        "baro": 1012,
        "wind": 12,
        "wd": 120,
        "hum": 64
    }, {
        "hl": true,
        "hls": "uLw, 5 Abr",
        "hlsh": "5 Abr",
        "date": 14598144E5,
        "ts": "00:00",
        "ds": "Martes, 5 Abril 2016, 00:00 — 06:00",
        "icon": 14,
        "desc": "Passing clouds.",
        "temp": 28,
        "templow": 24,
        "baro": 1012,
        "wind": 7,
        "wd": 120,
        "hum": 74
    }, {
        "date": 1459836E6,
        "ts": "06:00",
        "ds": "Martes, 5 Abril 2016, 06:00 — 12:00",
        "icon": 2,
        "desc": "Scattered clouds.",
        "temp": 28,
        "templow": 24,
        "baro": 1013,
        "wind": 6,
        "wd": 300,
        "hum": 80
    }, {
        "date": 14598576E5,
        "ts": "12:00",
        "ds": "Martes, 5 Abril 2016, 12:00 — 18:00",
        "icon": 2,
        "desc": "Scattered clouds.",
        "temp": 34,
        "templow": 30,
        "baro": 1011,
        "wind": 13,
        "wd": 0,
        "hum": 53
    }, {
        "date": 14598792E5,
        "ts": "18:00",
        "ds": "Martes, 5 Abril 2016, 18:00 — 00:00",
        "icon": 14,
        "desc": "Passing clouds.",
        "temp": 30,
        "templow": 28,
        "baro": 1012,
        "wind": 15,
        "wd": 120,
        "hum": 58
    }, {
        "hl": true,
        "hls": "uLw, 6 Abr",
        "hlsh": "6 Abr",
        "date": 14599008E5,
        "ts": "00:00",
        "ds": "Miyerkules, 6 Abril 2016, 00:00 — 06:00",
        "icon": 14,
        "desc": "Passing clouds.",
        "temp": 28,
        "templow": 28,
        "baro": 1012,
        "wind": 13,
        "wd": 110,
        "hum": 76
    }, {
        "date": 14599224E5,
        "ts": "06:00",
        "ds": "Miyerkules, 6 Abril 2016, 06:00 — 12:00",
        "icon": 2,
        "desc": "Passing clouds.",
        "temp": 33,
        "templow": 28,
        "baro": 1014,
        "wind": 17,
        "wd": 90,
        "hum": 60
    }, {
        "date": 1459944E6,
        "ts": "12:00",
        "ds": "Miyerkules, 6 Abril 2016, 12:00 — 18:00",
        "icon": 2,
        "desc": "Passing clouds.",
        "temp": 34,
        "templow": 24,
        "baro": 1011,
        "wind": 19,
        "wd": 110,
        "hum": 51
    }, {
        "date": 14599656E5,
        "ts": "18:00",
        "ds": "Miyerkules, 6 Abril 2016, 18:00 — 00:00",
        "icon": 14,
        "desc": "Passing clouds.",
        "temp": 31,
        "templow": 28,
        "baro": 1013,
        "wind": 10,
        "wd": 120,
        "hum": 60
    }, {
        "hl": true,
        "hls": "uLw, 7 Abr",
        "hlsh": "7 Abr",
        "date": 14599872E5,
        "ts": "00:00",
        "ds": "Huwebes, 7 Abril 2016, 00:00 — 06:00",
        "icon": 14,
        "desc": "Passing clouds.",
        "temp": 28,
        "templow": 27,
        "baro": 1013,
        "wind": 8,
        "wd": 120,
        "hum": 72
    }, {
        "date": 14600088E5,
        "ts": "06:00",
        "ds": "Huwebes, 7 Abril 2016, 06:00 — 12:00",
        "icon": 2,
        "desc": "Passing clouds.",
        "temp": 33,
        "templow": 27,
        "baro": 1015,
        "wind": 16,
        "wd": 100,
        "hum": 62
    }, {
        "date": 14600304E5,
        "ts": "12:00",
        "ds": "Huwebes, 7 Abril 2016, 12:00 — 18:00",
        "icon": 2,
        "desc": "Passing clouds.",
        "temp": 34,
        "templow": 32,
        "baro": 1012,
        "wind": 15,
        "wd": 100,
        "hum": 53
    }, {
        "date": 1460052E6,
        "ts": "18:00",
        "ds": "Huwebes, 7 Abril 2016, 18:00 — 00:00",
        "icon": 14,
        "desc": "Passing clouds.",
        "temp": 32,
        "templow": 28,
        "baro": 1014,
        "wind": 12,
        "wd": 110,
        "hum": 63
    }, {
        "hl": true,
        "hls": "uLw, 8 Abr",
        "hlsh": "8 Abr",
        "date": 14600736E5,
        "ts": "00:00",
        "ds": "Biyernes, 8 Abril 2016, 00:00 — 06:00",
        "icon": 14,
        "desc": "Passing clouds.",
        "temp": 28,
        "templow": 26,
        "baro": 1013,
        "wind": 9,
        "wd": 100,
        "hum": 72
    }, {
        "date": 14600952E5,
        "ts": "06:00",
        "ds": "Biyernes, 8 Abril 2016, 06:00 — 12:00",
        "icon": 2,
        "desc": "Passing clouds.",
        "temp": 34,
        "templow": 28,
        "baro": 1014,
        "wind": 12,
        "wd": 100,
        "hum": 59
    }, {
        "date": 14601168E5,
        "ts": "12:00",
        "ds": "Biyernes, 8 Abril 2016, 12:00 — 18:00",
        "icon": 2,
        "desc": "Passing clouds.",
        "temp": 34,
        "templow": 31,
        "baro": 1011,
        "wind": 21,
        "wd": 120,
        "hum": 51
    }, {
        "date": 14601384E5,
        "ts": "18:00",
        "ds": "Biyernes, 8 Abril 2016, 18:00 — 00:00",
        "icon": 14,
        "desc": "Passing clouds.",
        "temp": 31,
        "templow": 29,
        "baro": 1012,
        "wind": 14,
        "wd": 120,
        "hum": 65
    }, {
        "hl": true,
        "hls": "uMg, 9 Abr",
        "hlsh": "9 Abr",
        "date": 146016E7,
        "ts": "00:00",
        "ds": "Sabado, 9 Abril 2016, 00:00 — 06:00",
        "icon": 14,
        "desc": "Passing clouds.",
        "temp": 29,
        "templow": 27,
        "baro": 1012,
        "wind": 14,
        "wd": 120,
        "hum": 71
    }, {
        "date": 14601816E5,
        "ts": "06:00",
        "ds": "Sabado, 9 Abril 2016, 06:00 — 12:00",
        "icon": 2,
        "desc": "Passing clouds.",
        "temp": 34,
        "templow": 27,
        "baro": 1013,
        "wind": 19,
        "wd": 110,
        "hum": 58
    }, {
        "date": 14602032E5,
        "ts": "12:00",
        "ds": "Sabado, 9 Abril 2016, 12:00 — 18:00",
        "icon": 2,
        "desc": "Passing clouds.",
        "temp": 34,
        "templow": 31,
        "baro": 1010,
        "wind": 17,
        "wd": 130,
        "hum": 50
    }, {
        "date": 14602248E5,
        "ts": "18:00",
        "ds": "Sabado, 9 Abril 2016, 18:00 — 00:00",
        "icon": 14,
        "desc": "Passing clouds.",
        "temp": 31,
        "templow": 28,
        "baro": 1011,
        "wind": 15,
        "wd": 130,
        "hum": 67
    }, {
        "hl": true,
        "hls": "iSon, 10 Abr",
        "hlsh": "10 Abr",
        "date": 14602464E5,
        "ts": "00:00",
        "ds": "Linggo, 10 Abril 2016, 00:00 — 06:00",
        "icon": 14,
        "desc": "Passing clouds.",
        "temp": 28,
        "templow": 26,
        "baro": 1012,
        "wind": 9,
        "wd": 80,
        "hum": 63
    }, {
        "date": 1460268E6,
        "ts": "06:00",
        "ds": "Linggo, 10 Abril 2016, 06:00 — 12:00",
        "icon": 2,
        "desc": "Passing clouds.",
        "temp": 34,
        "templow": 26,
        "baro": 1013,
        "wind": 11,
        "wd": 0,
        "hum": 57
    }, {
        "date": 14602896E5,
        "ts": "12:00",
        "ds": "Linggo, 10 Abril 2016, 12:00 — 18:00",
        "icon": 2,
        "desc": "Passing clouds.",
        "temp": 36,
        "templow": 31,
        "baro": 1009,
        "wind": 14,
        "wd": 120,
        "hum": 45
    }, {
        "date": 14603112E5,
        "ts": "18:00",
        "ds": "Linggo, 10 Abril 2016, 18:00 — 00:00",
        "icon": 14,
        "desc": "Passing clouds.",
        "temp": 32,
        "templow": 29,
        "baro": 1010,
        "wind": 8,
        "wd": 120,
        "hum": 59
    }, {
        "hl": true,
        "hls": "uMs, 11 Abr",
        "hlsh": "11 Abr",
        "date": 14603328E5,
        "ts": "00:00",
        "ds": "Lunes, 11 Abril 2016, 00:00 — 06:00",
        "icon": 14,
        "desc": "Passing clouds.",
        "temp": 29,
        "templow": 26,
        "baro": 1011,
        "wind": 4,
        "wd": 0,
        "hum": 78
    }, {
        "date": 14603544E5,
        "ts": "06:00",
        "ds": "Lunes, 11 Abril 2016, 06:00 — 12:00",
        "icon": 2,
        "desc": "Passing clouds.",
        "temp": 35,
        "templow": 26,
        "baro": 1012,
        "wind": 9,
        "wd": 0,
        "hum": 64
    }, {
        "date": 1460376E6,
        "ts": "12:00",
        "ds": "Lunes, 11 Abril 2016, 12:00 — 18:00",
        "icon": 2,
        "desc": "Passing clouds.",
        "temp": 36,
        "templow": 32,
        "baro": 1008,
        "wind": 14,
        "wd": 0,
        "hum": 47
    }, {
        "date": 14603976E5,
        "ts": "18:00",
        "ds": "Lunes, 11 Abril 2016, 18:00 — 00:00",
        "icon": 14,
        "desc": "Passing clouds.",
        "temp": 32,
        "templow": 29,
        "baro": 1010,
        "wind": 9,
        "wd": 0,
        "hum": 64
    }, {
        "hl": true,
        "hls": "uLw, 12 Abr",
        "hlsh": "12 Abr",
        "date": 14604192E5,
        "ts": "00:00",
        "ds": "Martes, 12 Abril 2016, 00:00 — 06:00",
        "icon": 2,
        "desc": "Passing clouds.",
        "temp": 29,
        "templow": 27,
        "baro": 1011,
        "wind": 5,
        "wd": 0,
        "hum": 82
    }, {
        "date": 14604408E5,
        "ts": "06:00",
        "ds": "Martes, 12 Abril 2016, 06:00 — 12:00",
        "icon": 2,
        "desc": "Passing clouds.",
        "temp": 35,
        "templow": 27,
        "baro": 1011,
        "wind": 8,
        "wd": 110,
        "hum": 62
    }, {
        "date": 14604624E5,
        "ts": "12:00",
        "ds": "Martes, 12 Abril 2016, 12:00 — 18:00",
        "icon": 2,
        "desc": "Scattered clouds.",
        "temp": 37,
        "templow": 31,
        "baro": 1007,
        "wind": 15,
        "wd": 110,
        "hum": 48
    }, {
        "date": 1460484E6,
        "ts": "18:00",
        "ds": "Martes, 12 Abril 2016, 18:00 — 00:00",
        "icon": 14,
        "desc": "Passing clouds.",
        "temp": 31,
        "templow": 30,
        "baro": 1009,
        "wind": 10,
        "wd": 230,
        "hum": 71
    }, {
        "hl": true,
        "hls": "uLw, 13 Abr",
        "hlsh": "13 Abr",
        "date": 14605056E5,
        "ts": "00:00",
        "ds": "Miyerkules, 13 Abril 2016, 00:00 — 06:00",
        "icon": 14,
        "desc": "Passing clouds.",
        "temp": 30,
        "templow": 28,
        "baro": 1009,
        "wind": 5,
        "wd": 180,
        "hum": 85
    }, {
        "date": 14605272E5,
        "ts": "06:00",
        "ds": "Miyerkules, 13 Abril 2016, 06:00 — 12:00",
        "icon": 2,
        "desc": "Passing clouds.",
        "temp": 34,
        "templow": 28,
        "baro": 1010,
        "wind": 9,
        "wd": 0,
        "hum": 73
    }, {
        "date": 14605488E5,
        "ts": "12:00",
        "ds": "Miyerkules, 13 Abril 2016, 12:00 — 18:00",
        "icon": 2,
        "desc": "Scattered clouds.",
        "temp": 34,
        "templow": 31,
        "baro": 1008,
        "wind": 19,
        "wd": 260,
        "hum": 62
    }, {
        "date": 14605704E5,
        "ts": "18:00",
        "ds": "Miyerkules, 13 Abril 2016, 18:00 — 00:00",
        "icon": 14,
        "desc": "Passing clouds.",
        "temp": 31,
        "templow": 29,
        "baro": 1009,
        "wind": 6,
        "wd": 230,
        "hum": 73
    }, {
        "hl": true,
        "hls": "uLw, 14 Abr",
        "hlsh": "14 Abr",
        "date": 1460592E6,
        "ts": "00:00",
        "ds": "Huwebes, 14 Abril 2016, 00:00 — 06:00",
        "icon": 14,
        "desc": "Passing clouds.",
        "temp": 29,
        "templow": 28,
        "baro": 1010,
        "wind": 3,
        "wd": 220,
        "hum": 83
    }, {
        "date": 14606136E5,
        "ts": "06:00",
        "ds": "Huwebes, 14 Abril 2016, 06:00 — 12:00",
        "icon": 2,
        "desc": "Passing clouds.",
        "temp": 34,
        "templow": 26,
        "baro": 1012,
        "wind": 7,
        "wd": 0,
        "hum": 72
    }, {
        "date": 14606352E5,
        "ts": "12:00",
        "ds": "Huwebes, 14 Abril 2016, 12:00 — 18:00",
        "icon": 2,
        "desc": "Passing clouds.",
        "temp": 37,
        "templow": 26,
        "baro": 1010,
        "wind": 16,
        "wd": 0,
        "hum": 61
    }, {
        "date": 14606568E5,
        "ts": "18:00",
        "ds": "Huwebes, 14 Abril 2016, 18:00 — 00:00",
        "icon": 14,
        "desc": "Passing clouds.",
        "temp": 31,
        "templow": 30,
        "baro": 1011,
        "wind": 8,
        "wd": 260,
        "hum": 75
    }, {
        "hl": true,
        "hls": "uLw, 15 Abr",
        "hlsh": "15 Abr",
        "date": 14606784E5,
        "ts": "00:00",
        "ds": "Biyernes, 15 Abril 2016, 00:00 — 06:00",
        "icon": 14,
        "desc": "Passing clouds.",
        "temp": 30,
        "templow": 29,
        "baro": 1011,
        "wind": 5,
        "wd": 260,
        "hum": 81
    }, {
        "date": 14607E8,
        "ts": "06:00",
        "ds": "Biyernes, 15 Abril 2016, 06:00 — 12:00",
        "icon": 2,
        "desc": "Passing clouds.",
        "temp": 36,
        "templow": 29,
        "baro": 1013,
        "wind": 7,
        "wd": 0,
        "hum": 67
    }, {
        "date": 14607216E5,
        "ts": "12:00",
        "ds": "Biyernes, 15 Abril 2016, 12:00 — 18:00",
        "icon": 2,
        "desc": "Scattered clouds.",
        "temp": 36,
        "templow": 33,
        "baro": 1010,
        "wind": 15,
        "wd": 0,
        "hum": 51
    }, {
        "date": 14607432E5,
        "ts": "18:00",
        "ds": "Biyernes, 15 Abril 2016, 18:00 — 00:00",
        "icon": 14,
        "desc": "Passing clouds.",
        "temp": 33,
        "templow": 30,
        "baro": 1012,
        "wind": 15,
        "wd": 120,
        "hum": 65
    }, {
        "hl": true,
        "hls": "uMg, 16 Abr",
        "hlsh": "16 Abr",
        "date": 14607648E5,
        "ts": "00:00",
        "ds": "Sabado, 16 Abril 2016, 00:00 — 06:00",
        "icon": 14,
        "desc": "Passing clouds.",
        "temp": 30,
        "templow": 28,
        "baro": 1012,
        "wind": 7,
        "wd": 110,
        "hum": 70
    }, {
        "date": 14607864E5,
        "ts": "06:00",
        "ds": "Sabado, 16 Abril 2016, 06:00 — 12:00",
        "icon": 2,
        "desc": "Passing clouds.",
        "temp": 35,
        "templow": 28,
        "baro": 1012,
        "wind": 14,
        "wd": 110,
        "hum": 62
    }, {
        "date": 1460808E6,
        "ts": "12:00",
        "ds": "Sabado, 16 Abril 2016, 12:00 — 18:00",
        "icon": 2,
        "desc": "Scattered clouds.",
        "temp": 36,
        "templow": 32,
        "baro": 1010,
        "wind": 15,
        "wd": 120,
        "hum": 53
    }, {
        "date": 14608296E5,
        "ts": "18:00",
        "ds": "Sabado, 16 Abril 2016, 18:00 — 00:00",
        "icon": 14,
        "desc": "Passing clouds.",
        "temp": 32,
        "templow": 30,
        "baro": 1012,
        "wind": 14,
        "wd": 0,
        "hum": 72
    }, {
        "hl": true,
        "hls": "iSon, 17 Abr",
        "hlsh": "17 Abr",
        "date": 14608512E5,
        "ts": "00:00",
        "ds": "Linggo, 17 Abril 2016, 00:00 — 06:00",
        "icon": 14,
        "desc": "Passing clouds.",
        "temp": 30,
        "templow": 27,
        "baro": 1012,
        "wind": 9,
        "wd": 110,
        "hum": 74
    }, {
        "date": 14608728E5,
        "ts": "06:00",
        "ds": "Linggo, 17 Abril 2016, 06:00 — 12:00",
        "icon": 2,
        "desc": "Passing clouds.",
        "temp": 35,
        "templow": 28,
        "baro": 1013,
        "wind": 17,
        "wd": 110,
        "hum": 59
    }, {
        "date": 14608944E5,
        "ts": "12:00",
        "ds": "Linggo, 17 Abril 2016, 12:00 — 18:00",
        "icon": 2,
        "desc": "Passing clouds.",
        "temp": 36,
        "templow": 32,
        "baro": 1010,
        "wind": 22,
        "wd": 110,
        "hum": 50
    }, {
        "date": 1460916E6,
        "ts": "18:00",
        "ds": "Linggo, 17 Abril 2016, 18:00 — 00:00",
        "icon": 14,
        "desc": "Passing clouds.",
        "temp": 32,
        "templow": 29,
        "baro": 1012,
        "wind": 14,
        "wd": 120,
        "hum": 60
    }, {
        "hl": true,
        "hls": "uMs, 18 Abr",
        "hlsh": "18 Abr",
        "date": 14609376E5,
        "ts": "00:00",
        "ds": "Lunes, 18 Abril 2016, 00:00 — 06:00",
        "icon": 14,
        "desc": "Passing clouds.",
        "temp": 29,
        "templow": 27,
        "baro": 1012,
        "wind": 10,
        "wd": 110,
        "hum": 66
    }, {
        "date": 14609592E5,
        "ts": "06:00",
        "ds": "Lunes, 18 Abril 2016, 06:00 — 12:00",
        "icon": 2,
        "desc": "Passing clouds.",
        "temp": 34,
        "templow": 27,
        "baro": 1014,
        "wind": 8,
        "wd": 0,
        "hum": 54
    }, {
        "date": 14609808E5,
        "ts": "12:00",
        "ds": "Lunes, 18 Abril 2016, 12:00 — 18:00",
        "icon": 2,
        "desc": "Scattered clouds.",
        "temp": 35,
        "templow": 32,
        "baro": 1011,
        "wind": 16,
        "wd": 0,
        "hum": 53
    }, {
        "date": 14610024E5,
        "ts": "18:00",
        "ds": "Lunes, 18 Abril 2016, 18:00 — 00:00",
        "icon": 14,
        "desc": "Passing clouds.",
        "temp": 32,
        "templow": 29,
        "baro": 1013,
        "wind": 14,
        "wd": 120,
        "hum": 67
    }, {
        "hl": true,
        "hls": "uLw, 19 Abr",
        "hlsh": "19 Abr",
        "date": 1461024E6,
        "ts": "00:00",
        "ds": "Martes, 19 Abril 2016, 00:00 — 06:00",
        "icon": 14,
        "desc": "Passing clouds.",
        "temp": 29,
        "templow": 28,
        "baro": 1012,
        "wind": 7,
        "wd": 110,
        "hum": 70
    }, {
        "date": 14610456E5,
        "ts": "06:00",
        "ds": "Martes, 19 Abril 2016, 06:00 — 12:00",
        "icon": 2,
        "desc": "Passing clouds.",
        "temp": 34,
        "templow": 28,
        "baro": 1014,
        "wind": 17,
        "wd": 100,
        "hum": 60
    }, {
        "date": 14610672E5,
        "ts": "12:00",
        "ds": "Martes, 19 Abril 2016, 12:00 — 18:00",
        "icon": 2,
        "desc": "Passing clouds.",
        "temp": 35,
        "templow": 32,
        "baro": 1012,
        "wind": 20,
        "wd": 110,
        "hum": 52
    }, {
        "date": 14610888E5,
        "ts": "18:00",
        "ds": "Martes, 19 Abril 2016, 18:00 — 00:00",
        "icon": 14,
        "desc": "Passing clouds.",
        "temp": 32,
        "templow": 29,
        "baro": 1013,
        "wind": 13,
        "wd": 100,
        "hum": 69
    }, {
        "hl": true,
        "hls": "uLw, 20 Abr",
        "hlsh": "20 Abr",
        "date": 14611104E5,
        "ts": "00:00",
        "ds": "Miyerkules, 20 Abril 2016, 00:00 — 06:00",
        "icon": 14,
        "desc": "Passing clouds.",
        "temp": 29,
        "templow": 28,
        "baro": 1013,
        "wind": 10,
        "wd": 110,
        "hum": 69
    }, {
        "date": 1461132E6,
        "ts": "06:00",
        "ds": "Miyerkules, 20 Abril 2016, 06:00 — 12:00",
        "icon": 2,
        "desc": "Scattered clouds.",
        "temp": 34,
        "templow": 28,
        "baro": 1014,
        "wind": 17,
        "wd": 120,
        "hum": 65
    }, {
        "date": 14611536E5,
        "ts": "12:00",
        "ds": "Miyerkules, 20 Abril 2016, 12:00 — 18:00",
        "icon": 2,
        "desc": "Passing clouds.",
        "temp": 35,
        "templow": 32,
        "baro": 1011,
        "wind": 21,
        "wd": 110,
        "hum": 48
    }, {
        "date": 14611752E5,
        "ts": "18:00",
        "ds": "Miyerkules, 20 Abril 2016, 18:00 — 00:00",
        "icon": 14,
        "desc": "Passing clouds.",
        "temp": 32,
        "templow": 29,
        "baro": 1013,
        "wind": 10,
        "wd": 100,
        "hum": 60
    }, {
        "hl": true,
        "hls": "uLw, 21 Abr",
        "hlsh": "21 Abr",
        "date": 14611968E5,
        "ts": "00:00",
        "ds": "Huwebes, 21 Abril 2016, 00:00 — 06:00",
        "icon": 14,
        "desc": "Passing clouds.",
        "temp": 29,
        "templow": 28,
        "baro": 1012,
        "wind": 8,
        "wd": 80,
        "hum": 72
    }, {
        "date": 14612184E5,
        "ts": "06:00",
        "ds": "Huwebes, 21 Abril 2016, 06:00 — 12:00",
        "icon": 2,
        "desc": "Passing clouds.",
        "temp": 34,
        "templow": 28,
        "baro": 1013,
        "wind": 14,
        "wd": 100,
        "hum": 59
    }, {
        "date": 146124E7,
        "ts": "12:00",
        "ds": "Huwebes, 21 Abril 2016, 12:00 — 18:00",
        "icon": 2,
        "desc": "Passing clouds.",
        "temp": 35,
        "templow": 32,
        "baro": 1010,
        "wind": 19,
        "wd": 120,
        "hum": 48
    }, {
        "date": 14612616E5,
        "ts": "18:00",
        "ds": "Huwebes, 21 Abril 2016, 18:00 — 00:00",
        "icon": 14,
        "desc": "Passing clouds.",
        "temp": 32,
        "templow": 29,
        "baro": 1011,
        "wind": 15,
        "wd": 120,
        "hum": 64
    }, {
        "hl": true,
        "hls": "uLw, 22 Abr",
        "hlsh": "22 Abr",
        "date": 14612832E5,
        "ts": "00:00",
        "ds": "Biyernes, 22 Abril 2016, 00:00 — 06:00",
        "icon": 14,
        "desc": "Passing clouds.",
        "temp": 29,
        "templow": 27,
        "baro": 1011,
        "wind": 7,
        "wd": 110,
        "hum": 71
    }, {
        "date": 14613048E5,
        "ts": "06:00",
        "ds": "Biyernes, 22 Abril 2016, 06:00 — 12:00",
        "icon": 2,
        "desc": "Scattered clouds.",
        "temp": 34,
        "templow": 28,
        "baro": 1012,
        "wind": 10,
        "wd": 0,
        "hum": 57
    }, {
        "date": 14613264E5,
        "ts": "12:00",
        "ds": "Biyernes, 22 Abril 2016, 12:00 — 18:00",
        "icon": 2,
        "desc": "Passing clouds.",
        "temp": 36,
        "templow": 32,
        "baro": 1009,
        "wind": 18,
        "wd": 120,
        "hum": 49
    }, {
        "date": 1461348E6,
        "ts": "18:00",
        "ds": "Biyernes, 22 Abril 2016, 18:00 — 00:00",
        "icon": 14,
        "desc": "Passing clouds.",
        "temp": 32,
        "templow": 29,
        "baro": 1011,
        "wind": 13,
        "wd": 120,
        "hum": 63
    }, {
        "hl": true,
        "hls": "uMg, 23 Abr",
        "hlsh": "23 Abr",
        "date": 14613696E5,
        "ts": "00:00",
        "ds": "Sabado, 23 Abril 2016, 00:00 — 06:00",
        "icon": 14,
        "desc": "Passing clouds.",
        "temp": 29,
        "templow": 26,
        "baro": 1010,
        "wind": 6,
        "wd": 130,
        "hum": 65
    }, {
        "date": 14613912E5,
        "ts": "06:00",
        "ds": "Sabado, 23 Abril 2016, 06:00 — 12:00",
        "icon": 2,
        "desc": "Passing clouds.",
        "temp": 34,
        "templow": 26,
        "baro": 1012,
        "wind": 10,
        "wd": 0,
        "hum": 55
    }, {
        "date": 14614128E5,
        "ts": "12:00",
        "ds": "Sabado, 23 Abril 2016, 12:00 — 18:00",
        "icon": 2,
        "desc": "Passing clouds.",
        "temp": 36,
        "templow": 34,
        "baro": 1008,
        "wind": 18,
        "wd": 120,
        "hum": 45
    }, {
        "date": 14614344E5,
        "ts": "18:00",
        "ds": "Sabado, 23 Abril 2016, 18:00 — 00:00",
        "icon": 14,
        "desc": "Passing clouds.",
        "temp": 31,
        "templow": 29,
        "baro": 1011,
        "wind": 13,
        "wd": 120,
        "hum": 64
    }, {
        "hl": true,
        "hls": "iSon, 24 Abr",
        "hlsh": "24 Abr",
        "date": 1461456E6,
        "ts": "00:00",
        "ds": "Linggo, 24 Abril 2016, 00:00 — 06:00",
        "icon": 14,
        "desc": "Passing clouds.",
        "temp": 29,
        "templow": 27,
        "baro": 1010,
        "wind": 9,
        "wd": 120,
        "hum": 75
    }, {
        "date": 14614776E5,
        "ts": "06:00",
        "ds": "Linggo, 24 Abril 2016, 06:00 — 12:00",
        "icon": 2,
        "desc": "Passing clouds.",
        "temp": 35,
        "templow": 27,
        "baro": 1011,
        "wind": 9,
        "wd": 0,
        "hum": 59
    }, {
        "date": 14614992E5,
        "ts": "12:00",
        "ds": "Linggo, 24 Abril 2016, 12:00 — 18:00",
        "icon": 2,
        "desc": "Passing clouds.",
        "temp": 36,
        "templow": 33,
        "baro": 1008,
        "wind": 17,
        "wd": 120,
        "hum": 44
    }, {
        "date": 14615208E5,
        "ts": "18:00",
        "ds": "Linggo, 24 Abril 2016, 18:00 — 00:00",
        "icon": 14,
        "desc": "Passing clouds.",
        "temp": 33,
        "templow": 29,
        "baro": 1010,
        "wind": 12,
        "wd": 130,
        "hum": 63
    }, {
        "hl": true,
        "hls": "uMs, 25 Abr",
        "hlsh": "25 Abr",
        "date": 14615424E5,
        "ts": "00:00",
        "ds": "Lunes, 25 Abril 2016, 00:00 — 06:00",
        "icon": 14,
        "desc": "Passing clouds.",
        "temp": 29,
        "templow": 28,
        "baro": 1010,
        "wind": 8,
        "wd": 120,
        "hum": 71
    }, {
        "date": 1461564E6,
        "ts": "06:00",
        "ds": "Lunes, 25 Abril 2016, 06:00 — 12:00",
        "icon": 2,
        "desc": "Passing clouds.",
        "temp": 34,
        "templow": 28,
        "baro": 1011,
        "wind": 12,
        "wd": 110,
        "hum": 57
    }, {
        "date": 14615856E5,
        "ts": "12:00",
        "ds": "Lunes, 25 Abril 2016, 12:00 — 18:00",
        "icon": 2,
        "desc": "Scattered clouds.",
        "temp": 35,
        "templow": 32,
        "baro": 1009,
        "wind": 18,
        "wd": 130,
        "hum": 50
    }, {
        "date": 14616072E5,
        "ts": "18:00",
        "ds": "Lunes, 25 Abril 2016, 18:00 — 00:00",
        "icon": 14,
        "desc": "Passing clouds.",
        "temp": 32,
        "templow": 29,
        "baro": 1011,
        "wind": 14,
        "wd": 120,
        "hum": 65
    }, {
        "hl": true,
        "hls": "uLw, 26 Abr",
        "hlsh": "26 Abr",
        "date": 14616288E5,
        "ts": "00:00",
        "ds": "Martes, 26 Abril 2016, 00:00 — 06:00",
        "icon": 14,
        "desc": "Passing clouds.",
        "temp": 29,
        "templow": 28,
        "baro": 1011,
        "wind": 10,
        "wd": 130,
        "hum": 71
    }, {
        "date": 14616504E5,
        "ts": "06:00",
        "ds": "Martes, 26 Abril 2016, 06:00 — 12:00",
        "icon": 2,
        "desc": "Passing clouds.",
        "temp": 35,
        "templow": 28,
        "baro": 1011,
        "wind": 14,
        "wd": 100,
        "hum": 56
    }, {
        "date": 1461672E6,
        "ts": "12:00",
        "ds": "Martes, 26 Abril 2016, 12:00 — 18:00",
        "icon": 2,
        "desc": "Scattered clouds.",
        "temp": 35,
        "templow": 32,
        "baro": 1008,
        "wind": 20,
        "wd": 130,
        "hum": 50
    }, {
        "date": 14616936E5,
        "ts": "18:00",
        "ds": "Martes, 26 Abril 2016, 18:00 — 00:00",
        "icon": 14,
        "desc": "Passing clouds.",
        "temp": 32,
        "templow": 28,
        "baro": 1010,
        "wind": 13,
        "wd": 120,
        "hum": 58
    }, {
        "hl": true,
        "hls": "uLw, 27 Abr",
        "hlsh": "27 Abr",
        "date": 14617152E5,
        "ts": "00:00",
        "ds": "Miyerkules, 27 Abril 2016, 00:00 — 06:00",
        "icon": 14,
        "desc": "Passing clouds.",
        "temp": 28,
        "templow": 26,
        "baro": 1010,
        "wind": 6,
        "wd": 120,
        "hum": 68
    }, {
        "date": 14617368E5,
        "ts": "06:00",
        "ds": "Miyerkules, 27 Abril 2016, 06:00 — 12:00",
        "icon": 2,
        "desc": "Passing clouds.",
        "temp": 34,
        "templow": 26,
        "baro": 1010,
        "wind": 8,
        "wd": 0,
        "hum": 56
    }, {
        "date": 14617584E5,
        "ts": "12:00",
        "ds": "Miyerkules, 27 Abril 2016, 12:00 — 18:00",
        "icon": 2,
        "desc": "Scattered clouds.",
        "temp": 35,
        "templow": 33,
        "baro": 1007,
        "wind": 16,
        "wd": 290,
        "hum": 50
    }, {
        "date": 146178E7,
        "ts": "18:00",
        "ds": "Miyerkules, 27 Abril 2016, 18:00 — 00:00",
        "icon": 14,
        "desc": "Passing clouds.",
        "temp": 33,
        "templow": 30,
        "baro": 1009,
        "wind": 10,
        "wd": 0,
        "hum": 71
    }, {
        "hl": true,
        "hls": "uLw, 28 Abr",
        "hlsh": "28 Abr",
        "date": 14618016E5,
        "ts": "00:00",
        "ds": "Huwebes, 28 Abril 2016, 00:00 — 06:00",
        "icon": 14,
        "desc": "Passing clouds.",
        "temp": 30,
        "templow": 26,
        "baro": 1009,
        "wind": 4,
        "wd": 180,
        "hum": 92
    }, {
        "date": 14618232E5,
        "ts": "06:00",
        "ds": "Huwebes, 28 Abril 2016, 06:00 — 12:00",
        "icon": 2,
        "desc": "Passing clouds.",
        "temp": 33,
        "templow": 28,
        "baro": 1010,
        "wind": 6,
        "wd": 0,
        "hum": 79
    }, {
        "date": 14618448E5,
        "ts": "12:00",
        "ds": "Huwebes, 28 Abril 2016, 12:00 — 18:00",
        "icon": 2,
        "desc": "Passing clouds.",
        "temp": 34,
        "templow": 31,
        "baro": 1008,
        "wind": 18,
        "wd": 260,
        "hum": 58
    }, {
        "date": 14618664E5,
        "ts": "18:00",
        "ds": "Huwebes, 28 Abril 2016, 18:00 — 00:00",
        "icon": 14,
        "desc": "Passing clouds.",
        "temp": 31,
        "templow": 30,
        "baro": 1010,
        "wind": 6,
        "wd": 0,
        "hum": 70
    }, {
        "hl": true,
        "hls": "uLw, 29 Abr",
        "hlsh": "29 Abr",
        "date": 1461888E6,
        "ts": "00:00",
        "ds": "Biyernes, 29 Abril 2016, 00:00 — 06:00",
        "icon": 14,
        "desc": "Passing clouds.",
        "temp": 31,
        "templow": 28,
        "baro": 1010,
        "wind": 2,
        "wd": 0,
        "hum": 81
    }, {
        "date": 14619096E5,
        "ts": "06:00",
        "ds": "Biyernes, 29 Abril 2016, 06:00 — 12:00",
        "icon": 2,
        "desc": "Passing clouds.",
        "temp": 33,
        "templow": 29,
        "baro": 1011,
        "wind": 8,
        "wd": 320,
        "hum": 71
    }, {
        "date": 14619312E5,
        "ts": "12:00",
        "ds": "Biyernes, 29 Abril 2016, 12:00 — 18:00",
        "icon": 2,
        "desc": "Scattered clouds.",
        "temp": 35,
        "templow": 30,
        "baro": 1009,
        "wind": 14,
        "wd": 260,
        "hum": 61
    }, {
        "date": 14619528E5,
        "ts": "18:00",
        "ds": "Biyernes, 29 Abril 2016, 18:00 — 00:00",
        "icon": 14,
        "desc": "Passing clouds.",
        "temp": 30,
        "templow": 28,
        "baro": 1011,
        "wind": 5,
        "wd": 120,
        "hum": 90
    }, {
        "hl": true,
        "hls": "uMg, 30 Abr",
        "hlsh": "30 Abr",
        "date": 14619744E5,
        "ts": "00:00",
        "ds": "Sabado, 30 Abril 2016, 00:00 — 06:00",
        "icon": 14,
        "desc": "Passing clouds.",
        "temp": 29,
        "templow": 28,
        "baro": 1010,
        "wind": 6,
        "wd": 110,
        "hum": 85
    }, {
        "date": 1461996E6,
        "ts": "06:00",
        "ds": "Sabado, 30 Abril 2016, 06:00 — 12:00",
        "icon": 2,
        "desc": "Passing clouds.",
        "temp": 35,
        "templow": 28,
        "baro": 1011,
        "wind": 9,
        "wd": 0,
        "hum": 65
    }, {
        "date": 14620176E5,
        "ts": "12:00",
        "ds": "Sabado, 30 Abril 2016, 12:00 — 18:00",
        "icon": 2,
        "desc": "Scattered clouds.",
        "temp": 36,
        "templow": 32,
        "baro": 1008,
        "wind": 13,
        "wd": 140,
        "hum": 52
    }, {
        "date": 14620392E5,
        "ts": "18:00",
        "ds": "Sabado, 30 Abril 2016, 18:00 — 00:00",
        "icon": 14,
        "desc": "Passing clouds.",
        "temp": 32,
        "templow": 30,
        "baro": 1010,
        "wind": 10,
        "wd": 130,
        "hum": 68
    }]
}