{
    "detail": [{
        "hl": true,
        "hls": "uLw, 1 Nob",
        "hlsh": "1 Nob",
        "date": 14779584E5,
        "ts": "00:00",
        "ds": "Martes, 1 Nobyembre 2016, 00:00 — 06:00",
        "icon": 17,
        "desc": "Overcast.",
        "temp": 28,
        "templow": 23,
        "baro": 1011,
        "wind": 7,
        "wd": 160,
        "hum": 94
    }, {
        "date": 147798E7,
        "ts": "06:00",
        "ds": "Martes, 1 Nobyembre 2016, 06:00 — 12:00",
        "icon": 6,
        "desc": "Broken clouds.",
        "temp": 31,
        "templow": 23,
        "baro": 1011,
        "wind": 7,
        "wd": 0,
        "hum": 91
    }, {
        "date": 14780016E5,
        "ts": "12:00",
        "ds": "Martes, 1 Nobyembre 2016, 12:00 — 18:00",
        "icon": 6,
        "desc": "Partly sunny.",
        "temp": 31,
        "templow": 29,
        "baro": 1008,
        "wind": 14,
        "wd": 80,
        "hum": 64
    }, {
        "date": 14780232E5,
        "ts": "18:00",
        "ds": "Martes, 1 Nobyembre 2016, 18:00 — 00:00",
        "icon": 14,
        "desc": "Passing clouds.",
        "temp": 29,
        "templow": 26,
        "baro": 1010,
        "wind": 7,
        "wd": 90,
        "hum": 75
    }, {
        "hl": true,
        "hls": "uLw, 2 Nob",
        "hlsh": "2 Nob",
        "date": 14780448E5,
        "ts": "00:00",
        "ds": "Miyerkules, 2 Nobyembre 2016, 00:00 — 06:00",
        "icon": 14,
        "desc": "Passing clouds.",
        "temp": 26,
        "templow": 26,
        "baro": 1009,
        "wind": 6,
        "wd": 0,
        "hum": 98
    }, {
        "date": 14780664E5,
        "ts": "06:00",
        "ds": "Miyerkules, 2 Nobyembre 2016, 06:00 — 12:00",
        "icon": 18,
        "desc": "Light rain. More clouds than sun.",
        "temp": 29,
        "templow": 26,
        "baro": 1010,
        "wind": 7,
        "wd": 0,
        "hum": 94
    }, {
        "date": 1478088E6,
        "ts": "12:00",
        "ds": "Miyerkules, 2 Nobyembre 2016, 12:00 — 18:00",
        "icon": 18,
        "desc": "Light rain. More clouds than sun.",
        "temp": 27,
        "templow": 26,
        "baro": 1009,
        "wind": 7,
        "wd": 0,
        "hum": 100
    }, {
        "date": 14781096E5,
        "ts": "18:00",
        "ds": "Miyerkules, 2 Nobyembre 2016, 18:00 — 00:00",
        "icon": 34,
        "desc": "Sprinkles. Mostly cloudy.",
        "temp": 27,
        "templow": 25,
        "baro": 1009,
        "wind": 7,
        "wd": 0,
        "hum": 100
    }, {
        "hl": true,
        "hls": "uLw, 3 Nob",
        "hlsh": "3 Nob",
        "date": 14781312E5,
        "ts": "00:00",
        "ds": "Huwebes, 3 Nobyembre 2016, 00:00 — 06:00",
        "icon": 34,
        "desc": "Light rain. Mostly cloudy.",
        "temp": 26,
        "templow": 25,
        "baro": 1009,
        "wind": 3,
        "wd": 0,
        "hum": 100
    }, {
        "date": 14781528E5,
        "ts": "06:00",
        "ds": "Huwebes, 3 Nobyembre 2016, 06:00 — 12:00",
        "icon": 6,
        "desc": "Broken clouds.",
        "temp": 31,
        "templow": 25,
        "baro": 1010,
        "wind": 6,
        "wd": 280,
        "hum": 90
    }, {
        "date": 14781744E5,
        "ts": "12:00",
        "ds": "Huwebes, 3 Nobyembre 2016, 12:00 — 18:00",
        "icon": 6,
        "desc": "Broken clouds.",
        "temp": 31,
        "templow": 27,
        "baro": 1008,
        "wind": 8,
        "wd": 0,
        "hum": 76
    }, {
        "date": 1478196E6,
        "ts": "18:00",
        "ds": "Huwebes, 3 Nobyembre 2016, 18:00 — 00:00",
        "icon": 15,
        "desc": "Partly cloudy.",
        "temp": 27,
        "templow": 26,
        "baro": 1009,
        "wind": 5,
        "wd": 0,
        "hum": 98
    }, {
        "hl": true,
        "hls": "uLw, 4 Nob",
        "hlsh": "4 Nob",
        "date": 14782176E5,
        "ts": "00:00",
        "ds": "Biyernes, 4 Nobyembre 2016, 00:00 — 06:00",
        "icon": 14,
        "desc": "Passing clouds.",
        "temp": 26,
        "templow": 25,
        "baro": 1009,
        "wind": 3,
        "wd": 0,
        "hum": 100
    }, {
        "date": 14782392E5,
        "ts": "06:00",
        "ds": "Biyernes, 4 Nobyembre 2016, 06:00 — 12:00",
        "icon": 18,
        "desc": "Light rain. More clouds than sun.",
        "temp": 26,
        "templow": 25,
        "baro": 1010,
        "wind": 3,
        "wd": 0,
        "hum": 100
    }, {
        "date": 14782608E5,
        "ts": "12:00",
        "ds": "Biyernes, 4 Nobyembre 2016, 12:00 — 18:00",
        "icon": 6,
        "desc": "More clouds than sun.",
        "temp": 27,
        "templow": 25,
        "baro": 1009,
        "wind": 7,
        "wd": 0,
        "hum": 100
    }, {
        "date": 14782824E5,
        "ts": "18:00",
        "ds": "Biyernes, 4 Nobyembre 2016, 18:00 — 00:00",
        "icon": 14,
        "desc": "Passing clouds.",
        "temp": 26,
        "templow": 25,
        "baro": 1010,
        "wind": 4,
        "wd": 0,
        "hum": 100
    }, {
        "hl": true,
        "hls": "uMg, 5 Nob",
        "hlsh": "5 Nob",
        "date": 1478304E6,
        "ts": "00:00",
        "ds": "Sabado, 5 Nobyembre 2016, 00:00 — 06:00",
        "icon": 14,
        "desc": "Passing clouds.",
        "temp": 26,
        "templow": 25,
        "baro": 1009,
        "wind": 1,
        "wd": 0,
        "hum": 100
    }, {
        "date": 14783256E5,
        "ts": "06:00",
        "ds": "Sabado, 5 Nobyembre 2016, 06:00 — 12:00",
        "icon": 2,
        "desc": "Scattered clouds.",
        "temp": 31,
        "templow": 25,
        "baro": 1011,
        "wind": 3,
        "wd": 0,
        "hum": 88
    }, {
        "date": 14783472E5,
        "ts": "12:00",
        "ds": "Sabado, 5 Nobyembre 2016, 12:00 — 18:00",
        "icon": 2,
        "desc": "Passing clouds.",
        "temp": 32,
        "templow": 29,
        "baro": 1009,
        "wind": 8,
        "wd": 0,
        "hum": 68
    }, {
        "date": 14783688E5,
        "ts": "18:00",
        "ds": "Sabado, 5 Nobyembre 2016, 18:00 — 00:00",
        "icon": 14,
        "desc": "Passing clouds.",
        "temp": 29,
        "templow": 27,
        "baro": 1011,
        "wind": 8,
        "wd": 0,
        "hum": 90
    }, {
        "hl": true,
        "hls": "iSon, 6 Nob",
        "hlsh": "6 Nob",
        "date": 14783904E5,
        "ts": "00:00",
        "ds": "Linggo, 6 Nobyembre 2016, 00:00 — 06:00",
        "icon": 14,
        "desc": "Passing clouds.",
        "temp": 27,
        "templow": 26,
        "baro": 1011,
        "wind": 5,
        "wd": 0,
        "hum": 98
    }, {
        "date": 1478412E6,
        "ts": "06:00",
        "ds": "Linggo, 6 Nobyembre 2016, 06:00 — 12:00",
        "icon": 2,
        "desc": "Scattered clouds.",
        "temp": 31,
        "templow": 26,
        "baro": 1012,
        "wind": 6,
        "wd": 0,
        "hum": 81
    }, {
        "date": 14784336E5,
        "ts": "12:00",
        "ds": "Linggo, 6 Nobyembre 2016, 12:00 — 18:00",
        "icon": 2,
        "desc": "Scattered clouds.",
        "temp": 31,
        "templow": 28,
        "baro": 1010,
        "wind": 11,
        "wd": 0,
        "hum": 73
    }, {
        "date": 14784552E5,
        "ts": "18:00",
        "ds": "Linggo, 6 Nobyembre 2016, 18:00 — 00:00",
        "icon": 14,
        "desc": "Passing clouds.",
        "temp": 28,
        "templow": 27,
        "baro": 1013,
        "wind": 11,
        "wd": 130,
        "hum": 83
    }, {
        "hl": true,
        "hls": "uMs, 7 Nob",
        "hlsh": "7 Nob",
        "date": 14784768E5,
        "ts": "00:00",
        "ds": "Lunes, 7 Nobyembre 2016, 00:00 — 06:00",
        "icon": 14,
        "desc": "Passing clouds.",
        "temp": 27,
        "templow": 26,
        "baro": 1013,
        "wind": 8,
        "wd": 110,
        "hum": 88
    }, {
        "date": 14784984E5,
        "ts": "06:00",
        "ds": "Lunes, 7 Nobyembre 2016, 06:00 — 12:00",
        "icon": 6,
        "desc": "Broken clouds.",
        "temp": 31,
        "templow": 26,
        "baro": 1014,
        "wind": 10,
        "wd": 90,
        "hum": 71
    }, {
        "date": 147852E7,
        "ts": "12:00",
        "ds": "Lunes, 7 Nobyembre 2016, 12:00 — 18:00",
        "icon": 6,
        "desc": "Broken clouds.",
        "temp": 32,
        "templow": 28,
        "baro": 1012,
        "wind": 11,
        "wd": 130,
        "hum": 59
    }, {
        "date": 14785416E5,
        "ts": "18:00",
        "ds": "Lunes, 7 Nobyembre 2016, 18:00 — 00:00",
        "icon": 14,
        "desc": "Passing clouds.",
        "temp": 28,
        "templow": 27,
        "baro": 1013,
        "wind": 9,
        "wd": 110,
        "hum": 71
    }, {
        "hl": true,
        "hls": "uLw, 8 Nob",
        "hlsh": "8 Nob",
        "date": 14785632E5,
        "ts": "00:00",
        "ds": "Martes, 8 Nobyembre 2016, 00:00 — 06:00",
        "icon": 14,
        "desc": "Passing clouds.",
        "temp": 27,
        "templow": 25,
        "baro": 1013,
        "wind": 4,
        "wd": 0,
        "hum": 82
    }, {
        "date": 14785848E5,
        "ts": "06:00",
        "ds": "Martes, 8 Nobyembre 2016, 06:00 — 12:00",
        "icon": 2,
        "desc": "Passing clouds.",
        "temp": 32,
        "templow": 25,
        "baro": 1014,
        "wind": 10,
        "wd": 0,
        "hum": 61
    }, {
        "date": 14786064E5,
        "ts": "12:00",
        "ds": "Martes, 8 Nobyembre 2016, 12:00 — 18:00",
        "icon": 2,
        "desc": "Passing clouds.",
        "temp": 32,
        "templow": 28,
        "baro": 1012,
        "wind": 14,
        "wd": 110,
        "hum": 58
    }, {
        "date": 1478628E6,
        "ts": "18:00",
        "ds": "Martes, 8 Nobyembre 2016, 18:00 — 00:00",
        "icon": 14,
        "desc": "Passing clouds.",
        "temp": 28,
        "templow": 25,
        "baro": 1014,
        "wind": 10,
        "wd": 100,
        "hum": 68
    }, {
        "hl": true,
        "hls": "uLw, 9 Nob",
        "hlsh": "9 Nob",
        "date": 14786496E5,
        "ts": "00:00",
        "ds": "Miyerkules, 9 Nobyembre 2016, 00:00 — 06:00",
        "icon": 14,
        "desc": "Passing clouds.",
        "temp": 25,
        "templow": 23,
        "baro": 1013,
        "wind": 5,
        "wd": 100,
        "hum": 81
    }, {
        "date": 14786712E5,
        "ts": "06:00",
        "ds": "Miyerkules, 9 Nobyembre 2016, 06:00 — 12:00",
        "icon": 2,
        "desc": "Scattered clouds.",
        "temp": 31,
        "templow": 24,
        "baro": 1014,
        "wind": 11,
        "wd": 90,
        "hum": 61
    }, {
        "date": 14786928E5,
        "ts": "12:00",
        "ds": "Miyerkules, 9 Nobyembre 2016, 12:00 — 18:00",
        "icon": 2,
        "desc": "Scattered clouds.",
        "temp": 32,
        "templow": 29,
        "baro": 1011,
        "wind": 15,
        "wd": 90,
        "hum": 48
    }, {
        "date": 14787144E5,
        "ts": "18:00",
        "ds": "Miyerkules, 9 Nobyembre 2016, 18:00 — 00:00",
        "icon": 14,
        "desc": "Passing clouds.",
        "temp": 29,
        "templow": 25,
        "baro": 1013,
        "wind": 6,
        "wd": 90,
        "hum": 74
    }, {
        "hl": true,
        "hls": "uLw, 10 Nob",
        "hlsh": "10 Nob",
        "date": 1478736E6,
        "ts": "00:00",
        "ds": "Huwebes, 10 Nobyembre 2016, 00:00 — 06:00",
        "icon": 14,
        "desc": "Passing clouds.",
        "temp": 26,
        "templow": 24,
        "baro": 1012,
        "wind": 4,
        "wd": 0,
        "hum": 84
    }, {
        "date": 14787576E5,
        "ts": "06:00",
        "ds": "Huwebes, 10 Nobyembre 2016, 06:00 — 12:00",
        "icon": 2,
        "desc": "Scattered clouds.",
        "temp": 30,
        "templow": 25,
        "baro": 1014,
        "wind": 8,
        "wd": 0,
        "hum": 69
    }, {
        "date": 14787792E5,
        "ts": "12:00",
        "ds": "Huwebes, 10 Nobyembre 2016, 12:00 — 18:00",
        "icon": 6,
        "desc": "Broken clouds.",
        "temp": 30,
        "templow": 27,
        "baro": 1012,
        "wind": 8,
        "wd": 160,
        "hum": 72
    }, {
        "date": 14788008E5,
        "ts": "18:00",
        "ds": "Huwebes, 10 Nobyembre 2016, 18:00 — 00:00",
        "icon": 15,
        "desc": "Partly cloudy.",
        "temp": 28,
        "templow": 27,
        "baro": 1013,
        "wind": 6,
        "wd": 100,
        "hum": 68
    }, {
        "hl": true,
        "hls": "uLw, 11 Nob",
        "hlsh": "11 Nob",
        "date": 14788224E5,
        "ts": "00:00",
        "ds": "Biyernes, 11 Nobyembre 2016, 00:00 — 06:00",
        "icon": 15,
        "desc": "Partly cloudy.",
        "temp": 27,
        "templow": 26,
        "baro": 1012,
        "wind": 8,
        "wd": 70,
        "hum": 75
    }, {
        "date": 1478844E6,
        "ts": "06:00",
        "ds": "Biyernes, 11 Nobyembre 2016, 06:00 — 12:00",
        "icon": 2,
        "desc": "Passing clouds.",
        "temp": 30,
        "templow": 26,
        "baro": 1013,
        "wind": 7,
        "wd": 80,
        "hum": 67
    }, {
        "date": 14788656E5,
        "ts": "12:00",
        "ds": "Biyernes, 11 Nobyembre 2016, 12:00 — 18:00",
        "icon": 18,
        "desc": "Sprinkles. More clouds than sun.",
        "temp": 29,
        "templow": 26,
        "baro": 1012,
        "wind": 8,
        "wd": 100,
        "hum": 87
    }, {
        "date": 14788872E5,
        "ts": "18:00",
        "ds": "Biyernes, 11 Nobyembre 2016, 18:00 — 00:00",
        "icon": 17,
        "desc": "Mostly cloudy.",
        "temp": 27,
        "templow": 25,
        "baro": 1014,
        "wind": 7,
        "wd": 0,
        "hum": 97
    }, {
        "hl": true,
        "hls": "uMg, 12 Nob",
        "hlsh": "12 Nob",
        "date": 14789088E5,
        "ts": "00:00",
        "ds": "Sabado, 12 Nobyembre 2016, 00:00 — 06:00",
        "icon": 14,
        "desc": "Passing clouds.",
        "temp": 25,
        "templow": 25,
        "baro": 1013,
        "wind": 4,
        "wd": 0,
        "hum": 100
    }, {
        "date": 14789304E5,
        "ts": "06:00",
        "ds": "Sabado, 12 Nobyembre 2016, 06:00 — 12:00",
        "icon": 2,
        "desc": "Scattered clouds.",
        "temp": 32,
        "templow": 25,
        "baro": 1014,
        "wind": 8,
        "wd": 0,
        "hum": 67
    }, {
        "date": 1478952E6,
        "ts": "12:00",
        "ds": "Sabado, 12 Nobyembre 2016, 12:00 — 18:00",
        "icon": 2,
        "desc": "Scattered clouds.",
        "temp": 31,
        "templow": 29,
        "baro": 1012,
        "wind": 11,
        "wd": 0,
        "hum": 70
    }, {
        "date": 14789736E5,
        "ts": "18:00",
        "ds": "Sabado, 12 Nobyembre 2016, 18:00 — 00:00",
        "icon": 14,
        "desc": "Passing clouds.",
        "temp": 29,
        "templow": 27,
        "baro": 1013,
        "wind": 4,
        "wd": 110,
        "hum": 85
    }, {
        "hl": true,
        "hls": "iSon, 13 Nob",
        "hlsh": "13 Nob",
        "date": 14789952E5,
        "ts": "00:00",
        "ds": "Linggo, 13 Nobyembre 2016, 00:00 — 06:00",
        "icon": 17,
        "desc": "Mostly cloudy.",
        "temp": 27,
        "templow": 26,
        "baro": 1012,
        "wind": 2,
        "wd": 0,
        "hum": 95
    }, {
        "date": 14790168E5,
        "ts": "06:00",
        "ds": "Linggo, 13 Nobyembre 2016, 06:00 — 12:00",
        "icon": 6,
        "desc": "Partly sunny.",
        "temp": 32,
        "templow": 26,
        "baro": 1013,
        "wind": 12,
        "wd": 50,
        "hum": 71
    }, {
        "date": 14790384E5,
        "ts": "12:00",
        "ds": "Linggo, 13 Nobyembre 2016, 12:00 — 18:00",
        "icon": 2,
        "desc": "Passing clouds.",
        "temp": 32,
        "templow": 28,
        "baro": 1011,
        "wind": 15,
        "wd": 70,
        "hum": 52
    }, {
        "date": 147906E7,
        "ts": "18:00",
        "ds": "Linggo, 13 Nobyembre 2016, 18:00 — 00:00",
        "icon": 14,
        "desc": "Passing clouds.",
        "temp": 28,
        "templow": 26,
        "baro": 1012,
        "wind": 4,
        "wd": 0,
        "hum": 71
    }, {
        "hl": true,
        "hls": "uMs, 14 Nob",
        "hlsh": "14 Nob",
        "date": 14790816E5,
        "ts": "00:00",
        "ds": "Lunes, 14 Nobyembre 2016, 00:00 — 06:00",
        "icon": 14,
        "desc": "Passing clouds.",
        "temp": 27,
        "templow": 26,
        "baro": 1010,
        "wind": 4,
        "wd": 0,
        "hum": 83
    }, {
        "date": 14791032E5,
        "ts": "06:00",
        "ds": "Lunes, 14 Nobyembre 2016, 06:00 — 12:00",
        "icon": 6,
        "desc": "Broken clouds.",
        "temp": 31,
        "templow": 26,
        "baro": 1011,
        "wind": 8,
        "wd": 0,
        "hum": 77
    }, {
        "date": 14791248E5,
        "ts": "12:00",
        "ds": "Lunes, 14 Nobyembre 2016, 12:00 — 18:00",
        "icon": 2,
        "desc": "Passing clouds.",
        "temp": 32,
        "templow": 30,
        "baro": 1009,
        "wind": 9,
        "wd": 80,
        "hum": 61
    }, {
        "date": 14791464E5,
        "ts": "18:00",
        "ds": "Lunes, 14 Nobyembre 2016, 18:00 — 00:00",
        "icon": 14,
        "desc": "Passing clouds.",
        "temp": 30,
        "templow": 28,
        "baro": 1011,
        "wind": 4,
        "wd": 90,
        "hum": 67
    }, {
        "hl": true,
        "hls": "uLw, 15 Nob",
        "hlsh": "15 Nob",
        "date": 1479168E6,
        "ts": "00:00",
        "ds": "Martes, 15 Nobyembre 2016, 00:00 — 06:00",
        "icon": 14,
        "desc": "Passing clouds.",
        "temp": 28,
        "templow": 27,
        "baro": 1009,
        "wind": 5,
        "wd": 0,
        "hum": 82
    }, {
        "date": 14791896E5,
        "ts": "06:00",
        "ds": "Martes, 15 Nobyembre 2016, 06:00 — 12:00",
        "icon": 18,
        "desc": "Light rain. More clouds than sun.",
        "temp": 27,
        "templow": 26,
        "baro": 1011,
        "wind": 6,
        "wd": 120,
        "hum": 96
    }, {
        "date": 14792112E5,
        "ts": "12:00",
        "ds": "Martes, 15 Nobyembre 2016, 12:00 — 18:00",
        "icon": 18,
        "desc": "Light rain. Broken clouds.",
        "temp": 26,
        "templow": 25,
        "baro": 1010,
        "wind": 6,
        "wd": 350,
        "hum": 100
    }, {
        "date": 14792328E5,
        "ts": "18:00",
        "ds": "Martes, 15 Nobyembre 2016, 18:00 — 00:00",
        "icon": 14,
        "desc": "Passing clouds.",
        "temp": 26,
        "templow": 25,
        "baro": 1010,
        "wind": 2,
        "wd": 0,
        "hum": 100
    }, {
        "hl": true,
        "hls": "uLw, 16 Nob",
        "hlsh": "16 Nob",
        "date": 14792544E5,
        "ts": "00:00",
        "ds": "Miyerkules, 16 Nobyembre 2016, 00:00 — 06:00",
        "icon": 14,
        "desc": "Passing clouds.",
        "temp": 26,
        "templow": 25,
        "baro": 1009,
        "wind": 2,
        "wd": 0,
        "hum": 100
    }, {
        "date": 1479276E6,
        "ts": "06:00",
        "ds": "Miyerkules, 16 Nobyembre 2016, 06:00 — 12:00",
        "icon": 2,
        "desc": "Passing clouds.",
        "temp": 32,
        "templow": 25,
        "baro": 1011,
        "wind": 9,
        "wd": 120,
        "hum": 88
    }, {
        "date": 14792976E5,
        "ts": "12:00",
        "ds": "Miyerkules, 16 Nobyembre 2016, 12:00 — 18:00",
        "icon": 2,
        "desc": "Passing clouds.",
        "temp": 32,
        "templow": 30,
        "baro": 1010,
        "wind": 16,
        "wd": 120,
        "hum": 65
    }, {
        "date": 14793192E5,
        "ts": "18:00",
        "ds": "Miyerkules, 16 Nobyembre 2016, 18:00 — 00:00",
        "icon": 14,
        "desc": "Passing clouds.",
        "temp": 30,
        "templow": 27,
        "baro": 1011,
        "wind": 5,
        "wd": 0,
        "hum": 88
    }, {
        "hl": true,
        "hls": "uLw, 17 Nob",
        "hlsh": "17 Nob",
        "date": 14793408E5,
        "ts": "00:00",
        "ds": "Huwebes, 17 Nobyembre 2016, 00:00 — 06:00",
        "icon": 14,
        "desc": "Passing clouds.",
        "temp": 27,
        "templow": 26,
        "baro": 1011,
        "wind": 2,
        "wd": 110,
        "hum": 99
    }, {
        "date": 14793624E5,
        "ts": "06:00",
        "ds": "Huwebes, 17 Nobyembre 2016, 06:00 — 12:00",
        "icon": 2,
        "desc": "Passing clouds.",
        "temp": 32,
        "templow": 27,
        "baro": 1011,
        "wind": 8,
        "wd": 300,
        "hum": 78
    }, {
        "date": 1479384E6,
        "ts": "12:00",
        "ds": "Huwebes, 17 Nobyembre 2016, 12:00 — 18:00",
        "icon": 2,
        "desc": "Scattered clouds.",
        "temp": 33,
        "templow": 29,
        "baro": 1010,
        "wind": 14,
        "wd": 110,
        "hum": 63
    }, {
        "date": 14794056E5,
        "ts": "18:00",
        "ds": "Huwebes, 17 Nobyembre 2016, 18:00 — 00:00",
        "icon": 14,
        "desc": "Passing clouds.",
        "temp": 29,
        "templow": 28,
        "baro": 1011,
        "wind": 12,
        "wd": 120,
        "hum": 84
    }, {
        "hl": true,
        "hls": "uLw, 18 Nob",
        "hlsh": "18 Nob",
        "date": 14794272E5,
        "ts": "00:00",
        "ds": "Biyernes, 18 Nobyembre 2016, 00:00 — 06:00",
        "icon": 14,
        "desc": "Passing clouds.",
        "temp": 28,
        "templow": 27,
        "baro": 1009,
        "wind": 6,
        "wd": 0,
        "hum": 91
    }, {
        "date": 14794488E5,
        "ts": "06:00",
        "ds": "Biyernes, 18 Nobyembre 2016, 06:00 — 12:00",
        "icon": 6,
        "desc": "Partly sunny.",
        "temp": 32,
        "templow": 27,
        "baro": 1009,
        "wind": 11,
        "wd": 80,
        "hum": 76
    }, {
        "date": 14794704E5,
        "ts": "12:00",
        "ds": "Biyernes, 18 Nobyembre 2016, 12:00 — 18:00",
        "icon": 6,
        "desc": "Broken clouds.",
        "temp": 32,
        "templow": 29,
        "baro": 1007,
        "wind": 16,
        "wd": 110,
        "hum": 68
    }, {
        "date": 1479492E6,
        "ts": "18:00",
        "ds": "Biyernes, 18 Nobyembre 2016, 18:00 — 00:00",
        "icon": 14,
        "desc": "Passing clouds.",
        "temp": 29,
        "templow": 27,
        "baro": 1009,
        "wind": 7,
        "wd": 120,
        "hum": 86
    }, {
        "hl": true,
        "hls": "uMg, 19 Nob",
        "hlsh": "19 Nob",
        "date": 14795136E5,
        "ts": "00:00",
        "ds": "Sabado, 19 Nobyembre 2016, 00:00 — 06:00",
        "icon": 34,
        "desc": "Light rain. Partly cloudy.",
        "temp": 27,
        "templow": 25,
        "baro": 1010,
        "wind": 5,
        "wd": 0,
        "hum": 99
    }, {
        "date": 14795352E5,
        "ts": "06:00",
        "ds": "Sabado, 19 Nobyembre 2016, 06:00 — 12:00",
        "icon": 6,
        "desc": "Partly sunny.",
        "temp": 32,
        "templow": 26,
        "baro": 1010,
        "wind": 7,
        "wd": 0,
        "hum": 86
    }, {
        "date": 14795568E5,
        "ts": "12:00",
        "ds": "Sabado, 19 Nobyembre 2016, 12:00 — 18:00",
        "icon": 6,
        "desc": "More clouds than sun.",
        "temp": 32,
        "templow": 26,
        "baro": 1009,
        "wind": 12,
        "wd": 90,
        "hum": 84
    }, {
        "date": 14795784E5,
        "ts": "18:00",
        "ds": "Sabado, 19 Nobyembre 2016, 18:00 — 00:00",
        "icon": 14,
        "desc": "Passing clouds.",
        "temp": 28,
        "templow": 26,
        "baro": 1011,
        "wind": 8,
        "wd": 110,
        "hum": 98
    }, {
        "hl": true,
        "hls": "iSon, 20 Nob",
        "hlsh": "20 Nob",
        "date": 14796E8,
        "ts": "00:00",
        "ds": "Linggo, 20 Nobyembre 2016, 00:00 — 06:00",
        "icon": 14,
        "desc": "Passing clouds.",
        "temp": 27,
        "templow": 26,
        "baro": 1011,
        "wind": 6,
        "wd": 120,
        "hum": 98
    }, {
        "date": 14796216E5,
        "ts": "06:00",
        "ds": "Linggo, 20 Nobyembre 2016, 06:00 — 12:00",
        "icon": 6,
        "desc": "Partly sunny.",
        "temp": 32,
        "templow": 26,
        "baro": 1011,
        "wind": 12,
        "wd": 100,
        "hum": 78
    }, {
        "date": 14796432E5,
        "ts": "12:00",
        "ds": "Linggo, 20 Nobyembre 2016, 12:00 — 18:00",
        "icon": 6,
        "desc": "Partly sunny.",
        "temp": 32,
        "templow": 29,
        "baro": 1009,
        "wind": 17,
        "wd": 110,
        "hum": 65
    }, {
        "date": 14796648E5,
        "ts": "18:00",
        "ds": "Linggo, 20 Nobyembre 2016, 18:00 — 00:00",
        "icon": 14,
        "desc": "Passing clouds.",
        "temp": 29,
        "templow": 27,
        "baro": 1010,
        "wind": 6,
        "wd": 110,
        "hum": 79
    }, {
        "hl": true,
        "hls": "uMs, 21 Nob",
        "hlsh": "21 Nob",
        "date": 14796864E5,
        "ts": "00:00",
        "ds": "Lunes, 21 Nobyembre 2016, 00:00 — 06:00",
        "icon": 14,
        "desc": "Passing clouds.",
        "temp": 28,
        "templow": 25,
        "baro": 1010,
        "wind": 5,
        "wd": 100,
        "hum": 88
    }, {
        "date": 1479708E6,
        "ts": "06:00",
        "ds": "Lunes, 21 Nobyembre 2016, 06:00 — 12:00",
        "icon": 6,
        "desc": "Partly sunny.",
        "temp": 33,
        "templow": 26,
        "baro": 1011,
        "wind": 11,
        "wd": 100,
        "hum": 70
    }, {
        "date": 14797296E5,
        "ts": "12:00",
        "ds": "Lunes, 21 Nobyembre 2016, 12:00 — 18:00",
        "icon": 6,
        "desc": "Partly sunny.",
        "temp": 33,
        "templow": 29,
        "baro": 1009,
        "wind": 17,
        "wd": 110,
        "hum": 58
    }, {
        "date": 14797512E5,
        "ts": "18:00",
        "ds": "Lunes, 21 Nobyembre 2016, 18:00 — 00:00",
        "icon": 14,
        "desc": "Passing clouds.",
        "temp": 29,
        "templow": 26,
        "baro": 1011,
        "wind": 9,
        "wd": 100,
        "hum": 82
    }, {
        "hl": true,
        "hls": "uLw, 22 Nob",
        "hlsh": "22 Nob",
        "date": 14797728E5,
        "ts": "00:00",
        "ds": "Martes, 22 Nobyembre 2016, 00:00 — 06:00",
        "icon": 14,
        "desc": "Passing clouds.",
        "temp": 26,
        "templow": 24,
        "baro": 1010,
        "wind": 5,
        "wd": 90,
        "hum": 91
    }, {
        "date": 14797944E5,
        "ts": "06:00",
        "ds": "Martes, 22 Nobyembre 2016, 06:00 — 12:00",
        "icon": 2,
        "desc": "Passing clouds.",
        "temp": 33,
        "templow": 25,
        "baro": 1011,
        "wind": 7,
        "wd": 0,
        "hum": 60
    }, {
        "date": 1479816E6,
        "ts": "12:00",
        "ds": "Martes, 22 Nobyembre 2016, 12:00 — 18:00",
        "icon": 6,
        "desc": "Broken clouds.",
        "temp": 33,
        "templow": 25,
        "baro": 1009,
        "wind": 15,
        "wd": 110,
        "hum": 59
    }, {
        "date": 14798376E5,
        "ts": "18:00",
        "ds": "Martes, 22 Nobyembre 2016, 18:00 — 00:00",
        "icon": 17,
        "desc": "Mostly cloudy.",
        "temp": 27,
        "templow": 25,
        "baro": 1012,
        "wind": 6,
        "wd": 140,
        "hum": 98
    }, {
        "hl": true,
        "hls": "uLw, 23 Nob",
        "hlsh": "23 Nob",
        "date": 14798592E5,
        "ts": "00:00",
        "ds": "Miyerkules, 23 Nobyembre 2016, 00:00 — 06:00",
        "icon": 14,
        "desc": "Passing clouds.",
        "temp": 26,
        "templow": 25,
        "baro": 1011,
        "wind": 3,
        "wd": 0,
        "hum": 100
    }, {
        "date": 14798808E5,
        "ts": "06:00",
        "ds": "Miyerkules, 23 Nobyembre 2016, 06:00 — 12:00",
        "icon": 2,
        "desc": "Passing clouds.",
        "temp": 32,
        "templow": 25,
        "baro": 1011,
        "wind": 8,
        "wd": 0,
        "hum": 76
    }, {
        "date": 14799024E5,
        "ts": "12:00",
        "ds": "Miyerkules, 23 Nobyembre 2016, 12:00 — 18:00",
        "icon": 2,
        "desc": "Scattered clouds.",
        "temp": 33,
        "templow": 29,
        "baro": 1009,
        "wind": 16,
        "wd": 120,
        "hum": 56
    }, {
        "date": 1479924E6,
        "ts": "18:00",
        "ds": "Miyerkules, 23 Nobyembre 2016, 18:00 — 00:00",
        "icon": 14,
        "desc": "Passing clouds.",
        "temp": 29,
        "templow": 26,
        "baro": 1011,
        "wind": 9,
        "wd": 110,
        "hum": 72
    }, {
        "hl": true,
        "hls": "uLw, 24 Nob",
        "hlsh": "24 Nob",
        "date": 14799456E5,
        "ts": "00:00",
        "ds": "Huwebes, 24 Nobyembre 2016, 00:00 — 06:00",
        "icon": 14,
        "desc": "Passing clouds.",
        "temp": 27,
        "templow": 25,
        "baro": 1010,
        "wind": 5,
        "wd": 70,
        "hum": 83
    }, {
        "date": 14799672E5,
        "ts": "06:00",
        "ds": "Huwebes, 24 Nobyembre 2016, 06:00 — 12:00",
        "icon": 6,
        "desc": "Broken clouds.",
        "temp": 30,
        "templow": 26,
        "baro": 1011,
        "wind": 4,
        "wd": 0,
        "hum": 70
    }, {
        "date": 14799888E5,
        "ts": "12:00",
        "ds": "Huwebes, 24 Nobyembre 2016, 12:00 — 18:00",
        "icon": 6,
        "desc": "Broken clouds.",
        "temp": 31,
        "templow": 28,
        "baro": 1008,
        "wind": 10,
        "wd": 80,
        "hum": 60
    }, {
        "date": 14800104E5,
        "ts": "18:00",
        "ds": "Huwebes, 24 Nobyembre 2016, 18:00 — 00:00",
        "icon": 15,
        "desc": "Partly cloudy.",
        "temp": 28,
        "templow": 27,
        "baro": 1009,
        "wind": 7,
        "wd": 90,
        "hum": 65
    }, {
        "hl": true,
        "hls": "uLw, 25 Nob",
        "hlsh": "25 Nob",
        "date": 1480032E6,
        "ts": "00:00",
        "ds": "Biyernes, 25 Nobyembre 2016, 00:00 — 06:00",
        "icon": 15,
        "desc": "Partly cloudy.",
        "temp": 28,
        "templow": 24,
        "baro": 1008,
        "wind": 12,
        "wd": 10,
        "hum": 95
    }, {
        "date": 14800536E5,
        "ts": "06:00",
        "ds": "Biyernes, 25 Nobyembre 2016, 06:00 — 12:00",
        "icon": 6,
        "desc": "More clouds than sun.",
        "temp": 27,
        "templow": 25,
        "baro": 1009,
        "wind": 8,
        "wd": 0,
        "hum": 97
    }, {
        "date": 14800752E5,
        "ts": "12:00",
        "ds": "Biyernes, 25 Nobyembre 2016, 12:00 — 18:00",
        "icon": 18,
        "desc": "Light rain. More clouds than sun.",
        "temp": 26,
        "templow": 25,
        "baro": 1007,
        "wind": 11,
        "wd": 70,
        "hum": 93
    }, {
        "date": 14800968E5,
        "ts": "18:00",
        "ds": "Biyernes, 25 Nobyembre 2016, 18:00 — 00:00",
        "icon": 34,
        "desc": "Light rain. Mostly cloudy.",
        "temp": 26,
        "templow": 24,
        "baro": 1008,
        "wind": 8,
        "wd": 60,
        "hum": 95
    }, {
        "hl": true,
        "hls": "uMg, 26 Nob",
        "hlsh": "26 Nob",
        "date": 14801184E5,
        "ts": "00:00",
        "ds": "Sabado, 26 Nobyembre 2016, 00:00 — 06:00",
        "icon": 34,
        "desc": "Light rain. Mostly cloudy.",
        "temp": 25,
        "templow": 24,
        "baro": 1008,
        "wind": 7,
        "wd": 70,
        "hum": 100
    }, {
        "date": 148014E7,
        "ts": "06:00",
        "ds": "Sabado, 26 Nobyembre 2016, 06:00 — 12:00",
        "icon": 18,
        "desc": "Light rain. More clouds than sun.",
        "temp": 28,
        "templow": 25,
        "baro": 1009,
        "wind": 6,
        "wd": 10,
        "hum": 99
    }, {
        "date": 14801616E5,
        "ts": "12:00",
        "ds": "Sabado, 26 Nobyembre 2016, 12:00 — 18:00",
        "icon": 18,
        "desc": "Light rain. More clouds than sun.",
        "temp": 29,
        "templow": 28,
        "baro": 1008,
        "wind": 8,
        "wd": 0,
        "hum": 92
    }, {
        "date": 14801832E5,
        "ts": "18:00",
        "ds": "Sabado, 26 Nobyembre 2016, 18:00 — 00:00",
        "icon": 14,
        "desc": "Passing clouds.",
        "temp": 28,
        "templow": 27,
        "baro": 1009,
        "wind": 9,
        "wd": 110,
        "hum": 98
    }, {
        "hl": true,
        "hls": "iSon, 27 Nob",
        "hlsh": "27 Nob",
        "date": 14802048E5,
        "ts": "00:00",
        "ds": "Linggo, 27 Nobyembre 2016, 00:00 — 06:00",
        "icon": 14,
        "desc": "Passing clouds.",
        "temp": 27,
        "templow": 26,
        "baro": 1008,
        "wind": 7,
        "wd": 90,
        "hum": 100
    }, {
        "date": 14802264E5,
        "ts": "06:00",
        "ds": "Linggo, 27 Nobyembre 2016, 06:00 — 12:00",
        "icon": 6,
        "desc": "Broken clouds.",
        "temp": 32,
        "templow": 26,
        "baro": 1009,
        "wind": 13,
        "wd": 120,
        "hum": 85
    }, {
        "date": 1480248E6,
        "ts": "12:00",
        "ds": "Linggo, 27 Nobyembre 2016, 12:00 — 18:00",
        "icon": 6,
        "desc": "Broken clouds.",
        "temp": 33,
        "templow": 30,
        "baro": 1008,
        "wind": 13,
        "wd": 110,
        "hum": 72
    }, {
        "date": 14802696E5,
        "ts": "18:00",
        "ds": "Linggo, 27 Nobyembre 2016, 18:00 — 00:00",
        "icon": 14,
        "desc": "Passing clouds.",
        "temp": 30,
        "templow": 27,
        "baro": 1009,
        "wind": 6,
        "wd": 120,
        "hum": 96
    }, {
        "hl": true,
        "hls": "uMs, 28 Nob",
        "hlsh": "28 Nob",
        "date": 14802912E5,
        "ts": "00:00",
        "ds": "Lunes, 28 Nobyembre 2016, 00:00 — 06:00",
        "icon": 14,
        "desc": "Passing clouds.",
        "temp": 27,
        "templow": 26,
        "baro": 1010,
        "wind": 3,
        "wd": 0,
        "hum": 100
    }, {
        "date": 14803128E5,
        "ts": "06:00",
        "ds": "Lunes, 28 Nobyembre 2016, 06:00 — 12:00",
        "icon": 2,
        "desc": "Passing clouds.",
        "temp": 33,
        "templow": 26,
        "baro": 1011,
        "wind": 11,
        "wd": 0,
        "hum": 78
    }, {
        "date": 14803344E5,
        "ts": "12:00",
        "ds": "Lunes, 28 Nobyembre 2016, 12:00 — 18:00",
        "icon": 2,
        "desc": "Passing clouds.",
        "temp": 33,
        "templow": 30,
        "baro": 1009,
        "wind": 15,
        "wd": 110,
        "hum": 63
    }, {
        "date": 1480356E6,
        "ts": "18:00",
        "ds": "Lunes, 28 Nobyembre 2016, 18:00 — 00:00",
        "icon": 14,
        "desc": "Passing clouds.",
        "temp": 30,
        "templow": 27,
        "baro": 1011,
        "wind": 10,
        "wd": 110,
        "hum": 75
    }, {
        "hl": true,
        "hls": "uLw, 29 Nob",
        "hlsh": "29 Nob",
        "date": 14803776E5,
        "ts": "00:00",
        "ds": "Martes, 29 Nobyembre 2016, 00:00 — 06:00",
        "icon": 14,
        "desc": "Passing clouds.",
        "temp": 27,
        "templow": 26,
        "baro": 1012,
        "wind": 5,
        "wd": 10,
        "hum": 91
    }, {
        "date": 14803992E5,
        "ts": "06:00",
        "ds": "Martes, 29 Nobyembre 2016, 06:00 — 12:00",
        "icon": 6,
        "desc": "Broken clouds.",
        "temp": 33,
        "templow": 26,
        "baro": 1014,
        "wind": 9,
        "wd": 0,
        "hum": 72
    }, {
        "date": 14804208E5,
        "ts": "12:00",
        "ds": "Martes, 29 Nobyembre 2016, 12:00 — 18:00",
        "icon": 6,
        "desc": "Partly sunny.",
        "temp": 33,
        "templow": 29,
        "baro": 1012,
        "wind": 18,
        "wd": 110,
        "hum": 61
    }, {
        "date": 14804424E5,
        "ts": "18:00",
        "ds": "Martes, 29 Nobyembre 2016, 18:00 — 00:00",
        "icon": 14,
        "desc": "Passing clouds.",
        "temp": 29,
        "templow": 27,
        "baro": 1014,
        "wind": 10,
        "wd": 120,
        "hum": 80
    }, {
        "hl": true,
        "hls": "uLw, 30 Nob",
        "hlsh": "30 Nob",
        "date": 1480464E6,
        "ts": "00:00",
        "ds": "Miyerkules, 30 Nobyembre 2016, 00:00 — 06:00",
        "icon": 15,
        "desc": "Partly cloudy.",
        "temp": 27,
        "templow": 25,
        "baro": 1013,
        "wind": 6,
        "wd": 130,
        "hum": 99
    }, {
        "date": 14804856E5,
        "ts": "06:00",
        "ds": "Miyerkules, 30 Nobyembre 2016, 06:00 — 12:00",
        "icon": 2,
        "desc": "Scattered clouds.",
        "temp": 32,
        "templow": 25,
        "baro": 1013,
        "wind": 8,
        "wd": 0,
        "hum": 72
    }, {
        "date": 14805072E5,
        "ts": "12:00",
        "ds": "Miyerkules, 30 Nobyembre 2016, 12:00 — 18:00",
        "icon": 2,
        "desc": "Passing clouds.",
        "temp": 32,
        "templow": 29,
        "baro": 1012,
        "wind": 15,
        "wd": 110,
        "hum": 61
    }, {
        "date": 14805288E5,
        "ts": "18:00",
        "ds": "Miyerkules, 30 Nobyembre 2016, 18:00 — 00:00",
        "icon": 14,
        "desc": "Passing clouds.",
        "temp": 29,
        "templow": 27,
        "baro": 1014,
        "wind": 7,
        "wd": 80,
        "hum": 71
    }]
}