{
    "detail": [{
        "hl": true,
        "hls": "uLw, 1 Ene",
        "hlsh": "1 Ene",
        "date": 14516064E5,
        "ts": "00:00",
        "ds": "Biyernes, 1 Enero 2016, 00:00 — 06:00",
        "icon": 34,
        "desc": "Light rain. Mostly cloudy.",
        "temp": 25,
        "templow": 24,
        "baro": 1016,
        "wind": 3,
        "wd": 0,
        "hum": 100
    }, {
        "date": 1451628E6,
        "ts": "06:00",
        "ds": "Biyernes, 1 Enero 2016, 06:00 — 12:00",
        "icon": 18,
        "desc": "Sprinkles. Broken clouds.",
        "temp": 28,
        "templow": 24,
        "baro": 1017,
        "wind": 4,
        "wd": 0,
        "hum": 96
    }, {
        "date": 14516496E5,
        "ts": "12:00",
        "ds": "Biyernes, 1 Enero 2016, 12:00 — 18:00",
        "icon": 2,
        "desc": "Scattered clouds.",
        "temp": 30,
        "templow": 28,
        "baro": 1015,
        "wind": 15,
        "wd": 110,
        "hum": 67
    }, {
        "date": 14516712E5,
        "ts": "18:00",
        "ds": "Biyernes, 1 Enero 2016, 18:00 — 00:00",
        "icon": 14,
        "desc": "Passing clouds.",
        "temp": 28,
        "templow": 26,
        "baro": 1017,
        "wind": 8,
        "wd": 30,
        "hum": 83
    }, {
        "hl": true,
        "hls": "uMg, 2 Ene",
        "hlsh": "2 Ene",
        "date": 14516928E5,
        "ts": "00:00",
        "ds": "Sabado, 2 Enero 2016, 00:00 — 06:00",
        "icon": 14,
        "desc": "Passing clouds.",
        "temp": 26,
        "templow": 25,
        "baro": 1016,
        "wind": 7,
        "wd": 100,
        "hum": 88
    }, {
        "date": 14517144E5,
        "ts": "06:00",
        "ds": "Sabado, 2 Enero 2016, 06:00 — 12:00",
        "icon": 2,
        "desc": "Passing clouds.",
        "temp": 31,
        "templow": 25,
        "baro": 1017,
        "wind": 12,
        "wd": 110,
        "hum": 78
    }, {
        "date": 1451736E6,
        "ts": "12:00",
        "ds": "Sabado, 2 Enero 2016, 12:00 — 18:00",
        "icon": 2,
        "desc": "Passing clouds.",
        "temp": 31,
        "templow": 29,
        "baro": 1014,
        "wind": 16,
        "wd": 90,
        "hum": 69
    }, {
        "date": 14517576E5,
        "ts": "18:00",
        "ds": "Sabado, 2 Enero 2016, 18:00 — 00:00",
        "icon": 14,
        "desc": "Passing clouds.",
        "temp": 29,
        "templow": 26,
        "baro": 1016,
        "wind": 7,
        "wd": 0,
        "hum": 79
    }, {
        "hl": true,
        "hls": "iSon, 3 Ene",
        "hlsh": "3 Ene",
        "date": 14517792E5,
        "ts": "00:00",
        "ds": "Linggo, 3 Enero 2016, 00:00 — 06:00",
        "icon": 14,
        "desc": "Passing clouds.",
        "temp": 26,
        "templow": 24,
        "baro": 1016,
        "wind": 6,
        "wd": 70,
        "hum": 100
    }, {
        "date": 14518008E5,
        "ts": "06:00",
        "ds": "Linggo, 3 Enero 2016, 06:00 — 12:00",
        "icon": 2,
        "desc": "Passing clouds.",
        "temp": 32,
        "templow": 24,
        "baro": 1017,
        "wind": 13,
        "wd": 100,
        "hum": 75
    }, {
        "date": 14518224E5,
        "ts": "12:00",
        "ds": "Linggo, 3 Enero 2016, 12:00 — 18:00",
        "icon": 2,
        "desc": "Passing clouds.",
        "temp": 32,
        "templow": 29,
        "baro": 1015,
        "wind": 16,
        "wd": 120,
        "hum": 58
    }, {
        "date": 1451844E6,
        "ts": "18:00",
        "ds": "Linggo, 3 Enero 2016, 18:00 — 00:00",
        "icon": 14,
        "desc": "Passing clouds.",
        "temp": 29,
        "templow": 25,
        "baro": 1017,
        "wind": 10,
        "wd": 110,
        "hum": 71
    }, {
        "hl": true,
        "hls": "uMs, 4 Ene",
        "hlsh": "4 Ene",
        "date": 14518656E5,
        "ts": "00:00",
        "ds": "Lunes, 4 Enero 2016, 00:00 — 06:00",
        "icon": 14,
        "desc": "Passing clouds.",
        "temp": 25,
        "templow": 24,
        "baro": 1016,
        "wind": 3,
        "wd": 0,
        "hum": 82
    }, {
        "date": 14518872E5,
        "ts": "06:00",
        "ds": "Lunes, 4 Enero 2016, 06:00 — 12:00",
        "icon": 2,
        "desc": "Passing clouds.",
        "temp": 31,
        "templow": 24,
        "baro": 1018,
        "wind": 8,
        "wd": 0,
        "hum": 69
    }, {
        "date": 14519088E5,
        "ts": "12:00",
        "ds": "Lunes, 4 Enero 2016, 12:00 — 18:00",
        "icon": 2,
        "desc": "Passing clouds.",
        "temp": 32,
        "templow": 29,
        "baro": 1015,
        "wind": 13,
        "wd": 120,
        "hum": 56
    }, {
        "date": 14519304E5,
        "ts": "18:00",
        "ds": "Lunes, 4 Enero 2016, 18:00 — 00:00",
        "icon": 14,
        "desc": "Passing clouds.",
        "temp": 29,
        "templow": 26,
        "baro": 1016,
        "wind": 9,
        "wd": 120,
        "hum": 70
    }, {
        "hl": true,
        "hls": "uLw, 5 Ene",
        "hlsh": "5 Ene",
        "date": 1451952E6,
        "ts": "00:00",
        "ds": "Martes, 5 Enero 2016, 00:00 — 06:00",
        "icon": 14,
        "desc": "Passing clouds.",
        "temp": 26,
        "templow": 24,
        "baro": 1016,
        "wind": 4,
        "wd": 100,
        "hum": 90
    }, {
        "date": 14519736E5,
        "ts": "06:00",
        "ds": "Martes, 5 Enero 2016, 06:00 — 12:00",
        "icon": 2,
        "desc": "Passing clouds.",
        "temp": 31,
        "templow": 24,
        "baro": 1017,
        "wind": 8,
        "wd": 120,
        "hum": 73
    }, {
        "date": 14519952E5,
        "ts": "12:00",
        "ds": "Martes, 5 Enero 2016, 12:00 — 18:00",
        "icon": 2,
        "desc": "Passing clouds.",
        "temp": 31,
        "templow": 28,
        "baro": 1013,
        "wind": 19,
        "wd": 120,
        "hum": 55
    }, {
        "date": 14520168E5,
        "ts": "18:00",
        "ds": "Martes, 5 Enero 2016, 18:00 — 00:00",
        "icon": 14,
        "desc": "Passing clouds.",
        "temp": 28,
        "templow": 25,
        "baro": 1015,
        "wind": 11,
        "wd": 110,
        "hum": 72
    }, {
        "hl": true,
        "hls": "uLw, 6 Ene",
        "hlsh": "6 Ene",
        "date": 14520384E5,
        "ts": "00:00",
        "ds": "Miyerkules, 6 Enero 2016, 00:00 — 06:00",
        "icon": 14,
        "desc": "Passing clouds.",
        "temp": 25,
        "templow": 24,
        "baro": 1015,
        "wind": 4,
        "wd": 0,
        "hum": 82
    }, {
        "date": 145206E7,
        "ts": "06:00",
        "ds": "Miyerkules, 6 Enero 2016, 06:00 — 12:00",
        "icon": 2,
        "desc": "Scattered clouds.",
        "temp": 29,
        "templow": 24,
        "baro": 1016,
        "wind": 5,
        "wd": 0,
        "hum": 68
    }, {
        "date": 14520816E5,
        "ts": "12:00",
        "ds": "Miyerkules, 6 Enero 2016, 12:00 — 18:00",
        "icon": 6,
        "desc": "Partly sunny.",
        "temp": 30,
        "templow": 28,
        "baro": 1014,
        "wind": 11,
        "wd": 130,
        "hum": 65
    }, {
        "date": 14521032E5,
        "ts": "18:00",
        "ds": "Miyerkules, 6 Enero 2016, 18:00 — 00:00",
        "icon": 15,
        "desc": "Partly cloudy.",
        "temp": 28,
        "templow": 27,
        "baro": 1015,
        "wind": 8,
        "wd": 110,
        "hum": 75
    }, {
        "hl": true,
        "hls": "uLw, 7 Ene",
        "hlsh": "7 Ene",
        "date": 14521248E5,
        "ts": "00:00",
        "ds": "Huwebes, 7 Enero 2016, 00:00 — 06:00",
        "icon": 15,
        "desc": "Partly cloudy.",
        "temp": 27,
        "templow": 26,
        "baro": 1015,
        "wind": 6,
        "wd": 320,
        "hum": 69
    }, {
        "date": 14521464E5,
        "ts": "06:00",
        "ds": "Huwebes, 7 Enero 2016, 06:00 — 12:00",
        "icon": 6,
        "desc": "Partly sunny.",
        "temp": 31,
        "templow": 26,
        "baro": 1016,
        "wind": 6,
        "wd": 0,
        "hum": 70
    }, {
        "date": 1452168E6,
        "ts": "12:00",
        "ds": "Huwebes, 7 Enero 2016, 12:00 — 18:00",
        "icon": 6,
        "desc": "Broken clouds.",
        "temp": 32,
        "templow": 28,
        "baro": 1014,
        "wind": 14,
        "wd": 140,
        "hum": 58
    }, {
        "date": 14521896E5,
        "ts": "18:00",
        "ds": "Huwebes, 7 Enero 2016, 18:00 — 00:00",
        "icon": 14,
        "desc": "Passing clouds.",
        "temp": 28,
        "templow": 26,
        "baro": 1015,
        "wind": 8,
        "wd": 80,
        "hum": 69
    }, {
        "hl": true,
        "hls": "uLw, 8 Ene",
        "hlsh": "8 Ene",
        "date": 14522112E5,
        "ts": "00:00",
        "ds": "Biyernes, 8 Enero 2016, 00:00 — 06:00",
        "icon": 14,
        "desc": "Passing clouds.",
        "temp": 27,
        "templow": 24,
        "baro": 1015,
        "wind": 5,
        "wd": 120,
        "hum": 81
    }, {
        "date": 14522328E5,
        "ts": "06:00",
        "ds": "Biyernes, 8 Enero 2016, 06:00 — 12:00",
        "icon": 2,
        "desc": "Scattered clouds.",
        "temp": 29,
        "templow": 24,
        "baro": 1016,
        "wind": 7,
        "wd": 0,
        "hum": 73
    }, {
        "date": 14522544E5,
        "ts": "12:00",
        "ds": "Biyernes, 8 Enero 2016, 12:00 — 18:00",
        "icon": 2,
        "desc": "Scattered clouds.",
        "temp": 32,
        "templow": 29,
        "baro": 1013,
        "wind": 8,
        "wd": 0,
        "hum": 62
    }, {
        "date": 1452276E6,
        "ts": "18:00",
        "ds": "Biyernes, 8 Enero 2016, 18:00 — 00:00",
        "icon": 14,
        "desc": "Passing clouds.",
        "temp": 29,
        "templow": 26,
        "baro": 1014,
        "wind": 8,
        "wd": 10,
        "hum": 74
    }, {
        "hl": true,
        "hls": "uMg, 9 Ene",
        "hlsh": "9 Ene",
        "date": 14522976E5,
        "ts": "00:00",
        "ds": "Sabado, 9 Enero 2016, 00:00 — 06:00",
        "icon": 14,
        "desc": "Passing clouds.",
        "temp": 26,
        "templow": 25,
        "baro": 1015,
        "wind": 11,
        "wd": 10,
        "hum": 89
    }, {
        "date": 14523192E5,
        "ts": "06:00",
        "ds": "Sabado, 9 Enero 2016, 06:00 — 12:00",
        "icon": 2,
        "desc": "Scattered clouds.",
        "temp": 29,
        "templow": 25,
        "baro": 1016,
        "wind": 8,
        "wd": 0,
        "hum": 79
    }, {
        "date": 14523408E5,
        "ts": "12:00",
        "ds": "Sabado, 9 Enero 2016, 12:00 — 18:00",
        "icon": 2,
        "desc": "Scattered clouds.",
        "temp": 30,
        "templow": 28,
        "baro": 1013,
        "wind": 12,
        "wd": 300,
        "hum": 68
    }, {
        "date": 14523624E5,
        "ts": "18:00",
        "ds": "Sabado, 9 Enero 2016, 18:00 — 00:00",
        "icon": 14,
        "desc": "Passing clouds.",
        "temp": 28,
        "templow": 26,
        "baro": 1015,
        "wind": 10,
        "wd": 120,
        "hum": 74
    }, {
        "hl": true,
        "hls": "iSon, 10 Ene",
        "hlsh": "10 Ene",
        "date": 1452384E6,
        "ts": "00:00",
        "ds": "Linggo, 10 Enero 2016, 00:00 — 06:00",
        "icon": 14,
        "desc": "Passing clouds.",
        "temp": 26,
        "templow": 24,
        "baro": 1015,
        "wind": 7,
        "wd": 110,
        "hum": 84
    }, {
        "date": 14524056E5,
        "ts": "06:00",
        "ds": "Linggo, 10 Enero 2016, 06:00 — 12:00",
        "icon": 2,
        "desc": "Scattered clouds.",
        "temp": 31,
        "templow": 24,
        "baro": 1016,
        "wind": 7,
        "wd": 0,
        "hum": 72
    }, {
        "date": 14524272E5,
        "ts": "12:00",
        "ds": "Linggo, 10 Enero 2016, 12:00 — 18:00",
        "icon": 2,
        "desc": "Passing clouds.",
        "temp": 31,
        "templow": 28,
        "baro": 1013,
        "wind": 18,
        "wd": 130,
        "hum": 59
    }, {
        "date": 14524488E5,
        "ts": "18:00",
        "ds": "Linggo, 10 Enero 2016, 18:00 — 00:00",
        "icon": 14,
        "desc": "Passing clouds.",
        "temp": 28,
        "templow": 26,
        "baro": 1015,
        "wind": 14,
        "wd": 110,
        "hum": 68
    }, {
        "hl": true,
        "hls": "uMs, 11 Ene",
        "hlsh": "11 Ene",
        "date": 14524704E5,
        "ts": "00:00",
        "ds": "Lunes, 11 Enero 2016, 00:00 — 06:00",
        "icon": 14,
        "desc": "Passing clouds.",
        "temp": 26,
        "templow": 24,
        "baro": 1014,
        "wind": 11,
        "wd": 110,
        "hum": 74
    }, {
        "date": 1452492E6,
        "ts": "06:00",
        "ds": "Lunes, 11 Enero 2016, 06:00 — 12:00",
        "icon": 2,
        "desc": "Scattered clouds.",
        "temp": 31,
        "templow": 24,
        "baro": 1014,
        "wind": 9,
        "wd": 100,
        "hum": 66
    }, {
        "date": 14525136E5,
        "ts": "12:00",
        "ds": "Lunes, 11 Enero 2016, 12:00 — 18:00",
        "icon": 2,
        "desc": "Scattered clouds.",
        "temp": 33,
        "templow": 30,
        "baro": 1013,
        "wind": 8,
        "wd": 0,
        "hum": 57
    }, {
        "date": 14525352E5,
        "ts": "18:00",
        "ds": "Lunes, 11 Enero 2016, 18:00 — 00:00",
        "icon": 15,
        "desc": "Partly cloudy.",
        "temp": 30,
        "templow": 27,
        "baro": 1014,
        "wind": 6,
        "wd": 230,
        "hum": 76
    }, {
        "hl": true,
        "hls": "uLw, 12 Ene",
        "hlsh": "12 Ene",
        "date": 14525568E5,
        "ts": "00:00",
        "ds": "Martes, 12 Enero 2016, 00:00 — 06:00",
        "icon": 15,
        "desc": "Partly cloudy.",
        "temp": 28,
        "templow": 26,
        "baro": 1014,
        "wind": 12,
        "wd": 10,
        "hum": 77
    }, {
        "date": 14525784E5,
        "ts": "06:00",
        "ds": "Martes, 12 Enero 2016, 06:00 — 12:00",
        "icon": 6,
        "desc": "Broken clouds.",
        "temp": 31,
        "templow": 26,
        "baro": 1015,
        "wind": 10,
        "wd": 0,
        "hum": 68
    }, {
        "date": 14526E8,
        "ts": "12:00",
        "ds": "Martes, 12 Enero 2016, 12:00 — 18:00",
        "icon": 2,
        "desc": "Passing clouds.",
        "temp": 32,
        "templow": 29,
        "baro": 1012,
        "wind": 12,
        "wd": 300,
        "hum": 62
    }, {
        "date": 14526216E5,
        "ts": "18:00",
        "ds": "Martes, 12 Enero 2016, 18:00 — 00:00",
        "icon": 14,
        "desc": "Passing clouds.",
        "temp": 29,
        "templow": 27,
        "baro": 1014,
        "wind": 10,
        "wd": 130,
        "hum": 61
    }, {
        "hl": true,
        "hls": "uLw, 13 Ene",
        "hlsh": "13 Ene",
        "date": 14526432E5,
        "ts": "00:00",
        "ds": "Miyerkules, 13 Enero 2016, 00:00 — 06:00",
        "icon": 14,
        "desc": "Passing clouds.",
        "temp": 27,
        "templow": 25,
        "baro": 1013,
        "wind": 4,
        "wd": 130,
        "hum": 73
    }, {
        "date": 14526648E5,
        "ts": "06:00",
        "ds": "Miyerkules, 13 Enero 2016, 06:00 — 12:00",
        "icon": 2,
        "desc": "Passing clouds.",
        "temp": 30,
        "templow": 24,
        "baro": 1014,
        "wind": 5,
        "wd": 0,
        "hum": 67
    }, {
        "date": 14526864E5,
        "ts": "12:00",
        "ds": "Miyerkules, 13 Enero 2016, 12:00 — 18:00",
        "icon": 2,
        "desc": "Scattered clouds.",
        "temp": 32,
        "templow": 29,
        "baro": 867,
        "wind": 10,
        "wd": 320,
        "hum": 62
    }, {
        "date": 1452708E6,
        "ts": "18:00",
        "ds": "Miyerkules, 13 Enero 2016, 18:00 — 00:00",
        "icon": 14,
        "desc": "Passing clouds.",
        "temp": 29,
        "templow": 27,
        "baro": 1013,
        "wind": 10,
        "wd": 130,
        "hum": 75
    }, {
        "hl": true,
        "hls": "uLw, 14 Ene",
        "hlsh": "14 Ene",
        "date": 14527296E5,
        "ts": "00:00",
        "ds": "Huwebes, 14 Enero 2016, 00:00 — 06:00",
        "icon": 14,
        "desc": "Passing clouds.",
        "temp": 27,
        "templow": 25,
        "baro": 1013,
        "wind": 5,
        "wd": 0,
        "hum": 83
    }, {
        "date": 14527512E5,
        "ts": "06:00",
        "ds": "Huwebes, 14 Enero 2016, 06:00 — 12:00",
        "icon": 2,
        "desc": "Passing clouds.",
        "temp": 29,
        "templow": 25,
        "baro": 1014,
        "wind": 7,
        "wd": 280,
        "hum": 79
    }, {
        "date": 14527728E5,
        "ts": "12:00",
        "ds": "Huwebes, 14 Enero 2016, 12:00 — 18:00",
        "icon": 2,
        "desc": "Passing clouds.",
        "temp": 31,
        "templow": 29,
        "baro": 1012,
        "wind": 14,
        "wd": 130,
        "hum": 63
    }, {
        "date": 14527944E5,
        "ts": "18:00",
        "ds": "Huwebes, 14 Enero 2016, 18:00 — 00:00",
        "icon": 14,
        "desc": "Passing clouds.",
        "temp": 29,
        "templow": 27,
        "baro": 1013,
        "wind": 11,
        "wd": 130,
        "hum": 71
    }, {
        "hl": true,
        "hls": "uLw, 15 Ene",
        "hlsh": "15 Ene",
        "date": 1452816E6,
        "ts": "00:00",
        "ds": "Biyernes, 15 Enero 2016, 00:00 — 06:00",
        "icon": 14,
        "desc": "Passing clouds.",
        "temp": 27,
        "templow": 25,
        "baro": 1012,
        "wind": 5,
        "wd": 130,
        "hum": 81
    }, {
        "date": 14528376E5,
        "ts": "06:00",
        "ds": "Biyernes, 15 Enero 2016, 06:00 — 12:00",
        "icon": 2,
        "desc": "Passing clouds.",
        "temp": 32,
        "templow": 25,
        "baro": 1013,
        "wind": 8,
        "wd": 110,
        "hum": 68
    }, {
        "date": 14528592E5,
        "ts": "12:00",
        "ds": "Biyernes, 15 Enero 2016, 12:00 — 18:00",
        "icon": 2,
        "desc": "Passing clouds.",
        "temp": 32,
        "templow": 28,
        "baro": 1010,
        "wind": 15,
        "wd": 130,
        "hum": 61
    }, {
        "date": 14528808E5,
        "ts": "18:00",
        "ds": "Biyernes, 15 Enero 2016, 18:00 — 00:00",
        "icon": 14,
        "desc": "Passing clouds.",
        "temp": 28,
        "templow": 26,
        "baro": 1011,
        "wind": 9,
        "wd": 130,
        "hum": 73
    }, {
        "hl": true,
        "hls": "uMg, 16 Ene",
        "hlsh": "16 Ene",
        "date": 14529024E5,
        "ts": "00:00",
        "ds": "Sabado, 16 Enero 2016, 00:00 — 06:00",
        "icon": 14,
        "desc": "Passing clouds.",
        "temp": 26,
        "templow": 25,
        "baro": 1011,
        "wind": 5,
        "wd": 0,
        "hum": 82
    }, {
        "date": 1452924E6,
        "ts": "06:00",
        "ds": "Sabado, 16 Enero 2016, 06:00 — 12:00",
        "icon": 2,
        "desc": "Scattered clouds.",
        "temp": 31,
        "templow": 25,
        "baro": 1013,
        "wind": 6,
        "wd": 0,
        "hum": 71
    }, {
        "date": 14529456E5,
        "ts": "12:00",
        "ds": "Sabado, 16 Enero 2016, 12:00 — 18:00",
        "icon": 2,
        "desc": "Scattered clouds.",
        "temp": 32,
        "templow": 29,
        "baro": 1010,
        "wind": 13,
        "wd": 140,
        "hum": 61
    }, {
        "date": 14529672E5,
        "ts": "18:00",
        "ds": "Sabado, 16 Enero 2016, 18:00 — 00:00",
        "icon": 14,
        "desc": "Passing clouds.",
        "temp": 29,
        "templow": 27,
        "baro": 1012,
        "wind": 13,
        "wd": 110,
        "hum": 71
    }, {
        "hl": true,
        "hls": "iSon, 17 Ene",
        "hlsh": "17 Ene",
        "date": 14529888E5,
        "ts": "00:00",
        "ds": "Linggo, 17 Enero 2016, 00:00 — 06:00",
        "icon": 15,
        "desc": "Partly cloudy.",
        "temp": 27,
        "templow": 26,
        "baro": 1011,
        "wind": 11,
        "wd": 110,
        "hum": 76
    }, {
        "date": 14530104E5,
        "ts": "06:00",
        "ds": "Linggo, 17 Enero 2016, 06:00 — 12:00",
        "icon": 6,
        "desc": "Partly sunny.",
        "temp": 30,
        "templow": 26,
        "baro": 1012,
        "wind": 12,
        "wd": 120,
        "hum": 66
    }, {
        "date": 1453032E6,
        "ts": "12:00",
        "ds": "Linggo, 17 Enero 2016, 12:00 — 18:00",
        "icon": 2,
        "desc": "Passing clouds.",
        "temp": 32,
        "templow": 29,
        "baro": 1009,
        "wind": 11,
        "wd": 0,
        "hum": 55
    }, {
        "date": 14530536E5,
        "ts": "18:00",
        "ds": "Linggo, 17 Enero 2016, 18:00 — 00:00",
        "icon": 14,
        "desc": "Passing clouds.",
        "temp": 29,
        "templow": 26,
        "baro": 1011,
        "wind": 10,
        "wd": 260,
        "hum": 80
    }, {
        "hl": true,
        "hls": "uMs, 18 Ene",
        "hlsh": "18 Ene",
        "date": 14530752E5,
        "ts": "00:00",
        "ds": "Lunes, 18 Enero 2016, 00:00 — 06:00",
        "icon": 14,
        "desc": "Passing clouds.",
        "temp": 26,
        "templow": 25,
        "baro": 1011,
        "wind": 1,
        "wd": 0,
        "hum": 81
    }, {
        "date": 14530968E5,
        "ts": "06:00",
        "ds": "Lunes, 18 Enero 2016, 06:00 — 12:00",
        "icon": 6,
        "desc": "More clouds than sun.",
        "temp": 30,
        "templow": 25,
        "baro": 1013,
        "wind": 11,
        "wd": 350,
        "hum": 78
    }, {
        "date": 14531184E5,
        "ts": "12:00",
        "ds": "Lunes, 18 Enero 2016, 12:00 — 18:00",
        "icon": 6,
        "desc": "Broken clouds.",
        "temp": 31,
        "templow": 29,
        "baro": 1011,
        "wind": 14,
        "wd": 250,
        "hum": 65
    }, {
        "date": 145314E7,
        "ts": "18:00",
        "ds": "Lunes, 18 Enero 2016, 18:00 — 00:00",
        "icon": 14,
        "desc": "Passing clouds.",
        "temp": 29,
        "templow": 27,
        "baro": 1013,
        "wind": 12,
        "wd": 120,
        "hum": 72
    }, {
        "hl": true,
        "hls": "uLw, 19 Ene",
        "hlsh": "19 Ene",
        "date": 14531616E5,
        "ts": "00:00",
        "ds": "Martes, 19 Enero 2016, 00:00 — 06:00",
        "icon": 14,
        "desc": "Passing clouds.",
        "temp": 27,
        "templow": 26,
        "baro": 1013,
        "wind": 8,
        "wd": 120,
        "hum": 78
    }, {
        "date": 14531832E5,
        "ts": "06:00",
        "ds": "Martes, 19 Enero 2016, 06:00 — 12:00",
        "icon": 2,
        "desc": "Passing clouds.",
        "temp": 31,
        "templow": 26,
        "baro": 1014,
        "wind": 13,
        "wd": 100,
        "hum": 69
    }, {
        "date": 14532048E5,
        "ts": "12:00",
        "ds": "Martes, 19 Enero 2016, 12:00 — 18:00",
        "icon": 2,
        "desc": "Scattered clouds.",
        "temp": 32,
        "templow": 28,
        "baro": 1012,
        "wind": 18,
        "wd": 110,
        "hum": 63
    }, {
        "date": 14532264E5,
        "ts": "18:00",
        "ds": "Martes, 19 Enero 2016, 18:00 — 00:00",
        "icon": 14,
        "desc": "Passing clouds.",
        "temp": 28,
        "templow": 27,
        "baro": 1014,
        "wind": 15,
        "wd": 110,
        "hum": 75
    }, {
        "hl": true,
        "hls": "uLw, 20 Ene",
        "hlsh": "20 Ene",
        "date": 1453248E6,
        "ts": "00:00",
        "ds": "Miyerkules, 20 Enero 2016, 00:00 — 06:00",
        "icon": 14,
        "desc": "Passing clouds.",
        "temp": 27,
        "templow": 26,
        "baro": 1015,
        "wind": 7,
        "wd": 70,
        "hum": 88
    }, {
        "date": 14532696E5,
        "ts": "06:00",
        "ds": "Miyerkules, 20 Enero 2016, 06:00 — 12:00",
        "icon": 2,
        "desc": "Scattered clouds.",
        "temp": 31,
        "templow": 26,
        "baro": 1017,
        "wind": 14,
        "wd": 70,
        "hum": 70
    }, {
        "date": 14532912E5,
        "ts": "12:00",
        "ds": "Miyerkules, 20 Enero 2016, 12:00 — 18:00",
        "icon": 2,
        "desc": "Passing clouds.",
        "temp": 32,
        "templow": 28,
        "baro": 1014,
        "wind": 24,
        "wd": 110,
        "hum": 58
    }, {
        "date": 14533128E5,
        "ts": "18:00",
        "ds": "Miyerkules, 20 Enero 2016, 18:00 — 00:00",
        "icon": 14,
        "desc": "Passing clouds.",
        "temp": 28,
        "templow": 27,
        "baro": 1016,
        "wind": 15,
        "wd": 110,
        "hum": 70
    }, {
        "hl": true,
        "hls": "uLw, 21 Ene",
        "hlsh": "21 Ene",
        "date": 14533344E5,
        "ts": "00:00",
        "ds": "Huwebes, 21 Enero 2016, 00:00 — 06:00",
        "icon": 14,
        "desc": "Passing clouds.",
        "temp": 27,
        "templow": 25,
        "baro": 1015,
        "wind": 11,
        "wd": 110,
        "hum": 75
    }, {
        "date": 1453356E6,
        "ts": "06:00",
        "ds": "Huwebes, 21 Enero 2016, 06:00 — 12:00",
        "icon": 2,
        "desc": "Passing clouds.",
        "temp": 31,
        "templow": 25,
        "baro": 1016,
        "wind": 14,
        "wd": 70,
        "hum": 69
    }, {
        "date": 14533776E5,
        "ts": "12:00",
        "ds": "Huwebes, 21 Enero 2016, 12:00 — 18:00",
        "icon": 2,
        "desc": "Passing clouds.",
        "temp": 32,
        "templow": 29,
        "baro": 1013,
        "wind": 16,
        "wd": 100,
        "hum": 56
    }, {
        "date": 14533992E5,
        "ts": "18:00",
        "ds": "Huwebes, 21 Enero 2016, 18:00 — 00:00",
        "icon": 14,
        "desc": "Passing clouds.",
        "temp": 29,
        "templow": 27,
        "baro": 1014,
        "wind": 10,
        "wd": 110,
        "hum": 69
    }, {
        "hl": true,
        "hls": "uLw, 22 Ene",
        "hlsh": "22 Ene",
        "date": 14534208E5,
        "ts": "00:00",
        "ds": "Biyernes, 22 Enero 2016, 00:00 — 06:00",
        "icon": 14,
        "desc": "Passing clouds.",
        "temp": 27,
        "templow": 25,
        "baro": 1014,
        "wind": 5,
        "wd": 100,
        "hum": 75
    }, {
        "date": 14534424E5,
        "ts": "06:00",
        "ds": "Biyernes, 22 Enero 2016, 06:00 — 12:00",
        "icon": 2,
        "desc": "Scattered clouds.",
        "temp": 29,
        "templow": 25,
        "baro": 1016,
        "wind": 8,
        "wd": 0,
        "hum": 70
    }, {
        "date": 1453464E6,
        "ts": "12:00",
        "ds": "Biyernes, 22 Enero 2016, 12:00 — 18:00",
        "icon": 2,
        "desc": "Passing clouds.",
        "temp": 32,
        "templow": 28,
        "baro": 1013,
        "wind": 11,
        "wd": 260,
        "hum": 65
    }, {
        "date": 14534856E5,
        "ts": "18:00",
        "ds": "Biyernes, 22 Enero 2016, 18:00 — 00:00",
        "icon": 14,
        "desc": "Passing clouds.",
        "temp": 29,
        "templow": 26,
        "baro": 1014,
        "wind": 11,
        "wd": 120,
        "hum": 80
    }, {
        "hl": true,
        "hls": "uMg, 23 Ene",
        "hlsh": "23 Ene",
        "date": 14535072E5,
        "ts": "00:00",
        "ds": "Sabado, 23 Enero 2016, 00:00 — 06:00",
        "icon": 14,
        "desc": "Passing clouds.",
        "temp": 26,
        "templow": 25,
        "baro": 1015,
        "wind": 7,
        "wd": 150,
        "hum": 93
    }, {
        "date": 14535288E5,
        "ts": "06:00",
        "ds": "Sabado, 23 Enero 2016, 06:00 — 12:00",
        "icon": 2,
        "desc": "Passing clouds.",
        "temp": 30,
        "templow": 25,
        "baro": 1017,
        "wind": 7,
        "wd": 0,
        "hum": 76
    }, {
        "date": 14535504E5,
        "ts": "12:00",
        "ds": "Sabado, 23 Enero 2016, 12:00 — 18:00",
        "icon": 2,
        "desc": "Scattered clouds.",
        "temp": 33,
        "templow": 30,
        "baro": 1013,
        "wind": 9,
        "wd": 0,
        "hum": 58
    }, {
        "date": 1453572E6,
        "ts": "18:00",
        "ds": "Sabado, 23 Enero 2016, 18:00 — 00:00",
        "icon": 14,
        "desc": "Passing clouds.",
        "temp": 30,
        "templow": 27,
        "baro": 1015,
        "wind": 10,
        "wd": 0,
        "hum": 65
    }, {
        "hl": true,
        "hls": "iSon, 24 Ene",
        "hlsh": "24 Ene",
        "date": 14535936E5,
        "ts": "00:00",
        "ds": "Linggo, 24 Enero 2016, 00:00 — 06:00",
        "icon": 14,
        "desc": "Passing clouds.",
        "temp": 27,
        "templow": 25,
        "baro": 1015,
        "wind": 3,
        "wd": 0,
        "hum": 79
    }, {
        "date": 14536152E5,
        "ts": "06:00",
        "ds": "Linggo, 24 Enero 2016, 06:00 — 12:00",
        "icon": 6,
        "desc": "Broken clouds.",
        "temp": 29,
        "templow": 25,
        "baro": 1017,
        "wind": 5,
        "wd": 0,
        "hum": 79
    }, {
        "date": 14536368E5,
        "ts": "12:00",
        "ds": "Linggo, 24 Enero 2016, 12:00 — 18:00",
        "icon": 6,
        "desc": "Broken clouds.",
        "temp": 30,
        "templow": 28,
        "baro": 1015,
        "wind": 12,
        "wd": 0,
        "hum": 61
    }, {
        "date": 14536584E5,
        "ts": "18:00",
        "ds": "Linggo, 24 Enero 2016, 18:00 — 00:00",
        "icon": 14,
        "desc": "Passing clouds.",
        "temp": 28,
        "templow": 26,
        "baro": 1016,
        "wind": 11,
        "wd": 100,
        "hum": 62
    }, {
        "hl": true,
        "hls": "uMs, 25 Ene",
        "hlsh": "25 Ene",
        "date": 145368E7,
        "ts": "00:00",
        "ds": "Lunes, 25 Enero 2016, 00:00 — 06:00",
        "icon": 14,
        "desc": "Passing clouds.",
        "temp": 26,
        "templow": 26,
        "baro": 1018,
        "wind": 8,
        "wd": 10,
        "hum": 63
    }, {
        "date": 14537016E5,
        "ts": "06:00",
        "ds": "Lunes, 25 Enero 2016, 06:00 — 12:00",
        "icon": 6,
        "desc": "Partly sunny.",
        "temp": 30,
        "templow": 26,
        "baro": 1019,
        "wind": 13,
        "wd": 80,
        "hum": 56
    }, {
        "date": 14537232E5,
        "ts": "12:00",
        "ds": "Lunes, 25 Enero 2016, 12:00 — 18:00",
        "icon": 2,
        "desc": "Scattered clouds.",
        "temp": 30,
        "templow": 26,
        "baro": 1017,
        "wind": 22,
        "wd": 100,
        "hum": 52
    }, {
        "date": 14537448E5,
        "ts": "18:00",
        "ds": "Lunes, 25 Enero 2016, 18:00 — 00:00",
        "icon": 15,
        "desc": "Partly cloudy.",
        "temp": 26,
        "templow": 25,
        "baro": 1019,
        "wind": 14,
        "wd": 100,
        "hum": 64
    }, {
        "hl": true,
        "hls": "uLw, 26 Ene",
        "hlsh": "26 Ene",
        "date": 14537664E5,
        "ts": "00:00",
        "ds": "Martes, 26 Enero 2016, 00:00 — 06:00",
        "icon": 14,
        "desc": "Passing clouds.",
        "temp": 25,
        "templow": 24,
        "baro": 1018,
        "wind": 11,
        "wd": 110,
        "hum": 72
    }, {
        "date": 1453788E6,
        "ts": "06:00",
        "ds": "Martes, 26 Enero 2016, 06:00 — 12:00",
        "icon": 2,
        "desc": "Passing clouds.",
        "temp": 29,
        "templow": 25,
        "baro": 1019,
        "wind": 20,
        "wd": 80,
        "hum": 67
    }, {
        "date": 14538096E5,
        "ts": "12:00",
        "ds": "Martes, 26 Enero 2016, 12:00 — 18:00",
        "icon": 2,
        "desc": "Scattered clouds.",
        "temp": 29,
        "templow": 26,
        "baro": 1016,
        "wind": 22,
        "wd": 90,
        "hum": 55
    }, {
        "date": 14538312E5,
        "ts": "18:00",
        "ds": "Martes, 26 Enero 2016, 18:00 — 00:00",
        "icon": 14,
        "desc": "Passing clouds.",
        "temp": 26,
        "templow": 25,
        "baro": 1018,
        "wind": 14,
        "wd": 90,
        "hum": 63
    }, {
        "hl": true,
        "hls": "uLw, 27 Ene",
        "hlsh": "27 Ene",
        "date": 14538528E5,
        "ts": "00:00",
        "ds": "Miyerkules, 27 Enero 2016, 00:00 — 06:00",
        "icon": 14,
        "desc": "Passing clouds.",
        "temp": 25,
        "templow": 24,
        "baro": 1018,
        "wind": 9,
        "wd": 0,
        "hum": 70
    }, {
        "date": 14538744E5,
        "ts": "06:00",
        "ds": "Miyerkules, 27 Enero 2016, 06:00 — 12:00",
        "icon": 2,
        "desc": "Scattered clouds.",
        "temp": 29,
        "templow": 24,
        "baro": 1019,
        "wind": 8,
        "wd": 0,
        "hum": 66
    }, {
        "date": 1453896E6,
        "ts": "12:00",
        "ds": "Miyerkules, 27 Enero 2016, 12:00 — 18:00",
        "icon": 6,
        "desc": "Broken clouds.",
        "temp": 30,
        "templow": 29,
        "baro": 1017,
        "wind": 17,
        "wd": 80,
        "hum": 56
    }, {
        "date": 14539176E5,
        "ts": "18:00",
        "ds": "Miyerkules, 27 Enero 2016, 18:00 — 00:00",
        "icon": 14,
        "desc": "Passing clouds.",
        "temp": 29,
        "templow": 26,
        "baro": 1017,
        "wind": 10,
        "wd": 90,
        "hum": 71
    }, {
        "hl": true,
        "hls": "uLw, 28 Ene",
        "hlsh": "28 Ene",
        "date": 14539392E5,
        "ts": "00:00",
        "ds": "Huwebes, 28 Enero 2016, 00:00 — 06:00",
        "icon": 14,
        "desc": "Passing clouds.",
        "temp": 26,
        "templow": 25,
        "baro": 1016,
        "wind": 9,
        "wd": 80,
        "hum": 80
    }, {
        "date": 14539608E5,
        "ts": "06:00",
        "ds": "Huwebes, 28 Enero 2016, 06:00 — 12:00",
        "icon": 2,
        "desc": "Scattered clouds.",
        "temp": 31,
        "templow": 25,
        "baro": 1016,
        "wind": 12,
        "wd": 90,
        "hum": 68
    }, {
        "date": 14539824E5,
        "ts": "12:00",
        "ds": "Huwebes, 28 Enero 2016, 12:00 — 18:00",
        "icon": 2,
        "desc": "Passing clouds.",
        "temp": 31,
        "templow": 29,
        "baro": 1013,
        "wind": 21,
        "wd": 90,
        "hum": 57
    }, {
        "date": 1454004E6,
        "ts": "18:00",
        "ds": "Huwebes, 28 Enero 2016, 18:00 — 00:00",
        "icon": 14,
        "desc": "Passing clouds.",
        "temp": 29,
        "templow": 27,
        "baro": 1015,
        "wind": 10,
        "wd": 110,
        "hum": 64
    }, {
        "hl": true,
        "hls": "uLw, 29 Ene",
        "hlsh": "29 Ene",
        "date": 14540256E5,
        "ts": "00:00",
        "ds": "Biyernes, 29 Enero 2016, 00:00 — 06:00",
        "icon": 14,
        "desc": "Passing clouds.",
        "temp": 27,
        "templow": 25,
        "baro": 1014,
        "wind": 4,
        "wd": 0,
        "hum": 84
    }, {
        "date": 14540472E5,
        "ts": "06:00",
        "ds": "Biyernes, 29 Enero 2016, 06:00 — 12:00",
        "icon": 6,
        "desc": "Partly sunny.",
        "temp": 29,
        "templow": 25,
        "baro": 1016,
        "wind": 8,
        "wd": 0,
        "hum": 81
    }, {
        "date": 14540688E5,
        "ts": "12:00",
        "ds": "Biyernes, 29 Enero 2016, 12:00 — 18:00",
        "icon": 6,
        "desc": "More clouds than sun.",
        "temp": 31,
        "templow": 28,
        "baro": 1013,
        "wind": 10,
        "wd": 0,
        "hum": 69
    }, {
        "date": 14540904E5,
        "ts": "18:00",
        "ds": "Biyernes, 29 Enero 2016, 18:00 — 00:00",
        "icon": 15,
        "desc": "Partly cloudy.",
        "temp": 28,
        "templow": 27,
        "baro": 1015,
        "wind": 6,
        "wd": 140,
        "hum": 78
    }, {
        "hl": true,
        "hls": "uMg, 30 Ene",
        "hlsh": "30 Ene",
        "date": 1454112E6,
        "ts": "00:00",
        "ds": "Sabado, 30 Enero 2016, 00:00 — 06:00",
        "icon": 14,
        "desc": "Passing clouds.",
        "temp": 27,
        "templow": 25,
        "baro": 1014,
        "wind": 3,
        "wd": 140,
        "hum": 88
    }, {
        "date": 14541336E5,
        "ts": "06:00",
        "ds": "Sabado, 30 Enero 2016, 06:00 — 12:00",
        "icon": 6,
        "desc": "Broken clouds.",
        "temp": 32,
        "templow": 25,
        "baro": 1016,
        "wind": 4,
        "wd": 140,
        "hum": 76
    }, {
        "date": 14541552E5,
        "ts": "12:00",
        "ds": "Sabado, 30 Enero 2016, 12:00 — 18:00",
        "icon": 2,
        "desc": "Scattered clouds.",
        "temp": 32,
        "templow": 29,
        "baro": 1013,
        "wind": 10,
        "wd": 120,
        "hum": 65
    }, {
        "date": 14541768E5,
        "ts": "18:00",
        "ds": "Sabado, 30 Enero 2016, 18:00 — 00:00",
        "icon": 14,
        "desc": "Passing clouds.",
        "temp": 29,
        "templow": 27,
        "baro": 1014,
        "wind": 14,
        "wd": 110,
        "hum": 75
    }, {
        "hl": true,
        "hls": "iSon, 31 Ene",
        "hlsh": "31 Ene",
        "date": 14541984E5,
        "ts": "00:00",
        "ds": "Linggo, 31 Enero 2016, 00:00 — 06:00",
        "icon": 14,
        "desc": "Passing clouds.",
        "temp": 27,
        "templow": 26,
        "baro": 1014,
        "wind": 10,
        "wd": 120,
        "hum": 87
    }, {
        "date": 145422E7,
        "ts": "06:00",
        "ds": "Linggo, 31 Enero 2016, 06:00 — 12:00",
        "icon": 2,
        "desc": "Scattered clouds.",
        "temp": 32,
        "templow": 26,
        "baro": 1015,
        "wind": 11,
        "wd": 120,
        "hum": 68
    }, {
        "date": 14542416E5,
        "ts": "12:00",
        "ds": "Linggo, 31 Enero 2016, 12:00 — 18:00",
        "icon": 2,
        "desc": "Scattered clouds.",
        "temp": 32,
        "templow": 29,
        "baro": 1012,
        "wind": 18,
        "wd": 120,
        "hum": 59
    }, {
        "date": 14542632E5,
        "ts": "18:00",
        "ds": "Linggo, 31 Enero 2016, 18:00 — 00:00",
        "icon": 14,
        "desc": "Passing clouds.",
        "temp": 29,
        "templow": 27,
        "baro": 1014,
        "wind": 12,
        "wd": 90,
        "hum": 67
    }]
}