{
    "detail": [{
        "hl": true,
        "hls": "uLw, 1 Dis",
        "hlsh": "1 Dis",
        "date": 14805504E5,
        "ts": "00:00",
        "ds": "Huwebes, 1 Disyembre 2016, 00:00 — 06:00",
        "icon": 14,
        "desc": "Passing clouds.",
        "temp": 27,
        "templow": 26,
        "baro": 1013,
        "wind": 5,
        "wd": 0,
        "hum": 86
    }, {
        "date": 1480572E6,
        "ts": "06:00",
        "ds": "Huwebes, 1 Disyembre 2016, 06:00 — 12:00",
        "icon": 6,
        "desc": "Broken clouds.",
        "temp": 31,
        "templow": 26,
        "baro": 1014,
        "wind": 8,
        "wd": 0,
        "hum": 80
    }, {
        "date": 14805936E5,
        "ts": "12:00",
        "ds": "Huwebes, 1 Disyembre 2016, 12:00 — 18:00",
        "icon": 6,
        "desc": "Partly sunny.",
        "temp": 31,
        "templow": 29,
        "baro": 1012,
        "wind": 11,
        "wd": 70,
        "hum": 63
    }, {
        "date": 14806152E5,
        "ts": "18:00",
        "ds": "Huwebes, 1 Disyembre 2016, 18:00 — 00:00",
        "icon": 14,
        "desc": "Passing clouds.",
        "temp": 29,
        "templow": 27,
        "baro": 1013,
        "wind": 9,
        "wd": 70,
        "hum": 72
    }, {
        "hl": true,
        "hls": "uLw, 2 Dis",
        "hlsh": "2 Dis",
        "date": 14806368E5,
        "ts": "00:00",
        "ds": "Biyernes, 2 Disyembre 2016, 00:00 — 06:00",
        "icon": 14,
        "desc": "Passing clouds.",
        "temp": 27,
        "templow": 24,
        "baro": 1014,
        "wind": 4,
        "wd": 0,
        "hum": 87
    }, {
        "date": 14806584E5,
        "ts": "06:00",
        "ds": "Biyernes, 2 Disyembre 2016, 06:00 — 12:00",
        "icon": 2,
        "desc": "Scattered clouds.",
        "temp": 30,
        "templow": 25,
        "baro": 1015,
        "wind": 7,
        "wd": 0,
        "hum": 79
    }, {
        "date": 148068E7,
        "ts": "12:00",
        "ds": "Biyernes, 2 Disyembre 2016, 12:00 — 18:00",
        "icon": 6,
        "desc": "Partly sunny.",
        "temp": 29,
        "templow": 26,
        "baro": 1013,
        "wind": 7,
        "wd": 0,
        "hum": 84
    }, {
        "date": 14807016E5,
        "ts": "18:00",
        "ds": "Biyernes, 2 Disyembre 2016, 18:00 — 00:00",
        "icon": 14,
        "desc": "Passing clouds.",
        "temp": 28,
        "templow": 25,
        "baro": 1014,
        "wind": 4,
        "wd": 120,
        "hum": 92
    }, {
        "hl": true,
        "hls": "uMg, 3 Dis",
        "hlsh": "3 Dis",
        "date": 14807232E5,
        "ts": "00:00",
        "ds": "Sabado, 3 Disyembre 2016, 00:00 — 06:00",
        "icon": 14,
        "desc": "Passing clouds.",
        "temp": 26,
        "templow": 25,
        "baro": 1013,
        "wind": 2,
        "wd": 0,
        "hum": 100
    }, {
        "date": 14807448E5,
        "ts": "06:00",
        "ds": "Sabado, 3 Disyembre 2016, 06:00 — 12:00",
        "icon": 6,
        "desc": "Broken clouds.",
        "temp": 31,
        "templow": 25,
        "baro": 1014,
        "wind": 5,
        "wd": 0,
        "hum": 75
    }, {
        "date": 14807664E5,
        "ts": "12:00",
        "ds": "Sabado, 3 Disyembre 2016, 12:00 — 18:00",
        "icon": 6,
        "desc": "Broken clouds.",
        "temp": 32,
        "templow": 28,
        "baro": 1012,
        "wind": 12,
        "wd": 100,
        "hum": 66
    }, {
        "date": 1480788E6,
        "ts": "18:00",
        "ds": "Sabado, 3 Disyembre 2016, 18:00 — 00:00",
        "icon": 14,
        "desc": "Passing clouds.",
        "temp": 28,
        "templow": 26,
        "baro": 1013,
        "wind": 6,
        "wd": 120,
        "hum": 86
    }, {
        "hl": true,
        "hls": "iSon, 4 Dis",
        "hlsh": "4 Dis",
        "date": 14808096E5,
        "ts": "00:00",
        "ds": "Linggo, 4 Disyembre 2016, 00:00 — 06:00",
        "icon": 14,
        "desc": "Passing clouds.",
        "temp": 27,
        "templow": 25,
        "baro": 1012,
        "wind": 5,
        "wd": 70,
        "hum": 93
    }, {
        "date": 14808312E5,
        "ts": "06:00",
        "ds": "Linggo, 4 Disyembre 2016, 06:00 — 12:00",
        "icon": 2,
        "desc": "Scattered clouds.",
        "temp": 32,
        "templow": 26,
        "baro": 1013,
        "wind": 6,
        "wd": 40,
        "hum": 77
    }, {
        "date": 14808528E5,
        "ts": "12:00",
        "ds": "Linggo, 4 Disyembre 2016, 12:00 — 18:00",
        "icon": 2,
        "desc": "Scattered clouds.",
        "temp": 33,
        "templow": 29,
        "baro": 1010,
        "wind": 10,
        "wd": 120,
        "hum": 58
    }, {
        "date": 14808744E5,
        "ts": "18:00",
        "ds": "Linggo, 4 Disyembre 2016, 18:00 — 00:00",
        "icon": 14,
        "desc": "Passing clouds.",
        "temp": 29,
        "templow": 27,
        "baro": 1012,
        "wind": 6,
        "wd": 120,
        "hum": 69
    }, {
        "hl": true,
        "hls": "uMs, 5 Dis",
        "hlsh": "5 Dis",
        "date": 1480896E6,
        "ts": "00:00",
        "ds": "Lunes, 5 Disyembre 2016, 00:00 — 06:00",
        "icon": 15,
        "desc": "Partly cloudy.",
        "temp": 27,
        "templow": 25,
        "baro": 1012,
        "wind": 5,
        "wd": 0,
        "hum": 95
    }, {
        "date": 14809176E5,
        "ts": "06:00",
        "ds": "Lunes, 5 Disyembre 2016, 06:00 — 12:00",
        "icon": 2,
        "desc": "Scattered clouds.",
        "temp": 32,
        "templow": 25,
        "baro": 1012,
        "wind": 7,
        "wd": 0,
        "hum": 78
    }, {
        "date": 14809392E5,
        "ts": "12:00",
        "ds": "Lunes, 5 Disyembre 2016, 12:00 — 18:00",
        "icon": 18,
        "desc": "Sprinkles. Broken clouds.",
        "temp": 32,
        "templow": 28,
        "baro": 1010,
        "wind": 10,
        "wd": 0,
        "hum": 82
    }, {
        "date": 14809608E5,
        "ts": "18:00",
        "ds": "Lunes, 5 Disyembre 2016, 18:00 — 00:00",
        "icon": 14,
        "desc": "Passing clouds.",
        "temp": 28,
        "templow": 27,
        "baro": 1012,
        "wind": 4,
        "wd": 0,
        "hum": 96
    }, {
        "hl": true,
        "hls": "uLw, 6 Dis",
        "hlsh": "6 Dis",
        "date": 14809824E5,
        "ts": "00:00",
        "ds": "Martes, 6 Disyembre 2016, 00:00 — 06:00",
        "icon": 14,
        "desc": "Passing clouds.",
        "temp": 27,
        "templow": 25,
        "baro": 1012,
        "wind": 7,
        "wd": 0,
        "hum": 97
    }, {
        "date": 1481004E6,
        "ts": "06:00",
        "ds": "Martes, 6 Disyembre 2016, 06:00 — 12:00",
        "icon": 2,
        "desc": "Scattered clouds.",
        "temp": 32,
        "templow": 25,
        "baro": 1012,
        "wind": 11,
        "wd": 60,
        "hum": 75
    }, {
        "date": 14810256E5,
        "ts": "12:00",
        "ds": "Martes, 6 Disyembre 2016, 12:00 — 18:00",
        "icon": 2,
        "desc": "Passing clouds.",
        "temp": 32,
        "templow": 30,
        "baro": 1010,
        "wind": 18,
        "wd": 90,
        "hum": 52
    }, {
        "date": 14810472E5,
        "ts": "18:00",
        "ds": "Martes, 6 Disyembre 2016, 18:00 — 00:00",
        "icon": 14,
        "desc": "Passing clouds.",
        "temp": 30,
        "templow": 28,
        "baro": 1011,
        "wind": 7,
        "wd": 80,
        "hum": 65
    }, {
        "hl": true,
        "hls": "uLw, 7 Dis",
        "hlsh": "7 Dis",
        "date": 14810688E5,
        "ts": "00:00",
        "ds": "Miyerkules, 7 Disyembre 2016, 00:00 — 06:00",
        "icon": 15,
        "desc": "Partly cloudy.",
        "temp": 28,
        "templow": 27,
        "baro": 1010,
        "wind": 7,
        "wd": 0,
        "hum": 73
    }, {
        "date": 14810904E5,
        "ts": "06:00",
        "ds": "Miyerkules, 7 Disyembre 2016, 06:00 — 12:00",
        "icon": 6,
        "desc": "Broken clouds.",
        "temp": 30,
        "templow": 28,
        "baro": 1010,
        "wind": 10,
        "wd": 10,
        "hum": 64
    }, {
        "date": 1481112E6,
        "ts": "12:00",
        "ds": "Miyerkules, 7 Disyembre 2016, 12:00 — 18:00",
        "icon": 6,
        "desc": "Broken clouds.",
        "temp": 30,
        "templow": 27,
        "baro": 1008,
        "wind": 7,
        "wd": 0,
        "hum": 81
    }, {
        "date": 14811336E5,
        "ts": "18:00",
        "ds": "Miyerkules, 7 Disyembre 2016, 18:00 — 00:00",
        "icon": 15,
        "desc": "Partly cloudy.",
        "temp": 27,
        "templow": 25,
        "baro": 1009,
        "wind": 3,
        "wd": 0,
        "hum": 99
    }, {
        "hl": true,
        "hls": "uLw, 8 Dis",
        "hlsh": "8 Dis",
        "date": 14811552E5,
        "ts": "00:00",
        "ds": "Huwebes, 8 Disyembre 2016, 00:00 — 06:00",
        "icon": 34,
        "desc": "Light rain. Mostly cloudy.",
        "temp": 25,
        "templow": 25,
        "baro": 1008,
        "wind": 5,
        "wd": 0,
        "hum": 100
    }, {
        "date": 14811768E5,
        "ts": "06:00",
        "ds": "Huwebes, 8 Disyembre 2016, 06:00 — 12:00",
        "icon": 6,
        "desc": "Broken clouds.",
        "temp": 31,
        "templow": 25,
        "baro": 1008,
        "wind": 5,
        "wd": 0,
        "hum": 88
    }, {
        "date": 14811984E5,
        "ts": "12:00",
        "ds": "Huwebes, 8 Disyembre 2016, 12:00 — 18:00",
        "icon": 2,
        "desc": "Scattered clouds.",
        "temp": 31,
        "templow": 28,
        "baro": 1005,
        "wind": 13,
        "wd": 110,
        "hum": 67
    }, {
        "date": 148122E7,
        "ts": "18:00",
        "ds": "Huwebes, 8 Disyembre 2016, 18:00 — 00:00",
        "icon": 14,
        "desc": "Passing clouds.",
        "temp": 28,
        "templow": 27,
        "baro": 1008,
        "wind": 11,
        "wd": 120,
        "hum": 81
    }, {
        "hl": true,
        "hls": "uLw, 9 Dis",
        "hlsh": "9 Dis",
        "date": 14812416E5,
        "ts": "00:00",
        "ds": "Biyernes, 9 Disyembre 2016, 00:00 — 06:00",
        "icon": 14,
        "desc": "Passing clouds.",
        "temp": 27,
        "templow": 26,
        "baro": 1007,
        "wind": 6,
        "wd": 100,
        "hum": 92
    }, {
        "date": 14812632E5,
        "ts": "06:00",
        "ds": "Biyernes, 9 Disyembre 2016, 06:00 — 12:00",
        "icon": 2,
        "desc": "Scattered clouds.",
        "temp": 31,
        "templow": 26,
        "baro": 1008,
        "wind": 10,
        "wd": 0,
        "hum": 77
    }, {
        "date": 14812848E5,
        "ts": "12:00",
        "ds": "Biyernes, 9 Disyembre 2016, 12:00 — 18:00",
        "icon": 6,
        "desc": "Partly sunny.",
        "temp": 32,
        "templow": 29,
        "baro": 1006,
        "wind": 12,
        "wd": 120,
        "hum": 65
    }, {
        "date": 14813064E5,
        "ts": "18:00",
        "ds": "Biyernes, 9 Disyembre 2016, 18:00 — 00:00",
        "icon": 14,
        "desc": "Passing clouds.",
        "temp": 29,
        "templow": 27,
        "baro": 1008,
        "wind": 9,
        "wd": 110,
        "hum": 80
    }, {
        "hl": true,
        "hls": "uMg, 10 Dis",
        "hlsh": "10 Dis",
        "date": 1481328E6,
        "ts": "00:00",
        "ds": "Sabado, 10 Disyembre 2016, 00:00 — 06:00",
        "icon": 14,
        "desc": "Passing clouds.",
        "temp": 28,
        "templow": 27,
        "baro": 1008,
        "wind": 6,
        "wd": 0,
        "hum": 86
    }, {
        "date": 14813496E5,
        "ts": "06:00",
        "ds": "Sabado, 10 Disyembre 2016, 06:00 — 12:00",
        "icon": 2,
        "desc": "Scattered clouds.",
        "temp": 31,
        "templow": 27,
        "baro": 1009,
        "wind": 7,
        "wd": 0,
        "hum": 75
    }, {
        "date": 14813712E5,
        "ts": "12:00",
        "ds": "Sabado, 10 Disyembre 2016, 12:00 — 18:00",
        "icon": 6,
        "desc": "Broken clouds.",
        "temp": 31,
        "templow": 29,
        "baro": 1007,
        "wind": 10,
        "wd": 270,
        "hum": 69
    }, {
        "date": 14813928E5,
        "ts": "18:00",
        "ds": "Sabado, 10 Disyembre 2016, 18:00 — 00:00",
        "icon": 14,
        "desc": "Passing clouds.",
        "temp": 29,
        "templow": 27,
        "baro": 1009,
        "wind": 6,
        "wd": 150,
        "hum": 87
    }, {
        "hl": true,
        "hls": "iSon, 11 Dis",
        "hlsh": "11 Dis",
        "date": 14814144E5,
        "ts": "00:00",
        "ds": "Linggo, 11 Disyembre 2016, 00:00 — 06:00",
        "icon": 14,
        "desc": "Passing clouds.",
        "temp": 27,
        "templow": 26,
        "baro": 1008,
        "wind": 5,
        "wd": 0,
        "hum": 99
    }, {
        "date": 1481436E6,
        "ts": "06:00",
        "ds": "Linggo, 11 Disyembre 2016, 06:00 — 12:00",
        "icon": 6,
        "desc": "Broken clouds.",
        "temp": 30,
        "templow": 26,
        "baro": 1009,
        "wind": 7,
        "wd": 70,
        "hum": 81
    }, {
        "date": 14814576E5,
        "ts": "12:00",
        "ds": "Linggo, 11 Disyembre 2016, 12:00 — 18:00",
        "icon": 6,
        "desc": "Broken clouds.",
        "temp": 31,
        "templow": 29,
        "baro": 1007,
        "wind": 9,
        "wd": 260,
        "hum": 68
    }, {
        "date": 14814792E5,
        "ts": "18:00",
        "ds": "Linggo, 11 Disyembre 2016, 18:00 — 00:00",
        "icon": 14,
        "desc": "Passing clouds.",
        "temp": 29,
        "templow": 27,
        "baro": 1009,
        "wind": 9,
        "wd": 120,
        "hum": 79
    }, {
        "hl": true,
        "hls": "uMs, 12 Dis",
        "hlsh": "12 Dis",
        "date": 14815008E5,
        "ts": "00:00",
        "ds": "Lunes, 12 Disyembre 2016, 00:00 — 06:00",
        "icon": 14,
        "desc": "Passing clouds.",
        "temp": 27,
        "templow": 26,
        "baro": 1008,
        "wind": 4,
        "wd": 0,
        "hum": 94
    }, {
        "date": 14815224E5,
        "ts": "06:00",
        "ds": "Lunes, 12 Disyembre 2016, 06:00 — 12:00",
        "icon": 6,
        "desc": "Broken clouds.",
        "temp": 30,
        "templow": 26,
        "baro": 1009,
        "wind": 8,
        "wd": 0,
        "hum": 80
    }, {
        "date": 1481544E6,
        "ts": "12:00",
        "ds": "Lunes, 12 Disyembre 2016, 12:00 — 18:00",
        "icon": 6,
        "desc": "Broken clouds.",
        "temp": 31,
        "templow": 26,
        "baro": 1008,
        "wind": 10,
        "wd": 260,
        "hum": 81
    }, {
        "date": 14815656E5,
        "ts": "18:00",
        "ds": "Lunes, 12 Disyembre 2016, 18:00 — 00:00",
        "icon": 15,
        "desc": "Partly cloudy.",
        "temp": 28,
        "templow": 25,
        "baro": 1010,
        "wind": 6,
        "wd": 90,
        "hum": 98
    }, {
        "hl": true,
        "hls": "uLw, 13 Dis",
        "hlsh": "13 Dis",
        "date": 14815872E5,
        "ts": "00:00",
        "ds": "Martes, 13 Disyembre 2016, 00:00 — 06:00",
        "icon": 34,
        "desc": "Light rain. Mostly cloudy.",
        "temp": 25,
        "templow": 25,
        "baro": 1009,
        "wind": 6,
        "wd": 0,
        "hum": 100
    }, {
        "date": 14816088E5,
        "ts": "06:00",
        "ds": "Martes, 13 Disyembre 2016, 06:00 — 12:00",
        "icon": 18,
        "desc": "Light rain. More clouds than sun.",
        "temp": 28,
        "templow": 25,
        "baro": 1010,
        "wind": 7,
        "wd": 270,
        "hum": 99
    }, {
        "date": 14816304E5,
        "ts": "12:00",
        "ds": "Martes, 13 Disyembre 2016, 12:00 — 18:00",
        "icon": 6,
        "desc": "Broken clouds.",
        "temp": 29,
        "templow": 27,
        "baro": 1008,
        "wind": 10,
        "wd": 310,
        "hum": 95
    }, {
        "date": 1481652E6,
        "ts": "18:00",
        "ds": "Martes, 13 Disyembre 2016, 18:00 — 00:00",
        "icon": 15,
        "desc": "Partly cloudy.",
        "temp": 27,
        "templow": 26,
        "baro": 1010,
        "wind": 3,
        "wd": 0,
        "hum": 100
    }, {
        "hl": true,
        "hls": "uLw, 14 Dis",
        "hlsh": "14 Dis",
        "date": 14816736E5,
        "ts": "00:00",
        "ds": "Miyerkules, 14 Disyembre 2016, 00:00 — 06:00",
        "icon": 15,
        "desc": "Partly cloudy.",
        "temp": 26,
        "templow": 25,
        "baro": 1010,
        "wind": 2,
        "wd": 0,
        "hum": 100
    }, {
        "date": 14816952E5,
        "ts": "06:00",
        "ds": "Miyerkules, 14 Disyembre 2016, 06:00 — 12:00",
        "icon": 6,
        "desc": "Broken clouds.",
        "temp": 31,
        "templow": 25,
        "baro": 1011,
        "wind": 5,
        "wd": 0,
        "hum": 93
    }, {
        "date": 14817168E5,
        "ts": "12:00",
        "ds": "Miyerkules, 14 Disyembre 2016, 12:00 — 18:00",
        "icon": 6,
        "desc": "Broken clouds.",
        "temp": 31,
        "templow": 28,
        "baro": 1009,
        "wind": 9,
        "wd": 10,
        "hum": 76
    }, {
        "date": 14817384E5,
        "ts": "18:00",
        "ds": "Miyerkules, 14 Disyembre 2016, 18:00 — 00:00",
        "icon": 15,
        "desc": "Partly cloudy.",
        "temp": 28,
        "templow": 27,
        "baro": 1011,
        "wind": 8,
        "wd": 0,
        "hum": 88
    }, {
        "hl": true,
        "hls": "uLw, 15 Dis",
        "hlsh": "15 Dis",
        "date": 148176E7,
        "ts": "00:00",
        "ds": "Huwebes, 15 Disyembre 2016, 00:00 — 06:00",
        "icon": 15,
        "desc": "Partly cloudy.",
        "temp": 27,
        "templow": 26,
        "baro": 1011,
        "wind": 5,
        "wd": 10,
        "hum": 92
    }, {
        "date": 14817816E5,
        "ts": "06:00",
        "ds": "Huwebes, 15 Disyembre 2016, 06:00 — 12:00",
        "icon": 6,
        "desc": "Partly sunny.",
        "temp": 28,
        "templow": 26,
        "baro": 1013,
        "wind": 10,
        "wd": 0,
        "hum": 88
    }, {
        "date": 14818032E5,
        "ts": "12:00",
        "ds": "Huwebes, 15 Disyembre 2016, 12:00 — 18:00",
        "icon": 6,
        "desc": "Broken clouds.",
        "temp": 28,
        "templow": 27,
        "baro": 1011,
        "wind": 9,
        "wd": 0,
        "hum": 80
    }, {
        "date": 14818248E5,
        "ts": "18:00",
        "ds": "Huwebes, 15 Disyembre 2016, 18:00 — 00:00",
        "icon": 14,
        "desc": "Passing clouds.",
        "temp": 27,
        "templow": 26,
        "baro": 1013,
        "wind": 5,
        "wd": 0,
        "hum": 92
    }, {
        "hl": true,
        "hls": "uLw, 16 Dis",
        "hlsh": "16 Dis",
        "date": 14818464E5,
        "ts": "00:00",
        "ds": "Biyernes, 16 Disyembre 2016, 00:00 — 06:00",
        "icon": 15,
        "desc": "Partly cloudy.",
        "temp": 26,
        "templow": 25,
        "baro": 1012,
        "wind": 3,
        "wd": 0,
        "hum": 99
    }, {
        "date": 1481868E6,
        "ts": "06:00",
        "ds": "Biyernes, 16 Disyembre 2016, 06:00 — 12:00",
        "icon": 6,
        "desc": "Broken clouds.",
        "temp": 27,
        "templow": 25,
        "baro": 1013,
        "wind": 6,
        "wd": 0,
        "hum": 97
    }, {
        "date": 14818896E5,
        "ts": "12:00",
        "ds": "Biyernes, 16 Disyembre 2016, 12:00 — 18:00",
        "icon": 6,
        "desc": "Broken clouds.",
        "temp": 28,
        "templow": 27,
        "baro": 1012,
        "wind": 10,
        "wd": 0,
        "hum": 85
    }, {
        "date": 14819112E5,
        "ts": "18:00",
        "ds": "Biyernes, 16 Disyembre 2016, 18:00 — 00:00",
        "icon": 14,
        "desc": "Passing clouds.",
        "temp": 27,
        "templow": 25,
        "baro": 1014,
        "wind": 10,
        "wd": 100,
        "hum": 89
    }, {
        "hl": true,
        "hls": "uMg, 17 Dis",
        "hlsh": "17 Dis",
        "date": 14819328E5,
        "ts": "00:00",
        "ds": "Sabado, 17 Disyembre 2016, 00:00 — 06:00",
        "icon": 14,
        "desc": "Passing clouds.",
        "temp": 25,
        "templow": 24,
        "baro": 1014,
        "wind": 5,
        "wd": 0,
        "hum": 95
    }, {
        "date": 14819544E5,
        "ts": "06:00",
        "ds": "Sabado, 17 Disyembre 2016, 06:00 — 12:00",
        "icon": 6,
        "desc": "Broken clouds.",
        "temp": 29,
        "templow": 24,
        "baro": 1015,
        "wind": 10,
        "wd": 0,
        "hum": 77
    }, {
        "date": 1481976E6,
        "ts": "12:00",
        "ds": "Sabado, 17 Disyembre 2016, 12:00 — 18:00",
        "icon": 6,
        "desc": "Broken clouds.",
        "temp": 29,
        "templow": 28,
        "baro": 1013,
        "wind": 13,
        "wd": 90,
        "hum": 62
    }, {
        "date": 14819976E5,
        "ts": "18:00",
        "ds": "Sabado, 17 Disyembre 2016, 18:00 — 00:00",
        "icon": 14,
        "desc": "Passing clouds.",
        "temp": 28,
        "templow": 26,
        "baro": 1014,
        "wind": 6,
        "wd": 0,
        "hum": 74
    }, {
        "hl": true,
        "hls": "iSon, 18 Dis",
        "hlsh": "18 Dis",
        "date": 14820192E5,
        "ts": "00:00",
        "ds": "Linggo, 18 Disyembre 2016, 00:00 — 06:00",
        "icon": 14,
        "desc": "Passing clouds.",
        "temp": 26,
        "templow": 24,
        "baro": 1014,
        "wind": 6,
        "wd": 10,
        "hum": 88
    }, {
        "date": 14820408E5,
        "ts": "06:00",
        "ds": "Linggo, 18 Disyembre 2016, 06:00 — 12:00",
        "icon": 6,
        "desc": "Broken clouds.",
        "temp": 28,
        "templow": 25,
        "baro": 1015,
        "wind": 6,
        "wd": 0,
        "hum": 91
    }, {
        "date": 14820624E5,
        "ts": "12:00",
        "ds": "Linggo, 18 Disyembre 2016, 12:00 — 18:00",
        "icon": 18,
        "desc": "Light rain. Broken clouds.",
        "temp": 27,
        "templow": 26,
        "baro": 1013,
        "wind": 10,
        "wd": 70,
        "hum": 96
    }, {
        "date": 1482084E6,
        "ts": "18:00",
        "ds": "Linggo, 18 Disyembre 2016, 18:00 — 00:00",
        "icon": 14,
        "desc": "Passing clouds.",
        "temp": 27,
        "templow": 26,
        "baro": 1014,
        "wind": 8,
        "wd": 0,
        "hum": 96
    }, {
        "hl": true,
        "hls": "uMs, 19 Dis",
        "hlsh": "19 Dis",
        "date": 14821056E5,
        "ts": "00:00",
        "ds": "Lunes, 19 Disyembre 2016, 00:00 — 06:00",
        "icon": 14,
        "desc": "Passing clouds.",
        "temp": 26,
        "templow": 25,
        "baro": 1012,
        "wind": 4,
        "wd": 90,
        "hum": 94
    }, {
        "date": 14821272E5,
        "ts": "06:00",
        "ds": "Lunes, 19 Disyembre 2016, 06:00 — 12:00",
        "icon": 6,
        "desc": "Broken clouds.",
        "temp": 32,
        "templow": 25,
        "baro": 1013,
        "wind": 6,
        "wd": 350,
        "hum": 74
    }, {
        "date": 14821488E5,
        "ts": "12:00",
        "ds": "Lunes, 19 Disyembre 2016, 12:00 — 18:00",
        "icon": 6,
        "desc": "Broken clouds.",
        "temp": 32,
        "templow": 27,
        "baro": 1011,
        "wind": 13,
        "wd": 100,
        "hum": 64
    }, {
        "date": 14821704E5,
        "ts": "18:00",
        "ds": "Lunes, 19 Disyembre 2016, 18:00 — 00:00",
        "icon": 14,
        "desc": "Passing clouds.",
        "temp": 28,
        "templow": 27,
        "baro": 1012,
        "wind": 7,
        "wd": 80,
        "hum": 74
    }, {
        "hl": true,
        "hls": "uLw, 20 Dis",
        "hlsh": "20 Dis",
        "date": 1482192E6,
        "ts": "00:00",
        "ds": "Martes, 20 Disyembre 2016, 00:00 — 06:00",
        "icon": 14,
        "desc": "Passing clouds.",
        "temp": 27,
        "templow": 25,
        "baro": 1011,
        "wind": 6,
        "wd": 0,
        "hum": 89
    }, {
        "date": 14822136E5,
        "ts": "06:00",
        "ds": "Martes, 20 Disyembre 2016, 06:00 — 12:00",
        "icon": 2,
        "desc": "Passing clouds.",
        "temp": 32,
        "templow": 25,
        "baro": 1013,
        "wind": 10,
        "wd": 120,
        "hum": 73
    }, {
        "date": 14822352E5,
        "ts": "12:00",
        "ds": "Martes, 20 Disyembre 2016, 12:00 — 18:00",
        "icon": 2,
        "desc": "Scattered clouds.",
        "temp": 32,
        "templow": 28,
        "baro": 1010,
        "wind": 17,
        "wd": 110,
        "hum": 57
    }, {
        "date": 14822568E5,
        "ts": "18:00",
        "ds": "Martes, 20 Disyembre 2016, 18:00 — 00:00",
        "icon": 14,
        "desc": "Passing clouds.",
        "temp": 28,
        "templow": 26,
        "baro": 1012,
        "wind": 7,
        "wd": 120,
        "hum": 84
    }, {
        "hl": true,
        "hls": "uLw, 21 Dis",
        "hlsh": "21 Dis",
        "date": 14822784E5,
        "ts": "00:00",
        "ds": "Miyerkules, 21 Disyembre 2016, 00:00 — 06:00",
        "icon": 14,
        "desc": "Passing clouds.",
        "temp": 27,
        "templow": 25,
        "baro": 1011,
        "wind": 3,
        "wd": 0,
        "hum": 91
    }, {
        "date": 14823E8,
        "ts": "06:00",
        "ds": "Miyerkules, 21 Disyembre 2016, 06:00 — 12:00",
        "icon": 2,
        "desc": "Scattered clouds.",
        "temp": 31,
        "templow": 25,
        "baro": 1013,
        "wind": 7,
        "wd": 0,
        "hum": 75
    }, {
        "date": 14823216E5,
        "ts": "12:00",
        "ds": "Miyerkules, 21 Disyembre 2016, 12:00 — 18:00",
        "icon": 6,
        "desc": "Broken clouds.",
        "temp": 32,
        "templow": 28,
        "baro": 1011,
        "wind": 17,
        "wd": 100,
        "hum": 59
    }, {
        "date": 14823432E5,
        "ts": "18:00",
        "ds": "Miyerkules, 21 Disyembre 2016, 18:00 — 00:00",
        "icon": 14,
        "desc": "Passing clouds.",
        "temp": 28,
        "templow": 26,
        "baro": 1013,
        "wind": 10,
        "wd": 90,
        "hum": 72
    }, {
        "hl": true,
        "hls": "uLw, 22 Dis",
        "hlsh": "22 Dis",
        "date": 14823648E5,
        "ts": "00:00",
        "ds": "Huwebes, 22 Disyembre 2016, 00:00 — 06:00",
        "icon": 14,
        "desc": "Passing clouds.",
        "temp": 26,
        "templow": 23,
        "baro": 1012,
        "wind": 6,
        "wd": 90,
        "hum": 90
    }, {
        "date": 14823864E5,
        "ts": "06:00",
        "ds": "Huwebes, 22 Disyembre 2016, 06:00 — 12:00",
        "icon": 2,
        "desc": "Passing clouds.",
        "temp": 30,
        "templow": 24,
        "baro": 1012,
        "wind": 7,
        "wd": 0,
        "hum": 70
    }, {
        "date": 1482408E6,
        "ts": "12:00",
        "ds": "Huwebes, 22 Disyembre 2016, 12:00 — 18:00",
        "icon": 2,
        "desc": "Scattered clouds.",
        "temp": 33,
        "templow": 30,
        "baro": 1009,
        "wind": 9,
        "wd": 0,
        "hum": 57
    }, {
        "date": 14824296E5,
        "ts": "18:00",
        "ds": "Huwebes, 22 Disyembre 2016, 18:00 — 00:00",
        "icon": 14,
        "desc": "Passing clouds.",
        "temp": 30,
        "templow": 27,
        "baro": 1011,
        "wind": 8,
        "wd": 120,
        "hum": 70
    }, {
        "hl": true,
        "hls": "uLw, 23 Dis",
        "hlsh": "23 Dis",
        "date": 14824512E5,
        "ts": "00:00",
        "ds": "Biyernes, 23 Disyembre 2016, 00:00 — 06:00",
        "icon": 14,
        "desc": "Passing clouds.",
        "temp": 27,
        "templow": 25,
        "baro": 1010,
        "wind": 5,
        "wd": 100,
        "hum": 85
    }, {
        "date": 14824728E5,
        "ts": "06:00",
        "ds": "Biyernes, 23 Disyembre 2016, 06:00 — 12:00",
        "icon": 2,
        "desc": "Scattered clouds.",
        "temp": 32,
        "templow": 25,
        "baro": 1011,
        "wind": 10,
        "wd": 0,
        "hum": 65
    }, {
        "date": 14824944E5,
        "ts": "12:00",
        "ds": "Biyernes, 23 Disyembre 2016, 12:00 — 18:00",
        "icon": 2,
        "desc": "Passing clouds.",
        "temp": 33,
        "templow": 29,
        "baro": 1009,
        "wind": 19,
        "wd": 80,
        "hum": 47
    }, {
        "date": 1482516E6,
        "ts": "18:00",
        "ds": "Biyernes, 23 Disyembre 2016, 18:00 — 00:00",
        "icon": 14,
        "desc": "Passing clouds.",
        "temp": 29,
        "templow": 27,
        "baro": 1010,
        "wind": 6,
        "wd": 100,
        "hum": 62
    }, {
        "hl": true,
        "hls": "uMg, 24 Dis",
        "hlsh": "24 Dis",
        "date": 14825376E5,
        "ts": "00:00",
        "ds": "Sabado, 24 Disyembre 2016, 00:00 — 06:00",
        "icon": 14,
        "desc": "Passing clouds.",
        "temp": 27,
        "templow": 26,
        "baro": 1010,
        "wind": 4,
        "wd": 230,
        "hum": 76
    }, {
        "date": 14825592E5,
        "ts": "06:00",
        "ds": "Sabado, 24 Disyembre 2016, 06:00 — 12:00",
        "icon": 6,
        "desc": "Broken clouds.",
        "temp": 32,
        "templow": 26,
        "baro": 1011,
        "wind": 8,
        "wd": 0,
        "hum": 65
    }, {
        "date": 14825808E5,
        "ts": "12:00",
        "ds": "Sabado, 24 Disyembre 2016, 12:00 — 18:00",
        "icon": 6,
        "desc": "Partly sunny.",
        "temp": 32,
        "templow": 29,
        "baro": 865,
        "wind": 17,
        "wd": 30,
        "hum": 58
    }, {
        "date": 14826024E5,
        "ts": "18:00",
        "ds": "Sabado, 24 Disyembre 2016, 18:00 — 00:00",
        "icon": 14,
        "desc": "Passing clouds.",
        "temp": 29,
        "templow": 28,
        "baro": 1010,
        "wind": 11,
        "wd": 20,
        "hum": 62
    }, {
        "hl": true,
        "hls": "iSon, 25 Dis",
        "hlsh": "25 Dis",
        "date": 1482624E6,
        "ts": "00:00",
        "ds": "Linggo, 25 Disyembre 2016, 00:00 — 06:00",
        "icon": 14,
        "desc": "Passing clouds.",
        "temp": 28,
        "templow": 27,
        "baro": 1010,
        "wind": 12,
        "wd": 10,
        "hum": 63
    }, {
        "date": 14826456E5,
        "ts": "06:00",
        "ds": "Linggo, 25 Disyembre 2016, 06:00 — 12:00",
        "icon": 6,
        "desc": "Broken clouds.",
        "temp": 32,
        "templow": 27,
        "baro": 1011,
        "wind": 16,
        "wd": 20,
        "hum": 55
    }, {
        "date": 14826672E5,
        "ts": "12:00",
        "ds": "Linggo, 25 Disyembre 2016, 12:00 — 18:00",
        "icon": 6,
        "desc": "Broken clouds.",
        "temp": 32,
        "templow": 30,
        "baro": 1008,
        "wind": 22,
        "wd": 20,
        "hum": 46
    }, {
        "date": 14826888E5,
        "ts": "18:00",
        "ds": "Linggo, 25 Disyembre 2016, 18:00 — 00:00",
        "icon": 15,
        "desc": "Partly cloudy.",
        "temp": 30,
        "templow": 28,
        "baro": 1009,
        "wind": 16,
        "wd": 10,
        "hum": 56
    }, {
        "hl": true,
        "hls": "uMs, 26 Dis",
        "hlsh": "26 Dis",
        "date": 14827104E5,
        "ts": "00:00",
        "ds": "Lunes, 26 Disyembre 2016, 00:00 — 06:00",
        "icon": 34,
        "desc": "Light rain. Mostly cloudy.",
        "temp": 28,
        "templow": 25,
        "baro": 1006,
        "wind": 20,
        "wd": 350,
        "hum": 76
    }, {
        "date": 1482732E6,
        "ts": "06:00",
        "ds": "Lunes, 26 Disyembre 2016, 06:00 — 12:00",
        "icon": 18,
        "desc": "Light rain. More clouds than sun.",
        "temp": 28,
        "templow": 24,
        "baro": 1005,
        "wind": 24,
        "wd": 0,
        "hum": 95
    }, {
        "date": 14827536E5,
        "ts": "12:00",
        "ds": "Lunes, 26 Disyembre 2016, 12:00 — 18:00",
        "icon": 6,
        "desc": "More clouds than sun.",
        "temp": 30,
        "templow": 27,
        "baro": 1004,
        "wind": 16,
        "wd": 100,
        "hum": 90
    }, {
        "date": 14827752E5,
        "ts": "18:00",
        "ds": "Lunes, 26 Disyembre 2016, 18:00 — 00:00",
        "icon": 15,
        "desc": "Partly cloudy.",
        "temp": 28,
        "templow": 26,
        "baro": 1008,
        "wind": 6,
        "wd": 190,
        "hum": 98
    }, {
        "hl": true,
        "hls": "uLw, 27 Dis",
        "hlsh": "27 Dis",
        "date": 14827968E5,
        "ts": "00:00",
        "ds": "Martes, 27 Disyembre 2016, 00:00 — 06:00",
        "icon": 14,
        "desc": "Passing clouds.",
        "temp": 27,
        "templow": 25,
        "baro": 1008,
        "wind": 3,
        "wd": 0,
        "hum": 100
    }, {
        "date": 14828184E5,
        "ts": "06:00",
        "ds": "Martes, 27 Disyembre 2016, 06:00 — 12:00",
        "icon": 2,
        "desc": "Passing clouds.",
        "temp": 32,
        "templow": 25,
        "baro": 1010,
        "wind": 6,
        "wd": 0,
        "hum": 84
    }, {
        "date": 148284E7,
        "ts": "12:00",
        "ds": "Martes, 27 Disyembre 2016, 12:00 — 18:00",
        "icon": 2,
        "desc": "Passing clouds.",
        "temp": 33,
        "templow": 29,
        "baro": 1007,
        "wind": 9,
        "wd": 0,
        "hum": 65
    }, {
        "date": 14828616E5,
        "ts": "18:00",
        "ds": "Martes, 27 Disyembre 2016, 18:00 — 00:00",
        "icon": 14,
        "desc": "Passing clouds.",
        "temp": 29,
        "templow": 28,
        "baro": 1009,
        "wind": 7,
        "wd": 180,
        "hum": 90
    }, {
        "hl": true,
        "hls": "uLw, 28 Dis",
        "hlsh": "28 Dis",
        "date": 14828832E5,
        "ts": "00:00",
        "ds": "Miyerkules, 28 Disyembre 2016, 00:00 — 06:00",
        "icon": 14,
        "desc": "Passing clouds.",
        "temp": 28,
        "templow": 27,
        "baro": 1009,
        "wind": 5,
        "wd": 0,
        "hum": 99
    }, {
        "date": 14829048E5,
        "ts": "06:00",
        "ds": "Miyerkules, 28 Disyembre 2016, 06:00 — 12:00",
        "icon": 2,
        "desc": "Scattered clouds.",
        "temp": 33,
        "templow": 27,
        "baro": 1010,
        "wind": 7,
        "wd": 0,
        "hum": 79
    }, {
        "date": 14829264E5,
        "ts": "12:00",
        "ds": "Miyerkules, 28 Disyembre 2016, 12:00 — 18:00",
        "icon": 6,
        "desc": "Partly sunny.",
        "temp": 33,
        "templow": 29,
        "baro": 1009,
        "wind": 13,
        "wd": 0,
        "hum": 63
    }, {
        "date": 1482948E6,
        "ts": "18:00",
        "ds": "Miyerkules, 28 Disyembre 2016, 18:00 — 00:00",
        "icon": 14,
        "desc": "Passing clouds.",
        "temp": 29,
        "templow": 27,
        "baro": 1011,
        "wind": 6,
        "wd": 0,
        "hum": 85
    }, {
        "hl": true,
        "hls": "uLw, 29 Dis",
        "hlsh": "29 Dis",
        "date": 14829696E5,
        "ts": "00:00",
        "ds": "Huwebes, 29 Disyembre 2016, 00:00 — 06:00",
        "icon": 14,
        "desc": "Passing clouds.",
        "temp": 27,
        "templow": 26,
        "baro": 1011,
        "wind": 3,
        "wd": 0,
        "hum": 97
    }, {
        "date": 14829912E5,
        "ts": "06:00",
        "ds": "Huwebes, 29 Disyembre 2016, 06:00 — 12:00",
        "icon": 2,
        "desc": "Scattered clouds.",
        "temp": 32,
        "templow": 27,
        "baro": 1013,
        "wind": 9,
        "wd": 110,
        "hum": 77
    }, {
        "date": 14830128E5,
        "ts": "12:00",
        "ds": "Huwebes, 29 Disyembre 2016, 12:00 — 18:00",
        "icon": 2,
        "desc": "Scattered clouds.",
        "temp": 32,
        "templow": 29,
        "baro": 1010,
        "wind": 16,
        "wd": 110,
        "hum": 58
    }, {
        "date": 14830344E5,
        "ts": "18:00",
        "ds": "Huwebes, 29 Disyembre 2016, 18:00 — 00:00",
        "icon": 14,
        "desc": "Passing clouds.",
        "temp": 29,
        "templow": 27,
        "baro": 1012,
        "wind": 10,
        "wd": 120,
        "hum": 75
    }, {
        "hl": true,
        "hls": "uLw, 30 Dis",
        "hlsh": "30 Dis",
        "date": 1483056E6,
        "ts": "00:00",
        "ds": "Biyernes, 30 Disyembre 2016, 00:00 — 06:00",
        "icon": 14,
        "desc": "Passing clouds.",
        "temp": 27,
        "templow": 26,
        "baro": 1012,
        "wind": 6,
        "wd": 0,
        "hum": 88
    }, {
        "date": 14830776E5,
        "ts": "06:00",
        "ds": "Biyernes, 30 Disyembre 2016, 06:00 — 12:00",
        "icon": 2,
        "desc": "Scattered clouds.",
        "temp": 32,
        "templow": 26,
        "baro": 1014,
        "wind": 9,
        "wd": 0,
        "hum": 72
    }, {
        "date": 14830992E5,
        "ts": "12:00",
        "ds": "Biyernes, 30 Disyembre 2016, 12:00 — 18:00",
        "icon": 2,
        "desc": "Scattered clouds.",
        "temp": 33,
        "templow": 29,
        "baro": 1012,
        "wind": 18,
        "wd": 120,
        "hum": 57
    }, {
        "date": 14831208E5,
        "ts": "18:00",
        "ds": "Biyernes, 30 Disyembre 2016, 18:00 — 00:00",
        "icon": 14,
        "desc": "Passing clouds.",
        "temp": 29,
        "templow": 27,
        "baro": 1014,
        "wind": 10,
        "wd": 80,
        "hum": 71
    }, {
        "hl": true,
        "hls": "uMg, 31 Dis",
        "hlsh": "31 Dis",
        "date": 14831424E5,
        "ts": "00:00",
        "ds": "Sabado, 31 Disyembre 2016, 00:00 — 06:00",
        "icon": 14,
        "desc": "Passing clouds.",
        "temp": 27,
        "templow": 26,
        "baro": 1013,
        "wind": 4,
        "wd": 10,
        "hum": 81
    }, {
        "date": 1483164E6,
        "ts": "06:00",
        "ds": "Sabado, 31 Disyembre 2016, 06:00 — 12:00",
        "icon": 2,
        "desc": "Scattered clouds.",
        "temp": 28,
        "templow": 26,
        "baro": 1014,
        "wind": 4,
        "wd": 0,
        "hum": 85
    }, {
        "date": 14831856E5,
        "ts": "12:00",
        "ds": "Sabado, 31 Disyembre 2016, 12:00 — 18:00",
        "icon": 6,
        "desc": "Broken clouds.",
        "temp": 30,
        "templow": 26,
        "baro": 1012,
        "wind": 12,
        "wd": 10,
        "hum": 76
    }, {
        "date": 14832072E5,
        "ts": "18:00",
        "ds": "Sabado, 31 Disyembre 2016, 18:00 — 00:00",
        "icon": 14,
        "desc": "Passing clouds.",
        "temp": 27,
        "templow": 26,
        "baro": 1013,
        "wind": 5,
        "wd": 350,
        "hum": 91
    }],
    "grid": {
        "temp": {
            "low": 23,
            "high": 33,
            "range": 10
        },
        "prec": {
            "high": 0
        },
        "time": 21600000,
        "sections": 24
    }
}