{
    "detail": [{
        "hl": true,
        "hls": "iSon, 1 Ene",
        "hlsh": "1 Ene",
        "date": 14832288E5,
        "ts": "00:00",
        "ds": "Linggo, 1 Enero 2017, 00:00 — 06:00",
        "icon": 14,
        "desc": "Passing clouds.",
        "temp": 25,
        "templow": 25,
        "baro": 1013,
        "wind": 6,
        "wd": 0,
        "hum": 100
    }, {
        "date": 14832504E5,
        "ts": "06:00",
        "ds": "Linggo, 1 Enero 2017, 06:00 — 12:00",
        "icon": 6,
        "desc": "Partly sunny.",
        "temp": 31,
        "templow": 25,
        "baro": 1014,
        "wind": 13,
        "wd": 0,
        "hum": 83
    }, {
        "date": 1483272E6,
        "ts": "12:00",
        "ds": "Linggo, 1 Enero 2017, 12:00 — 18:00",
        "icon": 6,
        "desc": "Broken clouds.",
        "temp": 31,
        "templow": 27,
        "baro": 1012,
        "wind": 21,
        "wd": 100,
        "hum": 59
    }, {
        "date": 14832936E5,
        "ts": "18:00",
        "ds": "Linggo, 1 Enero 2017, 18:00 — 00:00",
        "icon": 14,
        "desc": "Passing clouds.",
        "temp": 27,
        "templow": 26,
        "baro": 1014,
        "wind": 10,
        "wd": 80,
        "hum": 70
    }, {
        "hl": true,
        "hls": "uMs, 2 Ene",
        "hlsh": "2 Ene",
        "date": 14833152E5,
        "ts": "00:00",
        "ds": "Lunes, 2 Enero 2017, 00:00 — 06:00",
        "icon": 14,
        "desc": "Passing clouds.",
        "temp": 26,
        "templow": 24,
        "baro": 1013,
        "wind": 8,
        "wd": 10,
        "hum": 82
    }, {
        "date": 14833368E5,
        "ts": "06:00",
        "ds": "Lunes, 2 Enero 2017, 06:00 — 12:00",
        "icon": 6,
        "desc": "Broken clouds.",
        "temp": 30,
        "templow": 24,
        "baro": 1013,
        "wind": 10,
        "wd": 70,
        "hum": 71
    }, {
        "date": 14833584E5,
        "ts": "12:00",
        "ds": "Lunes, 2 Enero 2017, 12:00 — 18:00",
        "icon": 6,
        "desc": "Partly sunny.",
        "temp": 31,
        "templow": 28,
        "baro": 1011,
        "wind": 15,
        "wd": 80,
        "hum": 54
    }, {
        "date": 148338E7,
        "ts": "18:00",
        "ds": "Lunes, 2 Enero 2017, 18:00 — 00:00",
        "icon": 14,
        "desc": "Passing clouds.",
        "temp": 28,
        "templow": 26,
        "baro": 1012,
        "wind": 11,
        "wd": 90,
        "hum": 63
    }, {
        "hl": true,
        "hls": "uLw, 3 Ene",
        "hlsh": "3 Ene",
        "date": 14834016E5,
        "ts": "00:00",
        "ds": "Martes, 3 Enero 2017, 00:00 — 06:00",
        "icon": 14,
        "desc": "Passing clouds.",
        "temp": 27,
        "templow": 25,
        "baro": 1012,
        "wind": 3,
        "wd": 0,
        "hum": 75
    }, {
        "date": 14834232E5,
        "ts": "06:00",
        "ds": "Martes, 3 Enero 2017, 06:00 — 12:00",
        "icon": 2,
        "desc": "Scattered clouds.",
        "temp": 32,
        "templow": 25,
        "baro": 1012,
        "wind": 11,
        "wd": 80,
        "hum": 62
    }, {
        "date": 14834448E5,
        "ts": "12:00",
        "ds": "Martes, 3 Enero 2017, 12:00 — 18:00",
        "icon": 2,
        "desc": "Scattered clouds.",
        "temp": 32,
        "templow": 29,
        "baro": 1011,
        "wind": 22,
        "wd": 80,
        "hum": 50
    }, {
        "date": 14834664E5,
        "ts": "18:00",
        "ds": "Martes, 3 Enero 2017, 18:00 — 00:00",
        "icon": 14,
        "desc": "Passing clouds.",
        "temp": 29,
        "templow": 23,
        "baro": 1012,
        "wind": 9,
        "wd": 80,
        "hum": 67
    }, {
        "hl": true,
        "hls": "uLw, 4 Ene",
        "hlsh": "4 Ene",
        "date": 1483488E6,
        "ts": "00:00",
        "ds": "Miyerkules, 4 Enero 2017, 00:00 — 06:00",
        "icon": 14,
        "desc": "Passing clouds.",
        "temp": 26,
        "templow": 25,
        "baro": 1011,
        "wind": 3,
        "wd": 0,
        "hum": 78
    }, {
        "date": 14835096E5,
        "ts": "06:00",
        "ds": "Miyerkules, 4 Enero 2017, 06:00 — 12:00",
        "icon": 6,
        "desc": "Broken clouds.",
        "temp": 31,
        "templow": 26,
        "baro": 867,
        "wind": 9,
        "wd": 0,
        "hum": 66
    }, {
        "date": 14835312E5,
        "ts": "12:00",
        "ds": "Miyerkules, 4 Enero 2017, 12:00 — 18:00",
        "icon": 6,
        "desc": "Broken clouds.",
        "temp": 31,
        "templow": 28,
        "baro": 865,
        "wind": 18,
        "wd": 90,
        "hum": 61
    }, {
        "date": 14835528E5,
        "ts": "18:00",
        "ds": "Miyerkules, 4 Enero 2017, 18:00 — 00:00",
        "icon": 14,
        "desc": "Passing clouds.",
        "temp": 28,
        "templow": 26,
        "baro": 1011,
        "wind": 8,
        "wd": 100,
        "hum": 71
    }, {
        "hl": true,
        "hls": "uLw, 5 Ene",
        "hlsh": "5 Ene",
        "date": 14835744E5,
        "ts": "00:00",
        "ds": "Huwebes, 5 Enero 2017, 00:00 — 06:00",
        "icon": 15,
        "desc": "Partly cloudy.",
        "temp": 27,
        "templow": 24,
        "baro": 1011,
        "wind": 3,
        "wd": 0,
        "hum": 86
    }, {
        "date": 1483596E6,
        "ts": "06:00",
        "ds": "Huwebes, 5 Enero 2017, 06:00 — 12:00",
        "icon": 6,
        "desc": "More clouds than sun.",
        "temp": 28,
        "templow": 25,
        "baro": 1012,
        "wind": 4,
        "wd": 270,
        "hum": 90
    }, {
        "date": 14836176E5,
        "ts": "12:00",
        "ds": "Huwebes, 5 Enero 2017, 12:00 — 18:00",
        "icon": 6,
        "desc": "Broken clouds.",
        "temp": 29,
        "templow": 27,
        "baro": 1010,
        "wind": 11,
        "wd": 280,
        "hum": 79
    }, {
        "date": 14836392E5,
        "ts": "18:00",
        "ds": "Huwebes, 5 Enero 2017, 18:00 — 00:00",
        "icon": 14,
        "desc": "Passing clouds.",
        "temp": 28,
        "templow": 26,
        "baro": 1012,
        "wind": 11,
        "wd": 100,
        "hum": 76
    }, {
        "hl": true,
        "hls": "uLw, 6 Ene",
        "hlsh": "6 Ene",
        "date": 14836608E5,
        "ts": "00:00",
        "ds": "Biyernes, 6 Enero 2017, 00:00 — 06:00",
        "icon": 14,
        "desc": "Passing clouds.",
        "temp": 26,
        "templow": 23,
        "baro": 1011,
        "wind": 6,
        "wd": 70,
        "hum": 86
    }, {
        "date": 14836824E5,
        "ts": "06:00",
        "ds": "Biyernes, 6 Enero 2017, 06:00 — 12:00",
        "icon": 2,
        "desc": "Scattered clouds.",
        "temp": 31,
        "templow": 24,
        "baro": 1012,
        "wind": 7,
        "wd": 0,
        "hum": 66
    }, {
        "date": 1483704E6,
        "ts": "12:00",
        "ds": "Biyernes, 6 Enero 2017, 12:00 — 18:00",
        "icon": 2,
        "desc": "Scattered clouds.",
        "temp": 32,
        "templow": 28,
        "baro": 1009,
        "wind": 19,
        "wd": 100,
        "hum": 48
    }, {
        "date": 14837256E5,
        "ts": "18:00",
        "ds": "Biyernes, 6 Enero 2017, 18:00 — 00:00",
        "icon": 14,
        "desc": "Passing clouds.",
        "temp": 28,
        "templow": 26,
        "baro": 1011,
        "wind": 12,
        "wd": 110,
        "hum": 68
    }, {
        "hl": true,
        "hls": "uMg, 7 Ene",
        "hlsh": "7 Ene",
        "date": 14837472E5,
        "ts": "00:00",
        "ds": "Sabado, 7 Enero 2017, 00:00 — 06:00",
        "icon": 14,
        "desc": "Passing clouds.",
        "temp": 26,
        "templow": 24,
        "baro": 1010,
        "wind": 9,
        "wd": 80,
        "hum": 81
    }, {
        "date": 14837688E5,
        "ts": "06:00",
        "ds": "Sabado, 7 Enero 2017, 06:00 — 12:00",
        "icon": 2,
        "desc": "Passing clouds.",
        "temp": 31,
        "templow": 23,
        "baro": 1011,
        "wind": 9,
        "wd": 90,
        "hum": 62
    }, {
        "date": 14837904E5,
        "ts": "12:00",
        "ds": "Sabado, 7 Enero 2017, 12:00 — 18:00",
        "icon": 6,
        "desc": "Partly sunny.",
        "temp": 31,
        "templow": 28,
        "baro": 1008,
        "wind": 16,
        "wd": 110,
        "hum": 50
    }, {
        "date": 1483812E6,
        "ts": "18:00",
        "ds": "Sabado, 7 Enero 2017, 18:00 — 00:00",
        "icon": 14,
        "desc": "Passing clouds.",
        "temp": 28,
        "templow": 25,
        "baro": 1010,
        "wind": 9,
        "wd": 100,
        "hum": 73
    }, {
        "hl": true,
        "hls": "iSon, 8 Ene",
        "hlsh": "8 Ene",
        "date": 14838336E5,
        "ts": "00:00",
        "ds": "Linggo, 8 Enero 2017, 00:00 — 06:00",
        "icon": 14,
        "desc": "Passing clouds.",
        "temp": 25,
        "templow": 22,
        "baro": 1009,
        "wind": 3,
        "wd": 0,
        "hum": 91
    }, {
        "date": 14838552E5,
        "ts": "06:00",
        "ds": "Linggo, 8 Enero 2017, 06:00 — 12:00",
        "icon": 6,
        "desc": "Partly sunny.",
        "temp": 28,
        "templow": 23,
        "baro": 1011,
        "wind": 9,
        "wd": 350,
        "hum": 72
    }, {
        "date": 14838768E5,
        "ts": "12:00",
        "ds": "Linggo, 8 Enero 2017, 12:00 — 18:00",
        "icon": 6,
        "desc": "Partly sunny.",
        "temp": 29,
        "templow": 28,
        "baro": 1008,
        "wind": 8,
        "wd": 0,
        "hum": 64
    }, {
        "date": 14838984E5,
        "ts": "18:00",
        "ds": "Linggo, 8 Enero 2017, 18:00 — 00:00",
        "icon": 14,
        "desc": "Passing clouds.",
        "temp": 28,
        "templow": 25,
        "baro": 1009,
        "wind": 7,
        "wd": 120,
        "hum": 78
    }, {
        "hl": true,
        "hls": "uMs, 9 Ene",
        "hlsh": "9 Ene",
        "date": 148392E7,
        "ts": "00:00",
        "ds": "Lunes, 9 Enero 2017, 00:00 — 06:00",
        "icon": 14,
        "desc": "Passing clouds.",
        "temp": 25,
        "templow": 23,
        "baro": 1009,
        "wind": 2,
        "wd": 0,
        "hum": 91
    }, {
        "date": 14839416E5,
        "ts": "06:00",
        "ds": "Lunes, 9 Enero 2017, 06:00 — 12:00",
        "icon": 2,
        "desc": "Scattered clouds.",
        "temp": 29,
        "templow": 23,
        "baro": 1010,
        "wind": 9,
        "wd": 0,
        "hum": 73
    }, {
        "date": 14839632E5,
        "ts": "12:00",
        "ds": "Lunes, 9 Enero 2017, 12:00 — 18:00",
        "icon": 2,
        "desc": "Scattered clouds.",
        "temp": 31,
        "templow": 28,
        "baro": 1008,
        "wind": 13,
        "wd": 90,
        "hum": 58
    }, {
        "date": 14839848E5,
        "ts": "18:00",
        "ds": "Lunes, 9 Enero 2017, 18:00 — 00:00",
        "icon": 14,
        "desc": "Passing clouds.",
        "temp": 28,
        "templow": 27,
        "baro": 1010,
        "wind": 8,
        "wd": 100,
        "hum": 64
    }, {
        "hl": true,
        "hls": "uLw, 10 Ene",
        "hlsh": "10 Ene",
        "date": 14840064E5,
        "ts": "00:00",
        "ds": "Martes, 10 Enero 2017, 00:00 — 06:00",
        "icon": 14,
        "desc": "Passing clouds.",
        "temp": 27,
        "templow": 26,
        "baro": 1009,
        "wind": 3,
        "wd": 0,
        "hum": 78
    }, {
        "date": 1484028E6,
        "ts": "06:00",
        "ds": "Martes, 10 Enero 2017, 06:00 — 12:00",
        "icon": 6,
        "desc": "More clouds than sun.",
        "temp": 27,
        "templow": 26,
        "baro": 1011,
        "wind": 5,
        "wd": 0,
        "hum": 83
    }, {
        "date": 14840496E5,
        "ts": "12:00",
        "ds": "Martes, 10 Enero 2017, 12:00 — 18:00",
        "icon": 18,
        "desc": "Light rain. More clouds than sun.",
        "temp": 28,
        "templow": 25,
        "baro": 1010,
        "wind": 6,
        "wd": 10,
        "hum": 97
    }, {
        "date": 14840712E5,
        "ts": "18:00",
        "ds": "Martes, 10 Enero 2017, 18:00 — 00:00",
        "icon": 34,
        "desc": "Light rain. Mostly cloudy.",
        "temp": 25,
        "templow": 25,
        "baro": 1011,
        "wind": 6,
        "wd": 90,
        "hum": 95
    }, {
        "hl": true,
        "hls": "uLw, 11 Ene",
        "hlsh": "11 Ene",
        "date": 14840928E5,
        "ts": "00:00",
        "ds": "Miyerkules, 11 Enero 2017, 00:00 — 06:00",
        "icon": 15,
        "desc": "Partly cloudy.",
        "temp": 26,
        "templow": 25,
        "baro": 1010,
        "wind": 4,
        "wd": 80,
        "hum": 89
    }, {
        "date": 14841144E5,
        "ts": "06:00",
        "ds": "Miyerkules, 11 Enero 2017, 06:00 — 12:00",
        "icon": 6,
        "desc": "Partly sunny.",
        "temp": 28,
        "templow": 26,
        "baro": 1012,
        "wind": 6,
        "wd": 60,
        "hum": 82
    }, {
        "date": 1484136E6,
        "ts": "12:00",
        "ds": "Miyerkules, 11 Enero 2017, 12:00 — 18:00",
        "icon": 6,
        "desc": "More clouds than sun.",
        "temp": 29,
        "templow": 26,
        "baro": 1010,
        "wind": 13,
        "wd": 60,
        "hum": 74
    }, {
        "date": 14841576E5,
        "ts": "18:00",
        "ds": "Miyerkules, 11 Enero 2017, 18:00 — 00:00",
        "icon": 34,
        "desc": "Light rain. Mostly cloudy.",
        "temp": 26,
        "templow": 24,
        "baro": 1012,
        "wind": 3,
        "wd": 0,
        "hum": 86
    }, {
        "hl": true,
        "hls": "uLw, 12 Ene",
        "hlsh": "12 Ene",
        "date": 14841792E5,
        "ts": "00:00",
        "ds": "Huwebes, 12 Enero 2017, 00:00 — 06:00",
        "icon": 15,
        "desc": "Partly cloudy.",
        "temp": 25,
        "templow": 25,
        "baro": 1011,
        "wind": 2,
        "wd": 90,
        "hum": 87
    }, {
        "date": 14842008E5,
        "ts": "06:00",
        "ds": "Huwebes, 12 Enero 2017, 06:00 — 12:00",
        "icon": 6,
        "desc": "Broken clouds.",
        "temp": 30,
        "templow": 25,
        "baro": 1010,
        "wind": 14,
        "wd": 100,
        "hum": 75
    }, {
        "date": 14842224E5,
        "ts": "12:00",
        "ds": "Huwebes, 12 Enero 2017, 12:00 — 18:00",
        "icon": 6,
        "desc": "Partly sunny.",
        "temp": 30,
        "templow": 27,
        "baro": 1009,
        "wind": 11,
        "wd": 100,
        "hum": 75
    }, {
        "date": 1484244E6,
        "ts": "18:00",
        "ds": "Huwebes, 12 Enero 2017, 18:00 — 00:00",
        "icon": 14,
        "desc": "Passing clouds.",
        "temp": 27,
        "templow": 25,
        "baro": 1010,
        "wind": 8,
        "wd": 110,
        "hum": 92
    }, {
        "hl": true,
        "hls": "uLw, 13 Ene",
        "hlsh": "13 Ene",
        "date": 14842656E5,
        "ts": "00:00",
        "ds": "Biyernes, 13 Enero 2017, 00:00 — 06:00",
        "icon": 14,
        "desc": "Passing clouds.",
        "temp": 25,
        "templow": 23,
        "baro": 1009,
        "wind": 2,
        "wd": 0,
        "hum": 100
    }, {
        "date": 14842872E5,
        "ts": "06:00",
        "ds": "Biyernes, 13 Enero 2017, 06:00 — 12:00",
        "icon": 2,
        "desc": "Scattered clouds.",
        "temp": 31,
        "templow": 24,
        "baro": 1010,
        "wind": 6,
        "wd": 0,
        "hum": 79
    }, {
        "date": 14843088E5,
        "ts": "12:00",
        "ds": "Biyernes, 13 Enero 2017, 12:00 — 18:00",
        "icon": 2,
        "desc": "Scattered clouds.",
        "temp": 32,
        "templow": 29,
        "baro": 1008,
        "wind": 14,
        "wd": 140,
        "hum": 59
    }, {
        "date": 14843304E5,
        "ts": "18:00",
        "ds": "Biyernes, 13 Enero 2017, 18:00 — 00:00",
        "icon": 14,
        "desc": "Passing clouds.",
        "temp": 29,
        "templow": 26,
        "baro": 1009,
        "wind": 9,
        "wd": 120,
        "hum": 79
    }, {
        "hl": true,
        "hls": "uMg, 14 Ene",
        "hlsh": "14 Ene",
        "date": 1484352E6,
        "ts": "00:00",
        "ds": "Sabado, 14 Enero 2017, 00:00 — 06:00",
        "icon": 14,
        "desc": "Passing clouds.",
        "temp": 26,
        "templow": 25,
        "baro": 1009,
        "wind": 3,
        "wd": 0,
        "hum": 95
    }, {
        "date": 14843736E5,
        "ts": "06:00",
        "ds": "Sabado, 14 Enero 2017, 06:00 — 12:00",
        "icon": 2,
        "desc": "Scattered clouds.",
        "temp": 30,
        "templow": 25,
        "baro": 1010,
        "wind": 6,
        "wd": 0,
        "hum": 86
    }, {
        "date": 14843952E5,
        "ts": "12:00",
        "ds": "Sabado, 14 Enero 2017, 12:00 — 18:00",
        "icon": 7,
        "desc": "Cloudy.",
        "temp": 30,
        "templow": 28,
        "baro": 1009,
        "wind": 8,
        "wd": 0,
        "hum": 61
    }, {
        "date": 14844168E5,
        "ts": "18:00",
        "ds": "Sabado, 14 Enero 2017, 18:00 — 00:00",
        "icon": 15,
        "desc": "Partly cloudy.",
        "temp": 28,
        "templow": 26,
        "baro": 1011,
        "wind": 8,
        "wd": 0,
        "hum": 78
    }, {
        "hl": true,
        "hls": "iSon, 15 Ene",
        "hlsh": "15 Ene",
        "date": 14844384E5,
        "ts": "00:00",
        "ds": "Linggo, 15 Enero 2017, 00:00 — 06:00",
        "icon": 14,
        "desc": "Passing clouds.",
        "temp": 27,
        "templow": 24,
        "baro": 1011,
        "wind": 5,
        "wd": 110,
        "hum": 91
    }, {
        "date": 148446E7,
        "ts": "06:00",
        "ds": "Linggo, 15 Enero 2017, 06:00 — 12:00",
        "icon": 6,
        "desc": "Broken clouds.",
        "temp": 30,
        "templow": 25,
        "baro": 1012,
        "wind": 9,
        "wd": 270,
        "hum": 76
    }, {
        "date": 14844816E5,
        "ts": "12:00",
        "ds": "Linggo, 15 Enero 2017, 12:00 — 18:00",
        "icon": 6,
        "desc": "Broken clouds.",
        "temp": 30,
        "templow": 27,
        "baro": 1010,
        "wind": 9,
        "wd": 280,
        "hum": 74
    }, {
        "date": 14845032E5,
        "ts": "18:00",
        "ds": "Linggo, 15 Enero 2017, 18:00 — 00:00",
        "icon": 15,
        "desc": "Partly cloudy.",
        "temp": 28,
        "templow": 25,
        "baro": 1012,
        "wind": 7,
        "wd": 0,
        "hum": 91
    }, {
        "hl": true,
        "hls": "uMs, 16 Ene",
        "hlsh": "16 Ene",
        "date": 14845248E5,
        "ts": "00:00",
        "ds": "Lunes, 16 Enero 2017, 00:00 — 06:00",
        "icon": 15,
        "desc": "Partly cloudy.",
        "temp": 26,
        "templow": 25,
        "baro": 1011,
        "wind": 3,
        "wd": 0,
        "hum": 88
    }, {
        "date": 14845464E5,
        "ts": "06:00",
        "ds": "Lunes, 16 Enero 2017, 06:00 — 12:00",
        "icon": 6,
        "desc": "Broken clouds.",
        "temp": 28,
        "templow": 26,
        "baro": 1013,
        "wind": 8,
        "wd": 0,
        "hum": 70
    }, {
        "date": 1484568E6,
        "ts": "12:00",
        "ds": "Lunes, 16 Enero 2017, 12:00 — 18:00",
        "icon": 6,
        "desc": "Broken clouds.",
        "temp": 28,
        "templow": 26,
        "baro": 1012,
        "wind": 17,
        "wd": 110,
        "hum": 66
    }, {
        "date": 14845896E5,
        "ts": "18:00",
        "ds": "Lunes, 16 Enero 2017, 18:00 — 00:00",
        "icon": 14,
        "desc": "Passing clouds.",
        "temp": 26,
        "templow": 25,
        "baro": 1014,
        "wind": 10,
        "wd": 110,
        "hum": 68
    }, {
        "hl": true,
        "hls": "uLw, 17 Ene",
        "hlsh": "17 Ene",
        "date": 14846112E5,
        "ts": "00:00",
        "ds": "Martes, 17 Enero 2017, 00:00 — 06:00",
        "icon": 14,
        "desc": "Passing clouds.",
        "temp": 25,
        "templow": 25,
        "baro": 868,
        "wind": 9,
        "wd": 100,
        "hum": 72
    }, {
        "date": 14846328E5,
        "ts": "06:00",
        "ds": "Martes, 17 Enero 2017, 06:00 — 12:00",
        "icon": 2,
        "desc": "Scattered clouds.",
        "temp": 30,
        "templow": 25,
        "baro": 1015,
        "wind": 17,
        "wd": 100,
        "hum": 65
    }, {
        "date": 14846544E5,
        "ts": "12:00",
        "ds": "Martes, 17 Enero 2017, 12:00 — 18:00",
        "icon": 6,
        "desc": "Broken clouds.",
        "temp": 30,
        "templow": 26,
        "baro": 1013,
        "wind": 24,
        "wd": 100,
        "hum": 60
    }, {
        "date": 1484676E6,
        "ts": "18:00",
        "ds": "Martes, 17 Enero 2017, 18:00 — 00:00",
        "icon": 14,
        "desc": "Passing clouds.",
        "temp": 26,
        "templow": 25,
        "baro": 1016,
        "wind": 13,
        "wd": 110,
        "hum": 68
    }, {
        "hl": true,
        "hls": "uLw, 18 Ene",
        "hlsh": "18 Ene",
        "date": 14846976E5,
        "ts": "00:00",
        "ds": "Miyerkules, 18 Enero 2017, 00:00 — 06:00",
        "icon": 14,
        "desc": "Passing clouds.",
        "temp": 25,
        "templow": 25,
        "baro": 1015,
        "wind": 4,
        "wd": 110,
        "hum": 72
    }, {
        "date": 14847192E5,
        "ts": "06:00",
        "ds": "Miyerkules, 18 Enero 2017, 06:00 — 12:00",
        "icon": 2,
        "desc": "Passing clouds.",
        "temp": 30,
        "templow": 25,
        "baro": 1017,
        "wind": 14,
        "wd": 100,
        "hum": 60
    }, {
        "date": 14847408E5,
        "ts": "12:00",
        "ds": "Miyerkules, 18 Enero 2017, 12:00 — 18:00",
        "icon": 2,
        "desc": "Passing clouds.",
        "temp": 31,
        "templow": 28,
        "baro": 1015,
        "wind": 20,
        "wd": 90,
        "hum": 47
    }, {
        "date": 14847624E5,
        "ts": "18:00",
        "ds": "Miyerkules, 18 Enero 2017, 18:00 — 00:00",
        "icon": 14,
        "desc": "Passing clouds.",
        "temp": 28,
        "templow": 25,
        "baro": 1016,
        "wind": 12,
        "wd": 120,
        "hum": 61
    }, {
        "hl": true,
        "hls": "uLw, 19 Ene",
        "hlsh": "19 Ene",
        "date": 1484784E6,
        "ts": "00:00",
        "ds": "Huwebes, 19 Enero 2017, 00:00 — 06:00",
        "icon": 14,
        "desc": "Passing clouds.",
        "temp": 25,
        "templow": 23,
        "baro": 1016,
        "wind": 5,
        "wd": 110,
        "hum": 80
    }, {
        "date": 14848056E5,
        "ts": "06:00",
        "ds": "Huwebes, 19 Enero 2017, 06:00 — 12:00",
        "icon": 2,
        "desc": "Scattered clouds.",
        "temp": 29,
        "templow": 24,
        "baro": 1016,
        "wind": 5,
        "wd": 310,
        "hum": 68
    }, {
        "date": 14848272E5,
        "ts": "12:00",
        "ds": "Huwebes, 19 Enero 2017, 12:00 — 18:00",
        "icon": 6,
        "desc": "Broken clouds.",
        "temp": 30,
        "templow": 28,
        "baro": 1013,
        "wind": 13,
        "wd": 310,
        "hum": 62
    }, {
        "date": 14848488E5,
        "ts": "18:00",
        "ds": "Huwebes, 19 Enero 2017, 18:00 — 00:00",
        "icon": 14,
        "desc": "Passing clouds.",
        "temp": 28,
        "templow": 25,
        "baro": 1015,
        "wind": 13,
        "wd": 120,
        "hum": 71
    }, {
        "hl": true,
        "hls": "uLw, 20 Ene",
        "hlsh": "20 Ene",
        "date": 14848704E5,
        "ts": "00:00",
        "ds": "Biyernes, 20 Enero 2017, 00:00 — 06:00",
        "icon": 14,
        "desc": "Passing clouds.",
        "temp": 25,
        "templow": 24,
        "baro": 1014,
        "wind": 6,
        "wd": 110,
        "hum": 81
    }, {
        "date": 1484892E6,
        "ts": "06:00",
        "ds": "Biyernes, 20 Enero 2017, 06:00 — 12:00",
        "icon": 6,
        "desc": "Broken clouds.",
        "temp": 29,
        "templow": 24,
        "baro": 1015,
        "wind": 28,
        "wd": 260,
        "hum": 76
    }, {
        "date": 14849136E5,
        "ts": "12:00",
        "ds": "Biyernes, 20 Enero 2017, 12:00 — 18:00",
        "icon": 6,
        "desc": "Broken clouds.",
        "temp": 29,
        "templow": 27,
        "baro": 1013,
        "wind": 13,
        "wd": 100,
        "hum": 59
    }, {
        "date": 14849352E5,
        "ts": "18:00",
        "ds": "Biyernes, 20 Enero 2017, 18:00 — 00:00",
        "icon": 14,
        "desc": "Passing clouds.",
        "temp": 27,
        "templow": 26,
        "baro": 1015,
        "wind": 12,
        "wd": 120,
        "hum": 71
    }, {
        "hl": true,
        "hls": "uMg, 21 Ene",
        "hlsh": "21 Ene",
        "date": 14849568E5,
        "ts": "00:00",
        "ds": "Sabado, 21 Enero 2017, 00:00 — 06:00",
        "icon": 14,
        "desc": "Passing clouds.",
        "temp": 26,
        "templow": 24,
        "baro": 1014,
        "wind": 4,
        "wd": 110,
        "hum": 78
    }, {
        "date": 14849784E5,
        "ts": "06:00",
        "ds": "Sabado, 21 Enero 2017, 06:00 — 12:00",
        "icon": 2,
        "desc": "Passing clouds.",
        "temp": 30,
        "templow": 25,
        "baro": 1016,
        "wind": 12,
        "wd": 120,
        "hum": 58
    }, {
        "date": 1485E9,
        "ts": "12:00",
        "ds": "Sabado, 21 Enero 2017, 12:00 — 18:00",
        "icon": 2,
        "desc": "Passing clouds.",
        "temp": 31,
        "templow": 28,
        "baro": 1014,
        "wind": 19,
        "wd": 100,
        "hum": 48
    }, {
        "date": 14850216E5,
        "ts": "18:00",
        "ds": "Sabado, 21 Enero 2017, 18:00 — 00:00",
        "icon": 14,
        "desc": "Passing clouds.",
        "temp": 28,
        "templow": 25,
        "baro": 1017,
        "wind": 8,
        "wd": 120,
        "hum": 64
    }, {
        "hl": true,
        "hls": "iSon, 22 Ene",
        "hlsh": "22 Ene",
        "date": 14850432E5,
        "ts": "00:00",
        "ds": "Linggo, 22 Enero 2017, 00:00 — 06:00",
        "icon": 14,
        "desc": "Passing clouds.",
        "temp": 25,
        "templow": 24,
        "baro": 1016,
        "wind": 0,
        "wd": 0,
        "hum": 77
    }, {
        "date": 14850648E5,
        "ts": "06:00",
        "ds": "Linggo, 22 Enero 2017, 06:00 — 12:00",
        "icon": 6,
        "desc": "Broken clouds.",
        "temp": 29,
        "templow": 24,
        "baro": 1017,
        "wind": 7,
        "wd": 260,
        "hum": 71
    }, {
        "date": 14850864E5,
        "ts": "12:00",
        "ds": "Linggo, 22 Enero 2017, 12:00 — 18:00",
        "icon": 6,
        "desc": "Broken clouds.",
        "temp": 30,
        "templow": 28,
        "baro": 1014,
        "wind": 8,
        "wd": 0,
        "hum": 66
    }, {
        "date": 1485108E6,
        "ts": "18:00",
        "ds": "Linggo, 22 Enero 2017, 18:00 — 00:00",
        "icon": 34,
        "desc": "Light rain. Mostly cloudy.",
        "temp": 28,
        "templow": 25,
        "baro": 1016,
        "wind": 8,
        "wd": 0,
        "hum": 92
    }, {
        "hl": true,
        "hls": "uMs, 23 Ene",
        "hlsh": "23 Ene",
        "date": 14851296E5,
        "ts": "00:00",
        "ds": "Lunes, 23 Enero 2017, 00:00 — 06:00",
        "icon": 15,
        "desc": "Partly cloudy.",
        "temp": 25,
        "templow": 24,
        "baro": 1015,
        "wind": 10,
        "wd": 70,
        "hum": 100
    }, {
        "date": 14851512E5,
        "ts": "06:00",
        "ds": "Lunes, 23 Enero 2017, 06:00 — 12:00",
        "icon": 6,
        "desc": "Broken clouds.",
        "temp": 26,
        "templow": 25,
        "baro": 1016,
        "wind": 14,
        "wd": 90,
        "hum": 99
    }, {
        "date": 14851728E5,
        "ts": "12:00",
        "ds": "Lunes, 23 Enero 2017, 12:00 — 18:00",
        "icon": 6,
        "desc": "Partly sunny.",
        "temp": 29,
        "templow": 26,
        "baro": 1014,
        "wind": 17,
        "wd": 80,
        "hum": 73
    }, {
        "date": 14851944E5,
        "ts": "18:00",
        "ds": "Lunes, 23 Enero 2017, 18:00 — 00:00",
        "icon": 14,
        "desc": "Passing clouds.",
        "temp": 28,
        "templow": 25,
        "baro": 1016,
        "wind": 11,
        "wd": 80,
        "hum": 75
    }, {
        "hl": true,
        "hls": "uLw, 24 Ene",
        "hlsh": "24 Ene",
        "date": 1485216E6,
        "ts": "00:00",
        "ds": "Martes, 24 Enero 2017, 00:00 — 06:00",
        "icon": 17,
        "desc": "Mostly cloudy.",
        "temp": 26,
        "templow": 24,
        "baro": 1016,
        "wind": 15,
        "wd": 40,
        "hum": 96
    }, {
        "date": 14852376E5,
        "ts": "06:00",
        "ds": "Martes, 24 Enero 2017, 06:00 — 12:00",
        "icon": 18,
        "desc": "Sprinkles. More clouds than sun.",
        "temp": 26,
        "templow": 23,
        "baro": 1017,
        "wind": 12,
        "wd": 100,
        "hum": 99
    }, {
        "date": 14852592E5,
        "ts": "12:00",
        "ds": "Martes, 24 Enero 2017, 12:00 — 18:00",
        "icon": 6,
        "desc": "Broken clouds.",
        "temp": 28,
        "templow": 25,
        "baro": 1015,
        "wind": 17,
        "wd": 100,
        "hum": 83
    }, {
        "date": 14852808E5,
        "ts": "18:00",
        "ds": "Martes, 24 Enero 2017, 18:00 — 00:00",
        "icon": 15,
        "desc": "Partly cloudy.",
        "temp": 26,
        "templow": 25,
        "baro": 1017,
        "wind": 13,
        "wd": 90,
        "hum": 87
    }, {
        "hl": true,
        "hls": "uLw, 25 Ene",
        "hlsh": "25 Ene",
        "date": 14853024E5,
        "ts": "00:00",
        "ds": "Miyerkules, 25 Enero 2017, 00:00 — 06:00",
        "icon": 15,
        "desc": "Partly cloudy.",
        "temp": 25,
        "templow": 23,
        "baro": 1017,
        "wind": 9,
        "wd": 80,
        "hum": 97
    }, {
        "date": 1485324E6,
        "ts": "06:00",
        "ds": "Miyerkules, 25 Enero 2017, 06:00 — 12:00",
        "icon": 6,
        "desc": "Broken clouds.",
        "temp": 28,
        "templow": 24,
        "baro": 1017,
        "wind": 10,
        "wd": 90,
        "hum": 92
    }, {
        "date": 14853456E5,
        "ts": "12:00",
        "ds": "Miyerkules, 25 Enero 2017, 12:00 — 18:00",
        "icon": 6,
        "desc": "Broken clouds.",
        "temp": 30,
        "templow": 25,
        "baro": 1015,
        "wind": 18,
        "wd": 90,
        "hum": 69
    }, {
        "date": 14853672E5,
        "ts": "18:00",
        "ds": "Miyerkules, 25 Enero 2017, 18:00 — 00:00",
        "icon": 15,
        "desc": "Partly cloudy.",
        "temp": 26,
        "templow": 24,
        "baro": 1016,
        "wind": 12,
        "wd": 90,
        "hum": 86
    }, {
        "hl": true,
        "hls": "uLw, 26 Ene",
        "hlsh": "26 Ene",
        "date": 14853888E5,
        "ts": "00:00",
        "ds": "Huwebes, 26 Enero 2017, 00:00 — 06:00",
        "icon": 15,
        "desc": "Partly cloudy.",
        "temp": 24,
        "templow": 24,
        "baro": 1015,
        "wind": 7,
        "wd": 70,
        "hum": 91
    }, {
        "date": 14854104E5,
        "ts": "06:00",
        "ds": "Huwebes, 26 Enero 2017, 06:00 — 12:00",
        "icon": 6,
        "desc": "Broken clouds.",
        "temp": 28,
        "templow": 24,
        "baro": 1016,
        "wind": 6,
        "wd": 0,
        "hum": 86
    }, {
        "date": 1485432E6,
        "ts": "12:00",
        "ds": "Huwebes, 26 Enero 2017, 12:00 — 18:00",
        "icon": 6,
        "desc": "Broken clouds.",
        "temp": 28,
        "templow": 26,
        "baro": 1013,
        "wind": 12,
        "wd": 90,
        "hum": 72
    }, {
        "date": 14854536E5,
        "ts": "18:00",
        "ds": "Huwebes, 26 Enero 2017, 18:00 — 00:00",
        "icon": 14,
        "desc": "Passing clouds.",
        "temp": 26,
        "templow": 23,
        "baro": 1014,
        "wind": 11,
        "wd": 120,
        "hum": 84
    }, {
        "hl": true,
        "hls": "uLw, 27 Ene",
        "hlsh": "27 Ene",
        "date": 14854752E5,
        "ts": "00:00",
        "ds": "Biyernes, 27 Enero 2017, 00:00 — 06:00",
        "icon": 15,
        "desc": "Partly cloudy.",
        "temp": 24,
        "templow": 23,
        "baro": 1014,
        "wind": 6,
        "wd": 0,
        "hum": 93
    }, {
        "date": 14854968E5,
        "ts": "06:00",
        "ds": "Biyernes, 27 Enero 2017, 06:00 — 12:00",
        "icon": 6,
        "desc": "Broken clouds.",
        "temp": 27,
        "templow": 23,
        "baro": 1015,
        "wind": 8,
        "wd": 0,
        "hum": 81
    }, {
        "date": 14855184E5,
        "ts": "12:00",
        "ds": "Biyernes, 27 Enero 2017, 12:00 — 18:00",
        "icon": 6,
        "desc": "More clouds than sun.",
        "temp": 29,
        "templow": 27,
        "baro": 1013,
        "wind": 15,
        "wd": 90,
        "hum": 58
    }, {
        "date": 148554E7,
        "ts": "18:00",
        "ds": "Biyernes, 27 Enero 2017, 18:00 — 00:00",
        "icon": 14,
        "desc": "Passing clouds.",
        "temp": 27,
        "templow": 24,
        "baro": 1015,
        "wind": 6,
        "wd": 80,
        "hum": 67
    }, {
        "hl": true,
        "hls": "uMg, 28 Ene",
        "hlsh": "28 Ene",
        "date": 14855616E5,
        "ts": "00:00",
        "ds": "Sabado, 28 Enero 2017, 00:00 — 06:00",
        "icon": 14,
        "desc": "Passing clouds.",
        "temp": 24,
        "templow": 20,
        "baro": 1013,
        "wind": 1,
        "wd": 0,
        "hum": 86
    }, {
        "date": 14855832E5,
        "ts": "06:00",
        "ds": "Sabado, 28 Enero 2017, 06:00 — 12:00",
        "icon": 6,
        "desc": "Partly sunny.",
        "temp": 30,
        "templow": 20,
        "baro": 1014,
        "wind": 7,
        "wd": 100,
        "hum": 77
    }, {
        "date": 14856048E5,
        "ts": "12:00",
        "ds": "Sabado, 28 Enero 2017, 12:00 — 18:00",
        "icon": 6,
        "desc": "Broken clouds.",
        "temp": 37,
        "templow": 25,
        "baro": 1012,
        "wind": 16,
        "wd": 90,
        "hum": 70
    }, {
        "date": 14856264E5,
        "ts": "18:00",
        "ds": "Sabado, 28 Enero 2017, 18:00 — 00:00",
        "icon": 14,
        "desc": "Passing clouds.",
        "temp": 27,
        "templow": 25,
        "baro": 1014,
        "wind": 10,
        "wd": 100,
        "hum": 77
    }, {
        "hl": true,
        "hls": "iSon, 29 Ene",
        "hlsh": "29 Ene",
        "date": 1485648E6,
        "ts": "00:00",
        "ds": "Linggo, 29 Enero 2017, 00:00 — 06:00",
        "icon": 14,
        "desc": "Passing clouds.",
        "temp": 25,
        "templow": 23,
        "baro": 1012,
        "wind": 8,
        "wd": 0,
        "hum": 91
    }, {
        "date": 14856696E5,
        "ts": "06:00",
        "ds": "Linggo, 29 Enero 2017, 06:00 — 12:00",
        "icon": 6,
        "desc": "Broken clouds.",
        "temp": 29,
        "templow": 23,
        "baro": 1013,
        "wind": 8,
        "wd": 0,
        "hum": 80
    }, {
        "date": 14856912E5,
        "ts": "12:00",
        "ds": "Linggo, 29 Enero 2017, 12:00 — 18:00",
        "icon": 6,
        "desc": "Broken clouds.",
        "temp": 30,
        "templow": 27,
        "baro": 1011,
        "wind": 14,
        "wd": 10,
        "hum": 62
    }, {
        "date": 14857128E5,
        "ts": "18:00",
        "ds": "Linggo, 29 Enero 2017, 18:00 — 00:00",
        "icon": 15,
        "desc": "Partly cloudy.",
        "temp": 27,
        "templow": 26,
        "baro": 1012,
        "wind": 8,
        "wd": 10,
        "hum": 68
    }, {
        "hl": true,
        "hls": "uMs, 30 Ene",
        "hlsh": "30 Ene",
        "date": 14857344E5,
        "ts": "00:00",
        "ds": "Lunes, 30 Enero 2017, 00:00 — 06:00",
        "icon": 14,
        "desc": "Passing clouds.",
        "temp": 26,
        "templow": 25,
        "baro": 1011,
        "wind": 4,
        "wd": 0,
        "hum": 82
    }, {
        "date": 1485756E6,
        "ts": "06:00",
        "ds": "Lunes, 30 Enero 2017, 06:00 — 12:00",
        "icon": 2,
        "desc": "Scattered clouds.",
        "temp": 30,
        "templow": 25,
        "baro": 1012,
        "wind": 6,
        "wd": 0,
        "hum": 74
    }, {
        "date": 14857776E5,
        "ts": "12:00",
        "ds": "Lunes, 30 Enero 2017, 12:00 — 18:00",
        "icon": 6,
        "desc": "Broken clouds.",
        "temp": 30,
        "templow": 29,
        "baro": 1010,
        "wind": 11,
        "wd": 270,
        "hum": 71
    }, {
        "date": 14857992E5,
        "ts": "18:00",
        "ds": "Lunes, 30 Enero 2017, 18:00 — 00:00",
        "icon": 15,
        "desc": "Partly cloudy.",
        "temp": 29,
        "templow": 26,
        "baro": 1011,
        "wind": 7,
        "wd": 120,
        "hum": 89
    }, {
        "hl": true,
        "hls": "uLw, 31 Ene",
        "hlsh": "31 Ene",
        "date": 14858208E5,
        "ts": "00:00",
        "ds": "Martes, 31 Enero 2017, 00:00 — 06:00",
        "icon": 14,
        "desc": "Passing clouds.",
        "temp": 27,
        "templow": 26,
        "baro": 1010,
        "wind": 6,
        "wd": 0,
        "hum": 96
    }, {
        "date": 14858424E5,
        "ts": "06:00",
        "ds": "Martes, 31 Enero 2017, 06:00 — 12:00",
        "icon": 2,
        "desc": "Scattered clouds.",
        "temp": 29,
        "templow": 26,
        "baro": 1011,
        "wind": 8,
        "wd": 280,
        "hum": 79
    }, {
        "date": 1485864E6,
        "ts": "12:00",
        "ds": "Martes, 31 Enero 2017, 12:00 — 18:00",
        "icon": 6,
        "desc": "Broken clouds.",
        "temp": 31,
        "templow": 29,
        "baro": 1009,
        "wind": 9,
        "wd": 260,
        "hum": 69
    }, {
        "date": 14858856E5,
        "ts": "18:00",
        "ds": "Martes, 31 Enero 2017, 18:00 — 00:00",
        "icon": 15,
        "desc": "Partly cloudy.",
        "temp": 29,
        "templow": 27,
        "baro": 1012,
        "wind": 6,
        "wd": 120,
        "hum": 84
    }]
}