{
    "detail": [{
        "hl": true,
        "hls": "uLw, 1 Ago",
        "hlsh": "1 Ago",
        "date": 15015456E5,
        "ts": "00:00",
        "ds": "Martes, 1 Agosto 2017, 00:00 — 06:00",
        "icon": 14,
        "desc": "Passing clouds.",
        "temp": 28,
        "templow": 28,
        "baro": 1008,
        "wind": 10,
        "wd": 240,
        "hum": 100
    }, {
        "date": 15015672E5,
        "ts": "06:00",
        "ds": "Martes, 1 Agosto 2017, 06:00 — 12:00",
        "icon": 2,
        "desc": "Scattered clouds.",
        "temp": 31,
        "templow": 28,
        "baro": 1008,
        "wind": 24,
        "wd": 240,
        "hum": 91
    }, {
        "date": 15015888E5,
        "ts": "12:00",
        "ds": "Martes, 1 Agosto 2017, 12:00 — 18:00",
        "icon": 2,
        "desc": "Scattered clouds.",
        "temp": 32,
        "templow": 30,
        "baro": 1007,
        "wind": 29,
        "wd": 250,
        "hum": 85
    }, {
        "date": 15016104E5,
        "ts": "18:00",
        "ds": "Martes, 1 Agosto 2017, 18:00 — 00:00",
        "icon": 15,
        "desc": "Partly cloudy.",
        "temp": 30,
        "templow": 20,
        "baro": 1009,
        "wind": 19,
        "wd": 240,
        "hum": 95
    }, {
        "hl": true,
        "hls": "uLw, 2 Ago",
        "hlsh": "2 Ago",
        "date": 1501632E6,
        "ts": "00:00",
        "ds": "Miyerkules, 2 Agosto 2017, 00:00 — 06:00",
        "icon": 15,
        "desc": "Partly cloudy.",
        "temp": 29,
        "templow": 28,
        "baro": 1007,
        "wind": 15,
        "wd": 250,
        "hum": 99
    }, {
        "date": 15016536E5,
        "ts": "06:00",
        "ds": "Miyerkules, 2 Agosto 2017, 06:00 — 12:00",
        "icon": 18,
        "desc": "Light rain. More clouds than sun.",
        "temp": 29,
        "templow": 27,
        "baro": 1008,
        "wind": 12,
        "wd": 250,
        "hum": 100
    }, {
        "date": 15016752E5,
        "ts": "12:00",
        "ds": "Miyerkules, 2 Agosto 2017, 12:00 — 18:00",
        "icon": 18,
        "desc": "Light rain. More clouds than sun.",
        "temp": 29,
        "templow": 25,
        "baro": 1006,
        "wind": 12,
        "wd": 0,
        "hum": 100
    }, {
        "date": 15016968E5,
        "ts": "18:00",
        "ds": "Miyerkules, 2 Agosto 2017, 18:00 — 00:00",
        "icon": 17,
        "desc": "Mostly cloudy.",
        "temp": 27,
        "templow": 27,
        "baro": 1006,
        "wind": 9,
        "wd": 250,
        "hum": 100
    }, {
        "hl": true,
        "hls": "uLw, 3 Ago",
        "hlsh": "3 Ago",
        "date": 15017184E5,
        "ts": "00:00",
        "ds": "Huwebes, 3 Agosto 2017, 00:00 — 06:00",
        "icon": 15,
        "desc": "Partly cloudy.",
        "temp": 27,
        "templow": 25,
        "baro": 1005,
        "wind": 6,
        "wd": 0,
        "hum": 100
    }, {
        "date": 150174E7,
        "ts": "06:00",
        "ds": "Huwebes, 3 Agosto 2017, 06:00 — 12:00",
        "icon": 6,
        "desc": "Broken clouds.",
        "temp": 29,
        "templow": 25,
        "baro": 1007,
        "wind": 16,
        "wd": 230,
        "hum": 97
    }, {
        "date": 15017616E5,
        "ts": "12:00",
        "ds": "Huwebes, 3 Agosto 2017, 12:00 — 18:00",
        "icon": 6,
        "desc": "Partly sunny.",
        "temp": 30,
        "templow": 28,
        "baro": 1005,
        "wind": 22,
        "wd": 260,
        "hum": 88
    }, {
        "date": 15017832E5,
        "ts": "18:00",
        "ds": "Huwebes, 3 Agosto 2017, 18:00 — 00:00",
        "icon": 14,
        "desc": "Passing clouds.",
        "temp": 28,
        "templow": 27,
        "baro": 1006,
        "wind": 7,
        "wd": 230,
        "hum": 93
    }, {
        "hl": true,
        "hls": "uLw, 4 Ago",
        "hlsh": "4 Ago",
        "date": 15018048E5,
        "ts": "00:00",
        "ds": "Biyernes, 4 Agosto 2017, 00:00 — 06:00",
        "icon": 15,
        "desc": "Partly cloudy.",
        "temp": 27,
        "templow": 26,
        "baro": 1005,
        "wind": 3,
        "wd": 0,
        "hum": 98
    }, {
        "date": 15018264E5,
        "ts": "06:00",
        "ds": "Biyernes, 4 Agosto 2017, 06:00 — 12:00",
        "icon": 2,
        "desc": "Scattered clouds.",
        "temp": 31,
        "templow": 26,
        "baro": 1007,
        "wind": 14,
        "wd": 260,
        "hum": 87
    }, {
        "date": 1501848E6,
        "ts": "12:00",
        "ds": "Biyernes, 4 Agosto 2017, 12:00 — 18:00",
        "icon": 2,
        "desc": "Scattered clouds.",
        "temp": 31,
        "templow": 28,
        "baro": 1006,
        "wind": 25,
        "wd": 260,
        "hum": 77
    }, {
        "date": 15018696E5,
        "ts": "18:00",
        "ds": "Biyernes, 4 Agosto 2017, 18:00 — 00:00",
        "icon": 14,
        "desc": "Passing clouds.",
        "temp": 28,
        "templow": 27,
        "baro": 1008,
        "wind": 9,
        "wd": 250,
        "hum": 91
    }, {
        "hl": true,
        "hls": "uMg, 5 Ago",
        "hlsh": "5 Ago",
        "date": 15018912E5,
        "ts": "00:00",
        "ds": "Sabado, 5 Agosto 2017, 00:00 — 06:00",
        "icon": 14,
        "desc": "Passing clouds.",
        "temp": 27,
        "templow": 26,
        "baro": 1007,
        "wind": 3,
        "wd": 0,
        "hum": 98
    }, {
        "date": 15019128E5,
        "ts": "06:00",
        "ds": "Sabado, 5 Agosto 2017, 06:00 — 12:00",
        "icon": 2,
        "desc": "Scattered clouds.",
        "temp": 32,
        "templow": 26,
        "baro": 1008,
        "wind": 13,
        "wd": 270,
        "hum": 84
    }, {
        "date": 15019344E5,
        "ts": "12:00",
        "ds": "Sabado, 5 Agosto 2017, 12:00 — 18:00",
        "icon": 6,
        "desc": "Partly sunny.",
        "temp": 31,
        "templow": 29,
        "baro": 1007,
        "wind": 22,
        "wd": 260,
        "hum": 77
    }, {
        "date": 1501956E6,
        "ts": "18:00",
        "ds": "Sabado, 5 Agosto 2017, 18:00 — 00:00",
        "icon": 14,
        "desc": "Passing clouds.",
        "temp": 29,
        "templow": 27,
        "baro": 1010,
        "wind": 10,
        "wd": 230,
        "hum": 92
    }, {
        "hl": true,
        "hls": "iSon, 6 Ago",
        "hlsh": "6 Ago",
        "date": 15019776E5,
        "ts": "00:00",
        "ds": "Linggo, 6 Agosto 2017, 00:00 — 06:00",
        "icon": 14,
        "desc": "Passing clouds.",
        "temp": 27,
        "templow": 27,
        "baro": 1009,
        "wind": 4,
        "wd": 0,
        "hum": 100
    }, {
        "date": 15019992E5,
        "ts": "06:00",
        "ds": "Linggo, 6 Agosto 2017, 06:00 — 12:00",
        "icon": 2,
        "desc": "Scattered clouds.",
        "temp": 31,
        "templow": 27,
        "baro": 1010,
        "wind": 15,
        "wd": 260,
        "hum": 90
    }, {
        "date": 15020208E5,
        "ts": "12:00",
        "ds": "Linggo, 6 Agosto 2017, 12:00 — 18:00",
        "icon": 6,
        "desc": "Partly sunny.",
        "temp": 31,
        "templow": 29,
        "baro": 1008,
        "wind": 20,
        "wd": 280,
        "hum": 83
    }, {
        "date": 15020424E5,
        "ts": "18:00",
        "ds": "Linggo, 6 Agosto 2017, 18:00 — 00:00",
        "icon": 14,
        "desc": "Passing clouds.",
        "temp": 29,
        "templow": 27,
        "baro": 1010,
        "wind": 12,
        "wd": 250,
        "hum": 94
    }, {
        "hl": true,
        "hls": "uMs, 7 Ago",
        "hlsh": "7 Ago",
        "date": 1502064E6,
        "ts": "00:00",
        "ds": "Lunes, 7 Agosto 2017, 00:00 — 06:00",
        "icon": 14,
        "desc": "Passing clouds.",
        "temp": 28,
        "templow": 27,
        "baro": 1009,
        "wind": 5,
        "wd": 0,
        "hum": 100
    }, {
        "date": 15020856E5,
        "ts": "06:00",
        "ds": "Lunes, 7 Agosto 2017, 06:00 — 12:00",
        "icon": 2,
        "desc": "Scattered clouds.",
        "temp": 31,
        "templow": 27,
        "baro": 1010,
        "wind": 12,
        "wd": 280,
        "hum": 90
    }, {
        "date": 15021072E5,
        "ts": "12:00",
        "ds": "Lunes, 7 Agosto 2017, 12:00 — 18:00",
        "icon": 2,
        "desc": "Scattered clouds.",
        "temp": 32,
        "templow": 30,
        "baro": 1008,
        "wind": 22,
        "wd": 260,
        "hum": 79
    }, {
        "date": 15021288E5,
        "ts": "18:00",
        "ds": "Lunes, 7 Agosto 2017, 18:00 — 00:00",
        "icon": 14,
        "desc": "Passing clouds.",
        "temp": 30,
        "templow": 27,
        "baro": 1010,
        "wind": 10,
        "wd": 250,
        "hum": 91
    }, {
        "hl": true,
        "hls": "uLw, 8 Ago",
        "hlsh": "8 Ago",
        "date": 15021504E5,
        "ts": "00:00",
        "ds": "Martes, 8 Agosto 2017, 00:00 — 06:00",
        "icon": 14,
        "desc": "Passing clouds.",
        "temp": 28,
        "templow": 27,
        "baro": 1010,
        "wind": 1,
        "wd": 0,
        "hum": 97
    }, {
        "date": 1502172E6,
        "ts": "06:00",
        "ds": "Martes, 8 Agosto 2017, 06:00 — 12:00",
        "icon": 2,
        "desc": "Scattered clouds.",
        "temp": 32,
        "templow": 27,
        "baro": 1010,
        "wind": 7,
        "wd": 300,
        "hum": 85
    }, {
        "date": 15021936E5,
        "ts": "12:00",
        "ds": "Martes, 8 Agosto 2017, 12:00 — 18:00",
        "icon": 6,
        "desc": "More clouds than sun.",
        "temp": 31,
        "templow": 27,
        "baro": 1009,
        "wind": 15,
        "wd": 270,
        "hum": 88
    }, {
        "date": 15022152E5,
        "ts": "18:00",
        "ds": "Martes, 8 Agosto 2017, 18:00 — 00:00",
        "icon": 14,
        "desc": "Passing clouds.",
        "temp": 30,
        "templow": 29,
        "baro": 1011,
        "wind": 4,
        "wd": 0,
        "hum": 93
    }, {
        "hl": true,
        "hls": "uLw, 9 Ago",
        "hlsh": "9 Ago",
        "date": 15022368E5,
        "ts": "00:00",
        "ds": "Miyerkules, 9 Agosto 2017, 00:00 — 06:00",
        "icon": 14,
        "desc": "Passing clouds.",
        "temp": 29,
        "templow": 26,
        "baro": 1010,
        "wind": 2,
        "wd": 220,
        "hum": 98
    }, {
        "date": 15022584E5,
        "ts": "06:00",
        "ds": "Miyerkules, 9 Agosto 2017, 06:00 — 12:00",
        "icon": 2,
        "desc": "Passing clouds.",
        "temp": 32,
        "templow": 26,
        "baro": 1010,
        "wind": 10,
        "wd": 280,
        "hum": 85
    }, {
        "date": 150228E7,
        "ts": "12:00",
        "ds": "Miyerkules, 9 Agosto 2017, 12:00 — 18:00",
        "icon": 2,
        "desc": "Passing clouds.",
        "temp": 32,
        "templow": 30,
        "baro": 1009,
        "wind": 20,
        "wd": 260,
        "hum": 69
    }, {
        "date": 15023016E5,
        "ts": "18:00",
        "ds": "Miyerkules, 9 Agosto 2017, 18:00 — 00:00",
        "icon": 14,
        "desc": "Passing clouds.",
        "temp": 30,
        "templow": 29,
        "baro": 1010,
        "wind": 11,
        "wd": 250,
        "hum": 86
    }, {
        "hl": true,
        "hls": "uLw, 10 Ago",
        "hlsh": "10 Ago",
        "date": 15023232E5,
        "ts": "00:00",
        "ds": "Huwebes, 10 Agosto 2017, 00:00 — 06:00",
        "icon": 14,
        "desc": "Passing clouds.",
        "temp": 29,
        "templow": 28,
        "baro": 1010,
        "wind": 5,
        "wd": 350,
        "hum": 94
    }, {
        "date": 15023448E5,
        "ts": "06:00",
        "ds": "Huwebes, 10 Agosto 2017, 06:00 — 12:00",
        "icon": 6,
        "desc": "Partly sunny.",
        "temp": 32,
        "templow": 28,
        "baro": 1010,
        "wind": 10,
        "wd": 280,
        "hum": 80
    }, {
        "date": 15023664E5,
        "ts": "12:00",
        "ds": "Huwebes, 10 Agosto 2017, 12:00 — 18:00",
        "icon": 6,
        "desc": "Partly sunny.",
        "temp": 33,
        "templow": 31,
        "baro": 1008,
        "wind": 20,
        "wd": 260,
        "hum": 68
    }, {
        "date": 1502388E6,
        "ts": "18:00",
        "ds": "Huwebes, 10 Agosto 2017, 18:00 — 00:00",
        "icon": 14,
        "desc": "Passing clouds.",
        "temp": 31,
        "templow": 29,
        "baro": 1010,
        "wind": 15,
        "wd": 250,
        "hum": 79
    }, {
        "hl": true,
        "hls": "uLw, 11 Ago",
        "hlsh": "11 Ago",
        "date": 15024096E5,
        "ts": "00:00",
        "ds": "Biyernes, 11 Agosto 2017, 00:00 — 06:00",
        "icon": 14,
        "desc": "Passing clouds.",
        "temp": 29,
        "templow": 28,
        "baro": 1010,
        "wind": 10,
        "wd": 0,
        "hum": 85
    }, {
        "date": 15024312E5,
        "ts": "06:00",
        "ds": "Biyernes, 11 Agosto 2017, 06:00 — 12:00",
        "icon": 2,
        "desc": "Passing clouds.",
        "temp": 32,
        "templow": 28,
        "baro": 1010,
        "wind": 13,
        "wd": 310,
        "hum": 71
    }, {
        "date": 15024528E5,
        "ts": "12:00",
        "ds": "Biyernes, 11 Agosto 2017, 12:00 — 18:00",
        "icon": 2,
        "desc": "Scattered clouds.",
        "temp": 33,
        "templow": 30,
        "baro": 1009,
        "wind": 16,
        "wd": 260,
        "hum": 71
    }, {
        "date": 15024744E5,
        "ts": "18:00",
        "ds": "Biyernes, 11 Agosto 2017, 18:00 — 00:00",
        "icon": 14,
        "desc": "Passing clouds.",
        "temp": 30,
        "templow": 29,
        "baro": 1010,
        "wind": 7,
        "wd": 0,
        "hum": 83
    }, {
        "hl": true,
        "hls": "uMg, 12 Ago",
        "hlsh": "12 Ago",
        "date": 1502496E6,
        "ts": "00:00",
        "ds": "Sabado, 12 Agosto 2017, 00:00 — 06:00",
        "icon": 14,
        "desc": "Passing clouds.",
        "temp": 29,
        "templow": 28,
        "baro": 1010,
        "wind": 2,
        "wd": 0,
        "hum": 94
    }, {
        "date": 15025176E5,
        "ts": "06:00",
        "ds": "Sabado, 12 Agosto 2017, 06:00 — 12:00",
        "icon": 2,
        "desc": "Scattered clouds.",
        "temp": 32,
        "templow": 28,
        "baro": 1011,
        "wind": 8,
        "wd": 260,
        "hum": 81
    }, {
        "date": 15025392E5,
        "ts": "12:00",
        "ds": "Sabado, 12 Agosto 2017, 12:00 — 18:00",
        "icon": 2,
        "desc": "Scattered clouds.",
        "temp": 33,
        "templow": 29,
        "baro": 1009,
        "wind": 14,
        "wd": 0,
        "hum": 68
    }, {
        "date": 15025608E5,
        "ts": "18:00",
        "ds": "Sabado, 12 Agosto 2017, 18:00 — 00:00",
        "icon": 14,
        "desc": "Passing clouds.",
        "temp": 29,
        "templow": 28,
        "baro": 1011,
        "wind": 5,
        "wd": 350,
        "hum": 78
    }, {
        "hl": true,
        "hls": "iSon, 13 Ago",
        "hlsh": "13 Ago",
        "date": 15025824E5,
        "ts": "00:00",
        "ds": "Linggo, 13 Agosto 2017, 00:00 — 06:00",
        "icon": 14,
        "desc": "Passing clouds.",
        "temp": 28,
        "templow": 27,
        "baro": 1010,
        "wind": 7,
        "wd": 10,
        "hum": 91
    }, {
        "date": 1502604E6,
        "ts": "06:00",
        "ds": "Linggo, 13 Agosto 2017, 06:00 — 12:00",
        "icon": 6,
        "desc": "Partly sunny.",
        "temp": 32,
        "templow": 27,
        "baro": 1011,
        "wind": 5,
        "wd": 0,
        "hum": 78
    }, {
        "date": 15026256E5,
        "ts": "12:00",
        "ds": "Linggo, 13 Agosto 2017, 12:00 — 18:00",
        "icon": 6,
        "desc": "Partly sunny.",
        "temp": 33,
        "templow": 31,
        "baro": 1009,
        "wind": 9,
        "wd": 0,
        "hum": 65
    }, {
        "date": 15026472E5,
        "ts": "18:00",
        "ds": "Linggo, 13 Agosto 2017, 18:00 — 00:00",
        "icon": 14,
        "desc": "Passing clouds.",
        "temp": 32,
        "templow": 29,
        "baro": 1010,
        "wind": 5,
        "wd": 0,
        "hum": 70
    }, {
        "hl": true,
        "hls": "uMs, 14 Ago",
        "hlsh": "14 Ago",
        "date": 15026688E5,
        "ts": "00:00",
        "ds": "Lunes, 14 Agosto 2017, 00:00 — 06:00",
        "icon": 14,
        "desc": "Passing clouds.",
        "temp": 29,
        "templow": 27,
        "baro": 1010,
        "wind": 7,
        "wd": 0,
        "hum": 89
    }, {
        "date": 15026904E5,
        "ts": "06:00",
        "ds": "Lunes, 14 Agosto 2017, 06:00 — 12:00",
        "icon": 6,
        "desc": "Broken clouds.",
        "temp": 31,
        "templow": 27,
        "baro": 1011,
        "wind": 10,
        "wd": 270,
        "hum": 79
    }, {
        "date": 1502712E6,
        "ts": "12:00",
        "ds": "Lunes, 14 Agosto 2017, 12:00 — 18:00",
        "icon": 6,
        "desc": "Broken clouds.",
        "temp": 32,
        "templow": 30,
        "baro": 1008,
        "wind": 10,
        "wd": 60,
        "hum": 73
    }, {
        "date": 15027336E5,
        "ts": "18:00",
        "ds": "Lunes, 14 Agosto 2017, 18:00 — 00:00",
        "icon": 14,
        "desc": "Passing clouds.",
        "temp": 30,
        "templow": 28,
        "baro": 1010,
        "wind": 6,
        "wd": 200,
        "hum": 86
    }, {
        "hl": true,
        "hls": "uLw, 15 Ago",
        "hlsh": "15 Ago",
        "date": 15027552E5,
        "ts": "00:00",
        "ds": "Martes, 15 Agosto 2017, 00:00 — 06:00",
        "icon": 14,
        "desc": "Passing clouds.",
        "temp": 28,
        "templow": 27,
        "baro": 1009,
        "wind": 3,
        "wd": 0,
        "hum": 96
    }, {
        "date": 15027768E5,
        "ts": "06:00",
        "ds": "Martes, 15 Agosto 2017, 06:00 — 12:00",
        "icon": 2,
        "desc": "Passing clouds.",
        "temp": 35,
        "templow": 27,
        "baro": 1010,
        "wind": 9,
        "wd": 70,
        "hum": 71
    }, {
        "date": 15027984E5,
        "ts": "12:00",
        "ds": "Martes, 15 Agosto 2017, 12:00 — 18:00",
        "icon": 2,
        "desc": "Passing clouds.",
        "temp": 35,
        "templow": 26,
        "baro": 1007,
        "wind": 11,
        "wd": 0,
        "hum": 64
    }, {
        "date": 150282E7,
        "ts": "18:00",
        "ds": "Martes, 15 Agosto 2017, 18:00 — 00:00",
        "icon": 14,
        "desc": "Passing clouds.",
        "temp": 30,
        "templow": 29,
        "baro": 1009,
        "wind": 6,
        "wd": 200,
        "hum": 80
    }, {
        "hl": true,
        "hls": "uLw, 16 Ago",
        "hlsh": "16 Ago",
        "date": 15028416E5,
        "ts": "00:00",
        "ds": "Miyerkules, 16 Agosto 2017, 00:00 — 06:00",
        "icon": 14,
        "desc": "Passing clouds.",
        "temp": 29,
        "templow": 28,
        "baro": 1008,
        "wind": 4,
        "wd": 220,
        "hum": 94
    }, {
        "date": 15028632E5,
        "ts": "06:00",
        "ds": "Miyerkules, 16 Agosto 2017, 06:00 — 12:00",
        "icon": 2,
        "desc": "Passing clouds.",
        "temp": 33,
        "templow": 28,
        "baro": 1009,
        "wind": 6,
        "wd": 0,
        "hum": 81
    }, {
        "date": 15028848E5,
        "ts": "12:00",
        "ds": "Miyerkules, 16 Agosto 2017, 12:00 — 18:00",
        "icon": 2,
        "desc": "Scattered clouds.",
        "temp": 33,
        "templow": 30,
        "baro": 1007,
        "wind": 11,
        "wd": 290,
        "hum": 71
    }, {
        "date": 15029064E5,
        "ts": "18:00",
        "ds": "Miyerkules, 16 Agosto 2017, 18:00 — 00:00",
        "icon": 14,
        "desc": "Passing clouds.",
        "temp": 30,
        "templow": 30,
        "baro": 1009,
        "wind": 7,
        "wd": 30,
        "hum": 75
    }, {
        "hl": true,
        "hls": "uLw, 17 Ago",
        "hlsh": "17 Ago",
        "date": 1502928E6,
        "ts": "00:00",
        "ds": "Huwebes, 17 Agosto 2017, 00:00 — 06:00",
        "icon": 14,
        "desc": "Passing clouds.",
        "temp": 30,
        "templow": 27,
        "baro": 1008,
        "wind": 8,
        "wd": 100,
        "hum": 79
    }, {
        "date": 15029496E5,
        "ts": "06:00",
        "ds": "Huwebes, 17 Agosto 2017, 06:00 — 12:00",
        "icon": 6,
        "desc": "Partly sunny.",
        "temp": 35,
        "templow": 27,
        "baro": 1009,
        "wind": 13,
        "wd": 100,
        "hum": 63
    }, {
        "date": 15029712E5,
        "ts": "12:00",
        "ds": "Huwebes, 17 Agosto 2017, 12:00 — 18:00",
        "icon": 2,
        "desc": "Scattered clouds.",
        "temp": 35,
        "templow": 33,
        "baro": 1007,
        "wind": 17,
        "wd": 120,
        "hum": 51
    }, {
        "date": 15029928E5,
        "ts": "18:00",
        "ds": "Huwebes, 17 Agosto 2017, 18:00 — 00:00",
        "icon": 14,
        "desc": "Passing clouds.",
        "temp": 33,
        "templow": 30,
        "baro": 1008,
        "wind": 10,
        "wd": 0,
        "hum": 71
    }, {
        "hl": true,
        "hls": "uLw, 18 Ago",
        "hlsh": "18 Ago",
        "date": 15030144E5,
        "ts": "00:00",
        "ds": "Biyernes, 18 Agosto 2017, 00:00 — 06:00",
        "icon": 14,
        "desc": "Passing clouds.",
        "temp": 30,
        "templow": 28,
        "baro": 1009,
        "wind": 5,
        "wd": 100,
        "hum": 81
    }, {
        "date": 1503036E6,
        "ts": "06:00",
        "ds": "Biyernes, 18 Agosto 2017, 06:00 — 12:00",
        "icon": 6,
        "desc": "Broken clouds.",
        "temp": 32,
        "templow": 28,
        "baro": 1010,
        "wind": 8,
        "wd": 0,
        "hum": 71
    }, {
        "date": 15030576E5,
        "ts": "12:00",
        "ds": "Biyernes, 18 Agosto 2017, 12:00 — 18:00",
        "icon": 2,
        "desc": "Scattered clouds.",
        "temp": 33,
        "templow": 30,
        "baro": 1008,
        "wind": 14,
        "wd": 310,
        "hum": 66
    }, {
        "date": 15030792E5,
        "ts": "18:00",
        "ds": "Biyernes, 18 Agosto 2017, 18:00 — 00:00",
        "icon": 22,
        "desc": "Thunderstorms. Mostly cloudy.",
        "temp": 30,
        "templow": 26,
        "baro": 1010,
        "wind": 8,
        "wd": 0,
        "hum": 96
    }, {
        "hl": true,
        "hls": "uMg, 19 Ago",
        "hlsh": "19 Ago",
        "date": 15031008E5,
        "ts": "00:00",
        "ds": "Sabado, 19 Agosto 2017, 00:00 — 06:00",
        "icon": 15,
        "desc": "Partly cloudy.",
        "temp": 27,
        "templow": 26,
        "baro": 1009,
        "wind": 6,
        "wd": 0,
        "hum": 99
    }, {
        "date": 15031224E5,
        "ts": "06:00",
        "ds": "Sabado, 19 Agosto 2017, 06:00 — 12:00",
        "icon": 6,
        "desc": "Partly sunny.",
        "temp": 31,
        "templow": 26,
        "baro": 1009,
        "wind": 7,
        "wd": 0,
        "hum": 84
    }, {
        "date": 1503144E6,
        "ts": "12:00",
        "ds": "Sabado, 19 Agosto 2017, 12:00 — 18:00",
        "icon": 33,
        "desc": "Scattered showers. Partly sunny.",
        "temp": 31,
        "templow": 30,
        "baro": 1007,
        "wind": 9,
        "wd": 0,
        "hum": 79
    }, {
        "date": 15031656E5,
        "ts": "18:00",
        "ds": "Sabado, 19 Agosto 2017, 18:00 — 00:00",
        "icon": 20,
        "desc": "Heavy rain. Mostly cloudy.",
        "temp": 30,
        "templow": 24,
        "baro": 1009,
        "wind": 10,
        "wd": 230,
        "hum": 98
    }, {
        "hl": true,
        "hls": "iSon, 20 Ago",
        "hlsh": "20 Ago",
        "date": 15031872E5,
        "ts": "00:00",
        "ds": "Linggo, 20 Agosto 2017, 00:00 — 06:00",
        "icon": 34,
        "desc": "Light rain. Partly cloudy.",
        "temp": 26,
        "templow": 25,
        "baro": 1008,
        "wind": 6,
        "wd": 0,
        "hum": 100
    }, {
        "date": 15032088E5,
        "ts": "06:00",
        "ds": "Linggo, 20 Agosto 2017, 06:00 — 12:00",
        "icon": 6,
        "desc": "Broken clouds.",
        "temp": 30,
        "templow": 26,
        "baro": 1007,
        "wind": 8,
        "wd": 270,
        "hum": 89
    }, {
        "date": 15032304E5,
        "ts": "12:00",
        "ds": "Linggo, 20 Agosto 2017, 12:00 — 18:00",
        "icon": 6,
        "desc": "Partly sunny.",
        "temp": 31,
        "templow": 29,
        "baro": 1005,
        "wind": 22,
        "wd": 260,
        "hum": 75
    }, {
        "date": 1503252E6,
        "ts": "18:00",
        "ds": "Linggo, 20 Agosto 2017, 18:00 — 00:00",
        "icon": 17,
        "desc": "Overcast.",
        "temp": 29,
        "templow": 28,
        "baro": 1006,
        "wind": 11,
        "wd": 250,
        "hum": 88
    }, {
        "hl": true,
        "hls": "uMs, 21 Ago",
        "hlsh": "21 Ago",
        "date": 15032736E5,
        "ts": "00:00",
        "ds": "Lunes, 21 Agosto 2017, 00:00 — 06:00",
        "icon": 15,
        "desc": "Partly cloudy.",
        "temp": 28,
        "templow": 26,
        "baro": 1005,
        "wind": 8,
        "wd": 190,
        "hum": 98
    }, {
        "date": 15032952E5,
        "ts": "06:00",
        "ds": "Lunes, 21 Agosto 2017, 06:00 — 12:00",
        "icon": 6,
        "desc": "Broken clouds.",
        "temp": 28,
        "templow": 26,
        "baro": 1004,
        "wind": 13,
        "wd": 240,
        "hum": 99
    }, {
        "date": 15033168E5,
        "ts": "12:00",
        "ds": "Lunes, 21 Agosto 2017, 12:00 — 18:00",
        "icon": 18,
        "desc": "Light rain. Mostly cloudy.",
        "temp": 29,
        "templow": 25,
        "baro": 1003,
        "wind": 14,
        "wd": 220,
        "hum": 98
    }, {
        "date": 15033384E5,
        "ts": "18:00",
        "ds": "Lunes, 21 Agosto 2017, 18:00 — 00:00",
        "icon": 34,
        "desc": "Light rain. Mostly cloudy.",
        "temp": 27,
        "templow": 25,
        "baro": 1003,
        "wind": 10,
        "wd": 210,
        "hum": 100
    }, {
        "hl": true,
        "hls": "uLw, 22 Ago",
        "hlsh": "22 Ago",
        "date": 150336E7,
        "ts": "00:00",
        "ds": "Martes, 22 Agosto 2017, 00:00 — 06:00",
        "icon": 34,
        "desc": "Light rain. Mostly cloudy.",
        "temp": 27,
        "templow": 24,
        "baro": 1003,
        "wind": 11,
        "wd": 280,
        "hum": 100
    }, {
        "date": 15033816E5,
        "ts": "06:00",
        "ds": "Martes, 22 Agosto 2017, 06:00 — 12:00",
        "icon": 6,
        "desc": "Broken clouds.",
        "temp": 30,
        "templow": 24,
        "baro": 1004,
        "wind": 16,
        "wd": 230,
        "hum": 93
    }, {
        "date": 15034032E5,
        "ts": "12:00",
        "ds": "Martes, 22 Agosto 2017, 12:00 — 18:00",
        "icon": 2,
        "desc": "Passing clouds.",
        "temp": 31,
        "templow": 27,
        "baro": 1004,
        "wind": 20,
        "wd": 200,
        "hum": 87
    }, {
        "date": 15034248E5,
        "ts": "18:00",
        "ds": "Martes, 22 Agosto 2017, 18:00 — 00:00",
        "icon": 34,
        "desc": "Light rain. Mostly cloudy.",
        "temp": 27,
        "templow": 26,
        "baro": 1007,
        "wind": 6,
        "wd": 0,
        "hum": 100
    }, {
        "hl": true,
        "hls": "uLw, 23 Ago",
        "hlsh": "23 Ago",
        "date": 15034464E5,
        "ts": "00:00",
        "ds": "Miyerkules, 23 Agosto 2017, 00:00 — 06:00",
        "icon": 15,
        "desc": "Partly cloudy.",
        "temp": 26,
        "templow": 26,
        "baro": 1007,
        "wind": 2,
        "wd": 0,
        "hum": 100
    }, {
        "date": 1503468E6,
        "ts": "06:00",
        "ds": "Miyerkules, 23 Agosto 2017, 06:00 — 12:00",
        "icon": 6,
        "desc": "Broken clouds.",
        "temp": 32,
        "templow": 26,
        "baro": 1009,
        "wind": 8,
        "wd": 110,
        "hum": 82
    }, {
        "date": 15034896E5,
        "ts": "12:00",
        "ds": "Miyerkules, 23 Agosto 2017, 12:00 — 18:00",
        "icon": 6,
        "desc": "Broken clouds.",
        "temp": 34,
        "templow": 28,
        "baro": 1008,
        "wind": 20,
        "wd": 250,
        "hum": 70
    }, {
        "date": 15035112E5,
        "ts": "18:00",
        "ds": "Miyerkules, 23 Agosto 2017, 18:00 — 00:00",
        "icon": 14,
        "desc": "Passing clouds.",
        "temp": 28,
        "templow": 27,
        "baro": 1010,
        "wind": 8,
        "wd": 240,
        "hum": 91
    }, {
        "hl": true,
        "hls": "uLw, 24 Ago",
        "hlsh": "24 Ago",
        "date": 15035328E5,
        "ts": "00:00",
        "ds": "Huwebes, 24 Agosto 2017, 00:00 — 06:00",
        "icon": 17,
        "desc": "Overcast.",
        "temp": 27,
        "templow": 27,
        "baro": 1010,
        "wind": 4,
        "wd": 0,
        "hum": 100
    }, {
        "date": 15035544E5,
        "ts": "06:00",
        "ds": "Huwebes, 24 Agosto 2017, 06:00 — 12:00",
        "icon": 6,
        "desc": "Partly sunny.",
        "temp": 30,
        "templow": 27,
        "baro": 1011,
        "wind": 5,
        "wd": 0,
        "hum": 94
    }, {
        "date": 1503576E6,
        "ts": "12:00",
        "ds": "Huwebes, 24 Agosto 2017, 12:00 — 18:00",
        "icon": 6,
        "desc": "Partly sunny.",
        "temp": 30,
        "templow": 29,
        "baro": 1009,
        "wind": 13,
        "wd": 270,
        "hum": 84
    }, {
        "date": 15035976E5,
        "ts": "18:00",
        "ds": "Huwebes, 24 Agosto 2017, 18:00 — 00:00",
        "icon": 14,
        "desc": "Passing clouds.",
        "temp": 29,
        "templow": 26,
        "baro": 1009,
        "wind": 12,
        "wd": 280,
        "hum": 89
    }, {
        "hl": true,
        "hls": "uLw, 25 Ago",
        "hlsh": "25 Ago",
        "date": 15036192E5,
        "ts": "00:00",
        "ds": "Biyernes, 25 Agosto 2017, 00:00 — 06:00",
        "icon": 15,
        "desc": "Partly cloudy.",
        "temp": 26,
        "templow": 25,
        "baro": 1007,
        "wind": 11,
        "wd": 350,
        "hum": 97
    }, {
        "date": 15036408E5,
        "ts": "06:00",
        "ds": "Biyernes, 25 Agosto 2017, 06:00 — 12:00",
        "icon": 6,
        "desc": "More clouds than sun.",
        "temp": 29,
        "templow": 26,
        "baro": 1007,
        "wind": 14,
        "wd": 0,
        "hum": 89
    }, {
        "date": 15036624E5,
        "ts": "12:00",
        "ds": "Biyernes, 25 Agosto 2017, 12:00 — 18:00",
        "icon": 18,
        "desc": "Light rain. More clouds than sun.",
        "temp": 29,
        "templow": 25,
        "baro": 1005,
        "wind": 14,
        "wd": 220,
        "hum": 95
    }, {
        "date": 1503684E6,
        "ts": "18:00",
        "ds": "Biyernes, 25 Agosto 2017, 18:00 — 00:00",
        "icon": 34,
        "desc": "Light rain. Mostly cloudy.",
        "temp": 25,
        "templow": 25,
        "baro": 1006,
        "wind": 12,
        "wd": 220,
        "hum": 100
    }, {
        "hl": true,
        "hls": "uMg, 26 Ago",
        "hlsh": "26 Ago",
        "date": 15037056E5,
        "ts": "00:00",
        "ds": "Sabado, 26 Agosto 2017, 00:00 — 06:00",
        "icon": 34,
        "desc": "Light rain. Mostly cloudy.",
        "temp": 25,
        "templow": 24,
        "baro": 1006,
        "wind": 5,
        "wd": 0,
        "hum": 100
    }, {
        "date": 15037272E5,
        "ts": "06:00",
        "ds": "Sabado, 26 Agosto 2017, 06:00 — 12:00",
        "icon": 6,
        "desc": "Broken clouds.",
        "temp": 30,
        "templow": 24,
        "baro": 1007,
        "wind": 7,
        "wd": 0,
        "hum": 91
    }, {
        "date": 15037488E5,
        "ts": "12:00",
        "ds": "Sabado, 26 Agosto 2017, 12:00 — 18:00",
        "icon": 6,
        "desc": "Partly sunny.",
        "temp": 31,
        "templow": 27,
        "baro": 1006,
        "wind": 10,
        "wd": 0,
        "hum": 80
    }, {
        "date": 15037704E5,
        "ts": "18:00",
        "ds": "Sabado, 26 Agosto 2017, 18:00 — 00:00",
        "icon": 17,
        "desc": "Mostly cloudy.",
        "temp": 28,
        "templow": 26,
        "baro": 1009,
        "wind": 6,
        "wd": 0,
        "hum": 99
    }, {
        "hl": true,
        "hls": "iSon, 27 Ago",
        "hlsh": "27 Ago",
        "date": 1503792E6,
        "ts": "00:00",
        "ds": "Linggo, 27 Agosto 2017, 00:00 — 06:00",
        "icon": 34,
        "desc": "Light rain. Mostly cloudy.",
        "temp": 26,
        "templow": 25,
        "baro": 1010,
        "wind": 2,
        "wd": 0,
        "hum": 100
    }, {
        "date": 15038136E5,
        "ts": "06:00",
        "ds": "Linggo, 27 Agosto 2017, 06:00 — 12:00",
        "icon": 2,
        "desc": "Scattered clouds.",
        "temp": 33,
        "templow": 25,
        "baro": 1011,
        "wind": 5,
        "wd": 0,
        "hum": 82
    }, {
        "date": 15038352E5,
        "ts": "12:00",
        "ds": "Linggo, 27 Agosto 2017, 12:00 — 18:00",
        "icon": 6,
        "desc": "Partly sunny.",
        "temp": 34,
        "templow": 30,
        "baro": 1009,
        "wind": 11,
        "wd": 0,
        "hum": 61
    }, {
        "date": 15038568E5,
        "ts": "18:00",
        "ds": "Linggo, 27 Agosto 2017, 18:00 — 00:00",
        "icon": 17,
        "desc": "Overcast.",
        "temp": 30,
        "templow": 26,
        "baro": 1011,
        "wind": 4,
        "wd": 0,
        "hum": 94
    }, {
        "hl": true,
        "hls": "uMs, 28 Ago",
        "hlsh": "28 Ago",
        "date": 15038784E5,
        "ts": "00:00",
        "ds": "Lunes, 28 Agosto 2017, 00:00 — 06:00",
        "icon": 14,
        "desc": "Passing clouds.",
        "temp": 27,
        "templow": 26,
        "baro": 1010,
        "wind": 4,
        "wd": 0,
        "hum": 97
    }, {
        "date": 15039E8,
        "ts": "06:00",
        "ds": "Lunes, 28 Agosto 2017, 06:00 — 12:00",
        "icon": 2,
        "desc": "Scattered clouds.",
        "temp": 33,
        "templow": 27,
        "baro": 1010,
        "wind": 8,
        "wd": 20,
        "hum": 72
    }, {
        "date": 15039216E5,
        "ts": "12:00",
        "ds": "Lunes, 28 Agosto 2017, 12:00 — 18:00",
        "icon": 6,
        "desc": "Partly sunny.",
        "temp": 33,
        "templow": 30,
        "baro": 1007,
        "wind": 16,
        "wd": 260,
        "hum": 73
    }, {
        "date": 15039432E5,
        "ts": "18:00",
        "ds": "Lunes, 28 Agosto 2017, 18:00 — 00:00",
        "icon": 22,
        "desc": "Thunderstorms. Mostly cloudy.",
        "temp": 30,
        "templow": 23,
        "baro": 1008,
        "wind": 11,
        "wd": 230,
        "hum": 95
    }, {
        "hl": true,
        "hls": "uLw, 29 Ago",
        "hlsh": "29 Ago",
        "date": 15039648E5,
        "ts": "00:00",
        "ds": "Martes, 29 Agosto 2017, 00:00 — 06:00",
        "icon": 14,
        "desc": "Passing clouds.",
        "temp": 25,
        "templow": 25,
        "baro": 1006,
        "wind": 1,
        "wd": 0,
        "hum": 100
    }, {
        "date": 15039864E5,
        "ts": "06:00",
        "ds": "Martes, 29 Agosto 2017, 06:00 — 12:00",
        "icon": 2,
        "desc": "Scattered clouds.",
        "temp": 31,
        "templow": 25,
        "baro": 1007,
        "wind": 9,
        "wd": 280,
        "hum": 90
    }, {
        "date": 1504008E6,
        "ts": "12:00",
        "ds": "Martes, 29 Agosto 2017, 12:00 — 18:00",
        "icon": 2,
        "desc": "Scattered clouds.",
        "temp": 32,
        "templow": 29,
        "baro": 1004,
        "wind": 14,
        "wd": 260,
        "hum": 78
    }, {
        "date": 15040296E5,
        "ts": "18:00",
        "ds": "Martes, 29 Agosto 2017, 18:00 — 00:00",
        "icon": 15,
        "desc": "Partly cloudy.",
        "temp": 29,
        "templow": 26,
        "baro": 1005,
        "wind": 4,
        "wd": 0,
        "hum": 98
    }, {
        "hl": true,
        "hls": "uLw, 30 Ago",
        "hlsh": "30 Ago",
        "date": 15040512E5,
        "ts": "00:00",
        "ds": "Miyerkules, 30 Agosto 2017, 00:00 — 06:00",
        "icon": 15,
        "desc": "Partly cloudy.",
        "temp": 27,
        "templow": 27,
        "baro": 1004,
        "wind": 3,
        "wd": 0,
        "hum": 100
    }, {
        "date": 15040728E5,
        "ts": "06:00",
        "ds": "Miyerkules, 30 Agosto 2017, 06:00 — 12:00",
        "icon": 6,
        "desc": "Partly sunny.",
        "temp": 30,
        "templow": 27,
        "baro": 1005,
        "wind": 7,
        "wd": 0,
        "hum": 89
    }, {
        "date": 15040944E5,
        "ts": "12:00",
        "ds": "Miyerkules, 30 Agosto 2017, 12:00 — 18:00",
        "icon": 6,
        "desc": "Broken clouds.",
        "temp": 31,
        "templow": 28,
        "baro": 1003,
        "wind": 16,
        "wd": 240,
        "hum": 81
    }, {
        "date": 1504116E6,
        "ts": "18:00",
        "ds": "Miyerkules, 30 Agosto 2017, 18:00 — 00:00",
        "icon": 14,
        "desc": "Passing clouds.",
        "temp": 28,
        "templow": 28,
        "baro": 1006,
        "wind": 9,
        "wd": 200,
        "hum": 97
    }, {
        "hl": true,
        "hls": "uLw, 31 Ago",
        "hlsh": "31 Ago",
        "date": 15041376E5,
        "ts": "00:00",
        "ds": "Huwebes, 31 Agosto 2017, 00:00 — 06:00",
        "icon": 34,
        "desc": "Sprinkles. Partly cloudy.",
        "temp": 28,
        "templow": 26,
        "baro": 1005,
        "wind": 10,
        "wd": 200,
        "hum": 99
    }, {
        "date": 15041592E5,
        "ts": "06:00",
        "ds": "Huwebes, 31 Agosto 2017, 06:00 — 12:00",
        "icon": 18,
        "desc": "Light rain. Broken clouds.",
        "temp": 31,
        "templow": 27,
        "baro": 1007,
        "wind": 18,
        "wd": 210,
        "hum": 90
    }, {
        "date": 15041808E5,
        "ts": "12:00",
        "ds": "Huwebes, 31 Agosto 2017, 12:00 — 18:00",
        "icon": 6,
        "desc": "Broken clouds.",
        "temp": 31,
        "templow": 28,
        "baro": 1005,
        "wind": 27,
        "wd": 250,
        "hum": 85
    }, {
        "date": 15042024E5,
        "ts": "18:00",
        "ds": "Huwebes, 31 Agosto 2017, 18:00 — 00:00",
        "icon": 14,
        "desc": "Passing clouds.",
        "temp": 28,
        "templow": 27,
        "baro": 1007,
        "wind": 13,
        "wd": 220,
        "hum": 98
    }]
}