# ann_entry_3_1
['station', 'month', 'day', 'day_of_the_week', 'hour', 'num_trains']
# Num of nodes: 20, 0 -----------------------------------------------*****
## 0-kth fold --------------------------------
Training Time Elapsed: 00:04:04, 244.563694954
Training set score: 0.839803
Training set loss: 0.419194
MLP # layers: 3
MLP # outputs: 3
MLP # iterations: 500
MLP out_activation_: softmax
MLP classes: [0. 1. 2.]
Classifier saved to /home/superbowl/Documents/MSEE/CS280/cs280-mini-proj/src/ANN/_old_grid_search_3_tests/../../../models/ann_entry_3_20_to_30_0/ann_entry_3_1/ann_0_20_0.pkl

Elapsed Seconds: 243.791570902
Total Time Elapsed: 00:04:03
Features in training dataset (80%):
Count: (205566,)
Counter({1.0: 102728, 0.0: 61706, 2.0: 41132})
Features in test dataset (20%):
Count: (51392,)
Counter({1.0: 25682, 0.0: 15427, 2.0: 10283})
Classification Report for Test Data (20%):
              precision    recall  f1-score   support

         0.0       0.85      0.78      0.81     15427
         1.0       0.81      0.87      0.84     25682
         2.0       0.83      0.80      0.81     10283

   micro avg       0.83      0.83      0.83     51392
   macro avg       0.83      0.81      0.82     51392
weighted avg       0.83      0.83      0.83     51392


Accuracy: 0.826334838107
## 1-kth fold --------------------------------
Training Time Elapsed: 00:08:07, 487.094505072
Training set score: 0.840290
Training set loss: 0.416038
MLP # layers: 3
MLP # outputs: 3
MLP # iterations: 500
MLP out_activation_: softmax
MLP classes: [0. 1. 2.]
Classifier saved to /home/superbowl/Documents/MSEE/CS280/cs280-mini-proj/src/ANN/_old_grid_search_3_tests/../../../models/ann_entry_3_20_to_30_0/ann_entry_3_1/ann_1_20_0.pkl

Elapsed Seconds: 242.284286022
Total Time Elapsed: 00:04:02
Features in training dataset (80%):
Count: (205566,)
Counter({1.0: 102728, 0.0: 61706, 2.0: 41132})
Features in test dataset (20%):
Count: (51392,)
Counter({1.0: 25682, 0.0: 15427, 2.0: 10283})
Classification Report for Test Data (20%):
              precision    recall  f1-score   support

         0.0       0.87      0.81      0.84     15427
         1.0       0.82      0.88      0.85     25682
         2.0       0.85      0.77      0.81     10283

   micro avg       0.84      0.84      0.84     51392
   macro avg       0.85      0.82      0.83     51392
weighted avg       0.84      0.84      0.84     51392


Accuracy: 0.837698474471
## 2-kth fold --------------------------------
Training Time Elapsed: 00:10:55, 655.671294928
Training set score: 0.844960
Training set loss: 0.417397
MLP # layers: 3
MLP # outputs: 3
MLP # iterations: 344
MLP out_activation_: softmax
MLP classes: [0. 1. 2.]
Classifier saved to /home/superbowl/Documents/MSEE/CS280/cs280-mini-proj/src/ANN/_old_grid_search_3_tests/../../../models/ann_entry_3_20_to_30_0/ann_entry_3_1/ann_2_20_0.pkl

Elapsed Seconds: 168.308393002
Total Time Elapsed: 00:02:48
Features in training dataset (80%):
Count: (205566,)
Counter({1.0: 102728, 0.0: 61706, 2.0: 41132})
Features in test dataset (20%):
Count: (51392,)
Counter({1.0: 25682, 0.0: 15427, 2.0: 10283})
Classification Report for Test Data (20%):
              precision    recall  f1-score   support

         0.0       0.87      0.81      0.84     15427
         1.0       0.83      0.88      0.85     25682
         2.0       0.82      0.80      0.81     10283

   micro avg       0.84      0.84      0.84     51392
   macro avg       0.84      0.83      0.84     51392
weighted avg       0.84      0.84      0.84     51392


Accuracy: 0.842154420922
## 3-kth fold --------------------------------
Training Time Elapsed: 00:14:57, 897.793296099
Training set score: 0.840310
Training set loss: 0.406605
MLP # layers: 3
MLP # outputs: 3
MLP # iterations: 500
MLP out_activation_: softmax
MLP classes: [0. 1. 2.]
Classifier saved to /home/superbowl/Documents/MSEE/CS280/cs280-mini-proj/src/ANN/_old_grid_search_3_tests/../../../models/ann_entry_3_20_to_30_0/ann_entry_3_1/ann_3_20_0.pkl

Elapsed Seconds: 241.900323153
Total Time Elapsed: 00:04:01
Features in training dataset (80%):
Count: (205567,)
Counter({1.0: 102728, 0.0: 61707, 2.0: 41132})
Features in test dataset (20%):
Count: (51391,)
Counter({1.0: 25682, 0.0: 15426, 2.0: 10283})
Classification Report for Test Data (20%):
              precision    recall  f1-score   support

         0.0       0.84      0.79      0.81     15426
         1.0       0.80      0.85      0.83     25682
         2.0       0.81      0.76      0.79     10283

   micro avg       0.81      0.81      0.81     51391
   macro avg       0.82      0.80      0.81     51391
weighted avg       0.82      0.81      0.81     51391


Accuracy: 0.814870308031
## 4-kth fold --------------------------------
Training Time Elapsed: 00:18:40, 1120.68559098
Training set score: 0.833981
Training set loss: 0.437186
MLP # layers: 3
MLP # outputs: 3
MLP # iterations: 456
MLP out_activation_: softmax
MLP classes: [0. 1. 2.]
Classifier saved to /home/superbowl/Documents/MSEE/CS280/cs280-mini-proj/src/ANN/_old_grid_search_3_tests/../../../models/ann_entry_3_20_to_30_0/ann_entry_3_1/ann_4_20_0.pkl

Elapsed Seconds: 222.621958017
Total Time Elapsed: 00:03:42
Features in training dataset (80%):
Count: (205567,)
Counter({1.0: 102728, 0.0: 61707, 2.0: 41132})
Features in test dataset (20%):
Count: (51391,)
Counter({1.0: 25682, 0.0: 15426, 2.0: 10283})
Classification Report for Test Data (20%):
              precision    recall  f1-score   support

         0.0       0.89      0.79      0.84     15426
         1.0       0.81      0.87      0.84     25682
         2.0       0.81      0.80      0.80     10283

   micro avg       0.83      0.83      0.83     51391
   macro avg       0.84      0.82      0.83     51391
weighted avg       0.83      0.83      0.83     51391


Accuracy: 0.831916094258
Sorted List of Temp Training Scores: 
[]

Sorted List of Temp Test Accuracies: 
[]

Average Training Accuracy for: (20, 0)
0.839868777628

Average Test Accuracy for: (20, 0)
0.830594827158

Elapsed Seconds: 1121.36006498
Total Time Elapsed: 00:18:41
# Num of nodes: 21, 0 -----------------------------------------------*****
## 0-kth fold --------------------------------
Training Time Elapsed: 00:22:13, 1333.20388699
Training set score: 0.844965
Training set loss: 0.414407
MLP # layers: 3
MLP # outputs: 3
MLP # iterations: 428
MLP out_activation_: softmax
MLP classes: [0. 1. 2.]
Classifier saved to /home/superbowl/Documents/MSEE/CS280/cs280-mini-proj/src/ANN/_old_grid_search_3_tests/../../../models/ann_entry_3_20_to_30_0/ann_entry_3_1/ann_0_21_0.pkl

Elapsed Seconds: 212.058540106
Total Time Elapsed: 00:03:32
Features in training dataset (80%):
Count: (205566,)
Counter({1.0: 102728, 0.0: 61706, 2.0: 41132})
Features in test dataset (20%):
Count: (51392,)
Counter({1.0: 25682, 0.0: 15427, 2.0: 10283})
Classification Report for Test Data (20%):
              precision    recall  f1-score   support

         0.0       0.85      0.80      0.83     15427
         1.0       0.83      0.88      0.85     25682
         2.0       0.85      0.81      0.83     10283

   micro avg       0.84      0.84      0.84     51392
   macro avg       0.85      0.83      0.84     51392
weighted avg       0.84      0.84      0.84     51392


Accuracy: 0.840695049813
## 1-kth fold --------------------------------
Training Time Elapsed: 00:26:23, 1583.36752701
Training set score: 0.850593
Training set loss: 0.413495
MLP # layers: 3
MLP # outputs: 3
MLP # iterations: 500
MLP out_activation_: softmax
MLP classes: [0. 1. 2.]
Classifier saved to /home/superbowl/Documents/MSEE/CS280/cs280-mini-proj/src/ANN/_old_grid_search_3_tests/../../../models/ann_entry_3_20_to_30_0/ann_entry_3_1/ann_1_21_0.pkl

Elapsed Seconds: 249.901955128
Total Time Elapsed: 00:04:09
Features in training dataset (80%):
Count: (205566,)
Counter({1.0: 102728, 0.0: 61706, 2.0: 41132})
Features in test dataset (20%):
Count: (51392,)
Counter({1.0: 25682, 0.0: 15427, 2.0: 10283})
Classification Report for Test Data (20%):
              precision    recall  f1-score   support

         0.0       0.84      0.82      0.83     15427
         1.0       0.84      0.88      0.85     25682
         2.0       0.89      0.83      0.86     10283

   micro avg       0.85      0.85      0.85     51392
   macro avg       0.86      0.84      0.85     51392
weighted avg       0.85      0.85      0.85     51392


Accuracy: 0.848342154421
## 2-kth fold --------------------------------
Training Time Elapsed: 00:30:30, 1830.91111994
Training set score: 0.839516
Training set loss: 0.430920
MLP # layers: 3
MLP # outputs: 3
MLP # iterations: 500
MLP out_activation_: softmax
MLP classes: [0. 1. 2.]
Classifier saved to /home/superbowl/Documents/MSEE/CS280/cs280-mini-proj/src/ANN/_old_grid_search_3_tests/../../../models/ann_entry_3_20_to_30_0/ann_entry_3_1/ann_2_21_0.pkl

Elapsed Seconds: 247.262301207
Total Time Elapsed: 00:04:07
Features in training dataset (80%):
Count: (205566,)
Counter({1.0: 102728, 0.0: 61706, 2.0: 41132})
Features in test dataset (20%):
Count: (51392,)
Counter({1.0: 25682, 0.0: 15427, 2.0: 10283})
Classification Report for Test Data (20%):
              precision    recall  f1-score   support

         0.0       0.86      0.75      0.80     15427
         1.0       0.81      0.89      0.85     25682
         2.0       0.85      0.81      0.83     10283

   micro avg       0.83      0.83      0.83     51392
   macro avg       0.84      0.82      0.83     51392
weighted avg       0.83      0.83      0.83     51392


Accuracy: 0.83121886675
## 3-kth fold --------------------------------
Training Time Elapsed: 00:34:08, 2048.54610991
Training set score: 0.846182
Training set loss: 0.402773
MLP # layers: 3
MLP # outputs: 3
MLP # iterations: 437
MLP out_activation_: softmax
MLP classes: [0. 1. 2.]
Classifier saved to /home/superbowl/Documents/MSEE/CS280/cs280-mini-proj/src/ANN/_old_grid_search_3_tests/../../../models/ann_entry_3_20_to_30_0/ann_entry_3_1/ann_3_21_0.pkl

Elapsed Seconds: 217.388620853
Total Time Elapsed: 00:03:37
Features in training dataset (80%):
Count: (205567,)
Counter({1.0: 102728, 0.0: 61707, 2.0: 41132})
Features in test dataset (20%):
Count: (51391,)
Counter({1.0: 25682, 0.0: 15426, 2.0: 10283})
Classification Report for Test Data (20%):
              precision    recall  f1-score   support

         0.0       0.85      0.77      0.81     15426
         1.0       0.80      0.88      0.84     25682
         2.0       0.85      0.74      0.79     10283

   micro avg       0.82      0.82      0.82     51391
   macro avg       0.83      0.80      0.81     51391
weighted avg       0.82      0.82      0.82     51391


Accuracy: 0.819287423868
## 4-kth fold --------------------------------
Training Time Elapsed: 00:38:17, 2297.88042593
Training set score: 0.822895
Training set loss: 0.450642
MLP # layers: 3
MLP # outputs: 3
MLP # iterations: 500
MLP out_activation_: softmax
MLP classes: [0. 1. 2.]
Classifier saved to /home/superbowl/Documents/MSEE/CS280/cs280-mini-proj/src/ANN/_old_grid_search_3_tests/../../../models/ann_entry_3_20_to_30_0/ann_entry_3_1/ann_4_21_0.pkl

Elapsed Seconds: 249.078528881
Total Time Elapsed: 00:04:09
Features in training dataset (80%):
Count: (205567,)
Counter({1.0: 102728, 0.0: 61707, 2.0: 41132})
Features in test dataset (20%):
Count: (51391,)
Counter({1.0: 25682, 0.0: 15426, 2.0: 10283})
Classification Report for Test Data (20%):
              precision    recall  f1-score   support

         0.0       0.84      0.76      0.80     15426
         1.0       0.80      0.85      0.83     25682
         2.0       0.83      0.81      0.82     10283

   micro avg       0.82      0.82      0.82     51391
   macro avg       0.82      0.81      0.82     51391
weighted avg       0.82      0.82      0.82     51391


Accuracy: 0.817944776323
Sorted List of Temp Training Scores: 
[[(20, 0), 0.8398687776275191]]

Sorted List of Temp Test Accuracies: 
[[(20, 0), 0.8305948271575432]]

Average Training Accuracy for: (21, 0)
0.840830031157

Average Test Accuracy for: (21, 0)
0.831497654235

Elapsed Seconds: 1177.14936304
Total Time Elapsed: 00:19:37
# Num of nodes: 22, 0 -----------------------------------------------*****
## 0-kth fold --------------------------------
Training Time Elapsed: 00:42:06, 2526.394732
Training set score: 0.851084
Training set loss: 0.395170
MLP # layers: 3
MLP # outputs: 3
MLP # iterations: 449
MLP out_activation_: softmax
MLP classes: [0. 1. 2.]
Classifier saved to /home/superbowl/Documents/MSEE/CS280/cs280-mini-proj/src/ANN/_old_grid_search_3_tests/../../../models/ann_entry_3_20_to_30_0/ann_entry_3_1/ann_0_22_0.pkl

Elapsed Seconds: 228.194229841
Total Time Elapsed: 00:03:48
Features in training dataset (80%):
Count: (205566,)
Counter({1.0: 102728, 0.0: 61706, 2.0: 41132})
Features in test dataset (20%):
Count: (51392,)
Counter({1.0: 25682, 0.0: 15427, 2.0: 10283})
Classification Report for Test Data (20%):
              precision    recall  f1-score   support

         0.0       0.85      0.77      0.81     15427
         1.0       0.82      0.88      0.85     25682
         2.0       0.88      0.83      0.85     10283

   micro avg       0.84      0.84      0.84     51392
   macro avg       0.85      0.83      0.84     51392
weighted avg       0.84      0.84      0.84     51392


Accuracy: 0.839274595268
## 1-kth fold --------------------------------
Training Time Elapsed: 00:45:03, 2703.54098201
Training set score: 0.832686
Training set loss: 0.437359
MLP # layers: 3
MLP # outputs: 3
MLP # iterations: 347
MLP out_activation_: softmax
MLP classes: [0. 1. 2.]
Classifier saved to /home/superbowl/Documents/MSEE/CS280/cs280-mini-proj/src/ANN/_old_grid_search_3_tests/../../../models/ann_entry_3_20_to_30_0/ann_entry_3_1/ann_1_22_0.pkl

Elapsed Seconds: 176.811411858
Total Time Elapsed: 00:02:56
Features in training dataset (80%):
Count: (205566,)
Counter({1.0: 102728, 0.0: 61706, 2.0: 41132})
Features in test dataset (20%):
Count: (51392,)
Counter({1.0: 25682, 0.0: 15427, 2.0: 10283})
Classification Report for Test Data (20%):
              precision    recall  f1-score   support

         0.0       0.84      0.82      0.83     15427
         1.0       0.81      0.87      0.84     25682
         2.0       0.87      0.76      0.81     10283

   micro avg       0.83      0.83      0.83     51392
   macro avg       0.84      0.81      0.83     51392
weighted avg       0.83      0.83      0.83     51392


Accuracy: 0.830109744707
## 2-kth fold --------------------------------
Training Time Elapsed: 00:49:11, 2951.67578793
Training set score: 0.867911
Training set loss: 0.381451
MLP # layers: 3
MLP # outputs: 3
MLP # iterations: 489
MLP out_activation_: softmax
MLP classes: [0. 1. 2.]
Classifier saved to /home/superbowl/Documents/MSEE/CS280/cs280-mini-proj/src/ANN/_old_grid_search_3_tests/../../../models/ann_entry_3_20_to_30_0/ann_entry_3_1/ann_2_22_0.pkl

Elapsed Seconds: 247.883782864
Total Time Elapsed: 00:04:07
Features in training dataset (80%):
Count: (205566,)
Counter({1.0: 102728, 0.0: 61706, 2.0: 41132})
Features in test dataset (20%):
Count: (51392,)
Counter({1.0: 25682, 0.0: 15427, 2.0: 10283})
Classification Report for Test Data (20%):
              precision    recall  f1-score   support

         0.0       0.89      0.79      0.84     15427
         1.0       0.85      0.90      0.88     25682
         2.0       0.86      0.88      0.87     10283

   micro avg       0.86      0.86      0.86     51392
   macro avg       0.87      0.86      0.86     51392
weighted avg       0.86      0.86      0.86     51392


Accuracy: 0.863869863014
## 3-kth fold --------------------------------
Training Time Elapsed: 00:52:19, 3139.81227899
Training set score: 0.839648
Training set loss: 0.408279
MLP # layers: 3
MLP # outputs: 3
MLP # iterations: 371
MLP out_activation_: softmax
MLP classes: [0. 1. 2.]
Classifier saved to /home/superbowl/Documents/MSEE/CS280/cs280-mini-proj/src/ANN/_old_grid_search_3_tests/../../../models/ann_entry_3_20_to_30_0/ann_entry_3_1/ann_3_22_0.pkl

Elapsed Seconds: 187.85273385
Total Time Elapsed: 00:03:07
Features in training dataset (80%):
Count: (205567,)
Counter({1.0: 102728, 0.0: 61707, 2.0: 41132})
Features in test dataset (20%):
Count: (51391,)
Counter({1.0: 25682, 0.0: 15426, 2.0: 10283})
Classification Report for Test Data (20%):
              precision    recall  f1-score   support

         0.0       0.87      0.73      0.80     15426
         1.0       0.79      0.88      0.84     25682
         2.0       0.82      0.79      0.80     10283

   micro avg       0.82      0.82      0.82     51391
   macro avg       0.83      0.80      0.81     51391
weighted avg       0.82      0.82      0.82     51391


Accuracy: 0.818839874686
## 4-kth fold --------------------------------
Training Time Elapsed: 00:56:05, 3365.53484607
Training set score: 0.847558
Training set loss: 0.397975
MLP # layers: 3
MLP # outputs: 3
MLP # iterations: 446
MLP out_activation_: softmax
MLP classes: [0. 1. 2.]
Classifier saved to /home/superbowl/Documents/MSEE/CS280/cs280-mini-proj/src/ANN/_old_grid_search_3_tests/../../../models/ann_entry_3_20_to_30_0/ann_entry_3_1/ann_4_22_0.pkl

Elapsed Seconds: 225.478132963
Total Time Elapsed: 00:03:45
Features in training dataset (80%):
Count: (205567,)
Counter({1.0: 102728, 0.0: 61707, 2.0: 41132})
Features in test dataset (20%):
Count: (51391,)
Counter({1.0: 25682, 0.0: 15426, 2.0: 10283})
Classification Report for Test Data (20%):
              precision    recall  f1-score   support

         0.0       0.85      0.78      0.81     15426
         1.0       0.82      0.85      0.84     25682
         2.0       0.83      0.86      0.85     10283

   micro avg       0.83      0.83      0.83     51391
   macro avg       0.84      0.83      0.83     51391
weighted avg       0.83      0.83      0.83     51391


Accuracy: 0.832655523341
Sorted List of Temp Training Scores: 
[[(21, 0), 0.8408300311566481], [(20, 0), 0.8398687776275191]]

Sorted List of Temp Test Accuracies: 
[[(21, 0), 0.8314976542349012], [(20, 0), 0.8305948271575432]]

Average Training Accuracy for: (22, 0)
0.847777660502

Average Test Accuracy for: (22, 0)
0.836949920203

Elapsed Seconds: 1067.66556501
Total Time Elapsed: 00:17:47
# Num of nodes: 23, 0 -----------------------------------------------*****
## 0-kth fold --------------------------------
Training Time Elapsed: 01:00:02, 3602.92859697
Training set score: 0.858313
Training set loss: 0.386830
MLP # layers: 3
MLP # outputs: 3
MLP # iterations: 457
MLP out_activation_: softmax
MLP classes: [0. 1. 2.]
Classifier saved to /home/superbowl/Documents/MSEE/CS280/cs280-mini-proj/src/ANN/_old_grid_search_3_tests/../../../models/ann_entry_3_20_to_30_0/ann_entry_3_1/ann_0_23_0.pkl

Elapsed Seconds: 237.002126932
Total Time Elapsed: 00:03:57
Features in training dataset (80%):
Count: (205566,)
Counter({1.0: 102728, 0.0: 61706, 2.0: 41132})
Features in test dataset (20%):
Count: (51392,)
Counter({1.0: 25682, 0.0: 15427, 2.0: 10283})
Classification Report for Test Data (20%):
              precision    recall  f1-score   support

         0.0       0.87      0.79      0.83     15427
         1.0       0.83      0.90      0.86     25682
         2.0       0.87      0.81      0.84     10283

   micro avg       0.85      0.85      0.85     51392
   macro avg       0.86      0.83      0.84     51392
weighted avg       0.85      0.85      0.85     51392


Accuracy: 0.84900373599
## 1-kth fold --------------------------------
Training Time Elapsed: 01:04:21, 3861.47793293
Training set score: 0.855482
Training set loss: 0.387178
MLP # layers: 3
MLP # outputs: 3
MLP # iterations: 500
MLP out_activation_: softmax
MLP classes: [0. 1. 2.]
Classifier saved to /home/superbowl/Documents/MSEE/CS280/cs280-mini-proj/src/ANN/_old_grid_search_3_tests/../../../models/ann_entry_3_20_to_30_0/ann_entry_3_1/ann_1_23_0.pkl

Elapsed Seconds: 258.252575874
Total Time Elapsed: 00:04:18
Features in training dataset (80%):
Count: (205566,)
Counter({1.0: 102728, 0.0: 61706, 2.0: 41132})
Features in test dataset (20%):
Count: (51392,)
Counter({1.0: 25682, 0.0: 15427, 2.0: 10283})
Classification Report for Test Data (20%):
              precision    recall  f1-score   support

         0.0       0.87      0.85      0.86     15427
         1.0       0.85      0.88      0.86     25682
         2.0       0.87      0.82      0.84     10283

   micro avg       0.86      0.86      0.86     51392
   macro avg       0.86      0.85      0.86     51392
weighted avg       0.86      0.86      0.86     51392


Accuracy: 0.858616127024
## 2-kth fold --------------------------------
Training Time Elapsed: 01:08:06, 4086.668015
Training set score: 0.873097
Training set loss: 0.366184
MLP # layers: 3
MLP # outputs: 3
MLP # iterations: 434
MLP out_activation_: softmax
MLP classes: [0. 1. 2.]
Classifier saved to /home/superbowl/Documents/MSEE/CS280/cs280-mini-proj/src/ANN/_old_grid_search_3_tests/../../../models/ann_entry_3_20_to_30_0/ann_entry_3_1/ann_2_23_0.pkl

Elapsed Seconds: 224.917926073
Total Time Elapsed: 00:03:44
Features in training dataset (80%):
Count: (205566,)
Counter({1.0: 102728, 0.0: 61706, 2.0: 41132})
Features in test dataset (20%):
Count: (51392,)
Counter({1.0: 25682, 0.0: 15427, 2.0: 10283})
Classification Report for Test Data (20%):
              precision    recall  f1-score   support

         0.0       0.90      0.81      0.85     15427
         1.0       0.85      0.91      0.88     25682
         2.0       0.88      0.85      0.86     10283

   micro avg       0.87      0.87      0.87     51392
   macro avg       0.87      0.86      0.86     51392
weighted avg       0.87      0.87      0.87     51392


Accuracy: 0.867605853051
## 3-kth fold --------------------------------
Training Time Elapsed: 01:11:25, 4285.92383313
Training set score: 0.844007
Training set loss: 0.408297
MLP # layers: 3
MLP # outputs: 3
MLP # iterations: 385
MLP out_activation_: softmax
MLP classes: [0. 1. 2.]
Classifier saved to /home/superbowl/Documents/MSEE/CS280/cs280-mini-proj/src/ANN/_old_grid_search_3_tests/../../../models/ann_entry_3_20_to_30_0/ann_entry_3_1/ann_3_23_0.pkl

Elapsed Seconds: 198.995987177
Total Time Elapsed: 00:03:18
Features in training dataset (80%):
Count: (205567,)
Counter({1.0: 102728, 0.0: 61707, 2.0: 41132})
Features in test dataset (20%):
Count: (51391,)
Counter({1.0: 25682, 0.0: 15426, 2.0: 10283})
Classification Report for Test Data (20%):
              precision    recall  f1-score   support

         0.0       0.81      0.79      0.80     15426
         1.0       0.79      0.85      0.82     25682
         2.0       0.86      0.72      0.78     10283

   micro avg       0.81      0.81      0.81     51391
   macro avg       0.82      0.79      0.80     51391
weighted avg       0.81      0.81      0.81     51391


Accuracy: 0.806289038937
## 4-kth fold --------------------------------
Training Time Elapsed: 01:14:57, 4497.48567009
Training set score: 0.842100
Training set loss: 0.400829
MLP # layers: 3
MLP # outputs: 3
MLP # iterations: 409
MLP out_activation_: softmax
MLP classes: [0. 1. 2.]
Classifier saved to /home/superbowl/Documents/MSEE/CS280/cs280-mini-proj/src/ANN/_old_grid_search_3_tests/../../../models/ann_entry_3_20_to_30_0/ann_entry_3_1/ann_4_23_0.pkl

Elapsed Seconds: 211.315850019
Total Time Elapsed: 00:03:31
Features in training dataset (80%):
Count: (205567,)
Counter({1.0: 102728, 0.0: 61707, 2.0: 41132})
Features in test dataset (20%):
Count: (51391,)
Counter({1.0: 25682, 0.0: 15426, 2.0: 10283})
Classification Report for Test Data (20%):
              precision    recall  f1-score   support

         0.0       0.85      0.78      0.82     15426
         1.0       0.82      0.87      0.84     25682
         2.0       0.84      0.83      0.84     10283

   micro avg       0.83      0.83      0.83     51391
   macro avg       0.84      0.83      0.83     51391
weighted avg       0.83      0.83      0.83     51391


Accuracy: 0.833472787064
Sorted List of Temp Training Scores: 
[[(22, 0), 0.8477776605016352], [(21, 0), 0.8408300311566481], [(20, 0), 0.8398687776275191]]

Sorted List of Temp Test Accuracies: 
[[(22, 0), 0.8369499202031367], [(21, 0), 0.8314976542349012], [(20, 0), 0.8305948271575432]]

Average Training Accuracy for: (23, 0)
0.854599801419

Average Test Accuracy for: (23, 0)
0.842997508413

Elapsed Seconds: 1131.95131898
Total Time Elapsed: 00:18:51
# Num of nodes: 24, 0 -----------------------------------------------*****
## 0-kth fold --------------------------------
Training Time Elapsed: 01:19:16, 4756.54792809
Training set score: 0.886348
Training set loss: 0.341491
MLP # layers: 3
MLP # outputs: 3
MLP # iterations: 500
MLP out_activation_: softmax
MLP classes: [0. 1. 2.]
Classifier saved to /home/superbowl/Documents/MSEE/CS280/cs280-mini-proj/src/ANN/_old_grid_search_3_tests/../../../models/ann_entry_3_20_to_30_0/ann_entry_3_1/ann_0_24_0.pkl

Elapsed Seconds: 258.632380962
Total Time Elapsed: 00:04:18
Features in training dataset (80%):
Count: (205566,)
Counter({1.0: 102728, 0.0: 61706, 2.0: 41132})
Features in test dataset (20%):
Count: (51392,)
Counter({1.0: 25682, 0.0: 15427, 2.0: 10283})
Classification Report for Test Data (20%):
              precision    recall  f1-score   support

         0.0       0.92      0.82      0.87     15427
         1.0       0.86      0.92      0.89     25682
         2.0       0.88      0.84      0.86     10283

   micro avg       0.88      0.88      0.88     51392
   macro avg       0.88      0.86      0.87     51392
weighted avg       0.88      0.88      0.88     51392


Accuracy: 0.87620641345
## 1-kth fold --------------------------------
Training Time Elapsed: 01:23:29, 5009.20932102
Training set score: 0.875592
Training set loss: 0.369893
MLP # layers: 3
MLP # outputs: 3
MLP # iterations: 490
MLP out_activation_: softmax
MLP classes: [0. 1. 2.]
Classifier saved to /home/superbowl/Documents/MSEE/CS280/cs280-mini-proj/src/ANN/_old_grid_search_3_tests/../../../models/ann_entry_3_20_to_30_0/ann_entry_3_1/ann_1_24_0.pkl

Elapsed Seconds: 252.406033039
Total Time Elapsed: 00:04:12
Features in training dataset (80%):
Count: (205566,)
Counter({1.0: 102728, 0.0: 61706, 2.0: 41132})
Features in test dataset (20%):
Count: (51392,)
Counter({1.0: 25682, 0.0: 15427, 2.0: 10283})
Classification Report for Test Data (20%):
              precision    recall  f1-score   support

         0.0       0.88      0.87      0.87     15427
         1.0       0.86      0.90      0.88     25682
         2.0       0.91      0.83      0.87     10283

   micro avg       0.88      0.88      0.88     51392
   macro avg       0.88      0.87      0.87     51392
weighted avg       0.88      0.88      0.88     51392


Accuracy: 0.876498287671
## 2-kth fold --------------------------------
Training Time Elapsed: 01:27:36, 5256.78380799
Training set score: 0.871876
Training set loss: 0.375097
MLP # layers: 3
MLP # outputs: 3
MLP # iterations: 480
MLP out_activation_: softmax
MLP classes: [0. 1. 2.]
Classifier saved to /home/superbowl/Documents/MSEE/CS280/cs280-mini-proj/src/ANN/_old_grid_search_3_tests/../../../models/ann_entry_3_20_to_30_0/ann_entry_3_1/ann_2_24_0.pkl

Elapsed Seconds: 247.358947039
Total Time Elapsed: 00:04:07
Features in training dataset (80%):
Count: (205566,)
Counter({1.0: 102728, 0.0: 61706, 2.0: 41132})
Features in test dataset (20%):
Count: (51392,)
Counter({1.0: 25682, 0.0: 15427, 2.0: 10283})
Classification Report for Test Data (20%):
              precision    recall  f1-score   support

         0.0       0.89      0.81      0.85     15427
         1.0       0.86      0.90      0.88     25682
         2.0       0.85      0.87      0.86     10283

   micro avg       0.87      0.87      0.87     51392
   macro avg       0.87      0.86      0.86     51392
weighted avg       0.87      0.87      0.87     51392


Accuracy: 0.867391811955
## 3-kth fold --------------------------------
Training Time Elapsed: 01:31:31, 5491.34929299
Training set score: 0.858075
Training set loss: 0.373004
MLP # layers: 3
MLP # outputs: 3
MLP # iterations: 451
MLP out_activation_: softmax
MLP classes: [0. 1. 2.]
Classifier saved to /home/superbowl/Documents/MSEE/CS280/cs280-mini-proj/src/ANN/_old_grid_search_3_tests/../../../models/ann_entry_3_20_to_30_0/ann_entry_3_1/ann_3_24_0.pkl

Elapsed Seconds: 234.310364008
Total Time Elapsed: 00:03:54
Features in training dataset (80%):
Count: (205567,)
Counter({1.0: 102728, 0.0: 61707, 2.0: 41132})
Features in test dataset (20%):
Count: (51391,)
Counter({1.0: 25682, 0.0: 15426, 2.0: 10283})
Classification Report for Test Data (20%):
              precision    recall  f1-score   support

         0.0       0.80      0.80      0.80     15426
         1.0       0.81      0.85      0.83     25682
         2.0       0.87      0.74      0.80     10283

   micro avg       0.82      0.82      0.82     51391
   macro avg       0.83      0.80      0.81     51391
weighted avg       0.82      0.82      0.82     51391


Accuracy: 0.815784865054
## 4-kth fold --------------------------------
Training Time Elapsed: 01:35:14, 5714.14847398
Training set score: 0.844693
Training set loss: 0.411091
MLP # layers: 3
MLP # outputs: 3
MLP # iterations: 430
MLP out_activation_: softmax
MLP classes: [0. 1. 2.]
Classifier saved to /home/superbowl/Documents/MSEE/CS280/cs280-mini-proj/src/ANN/_old_grid_search_3_tests/../../../models/ann_entry_3_20_to_30_0/ann_entry_3_1/ann_4_24_0.pkl

Elapsed Seconds: 222.447170973
Total Time Elapsed: 00:03:42
Features in training dataset (80%):
Count: (205567,)
Counter({1.0: 102728, 0.0: 61707, 2.0: 41132})
Features in test dataset (20%):
Count: (51391,)
Counter({1.0: 25682, 0.0: 15426, 2.0: 10283})
Classification Report for Test Data (20%):
              precision    recall  f1-score   support

         0.0       0.87      0.78      0.82     15426
         1.0       0.83      0.87      0.85     25682
         2.0       0.83      0.86      0.84     10283

   micro avg       0.84      0.84      0.84     51391
   macro avg       0.84      0.84      0.84     51391
weighted avg       0.84      0.84      0.84     51391


Accuracy: 0.839193633126
Sorted List of Temp Training Scores: 
[[(23, 0), 0.8545998014192951], [(22, 0), 0.8477776605016352], [(21, 0), 0.8408300311566481], [(20, 0), 0.8398687776275191]]

Sorted List of Temp Test Accuracies: 
[[(23, 0), 0.8429975084130836], [(22, 0), 0.8369499202031367], [(21, 0), 0.8314976542349012], [(20, 0), 0.8305948271575432]]

Average Training Accuracy for: (24, 0)
0.867316868774

Average Test Accuracy for: (24, 0)
0.855015002251

Elapsed Seconds: 1216.65838885
Total Time Elapsed: 00:20:16
# Num of nodes: 25, 0 -----------------------------------------------*****
## 0-kth fold --------------------------------
Training Time Elapsed: 01:39:36, 5976.97727609
Training set score: 0.866413
Training set loss: 0.371249
MLP # layers: 3
MLP # outputs: 3
MLP # iterations: 500
MLP out_activation_: softmax
MLP classes: [0. 1. 2.]
Classifier saved to /home/superbowl/Documents/MSEE/CS280/cs280-mini-proj/src/ANN/_old_grid_search_3_tests/../../../models/ann_entry_3_20_to_30_0/ann_entry_3_1/ann_0_25_0.pkl

Elapsed Seconds: 262.470059156
Total Time Elapsed: 00:04:22
Features in training dataset (80%):
Count: (205566,)
Counter({1.0: 102728, 0.0: 61706, 2.0: 41132})
Features in test dataset (20%):
Count: (51392,)
Counter({1.0: 25682, 0.0: 15427, 2.0: 10283})
Classification Report for Test Data (20%):
              precision    recall  f1-score   support

         0.0       0.86      0.82      0.84     15427
         1.0       0.85      0.87      0.86     25682
         2.0       0.85      0.86      0.85     10283

   micro avg       0.85      0.85      0.85     51392
   macro avg       0.85      0.85      0.85     51392
weighted avg       0.85      0.85      0.85     51392


Accuracy: 0.853304016189
## 1-kth fold --------------------------------
Training Time Elapsed: 01:44:00, 6240.96344805
Training set score: 0.856533
Training set loss: 0.379926
MLP # layers: 3
MLP # outputs: 3
MLP # iterations: 500
MLP out_activation_: softmax
MLP classes: [0. 1. 2.]
Classifier saved to /home/superbowl/Documents/MSEE/CS280/cs280-mini-proj/src/ANN/_old_grid_search_3_tests/../../../models/ann_entry_3_20_to_30_0/ann_entry_3_1/ann_1_25_0.pkl

Elapsed Seconds: 263.701556921
Total Time Elapsed: 00:04:23
Features in training dataset (80%):
Count: (205566,)
Counter({1.0: 102728, 0.0: 61706, 2.0: 41132})
Features in test dataset (20%):
Count: (51392,)
Counter({1.0: 25682, 0.0: 15427, 2.0: 10283})
Classification Report for Test Data (20%):
              precision    recall  f1-score   support

         0.0       0.88      0.80      0.84     15427
         1.0       0.84      0.89      0.86     25682
         2.0       0.88      0.84      0.86     10283

   micro avg       0.86      0.86      0.86     51392
   macro avg       0.87      0.85      0.85     51392
weighted avg       0.86      0.86      0.86     51392


Accuracy: 0.856028175592
## 2-kth fold --------------------------------
Training Time Elapsed: 01:48:25, 6505.76863098
Training set score: 0.871200
Training set loss: 0.367200
MLP # layers: 3
MLP # outputs: 3
MLP # iterations: 500
MLP out_activation_: softmax
MLP classes: [0. 1. 2.]
Classifier saved to /home/superbowl/Documents/MSEE/CS280/cs280-mini-proj/src/ANN/_old_grid_search_3_tests/../../../models/ann_entry_3_20_to_30_0/ann_entry_3_1/ann_2_25_0.pkl

Elapsed Seconds: 264.484881878
Total Time Elapsed: 00:04:24
Features in training dataset (80%):
Count: (205566,)
Counter({1.0: 102728, 0.0: 61706, 2.0: 41132})
Features in test dataset (20%):
Count: (51392,)
Counter({1.0: 25682, 0.0: 15427, 2.0: 10283})
Classification Report for Test Data (20%):
              precision    recall  f1-score   support

         0.0       0.91      0.81      0.85     15427
         1.0       0.85      0.91      0.88     25682
         2.0       0.84      0.85      0.85     10283

   micro avg       0.87      0.87      0.87     51392
   macro avg       0.87      0.86      0.86     51392
weighted avg       0.87      0.87      0.86     51392


Accuracy: 0.865368150685
## 3-kth fold --------------------------------
Training Time Elapsed: 01:52:27, 6747.73774409
Training set score: 0.857686
Training set loss: 0.378403
MLP # layers: 3
MLP # outputs: 3
MLP # iterations: 455
MLP out_activation_: softmax
MLP classes: [0. 1. 2.]
Classifier saved to /home/superbowl/Documents/MSEE/CS280/cs280-mini-proj/src/ANN/_old_grid_search_3_tests/../../../models/ann_entry_3_20_to_30_0/ann_entry_3_1/ann_3_25_0.pkl

Elapsed Seconds: 241.732522011
Total Time Elapsed: 00:04:01
Features in training dataset (80%):
Count: (205567,)
Counter({1.0: 102728, 0.0: 61707, 2.0: 41132})
Features in test dataset (20%):
Count: (51391,)
Counter({1.0: 25682, 0.0: 15426, 2.0: 10283})
Classification Report for Test Data (20%):
              precision    recall  f1-score   support

         0.0       0.80      0.84      0.82     15426
         1.0       0.81      0.83      0.82     25682
         2.0       0.84      0.71      0.77     10283

   micro avg       0.81      0.81      0.81     51391
   macro avg       0.82      0.80      0.81     51391
weighted avg       0.81      0.81      0.81     51391


Accuracy: 0.812749314082
## 4-kth fold --------------------------------
Training Time Elapsed: 01:56:53, 7013.12334204
Training set score: 0.870845
Training set loss: 0.362737
MLP # layers: 3
MLP # outputs: 3
MLP # iterations: 500
MLP out_activation_: softmax
MLP classes: [0. 1. 2.]
Classifier saved to /home/superbowl/Documents/MSEE/CS280/cs280-mini-proj/src/ANN/_old_grid_search_3_tests/../../../models/ann_entry_3_20_to_30_0/ann_entry_3_1/ann_4_25_0.pkl

Elapsed Seconds: 265.186584949
Total Time Elapsed: 00:04:25
Features in training dataset (80%):
Count: (205567,)
Counter({1.0: 102728, 0.0: 61707, 2.0: 41132})
Features in test dataset (20%):
Count: (51391,)
Counter({1.0: 25682, 0.0: 15426, 2.0: 10283})
Classification Report for Test Data (20%):
              precision    recall  f1-score   support

         0.0       0.89      0.83      0.86     15426
         1.0       0.85      0.88      0.87     25682
         2.0       0.85      0.86      0.86     10283

   micro avg       0.86      0.86      0.86     51391
   macro avg       0.86      0.86      0.86     51391
weighted avg       0.86      0.86      0.86     51391


Accuracy: 0.8628942811
Sorted List of Temp Training Scores: 
[[(24, 0), 0.8673168687735906], [(23, 0), 0.8545998014192951], [(22, 0), 0.8477776605016352], [(21, 0), 0.8408300311566481], [(20, 0), 0.8398687776275191]]

Sorted List of Temp Test Accuracies: 
[[(24, 0), 0.8550150022513161], [(23, 0), 0.8429975084130836], [(22, 0), 0.8369499202031367], [(21, 0), 0.8314976542349012], [(20, 0), 0.8305948271575432]]

Average Training Accuracy for: (25, 0)
0.864535255313

Average Test Accuracy for: (25, 0)
0.85006878753

Elapsed Seconds: 1299.14490294
Total Time Elapsed: 00:21:39
# Num of nodes: 26, 0 -----------------------------------------------*****
## 0-kth fold --------------------------------
Training Time Elapsed: 02:01:20, 7280.17130899
Training set score: 0.845169
Training set loss: 0.419407
MLP # layers: 3
MLP # outputs: 3
MLP # iterations: 500
MLP out_activation_: softmax
MLP classes: [0. 1. 2.]
Classifier saved to /home/superbowl/Documents/MSEE/CS280/cs280-mini-proj/src/ANN/_old_grid_search_3_tests/../../../models/ann_entry_3_20_to_30_0/ann_entry_3_1/ann_0_26_0.pkl

Elapsed Seconds: 266.542186022
Total Time Elapsed: 00:04:26
Features in training dataset (80%):
Count: (205566,)
Counter({1.0: 102728, 0.0: 61706, 2.0: 41132})
Features in test dataset (20%):
Count: (51392,)
Counter({1.0: 25682, 0.0: 15427, 2.0: 10283})
Classification Report for Test Data (20%):
              precision    recall  f1-score   support

         0.0       0.85      0.79      0.82     15427
         1.0       0.82      0.88      0.85     25682
         2.0       0.86      0.80      0.83     10283

   micro avg       0.84      0.84      0.84     51392
   macro avg       0.84      0.83      0.83     51392
weighted avg       0.84      0.84      0.84     51392


Accuracy: 0.837679016189
## 1-kth fold --------------------------------
Training Time Elapsed: 02:05:47, 7547.07188201
Training set score: 0.852412
Training set loss: 0.398394
MLP # layers: 3
MLP # outputs: 3
MLP # iterations: 500
MLP out_activation_: softmax
MLP classes: [0. 1. 2.]
Classifier saved to /home/superbowl/Documents/MSEE/CS280/cs280-mini-proj/src/ANN/_old_grid_search_3_tests/../../../models/ann_entry_3_20_to_30_0/ann_entry_3_1/ann_1_26_0.pkl

Elapsed Seconds: 266.564666033
Total Time Elapsed: 00:04:26
Features in training dataset (80%):
Count: (205566,)
Counter({1.0: 102728, 0.0: 61706, 2.0: 41132})
Features in test dataset (20%):
Count: (51392,)
Counter({1.0: 25682, 0.0: 15427, 2.0: 10283})
Classification Report for Test Data (20%):
              precision    recall  f1-score   support

         0.0       0.87      0.85      0.86     15427
         1.0       0.84      0.88      0.86     25682
         2.0       0.86      0.78      0.82     10283

   micro avg       0.85      0.85      0.85     51392
   macro avg       0.86      0.84      0.84     51392
weighted avg       0.85      0.85      0.85     51392


Accuracy: 0.850073941469
## 2-kth fold --------------------------------
Training Time Elapsed: 02:09:56, 7796.74330211
Training set score: 0.855122
Training set loss: 0.400284
MLP # layers: 3
MLP # outputs: 3
MLP # iterations: 468
MLP out_activation_: softmax
MLP classes: [0. 1. 2.]
Classifier saved to /home/superbowl/Documents/MSEE/CS280/cs280-mini-proj/src/ANN/_old_grid_search_3_tests/../../../models/ann_entry_3_20_to_30_0/ann_entry_3_1/ann_2_26_0.pkl

Elapsed Seconds: 249.408121109
Total Time Elapsed: 00:04:09
Features in training dataset (80%):
Count: (205566,)
Counter({1.0: 102728, 0.0: 61706, 2.0: 41132})
Features in test dataset (20%):
Count: (51392,)
Counter({1.0: 25682, 0.0: 15427, 2.0: 10283})
Classification Report for Test Data (20%):
              precision    recall  f1-score   support

         0.0       0.90      0.78      0.84     15427
         1.0       0.83      0.90      0.86     25682
         2.0       0.83      0.82      0.83     10283

   micro avg       0.85      0.85      0.85     51392
   macro avg       0.85      0.83      0.84     51392
weighted avg       0.85      0.85      0.85     51392


Accuracy: 0.848128113325
## 3-kth fold --------------------------------
Training Time Elapsed: 02:14:23, 8063.00598407
Training set score: 0.863217
Training set loss: 0.364672
MLP # layers: 3
MLP # outputs: 3
MLP # iterations: 500
MLP out_activation_: softmax
MLP classes: [0. 1. 2.]
Classifier saved to /home/superbowl/Documents/MSEE/CS280/cs280-mini-proj/src/ANN/_old_grid_search_3_tests/../../../models/ann_entry_3_20_to_30_0/ann_entry_3_1/ann_3_26_0.pkl

Elapsed Seconds: 266.095021009
Total Time Elapsed: 00:04:26
Features in training dataset (80%):
Count: (205567,)
Counter({1.0: 102728, 0.0: 61707, 2.0: 41132})
Features in test dataset (20%):
Count: (51391,)
Counter({1.0: 25682, 0.0: 15426, 2.0: 10283})
Classification Report for Test Data (20%):
              precision    recall  f1-score   support

         0.0       0.85      0.78      0.81     15426
         1.0       0.80      0.87      0.84     25682
         2.0       0.84      0.76      0.80     10283

   micro avg       0.82      0.82      0.82     51391
   macro avg       0.83      0.80      0.81     51391
weighted avg       0.82      0.82      0.82     51391


Accuracy: 0.822050553599
## 4-kth fold --------------------------------
Training Time Elapsed: 02:18:50, 8330.24576497
Training set score: 0.846785
Training set loss: 0.403341
MLP # layers: 3
MLP # outputs: 3
MLP # iterations: 500
MLP out_activation_: softmax
MLP classes: [0. 1. 2.]
Classifier saved to /home/superbowl/Documents/MSEE/CS280/cs280-mini-proj/src/ANN/_old_grid_search_3_tests/../../../models/ann_entry_3_20_to_30_0/ann_entry_3_1/ann_4_26_0.pkl

Elapsed Seconds: 266.866899014
Total Time Elapsed: 00:04:26
Features in training dataset (80%):
Count: (205567,)
Counter({1.0: 102728, 0.0: 61707, 2.0: 41132})
Features in test dataset (20%):
Count: (51391,)
Counter({1.0: 25682, 0.0: 15426, 2.0: 10283})
Classification Report for Test Data (20%):
              precision    recall  f1-score   support

         0.0       0.89      0.80      0.85     15426
         1.0       0.83      0.87      0.85     25682
         2.0       0.80      0.83      0.82     10283

   micro avg       0.84      0.84      0.84     51391
   macro avg       0.84      0.83      0.84     51391
weighted avg       0.84      0.84      0.84     51391


Accuracy: 0.841859469557
Sorted List of Temp Training Scores: 
[[(24, 0), 0.8673168687735906], [(25, 0), 0.8645352553133003], [(23, 0), 0.8545998014192951], [(22, 0), 0.8477776605016352], [(21, 0), 0.8408300311566481], [(20, 0), 0.8398687776275191]]

Sorted List of Temp Test Accuracies: 
[[(24, 0), 0.8550150022513161], [(25, 0), 0.850068787529558], [(23, 0), 0.8429975084130836], [(22, 0), 0.8369499202031367], [(21, 0), 0.8314976542349012], [(20, 0), 0.8305948271575432]]

Average Training Accuracy for: (26, 0)
0.852541071965

Average Test Accuracy for: (26, 0)
0.839958218828

Elapsed Seconds: 1317.03836393
Total Time Elapsed: 00:21:57
# Num of nodes: 27, 0 -----------------------------------------------*****
## 0-kth fold --------------------------------
Training Time Elapsed: 02:22:09, 8529.67295909
Training set score: 0.844906
Training set loss: 0.414197
MLP # layers: 3
MLP # outputs: 3
MLP # iterations: 366
MLP out_activation_: softmax
MLP classes: [0. 1. 2.]
Classifier saved to /home/superbowl/Documents/MSEE/CS280/cs280-mini-proj/src/ANN/_old_grid_search_3_tests/../../../models/ann_entry_3_20_to_30_0/ann_entry_3_1/ann_0_27_0.pkl

Elapsed Seconds: 198.948766947
Total Time Elapsed: 00:03:18
Features in training dataset (80%):
Count: (205566,)
Counter({1.0: 102728, 0.0: 61706, 2.0: 41132})
Features in test dataset (20%):
Count: (51392,)
Counter({1.0: 25682, 0.0: 15427, 2.0: 10283})
Classification Report for Test Data (20%):
              precision    recall  f1-score   support

         0.0       0.84      0.81      0.82     15427
         1.0       0.82      0.87      0.85     25682
         2.0       0.86      0.79      0.82     10283

   micro avg       0.84      0.84      0.84     51392
   macro avg       0.84      0.82      0.83     51392
weighted avg       0.84      0.84      0.83     51392


Accuracy: 0.835013231631
## 1-kth fold --------------------------------
Training Time Elapsed: 02:26:33, 8793.42164207
Training set score: 0.849678
Training set loss: 0.406648
MLP # layers: 3
MLP # outputs: 3
MLP # iterations: 487
MLP out_activation_: softmax
MLP classes: [0. 1. 2.]
Classifier saved to /home/superbowl/Documents/MSEE/CS280/cs280-mini-proj/src/ANN/_old_grid_search_3_tests/../../../models/ann_entry_3_20_to_30_0/ann_entry_3_1/ann_1_27_0.pkl

Elapsed Seconds: 263.379759789
Total Time Elapsed: 00:04:23
Features in training dataset (80%):
Count: (205566,)
Counter({1.0: 102728, 0.0: 61706, 2.0: 41132})
Features in test dataset (20%):
Count: (51392,)
Counter({1.0: 25682, 0.0: 15427, 2.0: 10283})
Classification Report for Test Data (20%):
              precision    recall  f1-score   support

         0.0       0.88      0.83      0.86     15427
         1.0       0.84      0.88      0.86     25682
         2.0       0.85      0.81      0.83     10283

   micro avg       0.85      0.85      0.85     51392
   macro avg       0.86      0.84      0.85     51392
weighted avg       0.85      0.85      0.85     51392


Accuracy: 0.853012141968
## 2-kth fold --------------------------------
Training Time Elapsed: 02:31:05, 9065.02478313
Training set score: 0.877738
Training set loss: 0.353853
MLP # layers: 3
MLP # outputs: 3
MLP # iterations: 500
MLP out_activation_: softmax
MLP classes: [0. 1. 2.]
Classifier saved to /home/superbowl/Documents/MSEE/CS280/cs280-mini-proj/src/ANN/_old_grid_search_3_tests/../../../models/ann_entry_3_20_to_30_0/ann_entry_3_1/ann_2_27_0.pkl

Elapsed Seconds: 271.339525938
Total Time Elapsed: 00:04:31
Features in training dataset (80%):
Count: (205566,)
Counter({1.0: 102728, 0.0: 61706, 2.0: 41132})
Features in test dataset (20%):
Count: (51392,)
Counter({1.0: 25682, 0.0: 15427, 2.0: 10283})
Classification Report for Test Data (20%):
              precision    recall  f1-score   support

         0.0       0.90      0.80      0.85     15427
         1.0       0.85      0.91      0.88     25682
         2.0       0.88      0.86      0.87     10283

   micro avg       0.87      0.87      0.87     51392
   macro avg       0.88      0.86      0.87     51392
weighted avg       0.87      0.87      0.87     51392


Accuracy: 0.869940846824
## 3-kth fold --------------------------------
Training Time Elapsed: 02:35:28, 9328.34232497
Training set score: 0.857715
Training set loss: 0.382565
MLP # layers: 3
MLP # outputs: 3
MLP # iterations: 484
MLP out_activation_: softmax
MLP classes: [0. 1. 2.]
Classifier saved to /home/superbowl/Documents/MSEE/CS280/cs280-mini-proj/src/ANN/_old_grid_search_3_tests/../../../models/ann_entry_3_20_to_30_0/ann_entry_3_1/ann_3_27_0.pkl

Elapsed Seconds: 263.044151068
Total Time Elapsed: 00:04:23
Features in training dataset (80%):
Count: (205567,)
Counter({1.0: 102728, 0.0: 61707, 2.0: 41132})
Features in test dataset (20%):
Count: (51391,)
Counter({1.0: 25682, 0.0: 15426, 2.0: 10283})
Classification Report for Test Data (20%):
              precision    recall  f1-score   support

         0.0       0.87      0.81      0.84     15426
         1.0       0.81      0.89      0.85     25682
         2.0       0.85      0.71      0.77     10283

   micro avg       0.83      0.83      0.83     51391
   macro avg       0.84      0.80      0.82     51391
weighted avg       0.83      0.83      0.83     51391


Accuracy: 0.831410169096
## 4-kth fold --------------------------------
Training Time Elapsed: 02:39:00, 9540.66228914
Training set score: 0.828260
Training set loss: 0.430907
MLP # layers: 3
MLP # outputs: 3
MLP # iterations: 387
MLP out_activation_: softmax
MLP classes: [0. 1. 2.]
Classifier saved to /home/superbowl/Documents/MSEE/CS280/cs280-mini-proj/src/ANN/_old_grid_search_3_tests/../../../models/ann_entry_3_20_to_30_0/ann_entry_3_1/ann_4_27_0.pkl

Elapsed Seconds: 212.045545101
Total Time Elapsed: 00:03:32
Features in training dataset (80%):
Count: (205567,)
Counter({1.0: 102728, 0.0: 61707, 2.0: 41132})
Features in test dataset (20%):
Count: (51391,)
Counter({1.0: 25682, 0.0: 15426, 2.0: 10283})
Classification Report for Test Data (20%):
              precision    recall  f1-score   support

         0.0       0.85      0.72      0.78     15426
         1.0       0.79      0.85      0.82     25682
         2.0       0.80      0.83      0.81     10283

   micro avg       0.81      0.81      0.81     51391
   macro avg       0.81      0.80      0.80     51391
weighted avg       0.81      0.81      0.81     51391


Accuracy: 0.807748438443
Sorted List of Temp Training Scores: 
[[(24, 0), 0.8673168687735906], [(25, 0), 0.8645352553133003], [(23, 0), 0.8545998014192951], [(26, 0), 0.852541071965119], [(22, 0), 0.8477776605016352], [(21, 0), 0.8408300311566481], [(20, 0), 0.8398687776275191]]

Sorted List of Temp Test Accuracies: 
[[(24, 0), 0.8550150022513161], [(25, 0), 0.850068787529558], [(23, 0), 0.8429975084130836], [(26, 0), 0.8399582188279233], [(22, 0), 0.8369499202031367], [(21, 0), 0.8314976542349012], [(20, 0), 0.8305948271575432]]

Average Training Accuracy for: (27, 0)
0.851659626615

Average Test Accuracy for: (27, 0)
0.839424965592

Elapsed Seconds: 1210.47782421
Total Time Elapsed: 00:20:10
# Num of nodes: 28, 0 -----------------------------------------------*****
## 0-kth fold --------------------------------
Training Time Elapsed: 02:43:29, 9809.88546515
Training set score: 0.864540
Training set loss: 0.376342
MLP # layers: 3
MLP # outputs: 3
MLP # iterations: 493
MLP out_activation_: softmax
MLP classes: [0. 1. 2.]
Classifier saved to /home/superbowl/Documents/MSEE/CS280/cs280-mini-proj/src/ANN/_old_grid_search_3_tests/../../../models/ann_entry_3_20_to_30_0/ann_entry_3_1/ann_0_28_0.pkl

Elapsed Seconds: 268.763443947
Total Time Elapsed: 00:04:28
Features in training dataset (80%):
Count: (205566,)
Counter({1.0: 102728, 0.0: 61706, 2.0: 41132})
Features in test dataset (20%):
Count: (51392,)
Counter({1.0: 25682, 0.0: 15427, 2.0: 10283})
Classification Report for Test Data (20%):
              precision    recall  f1-score   support

         0.0       0.88      0.81      0.85     15427
         1.0       0.84      0.89      0.87     25682
         2.0       0.85      0.82      0.84     10283

   micro avg       0.85      0.85      0.85     51392
   macro avg       0.86      0.84      0.85     51392
weighted avg       0.86      0.85      0.85     51392


Accuracy: 0.854335305106
## 1-kth fold --------------------------------
Training Time Elapsed: 02:47:22, 10042.6794581
Training set score: 0.851517
Training set loss: 0.398311
MLP # layers: 3
MLP # outputs: 3
MLP # iterations: 424
MLP out_activation_: softmax
MLP classes: [0. 1. 2.]
Classifier saved to /home/superbowl/Documents/MSEE/CS280/cs280-mini-proj/src/ANN/_old_grid_search_3_tests/../../../models/ann_entry_3_20_to_30_0/ann_entry_3_1/ann_1_28_0.pkl

Elapsed Seconds: 232.501095057
Total Time Elapsed: 00:03:52
Features in training dataset (80%):
Count: (205566,)
Counter({1.0: 102728, 0.0: 61706, 2.0: 41132})
Features in test dataset (20%):
Count: (51392,)
Counter({1.0: 25682, 0.0: 15427, 2.0: 10283})
Classification Report for Test Data (20%):
              precision    recall  f1-score   support

         0.0       0.86      0.82      0.84     15427
         1.0       0.84      0.89      0.87     25682
         2.0       0.89      0.85      0.87     10283

   micro avg       0.86      0.86      0.86     51392
   macro avg       0.87      0.85      0.86     51392
weighted avg       0.86      0.86      0.86     51392


Accuracy: 0.85816858655
## 2-kth fold --------------------------------
Training Time Elapsed: 02:51:57, 10317.5521431
Training set score: 0.859354
Training set loss: 0.383575
MLP # layers: 3
MLP # outputs: 3
MLP # iterations: 500
MLP out_activation_: softmax
MLP classes: [0. 1. 2.]
Classifier saved to /home/superbowl/Documents/MSEE/CS280/cs280-mini-proj/src/ANN/_old_grid_search_3_tests/../../../models/ann_entry_3_20_to_30_0/ann_entry_3_1/ann_2_28_0.pkl

Elapsed Seconds: 274.560508013
Total Time Elapsed: 00:04:34
Features in training dataset (80%):
Count: (205566,)
Counter({1.0: 102728, 0.0: 61706, 2.0: 41132})
Features in test dataset (20%):
Count: (51392,)
Counter({1.0: 25682, 0.0: 15427, 2.0: 10283})
Classification Report for Test Data (20%):
              precision    recall  f1-score   support

         0.0       0.89      0.76      0.82     15427
         1.0       0.83      0.90      0.86     25682
         2.0       0.85      0.87      0.86     10283

   micro avg       0.85      0.85      0.85     51392
   macro avg       0.86      0.84      0.85     51392
weighted avg       0.85      0.85      0.85     51392


Accuracy: 0.851124688667
## 3-kth fold --------------------------------
Training Time Elapsed: 02:55:39, 10539.930769
Training set score: 0.843968
Training set loss: 0.388136
MLP # layers: 3
MLP # outputs: 3
MLP # iterations: 405
MLP out_activation_: softmax
MLP classes: [0. 1. 2.]
Classifier saved to /home/superbowl/Documents/MSEE/CS280/cs280-mini-proj/src/ANN/_old_grid_search_3_tests/../../../models/ann_entry_3_20_to_30_0/ann_entry_3_1/ann_3_28_0.pkl

Elapsed Seconds: 222.052715063
Total Time Elapsed: 00:03:42
Features in training dataset (80%):
Count: (205567,)
Counter({1.0: 102728, 0.0: 61707, 2.0: 41132})
Features in test dataset (20%):
Count: (51391,)
Counter({1.0: 25682, 0.0: 15426, 2.0: 10283})
Classification Report for Test Data (20%):
              precision    recall  f1-score   support

         0.0       0.87      0.67      0.75     15426
         1.0       0.78      0.87      0.82     25682
         2.0       0.80      0.83      0.82     10283

   micro avg       0.80      0.80      0.80     51391
   macro avg       0.82      0.79      0.80     51391
weighted avg       0.81      0.80      0.80     51391


Accuracy: 0.803136736004
## 4-kth fold --------------------------------
Training Time Elapsed: 03:00:12, 10812.794138
Training set score: 0.873054
Training set loss: 0.359983
MLP # layers: 3
MLP # outputs: 3
MLP # iterations: 500
MLP out_activation_: softmax
MLP classes: [0. 1. 2.]
Classifier saved to /home/superbowl/Documents/MSEE/CS280/cs280-mini-proj/src/ANN/_old_grid_search_3_tests/../../../models/ann_entry_3_20_to_30_0/ann_entry_3_1/ann_4_28_0.pkl

Elapsed Seconds: 272.592952967
Total Time Elapsed: 00:04:32
Features in training dataset (80%):
Count: (205567,)
Counter({1.0: 102728, 0.0: 61707, 2.0: 41132})
Features in test dataset (20%):
Count: (51391,)
Counter({1.0: 25682, 0.0: 15426, 2.0: 10283})
Classification Report for Test Data (20%):
              precision    recall  f1-score   support

         0.0       0.89      0.85      0.87     15426
         1.0       0.86      0.88      0.87     25682
         2.0       0.85      0.85      0.85     10283

   micro avg       0.87      0.87      0.87     51391
   macro avg       0.87      0.86      0.86     51391
weighted avg       0.87      0.87      0.87     51391


Accuracy: 0.865093109688
Sorted List of Temp Training Scores: 
[[(24, 0), 0.8673168687735906], [(25, 0), 0.8645352553133003], [(23, 0), 0.8545998014192951], [(26, 0), 0.852541071965119], [(27, 0), 0.8516596266154307], [(22, 0), 0.8477776605016352], [(21, 0), 0.8408300311566481], [(20, 0), 0.8398687776275191]]

Sorted List of Temp Test Accuracies: 
[[(24, 0), 0.8550150022513161], [(25, 0), 0.850068787529558], [(23, 0), 0.8429975084130836], [(26, 0), 0.8399582188279233], [(27, 0), 0.8394249655923394], [(22, 0), 0.8369499202031367], [(21, 0), 0.8314976542349012], [(20, 0), 0.8305948271575432]]

Average Training Accuracy for: (28, 0)
0.858486600876

Average Test Accuracy for: (28, 0)
0.846371685203

Elapsed Seconds: 1272.1061492
Total Time Elapsed: 00:21:12
# Num of nodes: 29, 0 -----------------------------------------------*****
## 0-kth fold --------------------------------
Training Time Elapsed: 03:04:52, 11092.6243591
Training set score: 0.861037
Training set loss: 0.386060
MLP # layers: 3
MLP # outputs: 3
MLP # iterations: 500
MLP out_activation_: softmax
MLP classes: [0. 1. 2.]
Classifier saved to /home/superbowl/Documents/MSEE/CS280/cs280-mini-proj/src/ANN/_old_grid_search_3_tests/../../../models/ann_entry_3_20_to_30_0/ann_entry_3_1/ann_0_29_0.pkl

Elapsed Seconds: 279.328211069
Total Time Elapsed: 00:04:39
Features in training dataset (80%):
Count: (205566,)
Counter({1.0: 102728, 0.0: 61706, 2.0: 41132})
Features in test dataset (20%):
Count: (51392,)
Counter({1.0: 25682, 0.0: 15427, 2.0: 10283})
Classification Report for Test Data (20%):
              precision    recall  f1-score   support

         0.0       0.89      0.79      0.84     15427
         1.0       0.83      0.90      0.87     25682
         2.0       0.86      0.82      0.84     10283

   micro avg       0.85      0.85      0.85     51392
   macro avg       0.86      0.84      0.85     51392
weighted avg       0.85      0.85      0.85     51392


Accuracy: 0.852311643836
## 1-kth fold --------------------------------
Training Time Elapsed: 03:09:31, 11371.5955651
Training set score: 0.871029
Training set loss: 0.362789
MLP # layers: 3
MLP # outputs: 3
MLP # iterations: 500
MLP out_activation_: softmax
MLP classes: [0. 1. 2.]
Classifier saved to /home/superbowl/Documents/MSEE/CS280/cs280-mini-proj/src/ANN/_old_grid_search_3_tests/../../../models/ann_entry_3_20_to_30_0/ann_entry_3_1/ann_1_29_0.pkl

Elapsed Seconds: 278.712984085
Total Time Elapsed: 00:04:38
Features in training dataset (80%):
Count: (205566,)
Counter({1.0: 102728, 0.0: 61706, 2.0: 41132})
Features in test dataset (20%):
Count: (51392,)
Counter({1.0: 25682, 0.0: 15427, 2.0: 10283})
Classification Report for Test Data (20%):
              precision    recall  f1-score   support

         0.0       0.90      0.82      0.86     15427
         1.0       0.85      0.91      0.88     25682
         2.0       0.89      0.86      0.88     10283

   micro avg       0.87      0.87      0.87     51392
   macro avg       0.88      0.86      0.87     51392
weighted avg       0.87      0.87      0.87     51392


Accuracy: 0.872003424658
## 2-kth fold --------------------------------
Training Time Elapsed: 03:14:11, 11651.068311
Training set score: 0.864914
Training set loss: 0.373467
MLP # layers: 3
MLP # outputs: 3
MLP # iterations: 500
MLP out_activation_: softmax
MLP classes: [0. 1. 2.]
Classifier saved to /home/superbowl/Documents/MSEE/CS280/cs280-mini-proj/src/ANN/_old_grid_search_3_tests/../../../models/ann_entry_3_20_to_30_0/ann_entry_3_1/ann_2_29_0.pkl

Elapsed Seconds: 279.171183825
Total Time Elapsed: 00:04:39
Features in training dataset (80%):
Count: (205566,)
Counter({1.0: 102728, 0.0: 61706, 2.0: 41132})
Features in test dataset (20%):
Count: (51392,)
Counter({1.0: 25682, 0.0: 15427, 2.0: 10283})
Classification Report for Test Data (20%):
              precision    recall  f1-score   support

         0.0       0.88      0.82      0.85     15427
         1.0       0.85      0.90      0.87     25682
         2.0       0.87      0.83      0.85     10283

   micro avg       0.86      0.86      0.86     51392
   macro avg       0.86      0.85      0.86     51392
weighted avg       0.86      0.86      0.86     51392


Accuracy: 0.859900373599
## 3-kth fold --------------------------------
Training Time Elapsed: 03:18:52, 11932.2259619
Training set score: 0.864857
Training set loss: 0.365867
MLP # layers: 3
MLP # outputs: 3
MLP # iterations: 500
MLP out_activation_: softmax
MLP classes: [0. 1. 2.]
Classifier saved to /home/superbowl/Documents/MSEE/CS280/cs280-mini-proj/src/ANN/_old_grid_search_3_tests/../../../models/ann_entry_3_20_to_30_0/ann_entry_3_1/ann_3_29_0.pkl

Elapsed Seconds: 280.920579195
Total Time Elapsed: 00:04:40
Features in training dataset (80%):
Count: (205567,)
Counter({1.0: 102728, 0.0: 61707, 2.0: 41132})
Features in test dataset (20%):
Count: (51391,)
Counter({1.0: 25682, 0.0: 15426, 2.0: 10283})
Classification Report for Test Data (20%):
              precision    recall  f1-score   support

         0.0       0.83      0.80      0.82     15426
         1.0       0.81      0.86      0.83     25682
         2.0       0.84      0.75      0.79     10283

   micro avg       0.82      0.82      0.82     51391
   macro avg       0.82      0.80      0.81     51391
weighted avg       0.82      0.82      0.82     51391


Accuracy: 0.819540386449
## 4-kth fold --------------------------------
Training Time Elapsed: 03:23:32, 12212.8335199
Training set score: 0.877310
Training set loss: 0.347813
MLP # layers: 3
MLP # outputs: 3
MLP # iterations: 500
MLP out_activation_: softmax
MLP classes: [0. 1. 2.]
Classifier saved to /home/superbowl/Documents/MSEE/CS280/cs280-mini-proj/src/ANN/_old_grid_search_3_tests/../../../models/ann_entry_3_20_to_30_0/ann_entry_3_1/ann_4_29_0.pkl

Elapsed Seconds: 280.314302921
Total Time Elapsed: 00:04:40
Features in training dataset (80%):
Count: (205567,)
Counter({1.0: 102728, 0.0: 61707, 2.0: 41132})
Features in test dataset (20%):
Count: (51391,)
Counter({1.0: 25682, 0.0: 15426, 2.0: 10283})
Classification Report for Test Data (20%):
              precision    recall  f1-score   support

         0.0       0.86      0.86      0.86     15426
         1.0       0.86      0.86      0.86     25682
         2.0       0.85      0.85      0.85     10283

   micro avg       0.86      0.86      0.86     51391
   macro avg       0.86      0.86      0.86     51391
weighted avg       0.86      0.86      0.86     51391


Accuracy: 0.858418789282
Sorted List of Temp Training Scores: 
[[(24, 0), 0.8673168687735906], [(25, 0), 0.8645352553133003], [(28, 0), 0.8584866008759221], [(23, 0), 0.8545998014192951], [(26, 0), 0.852541071965119], [(27, 0), 0.8516596266154307], [(22, 0), 0.8477776605016352], [(21, 0), 0.8408300311566481], [(20, 0), 0.8398687776275191]]

Sorted List of Temp Test Accuracies: 
[[(24, 0), 0.8550150022513161], [(25, 0), 0.850068787529558], [(28, 0), 0.8463716852033223], [(23, 0), 0.8429975084130836], [(26, 0), 0.8399582188279233], [(27, 0), 0.8394249655923394], [(22, 0), 0.8369499202031367], [(21, 0), 0.8314976542349012], [(20, 0), 0.8305948271575432]]

Average Training Accuracy for: (29, 0)
0.867829561147

Average Test Accuracy for: (29, 0)
0.852434923565

Elapsed Seconds: 1400.06477499
Total Time Elapsed: 00:23:20
# Num of nodes: 30, 0 -----------------------------------------------*****
## 0-kth fold --------------------------------
Training Time Elapsed: 03:27:47, 12467.6355309
Training set score: 0.863256
Training set loss: 0.396043
MLP # layers: 3
MLP # outputs: 3
MLP # iterations: 450
MLP out_activation_: softmax
MLP classes: [0. 1. 2.]
Classifier saved to /home/superbowl/Documents/MSEE/CS280/cs280-mini-proj/src/ANN/_old_grid_search_3_tests/../../../models/ann_entry_3_20_to_30_0/ann_entry_3_1/ann_0_30_0.pkl

Elapsed Seconds: 254.279414892
Total Time Elapsed: 00:04:14
Features in training dataset (80%):
Count: (205566,)
Counter({1.0: 102728, 0.0: 61706, 2.0: 41132})
Features in test dataset (20%):
Count: (51392,)
Counter({1.0: 25682, 0.0: 15427, 2.0: 10283})
Classification Report for Test Data (20%):
              precision    recall  f1-score   support

         0.0       0.89      0.80      0.84     15427
         1.0       0.84      0.90      0.87     25682
         2.0       0.86      0.83      0.84     10283

   micro avg       0.86      0.86      0.86     51392
   macro avg       0.86      0.84      0.85     51392
weighted avg       0.86      0.86      0.86     51392


Accuracy: 0.85587250934
## 1-kth fold --------------------------------
Training Time Elapsed: 03:32:26, 12746.5887671
Training set score: 0.859704
Training set loss: 0.371256
MLP # layers: 3
MLP # outputs: 3
MLP # iterations: 494
MLP out_activation_: softmax
MLP classes: [0. 1. 2.]
Classifier saved to /home/superbowl/Documents/MSEE/CS280/cs280-mini-proj/src/ANN/_old_grid_search_3_tests/../../../models/ann_entry_3_20_to_30_0/ann_entry_3_1/ann_1_30_0.pkl

Elapsed Seconds: 278.665722847
Total Time Elapsed: 00:04:38
Features in training dataset (80%):
Count: (205566,)
Counter({1.0: 102728, 0.0: 61706, 2.0: 41132})
Features in test dataset (20%):
Count: (51392,)
Counter({1.0: 25682, 0.0: 15427, 2.0: 10283})
Classification Report for Test Data (20%):
              precision    recall  f1-score   support

         0.0       0.89      0.82      0.86     15427
         1.0       0.84      0.90      0.87     25682
         2.0       0.87      0.80      0.83     10283

   micro avg       0.86      0.86      0.86     51392
   macro avg       0.86      0.84      0.85     51392
weighted avg       0.86      0.86      0.86     51392


Accuracy: 0.857448630137
## 2-kth fold --------------------------------
Training Time Elapsed: 03:36:48, 13008.3035231
Training set score: 0.867206
Training set loss: 0.366442
MLP # layers: 3
MLP # outputs: 3
MLP # iterations: 466
MLP out_activation_: softmax
MLP classes: [0. 1. 2.]
Classifier saved to /home/superbowl/Documents/MSEE/CS280/cs280-mini-proj/src/ANN/_old_grid_search_3_tests/../../../models/ann_entry_3_20_to_30_0/ann_entry_3_1/ann_2_30_0.pkl

Elapsed Seconds: 261.436127901
Total Time Elapsed: 00:04:21
Features in training dataset (80%):
Count: (205566,)
Counter({1.0: 102728, 0.0: 61706, 2.0: 41132})
Features in test dataset (20%):
Count: (51392,)
Counter({1.0: 25682, 0.0: 15427, 2.0: 10283})
Classification Report for Test Data (20%):
              precision    recall  f1-score   support

         0.0       0.88      0.82      0.85     15427
         1.0       0.85      0.89      0.87     25682
         2.0       0.85      0.85      0.85     10283

   micro avg       0.86      0.86      0.86     51392
   macro avg       0.86      0.85      0.86     51392
weighted avg       0.86      0.86      0.86     51392


Accuracy: 0.861495952677
## 3-kth fold --------------------------------
Training Time Elapsed: 03:40:14, 13214.5276041
Training set score: 0.859481
Training set loss: 0.370473
MLP # layers: 3
MLP # outputs: 3
MLP # iterations: 365
MLP out_activation_: softmax
MLP classes: [0. 1. 2.]
Classifier saved to /home/superbowl/Documents/MSEE/CS280/cs280-mini-proj/src/ANN/_old_grid_search_3_tests/../../../models/ann_entry_3_20_to_30_0/ann_entry_3_1/ann_3_30_0.pkl

Elapsed Seconds: 205.891825914
Total Time Elapsed: 00:03:25
Features in training dataset (80%):
Count: (205567,)
Counter({1.0: 102728, 0.0: 61707, 2.0: 41132})
Features in test dataset (20%):
Count: (51391,)
Counter({1.0: 25682, 0.0: 15426, 2.0: 10283})
Classification Report for Test Data (20%):
              precision    recall  f1-score   support

         0.0       0.89      0.78      0.83     15426
         1.0       0.81      0.90      0.85     25682
         2.0       0.84      0.75      0.79     10283

   micro avg       0.83      0.83      0.83     51391
   macro avg       0.84      0.81      0.82     51391
weighted avg       0.84      0.83      0.83     51391


Accuracy: 0.834270592127
## 4-kth fold --------------------------------
Training Time Elapsed: 03:44:27, 13467.6083691
Training set score: 0.859481
Training set loss: 0.371191
MLP # layers: 3
MLP # outputs: 3
MLP # iterations: 453
MLP out_activation_: softmax
MLP classes: [0. 1. 2.]
Classifier saved to /home/superbowl/Documents/MSEE/CS280/cs280-mini-proj/src/ANN/_old_grid_search_3_tests/../../../models/ann_entry_3_20_to_30_0/ann_entry_3_1/ann_4_30_0.pkl

Elapsed Seconds: 252.823312044
Total Time Elapsed: 00:04:12
Features in training dataset (80%):
Count: (205567,)
Counter({1.0: 102728, 0.0: 61707, 2.0: 41132})
Features in test dataset (20%):
Count: (51391,)
Counter({1.0: 25682, 0.0: 15426, 2.0: 10283})
Classification Report for Test Data (20%):
              precision    recall  f1-score   support

         0.0       0.85      0.85      0.85     15426
         1.0       0.85      0.85      0.85     25682
         2.0       0.83      0.82      0.82     10283

   micro avg       0.84      0.84      0.84     51391
   macro avg       0.84      0.84      0.84     51391
weighted avg       0.84      0.84      0.84     51391


Accuracy: 0.843708042264
Sorted List of Temp Training Scores: 
[[(29, 0), 0.8678295611465053], [(24, 0), 0.8673168687735906], [(25, 0), 0.8645352553133003], [(28, 0), 0.8584866008759221], [(23, 0), 0.8545998014192951], [(26, 0), 0.852541071965119], [(27, 0), 0.8516596266154307], [(22, 0), 0.8477776605016352], [(21, 0), 0.8408300311566481], [(20, 0), 0.8398687776275191]]

Sorted List of Temp Test Accuracies: 
[[(24, 0), 0.8550150022513161], [(29, 0), 0.8524349235646627], [(25, 0), 0.850068787529558], [(28, 0), 0.8463716852033223], [(23, 0), 0.8429975084130836], [(26, 0), 0.8399582188279233], [(27, 0), 0.8394249655923394], [(22, 0), 0.8369499202031367], [(21, 0), 0.8314976542349012], [(20, 0), 0.8305948271575432]]

Average Training Accuracy for: (30, 0)
0.86182567257

Average Test Accuracy for: (30, 0)
0.850559145309

Elapsed Seconds: 1254.70367694
Total Time Elapsed: 00:20:54
List of Training Scores: 
[[(20, 0), 0.8398687776275191], [(21, 0), 0.8408300311566481], [(22, 0), 0.8477776605016352], [(23, 0), 0.8545998014192951], [(24, 0), 0.8673168687735906], [(25, 0), 0.8645352553133003], [(26, 0), 0.852541071965119], [(27, 0), 0.8516596266154307], [(28, 0), 0.8584866008759221], [(29, 0), 0.8678295611465053], [(30, 0), 0.861825672569711]]

List of Test Accuracies: 
[[(20, 0), 0.8305948271575432], [(21, 0), 0.8314976542349012], [(22, 0), 0.8369499202031367], [(23, 0), 0.8429975084130836], [(24, 0), 0.8550150022513161], [(25, 0), 0.850068787529558], [(26, 0), 0.8399582188279233], [(27, 0), 0.8394249655923394], [(28, 0), 0.8463716852033223], [(29, 0), 0.8524349235646627], [(30, 0), 0.8505591453091312]]

Sorted List of Training Scores: 
[[(29, 0), 0.8678295611465053], [(24, 0), 0.8673168687735906], [(25, 0), 0.8645352553133003], [(30, 0), 0.861825672569711], [(28, 0), 0.8584866008759221], [(23, 0), 0.8545998014192951], [(26, 0), 0.852541071965119], [(27, 0), 0.8516596266154307], [(22, 0), 0.8477776605016352], [(21, 0), 0.8408300311566481], [(20, 0), 0.8398687776275191]]

Sorted List of Test Accuracies: 
[[(24, 0), 0.8550150022513161], [(29, 0), 0.8524349235646627], [(30, 0), 0.8505591453091312], [(25, 0), 0.850068787529558], [(28, 0), 0.8463716852033223], [(23, 0), 0.8429975084130836], [(26, 0), 0.8399582188279233], [(27, 0), 0.8394249655923394], [(22, 0), 0.8369499202031367], [(21, 0), 0.8314976542349012], [(20, 0), 0.8305948271575432]]

Elapsed Seconds: 13468.3211889
Total Time Elapsed: 03:44:28
