# ann_entry_5_v2_2
['station', 'month', 'day_of_the_week', 'hour', 'num_trains', 'avg_air_pressure', 'temperature']
# Num of nodes: 20, 0 -----------------------------------------------*****
## 0-kth fold --------------------------------
Training Time Elapsed: 00:05:54, 354.765908003
Training set score: 0.715647
Training set loss: 0.789750
MLP # layers: 3
MLP # outputs: 5
MLP # iterations: 500
MLP out_activation_: softmax
MLP classes: [0. 1. 2. 3. 4.]
Classifier saved to /home/paperspace/MSEE/cs280/cs280-mini-proj/src/ANN/_old_grid_search_5_tests_v2/../../../models/ann_entry_5_20_to_25_0_v2/ann_entry_5_v2_2/ann_0_20_0.pkl

Elapsed Seconds: 357.349644184
Total Time Elapsed: 00:05:57
Features in training dataset (80%):
Count: (205565,)
Counter({0.0: 41135, 3.0: 41135, 4.0: 41132, 2.0: 41083, 1.0: 41080})
Features in test dataset (20%):
Count: (51393,)
Counter({0.0: 10284, 3.0: 10284, 4.0: 10283, 1.0: 10271, 2.0: 10271})
Classification Report for Test Data (20%):
              precision    recall  f1-score   support

         0.0       0.75      0.75      0.75     10284
         1.0       0.70      0.60      0.64     10271
         2.0       0.60      0.63      0.61     10271
         3.0       0.66      0.69      0.67     10284
         4.0       0.84      0.87      0.85     10283

   micro avg       0.71      0.71      0.71     51393
   macro avg       0.71      0.71      0.71     51393
weighted avg       0.71      0.71      0.71     51393


Accuracy: 0.708111999689
## 1-kth fold --------------------------------
Training Time Elapsed: 00:05:53, 353.69722414
Training set score: 0.676649
Training set loss: 0.833403
MLP # layers: 3
MLP # outputs: 5
MLP # iterations: 500
MLP out_activation_: softmax
MLP classes: [0. 1. 2. 3. 4.]
Classifier saved to /home/paperspace/MSEE/cs280/cs280-mini-proj/src/ANN/_old_grid_search_5_tests_v2/../../../models/ann_entry_5_20_to_25_0_v2/ann_entry_5_v2_2/ann_1_20_0.pkl

Elapsed Seconds: 355.754448891
Total Time Elapsed: 00:05:55
Features in training dataset (80%):
Count: (205566,)
Counter({0.0: 41135, 3.0: 41135, 4.0: 41132, 2.0: 41083, 1.0: 41081})
Features in test dataset (20%):
Count: (51392,)
Counter({0.0: 10284, 3.0: 10284, 4.0: 10283, 2.0: 10271, 1.0: 10270})
Classification Report for Test Data (20%):
              precision    recall  f1-score   support

         0.0       0.78      0.77      0.77     10284
         1.0       0.60      0.59      0.60     10270
         2.0       0.56      0.48      0.52     10271
         3.0       0.58      0.69      0.63     10284
         4.0       0.86      0.87      0.86     10283

   micro avg       0.68      0.68      0.68     51392
   macro avg       0.68      0.68      0.68     51392
weighted avg       0.68      0.68      0.68     51392


Accuracy: 0.677887608966
## 2-kth fold --------------------------------
Training Time Elapsed: 00:05:00, 300.190564156
Training set score: 0.670062
Training set loss: 0.849067
MLP # layers: 3
MLP # outputs: 5
MLP # iterations: 427
MLP out_activation_: softmax
MLP classes: [0. 1. 2. 3. 4.]
Classifier saved to /home/paperspace/MSEE/cs280/cs280-mini-proj/src/ANN/_old_grid_search_5_tests_v2/../../../models/ann_entry_5_20_to_25_0_v2/ann_entry_5_v2_2/ann_2_20_0.pkl

Elapsed Seconds: 302.685475111
Total Time Elapsed: 00:05:02
Features in training dataset (80%):
Count: (205566,)
Counter({0.0: 41135, 3.0: 41135, 4.0: 41132, 2.0: 41083, 1.0: 41081})
Features in test dataset (20%):
Count: (51392,)
Counter({0.0: 10284, 3.0: 10284, 4.0: 10283, 2.0: 10271, 1.0: 10270})
Classification Report for Test Data (20%):
              precision    recall  f1-score   support

         0.0       0.75      0.73      0.74     10284
         1.0       0.62      0.59      0.60     10270
         2.0       0.56      0.51      0.53     10271
         3.0       0.57      0.64      0.61     10284
         4.0       0.82      0.87      0.85     10283

   micro avg       0.67      0.67      0.67     51392
   macro avg       0.67      0.67      0.67     51392
weighted avg       0.67      0.67      0.67     51392


Accuracy: 0.667516344956
## 3-kth fold --------------------------------
Training Time Elapsed: 00:04:45, 285.02156806
Training set score: 0.662702
Training set loss: 0.852287
MLP # layers: 3
MLP # outputs: 5
MLP # iterations: 394
MLP out_activation_: softmax
MLP classes: [0. 1. 2. 3. 4.]
Classifier saved to /home/paperspace/MSEE/cs280/cs280-mini-proj/src/ANN/_old_grid_search_5_tests_v2/../../../models/ann_entry_5_20_to_25_0_v2/ann_entry_5_v2_2/ann_3_20_0.pkl

Elapsed Seconds: 287.29114604
Total Time Elapsed: 00:04:47
Features in training dataset (80%):
Count: (205566,)
Counter({0.0: 41135, 3.0: 41135, 4.0: 41132, 2.0: 41083, 1.0: 41081})
Features in test dataset (20%):
Count: (51392,)
Counter({0.0: 10284, 3.0: 10284, 4.0: 10283, 2.0: 10271, 1.0: 10270})
Classification Report for Test Data (20%):
              precision    recall  f1-score   support

         0.0       0.66      0.73      0.69     10284
         1.0       0.54      0.53      0.53     10270
         2.0       0.50      0.49      0.50     10271
         3.0       0.52      0.55      0.53     10284
         4.0       0.86      0.74      0.80     10283

   micro avg       0.61      0.61      0.61     51392
   macro avg       0.62      0.61      0.61     51392
weighted avg       0.62      0.61      0.61     51392


Accuracy: 0.608869084682
## 4-kth fold --------------------------------
Training Time Elapsed: 00:04:51, 291.636465073
Training set score: 0.638734
Training set loss: 0.901928
MLP # layers: 3
MLP # outputs: 5
MLP # iterations: 407
MLP out_activation_: softmax
MLP classes: [0. 1. 2. 3. 4.]
Classifier saved to /home/paperspace/MSEE/cs280/cs280-mini-proj/src/ANN/_old_grid_search_5_tests_v2/../../../models/ann_entry_5_20_to_25_0_v2/ann_entry_5_v2_2/ann_4_20_0.pkl

Elapsed Seconds: 294.232432842
Total Time Elapsed: 00:04:54
Features in training dataset (80%):
Count: (205569,)
Counter({0.0: 41136, 3.0: 41136, 4.0: 41132, 2.0: 41084, 1.0: 41081})
Features in test dataset (20%):
Count: (51389,)
Counter({0.0: 10283, 3.0: 10283, 4.0: 10283, 1.0: 10270, 2.0: 10270})
Classification Report for Test Data (20%):
              precision    recall  f1-score   support

         0.0       0.76      0.72      0.74     10283
         1.0       0.58      0.49      0.53     10270
         2.0       0.47      0.47      0.47     10270
         3.0       0.52      0.56      0.54     10283
         4.0       0.77      0.88      0.82     10283

   micro avg       0.62      0.62      0.62     51389
   macro avg       0.62      0.62      0.62     51389
weighted avg       0.62      0.62      0.62     51389


Accuracy: 0.623713246025
Sorted List of Temp Training Scores: 
[]

Sorted List of Temp Test Accuracies: 
[]

Average Training Accuracy for: (20, 0)
0.672758918735

Average Test Accuracy for: (20, 0)
0.657219656864

Elapsed Seconds: 1599.16631699
Total Time Elapsed: 00:26:39
# Num of nodes: 21, 0 -----------------------------------------------*****
## 0-kth fold --------------------------------
Training Time Elapsed: 00:06:09, 369.303727865
Training set score: 0.694501
Training set loss: 0.820850
MLP # layers: 3
MLP # outputs: 5
MLP # iterations: 500
MLP out_activation_: softmax
MLP classes: [0. 1. 2. 3. 4.]
Classifier saved to /home/paperspace/MSEE/cs280/cs280-mini-proj/src/ANN/_old_grid_search_5_tests_v2/../../../models/ann_entry_5_20_to_25_0_v2/ann_entry_5_v2_2/ann_0_21_0.pkl

Elapsed Seconds: 371.756393909
Total Time Elapsed: 00:06:11
Features in training dataset (80%):
Count: (205565,)
Counter({0.0: 41135, 3.0: 41135, 4.0: 41132, 2.0: 41083, 1.0: 41080})
Features in test dataset (20%):
Count: (51393,)
Counter({0.0: 10284, 3.0: 10284, 4.0: 10283, 1.0: 10271, 2.0: 10271})
Classification Report for Test Data (20%):
              precision    recall  f1-score   support

         0.0       0.79      0.73      0.76     10284
         1.0       0.67      0.60      0.63     10271
         2.0       0.56      0.55      0.55     10271
         3.0       0.58      0.67      0.62     10284
         4.0       0.84      0.89      0.87     10283

   micro avg       0.69      0.69      0.69     51393
   macro avg       0.69      0.69      0.69     51393
weighted avg       0.69      0.69      0.69     51393


Accuracy: 0.687233669955
## 1-kth fold --------------------------------
Training Time Elapsed: 00:06:07, 367.676584005
Training set score: 0.668345
Training set loss: 0.849155
MLP # layers: 3
MLP # outputs: 5
MLP # iterations: 500
MLP out_activation_: softmax
MLP classes: [0. 1. 2. 3. 4.]
Classifier saved to /home/paperspace/MSEE/cs280/cs280-mini-proj/src/ANN/_old_grid_search_5_tests_v2/../../../models/ann_entry_5_20_to_25_0_v2/ann_entry_5_v2_2/ann_1_21_0.pkl

Elapsed Seconds: 370.253464937
Total Time Elapsed: 00:06:10
Features in training dataset (80%):
Count: (205566,)
Counter({0.0: 41135, 3.0: 41135, 4.0: 41132, 2.0: 41083, 1.0: 41081})
Features in test dataset (20%):
Count: (51392,)
Counter({0.0: 10284, 3.0: 10284, 4.0: 10283, 2.0: 10271, 1.0: 10270})
Classification Report for Test Data (20%):
              precision    recall  f1-score   support

         0.0       0.76      0.78      0.77     10284
         1.0       0.61      0.55      0.58     10270
         2.0       0.56      0.50      0.53     10271
         3.0       0.58      0.69      0.63     10284
         4.0       0.85      0.85      0.85     10283

   micro avg       0.67      0.67      0.67     51392
   macro avg       0.67      0.67      0.67     51392
weighted avg       0.67      0.67      0.67     51392


Accuracy: 0.673178704857
## 2-kth fold --------------------------------
Training Time Elapsed: 00:06:06, 366.001049042
Training set score: 0.702923
Training set loss: 0.809257
MLP # layers: 3
MLP # outputs: 5
MLP # iterations: 500
MLP out_activation_: softmax
MLP classes: [0. 1. 2. 3. 4.]
Classifier saved to /home/paperspace/MSEE/cs280/cs280-mini-proj/src/ANN/_old_grid_search_5_tests_v2/../../../models/ann_entry_5_20_to_25_0_v2/ann_entry_5_v2_2/ann_2_21_0.pkl

Elapsed Seconds: 368.276707172
Total Time Elapsed: 00:06:08
Features in training dataset (80%):
Count: (205566,)
Counter({0.0: 41135, 3.0: 41135, 4.0: 41132, 2.0: 41083, 1.0: 41081})
Features in test dataset (20%):
Count: (51392,)
Counter({0.0: 10284, 3.0: 10284, 4.0: 10283, 2.0: 10271, 1.0: 10270})
Classification Report for Test Data (20%):
              precision    recall  f1-score   support

         0.0       0.77      0.76      0.77     10284
         1.0       0.66      0.61      0.63     10270
         2.0       0.60      0.58      0.59     10271
         3.0       0.65      0.70      0.67     10284
         4.0       0.82      0.87      0.85     10283

   micro avg       0.70      0.70      0.70     51392
   macro avg       0.70      0.70      0.70     51392
weighted avg       0.70      0.70      0.70     51392


Accuracy: 0.70271637609
## 3-kth fold --------------------------------
Training Time Elapsed: 00:06:03, 363.273921967
Training set score: 0.673073
Training set loss: 0.836262
MLP # layers: 3
MLP # outputs: 5
MLP # iterations: 500
MLP out_activation_: softmax
MLP classes: [0. 1. 2. 3. 4.]
Classifier saved to /home/paperspace/MSEE/cs280/cs280-mini-proj/src/ANN/_old_grid_search_5_tests_v2/../../../models/ann_entry_5_20_to_25_0_v2/ann_entry_5_v2_2/ann_3_21_0.pkl

Elapsed Seconds: 365.480412006
Total Time Elapsed: 00:06:05
Features in training dataset (80%):
Count: (205566,)
Counter({0.0: 41135, 3.0: 41135, 4.0: 41132, 2.0: 41083, 1.0: 41081})
Features in test dataset (20%):
Count: (51392,)
Counter({0.0: 10284, 3.0: 10284, 4.0: 10283, 2.0: 10271, 1.0: 10270})
Classification Report for Test Data (20%):
              precision    recall  f1-score   support

         0.0       0.67      0.74      0.70     10284
         1.0       0.55      0.56      0.56     10270
         2.0       0.48      0.51      0.49     10271
         3.0       0.52      0.48      0.50     10284
         4.0       0.84      0.75      0.79     10283

   micro avg       0.61      0.61      0.61     51392
   macro avg       0.61      0.61      0.61     51392
weighted avg       0.61      0.61      0.61     51392


Accuracy: 0.607312422167
## 4-kth fold --------------------------------
Training Time Elapsed: 00:05:53, 353.436551094
Training set score: 0.682467
Training set loss: 0.838789
MLP # layers: 3
MLP # outputs: 5
MLP # iterations: 500
MLP out_activation_: softmax
MLP classes: [0. 1. 2. 3. 4.]
Classifier saved to /home/paperspace/MSEE/cs280/cs280-mini-proj/src/ANN/_old_grid_search_5_tests_v2/../../../models/ann_entry_5_20_to_25_0_v2/ann_entry_5_v2_2/ann_4_21_0.pkl

Elapsed Seconds: 355.722826958
Total Time Elapsed: 00:05:55
Features in training dataset (80%):
Count: (205569,)
Counter({0.0: 41136, 3.0: 41136, 4.0: 41132, 2.0: 41084, 1.0: 41081})
Features in test dataset (20%):
Count: (51389,)
Counter({0.0: 10283, 3.0: 10283, 4.0: 10283, 1.0: 10270, 2.0: 10270})
Classification Report for Test Data (20%):
              precision    recall  f1-score   support

         0.0       0.76      0.79      0.78     10283
         1.0       0.64      0.57      0.60     10270
         2.0       0.58      0.48      0.53     10270
         3.0       0.58      0.64      0.61     10283
         4.0       0.80      0.90      0.85     10283

   micro avg       0.68      0.68      0.68     51389
   macro avg       0.67      0.68      0.67     51389
weighted avg       0.67      0.68      0.67     51389


Accuracy: 0.676993130826
Sorted List of Temp Training Scores: 
[[(20, 0), 0.6727589187353943]]

Sorted List of Temp Test Accuracies: 
[[(20, 0), 0.6572196568638636]]

Average Training Accuracy for: (21, 0)
0.684261645506

Average Test Accuracy for: (21, 0)
0.669486860779

Elapsed Seconds: 1833.31049705
Total Time Elapsed: 00:30:33
# Num of nodes: 22, 0 -----------------------------------------------*****
## 0-kth fold --------------------------------
Training Time Elapsed: 00:05:38, 338.779459953
Training set score: 0.651740
Training set loss: 0.879222
MLP # layers: 3
MLP # outputs: 5
MLP # iterations: 471
MLP out_activation_: softmax
MLP classes: [0. 1. 2. 3. 4.]
Classifier saved to /home/paperspace/MSEE/cs280/cs280-mini-proj/src/ANN/_old_grid_search_5_tests_v2/../../../models/ann_entry_5_20_to_25_0_v2/ann_entry_5_v2_2/ann_0_22_0.pkl

Elapsed Seconds: 341.117851019
Total Time Elapsed: 00:05:41
Features in training dataset (80%):
Count: (205565,)
Counter({0.0: 41135, 3.0: 41135, 4.0: 41132, 2.0: 41083, 1.0: 41080})
Features in test dataset (20%):
Count: (51393,)
Counter({0.0: 10284, 3.0: 10284, 4.0: 10283, 1.0: 10271, 2.0: 10271})
Classification Report for Test Data (20%):
              precision    recall  f1-score   support

         0.0       0.74      0.70      0.72     10284
         1.0       0.58      0.59      0.58     10271
         2.0       0.50      0.45      0.47     10271
         3.0       0.57      0.61      0.59     10284
         4.0       0.81      0.87      0.84     10283

   micro avg       0.64      0.64      0.64     51393
   macro avg       0.64      0.64      0.64     51393
weighted avg       0.64      0.64      0.64     51393


Accuracy: 0.643686883428
## 1-kth fold --------------------------------
Training Time Elapsed: 00:05:24, 324.62570405
Training set score: 0.668204
Training set loss: 0.860346
MLP # layers: 3
MLP # outputs: 5
MLP # iterations: 449
MLP out_activation_: softmax
MLP classes: [0. 1. 2. 3. 4.]
Classifier saved to /home/paperspace/MSEE/cs280/cs280-mini-proj/src/ANN/_old_grid_search_5_tests_v2/../../../models/ann_entry_5_20_to_25_0_v2/ann_entry_5_v2_2/ann_1_22_0.pkl

Elapsed Seconds: 326.947037935
Total Time Elapsed: 00:05:26
Features in training dataset (80%):
Count: (205566,)
Counter({0.0: 41135, 3.0: 41135, 4.0: 41132, 2.0: 41083, 1.0: 41081})
Features in test dataset (20%):
Count: (51392,)
Counter({0.0: 10284, 3.0: 10284, 4.0: 10283, 2.0: 10271, 1.0: 10270})
Classification Report for Test Data (20%):
              precision    recall  f1-score   support

         0.0       0.80      0.73      0.76     10284
         1.0       0.59      0.56      0.58     10270
         2.0       0.51      0.56      0.53     10271
         3.0       0.59      0.64      0.61     10284
         4.0       0.87      0.84      0.85     10283

   micro avg       0.67      0.67      0.67     51392
   macro avg       0.67      0.67      0.67     51392
weighted avg       0.67      0.67      0.67     51392


Accuracy: 0.665356475716
## 2-kth fold --------------------------------
Training Time Elapsed: 00:04:47, 287.814215899
Training set score: 0.677763
Training set loss: 0.832614
MLP # layers: 3
MLP # outputs: 5
MLP # iterations: 403
MLP out_activation_: softmax
MLP classes: [0. 1. 2. 3. 4.]
Classifier saved to /home/paperspace/MSEE/cs280/cs280-mini-proj/src/ANN/_old_grid_search_5_tests_v2/../../../models/ann_entry_5_20_to_25_0_v2/ann_entry_5_v2_2/ann_2_22_0.pkl

Elapsed Seconds: 289.886893034
Total Time Elapsed: 00:04:49
Features in training dataset (80%):
Count: (205566,)
Counter({0.0: 41135, 3.0: 41135, 4.0: 41132, 2.0: 41083, 1.0: 41081})
Features in test dataset (20%):
Count: (51392,)
Counter({0.0: 10284, 3.0: 10284, 4.0: 10283, 2.0: 10271, 1.0: 10270})
Classification Report for Test Data (20%):
              precision    recall  f1-score   support

         0.0       0.76      0.75      0.75     10284
         1.0       0.68      0.59      0.63     10270
         2.0       0.55      0.54      0.55     10271
         3.0       0.57      0.62      0.60     10284
         4.0       0.82      0.88      0.85     10283

   micro avg       0.68      0.68      0.68     51392
   macro avg       0.68      0.68      0.68     51392
weighted avg       0.68      0.68      0.68     51392


Accuracy: 0.676778486924
## 3-kth fold --------------------------------
Training Time Elapsed: 00:06:02, 362.776488066
Training set score: 0.688650
Training set loss: 0.806701
MLP # layers: 3
MLP # outputs: 5
MLP # iterations: 500
MLP out_activation_: softmax
MLP classes: [0. 1. 2. 3. 4.]
Classifier saved to /home/paperspace/MSEE/cs280/cs280-mini-proj/src/ANN/_old_grid_search_5_tests_v2/../../../models/ann_entry_5_20_to_25_0_v2/ann_entry_5_v2_2/ann_3_22_0.pkl

Elapsed Seconds: 365.056246042
Total Time Elapsed: 00:06:05
Features in training dataset (80%):
Count: (205566,)
Counter({0.0: 41135, 3.0: 41135, 4.0: 41132, 2.0: 41083, 1.0: 41081})
Features in test dataset (20%):
Count: (51392,)
Counter({0.0: 10284, 3.0: 10284, 4.0: 10283, 2.0: 10271, 1.0: 10270})
Classification Report for Test Data (20%):
              precision    recall  f1-score   support

         0.0       0.71      0.71      0.71     10284
         1.0       0.57      0.61      0.59     10270
         2.0       0.53      0.46      0.50     10271
         3.0       0.55      0.62      0.59     10284
         4.0       0.85      0.80      0.82     10283

   micro avg       0.64      0.64      0.64     51392
   macro avg       0.64      0.64      0.64     51392
weighted avg       0.64      0.64      0.64     51392


Accuracy: 0.640916874222
## 4-kth fold --------------------------------
Training Time Elapsed: 00:05:57, 357.874385118
Training set score: 0.670077
Training set loss: 0.854380
MLP # layers: 3
MLP # outputs: 5
MLP # iterations: 500
MLP out_activation_: softmax
MLP classes: [0. 1. 2. 3. 4.]
Classifier saved to /home/paperspace/MSEE/cs280/cs280-mini-proj/src/ANN/_old_grid_search_5_tests_v2/../../../models/ann_entry_5_20_to_25_0_v2/ann_entry_5_v2_2/ann_4_22_0.pkl

Elapsed Seconds: 360.304498911
Total Time Elapsed: 00:06:00
Features in training dataset (80%):
Count: (205569,)
Counter({0.0: 41136, 3.0: 41136, 4.0: 41132, 2.0: 41084, 1.0: 41081})
Features in test dataset (20%):
Count: (51389,)
Counter({0.0: 10283, 3.0: 10283, 4.0: 10283, 1.0: 10270, 2.0: 10270})
Classification Report for Test Data (20%):
              precision    recall  f1-score   support

         0.0       0.76      0.76      0.76     10283
         1.0       0.61      0.58      0.59     10270
         2.0       0.57      0.44      0.50     10270
         3.0       0.54      0.62      0.58     10283
         4.0       0.80      0.90      0.85     10283

   micro avg       0.66      0.66      0.66     51389
   macro avg       0.66      0.66      0.66     51389
weighted avg       0.66      0.66      0.66     51389


Accuracy: 0.661464515752
Sorted List of Temp Training Scores: 
[[(21, 0), 0.6842616455059493], [(20, 0), 0.6727589187353943]]

Sorted List of Temp Test Accuracies: 
[[(21, 0), 0.669486860778808], [(20, 0), 0.6572196568638636]]

Average Training Accuracy for: (22, 0)
0.671286731765

Average Test Accuracy for: (22, 0)
0.657640647208

Elapsed Seconds: 1685.03034091
Total Time Elapsed: 00:28:05
# Num of nodes: 23, 0 -----------------------------------------------*****
## 0-kth fold --------------------------------
Training Time Elapsed: 00:06:05, 365.637599945
Training set score: 0.716766
Training set loss: 0.789171
MLP # layers: 3
MLP # outputs: 5
MLP # iterations: 500
MLP out_activation_: softmax
MLP classes: [0. 1. 2. 3. 4.]
Classifier saved to /home/paperspace/MSEE/cs280/cs280-mini-proj/src/ANN/_old_grid_search_5_tests_v2/../../../models/ann_entry_5_20_to_25_0_v2/ann_entry_5_v2_2/ann_0_23_0.pkl

Elapsed Seconds: 368.081449986
Total Time Elapsed: 00:06:08
Features in training dataset (80%):
Count: (205565,)
Counter({0.0: 41135, 3.0: 41135, 4.0: 41132, 2.0: 41083, 1.0: 41080})
Features in test dataset (20%):
Count: (51393,)
Counter({0.0: 10284, 3.0: 10284, 4.0: 10283, 1.0: 10271, 2.0: 10271})
Classification Report for Test Data (20%):
              precision    recall  f1-score   support

         0.0       0.76      0.75      0.75     10284
         1.0       0.66      0.61      0.63     10271
         2.0       0.58      0.59      0.58     10271
         3.0       0.66      0.68      0.67     10284
         4.0       0.83      0.87      0.85     10283

   micro avg       0.70      0.70      0.70     51393
   macro avg       0.70      0.70      0.70     51393
weighted avg       0.70      0.70      0.70     51393


Accuracy: 0.699317027611
## 1-kth fold --------------------------------
Training Time Elapsed: 00:05:07, 307.580070972
Training set score: 0.669926
Training set loss: 0.843078
MLP # layers: 3
MLP # outputs: 5
MLP # iterations: 423
MLP out_activation_: softmax
MLP classes: [0. 1. 2. 3. 4.]
Classifier saved to /home/paperspace/MSEE/cs280/cs280-mini-proj/src/ANN/_old_grid_search_5_tests_v2/../../../models/ann_entry_5_20_to_25_0_v2/ann_entry_5_v2_2/ann_1_23_0.pkl

Elapsed Seconds: 309.781345844
Total Time Elapsed: 00:05:09
Features in training dataset (80%):
Count: (205566,)
Counter({0.0: 41135, 3.0: 41135, 4.0: 41132, 2.0: 41083, 1.0: 41081})
Features in test dataset (20%):
Count: (51392,)
Counter({0.0: 10284, 3.0: 10284, 4.0: 10283, 2.0: 10271, 1.0: 10270})
Classification Report for Test Data (20%):
              precision    recall  f1-score   support

         0.0       0.80      0.76      0.78     10284
         1.0       0.61      0.61      0.61     10270
         2.0       0.54      0.50      0.52     10271
         3.0       0.58      0.64      0.61     10284
         4.0       0.84      0.85      0.84     10283

   micro avg       0.67      0.67      0.67     51392
   macro avg       0.67      0.67      0.67     51392
weighted avg       0.67      0.67      0.67     51392


Accuracy: 0.67335382939
## 2-kth fold --------------------------------
Training Time Elapsed: 00:06:22, 382.477619886
Training set score: 0.688217
Training set loss: 0.810932
MLP # layers: 3
MLP # outputs: 5
MLP # iterations: 500
MLP out_activation_: softmax
MLP classes: [0. 1. 2. 3. 4.]
Classifier saved to /home/paperspace/MSEE/cs280/cs280-mini-proj/src/ANN/_old_grid_search_5_tests_v2/../../../models/ann_entry_5_20_to_25_0_v2/ann_entry_5_v2_2/ann_2_23_0.pkl

Elapsed Seconds: 384.894062996
Total Time Elapsed: 00:06:24
Features in training dataset (80%):
Count: (205566,)
Counter({0.0: 41135, 3.0: 41135, 4.0: 41132, 2.0: 41083, 1.0: 41081})
Features in test dataset (20%):
Count: (51392,)
Counter({0.0: 10284, 3.0: 10284, 4.0: 10283, 2.0: 10271, 1.0: 10270})
Classification Report for Test Data (20%):
              precision    recall  f1-score   support

         0.0       0.73      0.76      0.75     10284
         1.0       0.66      0.58      0.62     10270
         2.0       0.60      0.50      0.54     10271
         3.0       0.58      0.72      0.64     10284
         4.0       0.85      0.87      0.86     10283

   micro avg       0.68      0.68      0.68     51392
   macro avg       0.68      0.68      0.68     51392
weighted avg       0.68      0.68      0.68     51392


Accuracy: 0.684328300125
## 3-kth fold --------------------------------
Training Time Elapsed: 00:04:29, 269.536604881
Training set score: 0.658713
Training set loss: 0.850749
MLP # layers: 3
MLP # outputs: 5
MLP # iterations: 369
MLP out_activation_: softmax
MLP classes: [0. 1. 2. 3. 4.]
Classifier saved to /home/paperspace/MSEE/cs280/cs280-mini-proj/src/ANN/_old_grid_search_5_tests_v2/../../../models/ann_entry_5_20_to_25_0_v2/ann_entry_5_v2_2/ann_3_23_0.pkl

Elapsed Seconds: 271.817935944
Total Time Elapsed: 00:04:31
Features in training dataset (80%):
Count: (205566,)
Counter({0.0: 41135, 3.0: 41135, 4.0: 41132, 2.0: 41083, 1.0: 41081})
Features in test dataset (20%):
Count: (51392,)
Counter({0.0: 10284, 3.0: 10284, 4.0: 10283, 2.0: 10271, 1.0: 10270})
Classification Report for Test Data (20%):
              precision    recall  f1-score   support

         0.0       0.69      0.68      0.69     10284
         1.0       0.54      0.54      0.54     10270
         2.0       0.50      0.47      0.48     10271
         3.0       0.53      0.63      0.57     10284
         4.0       0.84      0.74      0.79     10283

   micro avg       0.61      0.61      0.61     51392
   macro avg       0.62      0.61      0.61     51392
weighted avg       0.62      0.61      0.61     51392


Accuracy: 0.612643991283
## 4-kth fold --------------------------------
Training Time Elapsed: 00:06:06, 366.040225029
Training set score: 0.671930
Training set loss: 0.850512
MLP # layers: 3
MLP # outputs: 5
MLP # iterations: 500
MLP out_activation_: softmax
MLP classes: [0. 1. 2. 3. 4.]
Classifier saved to /home/paperspace/MSEE/cs280/cs280-mini-proj/src/ANN/_old_grid_search_5_tests_v2/../../../models/ann_entry_5_20_to_25_0_v2/ann_entry_5_v2_2/ann_4_23_0.pkl

Elapsed Seconds: 368.199600935
Total Time Elapsed: 00:06:08
Features in training dataset (80%):
Count: (205569,)
Counter({0.0: 41136, 3.0: 41136, 4.0: 41132, 2.0: 41084, 1.0: 41081})
Features in test dataset (20%):
Count: (51389,)
Counter({0.0: 10283, 3.0: 10283, 4.0: 10283, 1.0: 10270, 2.0: 10270})
Classification Report for Test Data (20%):
              precision    recall  f1-score   support

         0.0       0.80      0.71      0.75     10283
         1.0       0.57      0.56      0.57     10270
         2.0       0.56      0.49      0.52     10270
         3.0       0.58      0.66      0.62     10283
         4.0       0.79      0.89      0.84     10283

   micro avg       0.66      0.66      0.66     51389
   macro avg       0.66      0.66      0.66     51389
weighted avg       0.66      0.66      0.66     51389


Accuracy: 0.662281811283
Sorted List of Temp Training Scores: 
[[(21, 0), 0.6842616455059493], [(20, 0), 0.6727589187353943], [(22, 0), 0.6712867317651593]]

Sorted List of Temp Test Accuracies: 
[[(21, 0), 0.669486860778808], [(22, 0), 0.6576406472083741], [(20, 0), 0.6572196568638636]]

Average Training Accuracy for: (23, 0)
0.681110398583

Average Test Accuracy for: (23, 0)
0.666384991938

Elapsed Seconds: 1704.52604413
Total Time Elapsed: 00:28:24
# Num of nodes: 24, 0 -----------------------------------------------*****
## 0-kth fold --------------------------------
Training Time Elapsed: 00:06:09, 369.995714903
Training set score: 0.725834
Training set loss: 0.758542
MLP # layers: 3
MLP # outputs: 5
MLP # iterations: 500
MLP out_activation_: softmax
MLP classes: [0. 1. 2. 3. 4.]
Classifier saved to /home/paperspace/MSEE/cs280/cs280-mini-proj/src/ANN/_old_grid_search_5_tests_v2/../../../models/ann_entry_5_20_to_25_0_v2/ann_entry_5_v2_2/ann_0_24_0.pkl

Elapsed Seconds: 372.297782898
Total Time Elapsed: 00:06:12
Features in training dataset (80%):
Count: (205565,)
Counter({0.0: 41135, 3.0: 41135, 4.0: 41132, 2.0: 41083, 1.0: 41080})
Features in test dataset (20%):
Count: (51393,)
Counter({0.0: 10284, 3.0: 10284, 4.0: 10283, 1.0: 10271, 2.0: 10271})
Classification Report for Test Data (20%):
              precision    recall  f1-score   support

         0.0       0.74      0.77      0.75     10284
         1.0       0.66      0.57      0.61     10271
         2.0       0.60      0.60      0.60     10271
         3.0       0.68      0.70      0.69     10284
         4.0       0.85      0.89      0.87     10283

   micro avg       0.71      0.71      0.71     51393
   macro avg       0.70      0.71      0.70     51393
weighted avg       0.70      0.71      0.70     51393


Accuracy: 0.706652656977
## 1-kth fold --------------------------------
Training Time Elapsed: 00:06:10, 370.213835001
Training set score: 0.717409
Training set loss: 0.774587
MLP # layers: 3
MLP # outputs: 5
MLP # iterations: 500
MLP out_activation_: softmax
MLP classes: [0. 1. 2. 3. 4.]
Classifier saved to /home/paperspace/MSEE/cs280/cs280-mini-proj/src/ANN/_old_grid_search_5_tests_v2/../../../models/ann_entry_5_20_to_25_0_v2/ann_entry_5_v2_2/ann_1_24_0.pkl

Elapsed Seconds: 372.179476023
Total Time Elapsed: 00:06:12
Features in training dataset (80%):
Count: (205566,)
Counter({0.0: 41135, 3.0: 41135, 4.0: 41132, 2.0: 41083, 1.0: 41081})
Features in test dataset (20%):
Count: (51392,)
Counter({0.0: 10284, 3.0: 10284, 4.0: 10283, 2.0: 10271, 1.0: 10270})
Classification Report for Test Data (20%):
              precision    recall  f1-score   support

         0.0       0.80      0.75      0.77     10284
         1.0       0.63      0.62      0.62     10270
         2.0       0.61      0.65      0.63     10271
         3.0       0.69      0.70      0.70     10284
         4.0       0.87      0.87      0.87     10283

   micro avg       0.72      0.72      0.72     51392
   macro avg       0.72      0.72      0.72     51392
weighted avg       0.72      0.72      0.72     51392


Accuracy: 0.71727117061
## 2-kth fold --------------------------------
Training Time Elapsed: 00:06:09, 369.759326935
Training set score: 0.687492
Training set loss: 0.825607
MLP # layers: 3
MLP # outputs: 5
MLP # iterations: 500
MLP out_activation_: softmax
MLP classes: [0. 1. 2. 3. 4.]
Classifier saved to /home/paperspace/MSEE/cs280/cs280-mini-proj/src/ANN/_old_grid_search_5_tests_v2/../../../models/ann_entry_5_20_to_25_0_v2/ann_entry_5_v2_2/ann_2_24_0.pkl

Elapsed Seconds: 371.898313046
Total Time Elapsed: 00:06:11
Features in training dataset (80%):
Count: (205566,)
Counter({0.0: 41135, 3.0: 41135, 4.0: 41132, 2.0: 41083, 1.0: 41081})
Features in test dataset (20%):
Count: (51392,)
Counter({0.0: 10284, 3.0: 10284, 4.0: 10283, 2.0: 10271, 1.0: 10270})
Classification Report for Test Data (20%):
              precision    recall  f1-score   support

         0.0       0.76      0.73      0.75     10284
         1.0       0.63      0.63      0.63     10270
         2.0       0.58      0.52      0.55     10271
         3.0       0.59      0.66      0.62     10284
         4.0       0.84      0.88      0.86     10283

   micro avg       0.68      0.68      0.68     51392
   macro avg       0.68      0.68      0.68     51392
weighted avg       0.68      0.68      0.68     51392


Accuracy: 0.683666718555
## 3-kth fold --------------------------------
Training Time Elapsed: 00:06:12, 372.949803114
Training set score: 0.662595
Training set loss: 0.843647
MLP # layers: 3
MLP # outputs: 5
MLP # iterations: 500
MLP out_activation_: softmax
MLP classes: [0. 1. 2. 3. 4.]
Classifier saved to /home/paperspace/MSEE/cs280/cs280-mini-proj/src/ANN/_old_grid_search_5_tests_v2/../../../models/ann_entry_5_20_to_25_0_v2/ann_entry_5_v2_2/ann_3_24_0.pkl

Elapsed Seconds: 375.11048007
Total Time Elapsed: 00:06:15
Features in training dataset (80%):
Count: (205566,)
Counter({0.0: 41135, 3.0: 41135, 4.0: 41132, 2.0: 41083, 1.0: 41081})
Features in test dataset (20%):
Count: (51392,)
Counter({0.0: 10284, 3.0: 10284, 4.0: 10283, 2.0: 10271, 1.0: 10270})
Classification Report for Test Data (20%):
              precision    recall  f1-score   support

         0.0       0.67      0.70      0.68     10284
         1.0       0.52      0.58      0.55     10270
         2.0       0.51      0.44      0.47     10271
         3.0       0.53      0.57      0.55     10284
         4.0       0.85      0.76      0.80     10283

   micro avg       0.61      0.61      0.61     51392
   macro avg       0.62      0.61      0.61     51392
weighted avg       0.62      0.61      0.61     51392


Accuracy: 0.610698163138
## 4-kth fold --------------------------------
Training Time Elapsed: 00:05:21, 321.988772154
Training set score: 0.686777
Training set loss: 0.819836
MLP # layers: 3
MLP # outputs: 5
MLP # iterations: 434
MLP out_activation_: softmax
MLP classes: [0. 1. 2. 3. 4.]
Classifier saved to /home/paperspace/MSEE/cs280/cs280-mini-proj/src/ANN/_old_grid_search_5_tests_v2/../../../models/ann_entry_5_20_to_25_0_v2/ann_entry_5_v2_2/ann_4_24_0.pkl

Elapsed Seconds: 324.214729071
Total Time Elapsed: 00:05:24
Features in training dataset (80%):
Count: (205569,)
Counter({0.0: 41136, 3.0: 41136, 4.0: 41132, 2.0: 41084, 1.0: 41081})
Features in test dataset (20%):
Count: (51389,)
Counter({0.0: 10283, 3.0: 10283, 4.0: 10283, 1.0: 10270, 2.0: 10270})
Classification Report for Test Data (20%):
              precision    recall  f1-score   support

         0.0       0.80      0.73      0.77     10283
         1.0       0.62      0.63      0.63     10270
         2.0       0.57      0.46      0.51     10270
         3.0       0.57      0.65      0.61     10283
         4.0       0.80      0.90      0.85     10283

   micro avg       0.67      0.67      0.67     51389
   macro avg       0.67      0.67      0.67     51389
weighted avg       0.67      0.67      0.67     51389


Accuracy: 0.674755297826
Sorted List of Temp Training Scores: 
[[(21, 0), 0.6842616455059493], [(23, 0), 0.6811103985831003], [(20, 0), 0.6727589187353943], [(22, 0), 0.6712867317651593]]

Sorted List of Temp Test Accuracies: 
[[(21, 0), 0.669486860778808], [(23, 0), 0.6663849919380691], [(22, 0), 0.6576406472083741], [(20, 0), 0.6572196568638636]]

Average Training Accuracy for: (24, 0)
0.696021390214

Average Test Accuracy for: (24, 0)
0.678608801421

Elapsed Seconds: 1817.69710517
Total Time Elapsed: 00:30:17
# Num of nodes: 25, 0 -----------------------------------------------*****
## 0-kth fold --------------------------------
Training Time Elapsed: 00:06:15, 375.509327888
Training set score: 0.718639
Training set loss: 0.792064
MLP # layers: 3
MLP # outputs: 5
MLP # iterations: 500
MLP out_activation_: softmax
MLP classes: [0. 1. 2. 3. 4.]
Classifier saved to /home/paperspace/MSEE/cs280/cs280-mini-proj/src/ANN/_old_grid_search_5_tests_v2/../../../models/ann_entry_5_20_to_25_0_v2/ann_entry_5_v2_2/ann_0_25_0.pkl

Elapsed Seconds: 377.485040903
Total Time Elapsed: 00:06:17
Features in training dataset (80%):
Count: (205565,)
Counter({0.0: 41135, 3.0: 41135, 4.0: 41132, 2.0: 41083, 1.0: 41080})
Features in test dataset (20%):
Count: (51393,)
Counter({0.0: 10284, 3.0: 10284, 4.0: 10283, 1.0: 10271, 2.0: 10271})
Classification Report for Test Data (20%):
              precision    recall  f1-score   support

         0.0       0.74      0.75      0.74     10284
         1.0       0.67      0.61      0.64     10271
         2.0       0.61      0.63      0.62     10271
         3.0       0.68      0.69      0.68     10284
         4.0       0.83      0.84      0.84     10283

   micro avg       0.70      0.70      0.70     51393
   macro avg       0.70      0.70      0.70     51393
weighted avg       0.70      0.70      0.70     51393


Accuracy: 0.704181503318
## 1-kth fold --------------------------------
Training Time Elapsed: 00:06:15, 375.104930878
Training set score: 0.679081
Training set loss: 0.840569
MLP # layers: 3
MLP # outputs: 5
MLP # iterations: 500
MLP out_activation_: softmax
MLP classes: [0. 1. 2. 3. 4.]
Classifier saved to /home/paperspace/MSEE/cs280/cs280-mini-proj/src/ANN/_old_grid_search_5_tests_v2/../../../models/ann_entry_5_20_to_25_0_v2/ann_entry_5_v2_2/ann_1_25_0.pkl

Elapsed Seconds: 377.507040024
Total Time Elapsed: 00:06:17
Features in training dataset (80%):
Count: (205566,)
Counter({0.0: 41135, 3.0: 41135, 4.0: 41132, 2.0: 41083, 1.0: 41081})
Features in test dataset (20%):
Count: (51392,)
Counter({0.0: 10284, 3.0: 10284, 4.0: 10283, 2.0: 10271, 1.0: 10270})
Classification Report for Test Data (20%):
              precision    recall  f1-score   support

         0.0       0.79      0.79      0.79     10284
         1.0       0.62      0.60      0.61     10270
         2.0       0.53      0.53      0.53     10271
         3.0       0.62      0.60      0.61     10284
         4.0       0.83      0.89      0.86     10283

   micro avg       0.68      0.68      0.68     51392
   macro avg       0.68      0.68      0.68     51392
weighted avg       0.68      0.68      0.68     51392


Accuracy: 0.683433219178
## 2-kth fold --------------------------------
Training Time Elapsed: 00:04:27, 267.207027912
Training set score: 0.712681
Training set loss: 0.792328
MLP # layers: 3
MLP # outputs: 5
MLP # iterations: 390
MLP out_activation_: softmax
MLP classes: [0. 1. 2. 3. 4.]
Classifier saved to /home/paperspace/MSEE/cs280/cs280-mini-proj/src/ANN/_old_grid_search_5_tests_v2/../../../models/ann_entry_5_20_to_25_0_v2/ann_entry_5_v2_2/ann_2_25_0.pkl

Elapsed Seconds: 269.331357956
Total Time Elapsed: 00:04:29
Features in training dataset (80%):
Count: (205566,)
Counter({0.0: 41135, 3.0: 41135, 4.0: 41132, 2.0: 41083, 1.0: 41081})
Features in test dataset (20%):
Count: (51392,)
Counter({0.0: 10284, 3.0: 10284, 4.0: 10283, 2.0: 10271, 1.0: 10270})
Classification Report for Test Data (20%):
              precision    recall  f1-score   support

         0.0       0.73      0.76      0.74     10284
         1.0       0.70      0.62      0.66     10270
         2.0       0.63      0.62      0.62     10271
         3.0       0.67      0.67      0.67     10284
         4.0       0.80      0.87      0.84     10283

   micro avg       0.71      0.71      0.71     51392
   macro avg       0.70      0.71      0.71     51392
weighted avg       0.70      0.71      0.71     51392


Accuracy: 0.707308530511
## 3-kth fold --------------------------------
Training Time Elapsed: 00:04:19, 259.448995829
Training set score: 0.690352
Training set loss: 0.788404
MLP # layers: 3
MLP # outputs: 5
MLP # iterations: 425
MLP out_activation_: softmax
MLP classes: [0. 1. 2. 3. 4.]
Classifier saved to /home/paperspace/MSEE/cs280/cs280-mini-proj/src/ANN/_old_grid_search_5_tests_v2/../../../models/ann_entry_5_20_to_25_0_v2/ann_entry_5_v2_2/ann_3_25_0.pkl

Elapsed Seconds: 261.533663988
Total Time Elapsed: 00:04:21
Features in training dataset (80%):
Count: (205566,)
Counter({0.0: 41135, 3.0: 41135, 4.0: 41132, 2.0: 41083, 1.0: 41081})
Features in test dataset (20%):
Count: (51392,)
Counter({0.0: 10284, 3.0: 10284, 4.0: 10283, 2.0: 10271, 1.0: 10270})
Classification Report for Test Data (20%):
              precision    recall  f1-score   support

         0.0       0.63      0.73      0.68     10284
         1.0       0.52      0.56      0.54     10270
         2.0       0.48      0.45      0.47     10271
         3.0       0.52      0.52      0.52     10284
         4.0       0.88      0.72      0.79     10283

   micro avg       0.60      0.60      0.60     51392
   macro avg       0.61      0.60      0.60     51392
weighted avg       0.61      0.60      0.60     51392


Accuracy: 0.596376867995
## 4-kth fold --------------------------------
Training Time Elapsed: 00:05:06, 306.102144957
Training set score: 0.722390
Training set loss: 0.766296
MLP # layers: 3
MLP # outputs: 5
MLP # iterations: 500
MLP out_activation_: softmax
MLP classes: [0. 1. 2. 3. 4.]
Classifier saved to /home/paperspace/MSEE/cs280/cs280-mini-proj/src/ANN/_old_grid_search_5_tests_v2/../../../models/ann_entry_5_20_to_25_0_v2/ann_entry_5_v2_2/ann_4_25_0.pkl

Elapsed Seconds: 307.801178932
Total Time Elapsed: 00:05:07
Features in training dataset (80%):
Count: (205569,)
Counter({0.0: 41136, 3.0: 41136, 4.0: 41132, 2.0: 41084, 1.0: 41081})
Features in test dataset (20%):
Count: (51389,)
Counter({0.0: 10283, 3.0: 10283, 4.0: 10283, 1.0: 10270, 2.0: 10270})
Classification Report for Test Data (20%):
              precision    recall  f1-score   support

         0.0       0.73      0.76      0.74     10283
         1.0       0.63      0.55      0.59     10270
         2.0       0.59      0.59      0.59     10270
         3.0       0.66      0.65      0.65     10283
         4.0       0.80      0.90      0.85     10283

   micro avg       0.69      0.69      0.69     51389
   macro avg       0.68      0.69      0.69     51389
weighted avg       0.68      0.69      0.69     51389


Accuracy: 0.689057969604
Sorted List of Temp Training Scores: 
[[(24, 0), 0.6960213902139165], [(21, 0), 0.6842616455059493], [(23, 0), 0.6811103985831003], [(20, 0), 0.6727589187353943], [(22, 0), 0.6712867317651593]]

Sorted List of Temp Test Accuracies: 
[[(24, 0), 0.6786088014213749], [(21, 0), 0.669486860778808], [(23, 0), 0.6663849919380691], [(22, 0), 0.6576406472083741], [(20, 0), 0.6572196568638636]]

Average Training Accuracy for: (25, 0)
0.704628733807

Average Test Accuracy for: (25, 0)
0.676071618121

Elapsed Seconds: 1595.29073215
Total Time Elapsed: 00:26:35
List of Training Scores: 
[[(20, 0), 0.6727589187353943], [(21, 0), 0.6842616455059493], [(22, 0), 0.6712867317651593], [(23, 0), 0.6811103985831003], [(24, 0), 0.6960213902139165], [(25, 0), 0.7046287338068806]]

List of Test Accuracies: 
[[(20, 0), 0.6572196568638636], [(21, 0), 0.669486860778808], [(22, 0), 0.6576406472083741], [(23, 0), 0.6663849919380691], [(24, 0), 0.6786088014213749], [(25, 0), 0.6760716181211297]]

Sorted List of Training Scores: 
[[(25, 0), 0.7046287338068806], [(24, 0), 0.6960213902139165], [(21, 0), 0.6842616455059493], [(23, 0), 0.6811103985831003], [(20, 0), 0.6727589187353943], [(22, 0), 0.6712867317651593]]

Sorted List of Test Accuracies: 
[[(24, 0), 0.6786088014213749], [(25, 0), 0.6760716181211297], [(21, 0), 0.669486860778808], [(23, 0), 0.6663849919380691], [(22, 0), 0.6576406472083741], [(20, 0), 0.6572196568638636]]

Elapsed Seconds: 10235.0215681
Total Time Elapsed: 02:50:35
