# ann_entry_5_v2_8
['station', 'month', 'day_of_the_week', 'hour', 'traffic_type']
# Num of nodes: 20, 0 -----------------------------------------------*****
## 0-kth fold --------------------------------
Training Time Elapsed: 00:05:00, 300.329329967
Training set score: 0.676852
Training set loss: 0.855232
MLP # layers: 3
MLP # outputs: 5
MLP # iterations: 450
MLP out_activation_: softmax
MLP classes: [0. 1. 2. 3. 4.]
Classifier saved to /home/paperspace/MSEE/cs280/cs280-mini-proj/src/ANN/_old_grid_search_5_tests_v2/../../../models/ann_entry_5_20_to_30_0_v2/ann_entry_5_v2_8/ann_0_20_0.pkl

Elapsed Seconds: 302.098738909
Total Time Elapsed: 00:05:02
Features in training dataset (80%):
Count: (205565,)
Counter({0.0: 41135, 3.0: 41135, 4.0: 41132, 2.0: 41083, 1.0: 41080})
Features in test dataset (20%):
Count: (51393,)
Counter({0.0: 10284, 3.0: 10284, 4.0: 10283, 1.0: 10271, 2.0: 10271})
Classification Report for Test Data (20%):
              precision    recall  f1-score   support

         0.0       0.79      0.70      0.75     10284
         1.0       0.65      0.57      0.61     10271
         2.0       0.54      0.48      0.51     10271
         3.0       0.60      0.67      0.63     10284
         4.0       0.74      0.91      0.82     10283

   micro avg       0.67      0.67      0.67     51393
   macro avg       0.67      0.67      0.66     51393
weighted avg       0.67      0.67      0.66     51393


Accuracy: 0.667347693266
## 1-kth fold --------------------------------
Training Time Elapsed: 00:05:34, 334.263434887
Training set score: 0.678765
Training set loss: 0.868957
MLP # layers: 3
MLP # outputs: 5
MLP # iterations: 500
MLP out_activation_: softmax
MLP classes: [0. 1. 2. 3. 4.]
Classifier saved to /home/paperspace/MSEE/cs280/cs280-mini-proj/src/ANN/_old_grid_search_5_tests_v2/../../../models/ann_entry_5_20_to_30_0_v2/ann_entry_5_v2_8/ann_1_20_0.pkl

Elapsed Seconds: 336.50509882
Total Time Elapsed: 00:05:36
Features in training dataset (80%):
Count: (205566,)
Counter({0.0: 41135, 3.0: 41135, 4.0: 41132, 2.0: 41083, 1.0: 41081})
Features in test dataset (20%):
Count: (51392,)
Counter({0.0: 10284, 3.0: 10284, 4.0: 10283, 2.0: 10271, 1.0: 10270})
Classification Report for Test Data (20%):
              precision    recall  f1-score   support

         0.0       0.78      0.80      0.79     10284
         1.0       0.62      0.60      0.61     10270
         2.0       0.59      0.54      0.57     10271
         3.0       0.67      0.68      0.67     10284
         4.0       0.80      0.85      0.83     10283

   micro avg       0.70      0.70      0.70     51392
   macro avg       0.69      0.70      0.69     51392
weighted avg       0.69      0.70      0.69     51392


Accuracy: 0.695614103362
## 2-kth fold --------------------------------
Training Time Elapsed: 00:04:14, 254.130108833
Training set score: 0.645939
Training set loss: 0.906421
MLP # layers: 3
MLP # outputs: 5
MLP # iterations: 383
MLP out_activation_: softmax
MLP classes: [0. 1. 2. 3. 4.]
Classifier saved to /home/paperspace/MSEE/cs280/cs280-mini-proj/src/ANN/_old_grid_search_5_tests_v2/../../../models/ann_entry_5_20_to_30_0_v2/ann_entry_5_v2_8/ann_2_20_0.pkl

Elapsed Seconds: 256.137663126
Total Time Elapsed: 00:04:16
Features in training dataset (80%):
Count: (205566,)
Counter({0.0: 41135, 3.0: 41135, 4.0: 41132, 2.0: 41083, 1.0: 41081})
Features in test dataset (20%):
Count: (51392,)
Counter({0.0: 10284, 3.0: 10284, 4.0: 10283, 2.0: 10271, 1.0: 10270})
Classification Report for Test Data (20%):
              precision    recall  f1-score   support

         0.0       0.74      0.71      0.73     10284
         1.0       0.65      0.53      0.59     10270
         2.0       0.51      0.51      0.51     10271
         3.0       0.57      0.63      0.60     10284
         4.0       0.78      0.88      0.83     10283

   micro avg       0.65      0.65      0.65     51392
   macro avg       0.65      0.65      0.65     51392
weighted avg       0.65      0.65      0.65     51392


Accuracy: 0.653467465753
## 3-kth fold --------------------------------
Training Time Elapsed: 00:05:34, 334.382838011
Training set score: 0.681178
Training set loss: 0.851045
MLP # layers: 3
MLP # outputs: 5
MLP # iterations: 500
MLP out_activation_: softmax
MLP classes: [0. 1. 2. 3. 4.]
Classifier saved to /home/paperspace/MSEE/cs280/cs280-mini-proj/src/ANN/_old_grid_search_5_tests_v2/../../../models/ann_entry_5_20_to_30_0_v2/ann_entry_5_v2_8/ann_3_20_0.pkl

Elapsed Seconds: 336.652422905
Total Time Elapsed: 00:05:36
Features in training dataset (80%):
Count: (205566,)
Counter({0.0: 41135, 3.0: 41135, 4.0: 41132, 2.0: 41083, 1.0: 41081})
Features in test dataset (20%):
Count: (51392,)
Counter({0.0: 10284, 3.0: 10284, 4.0: 10283, 2.0: 10271, 1.0: 10270})
Classification Report for Test Data (20%):
              precision    recall  f1-score   support

         0.0       0.66      0.76      0.71     10284
         1.0       0.52      0.59      0.55     10270
         2.0       0.47      0.46      0.46     10271
         3.0       0.54      0.52      0.53     10284
         4.0       0.83      0.66      0.73     10283

   micro avg       0.60      0.60      0.60     51392
   macro avg       0.60      0.60      0.60     51392
weighted avg       0.60      0.60      0.60     51392


Accuracy: 0.595851494396
## 4-kth fold --------------------------------
Training Time Elapsed: 00:04:21, 261.216953039
Training set score: 0.639552
Training set loss: 0.911645
MLP # layers: 3
MLP # outputs: 5
MLP # iterations: 389
MLP out_activation_: softmax
MLP classes: [0. 1. 2. 3. 4.]
Classifier saved to /home/paperspace/MSEE/cs280/cs280-mini-proj/src/ANN/_old_grid_search_5_tests_v2/../../../models/ann_entry_5_20_to_30_0_v2/ann_entry_5_v2_8/ann_4_20_0.pkl

Elapsed Seconds: 263.510047913
Total Time Elapsed: 00:04:23
Features in training dataset (80%):
Count: (205569,)
Counter({0.0: 41136, 3.0: 41136, 4.0: 41132, 2.0: 41084, 1.0: 41081})
Features in test dataset (20%):
Count: (51389,)
Counter({0.0: 10283, 3.0: 10283, 4.0: 10283, 1.0: 10270, 2.0: 10270})
Classification Report for Test Data (20%):
              precision    recall  f1-score   support

         0.0       0.75      0.75      0.75     10283
         1.0       0.57      0.53      0.55     10270
         2.0       0.48      0.41      0.44     10270
         3.0       0.54      0.58      0.56     10283
         4.0       0.76      0.87      0.81     10283

   micro avg       0.63      0.63      0.63     51389
   macro avg       0.62      0.63      0.62     51389
weighted avg       0.62      0.63      0.62     51389


Accuracy: 0.627741345424
Sorted List of Temp Training Scores: 
[]

Sorted List of Temp Test Accuracies: 
[]

Average Training Accuracy for: (20, 0)
0.664456922056

Average Test Accuracy for: (20, 0)
0.64800442044

Elapsed Seconds: 1496.65850592
Total Time Elapsed: 00:24:56
# Num of nodes: 21, 0 -----------------------------------------------*****
## 0-kth fold --------------------------------
Training Time Elapsed: 00:05:35, 335.093161106
Training set score: 0.702654
Training set loss: 0.824156
MLP # layers: 3
MLP # outputs: 5
MLP # iterations: 500
MLP out_activation_: softmax
MLP classes: [0. 1. 2. 3. 4.]
Classifier saved to /home/paperspace/MSEE/cs280/cs280-mini-proj/src/ANN/_old_grid_search_5_tests_v2/../../../models/ann_entry_5_20_to_30_0_v2/ann_entry_5_v2_8/ann_0_21_0.pkl

Elapsed Seconds: 337.393296957
Total Time Elapsed: 00:05:37
Features in training dataset (80%):
Count: (205565,)
Counter({0.0: 41135, 3.0: 41135, 4.0: 41132, 2.0: 41083, 1.0: 41080})
Features in test dataset (20%):
Count: (51393,)
Counter({0.0: 10284, 3.0: 10284, 4.0: 10283, 1.0: 10271, 2.0: 10271})
Classification Report for Test Data (20%):
              precision    recall  f1-score   support

         0.0       0.83      0.70      0.76     10284
         1.0       0.69      0.66      0.67     10271
         2.0       0.63      0.57      0.60     10271
         3.0       0.61      0.66      0.63     10284
         4.0       0.77      0.92      0.84     10283

   micro avg       0.70      0.70      0.70     51393
   macro avg       0.70      0.70      0.70     51393
weighted avg       0.70      0.70      0.70     51393


Accuracy: 0.702644328994
## 1-kth fold --------------------------------
Training Time Elapsed: 00:05:41, 341.45964694
Training set score: 0.713722
Training set loss: 0.800026
MLP # layers: 3
MLP # outputs: 5
MLP # iterations: 500
MLP out_activation_: softmax
MLP classes: [0. 1. 2. 3. 4.]
Classifier saved to /home/paperspace/MSEE/cs280/cs280-mini-proj/src/ANN/_old_grid_search_5_tests_v2/../../../models/ann_entry_5_20_to_30_0_v2/ann_entry_5_v2_8/ann_1_21_0.pkl

Elapsed Seconds: 343.42691803
Total Time Elapsed: 00:05:43
Features in training dataset (80%):
Count: (205566,)
Counter({0.0: 41135, 3.0: 41135, 4.0: 41132, 2.0: 41083, 1.0: 41081})
Features in test dataset (20%):
Count: (51392,)
Counter({0.0: 10284, 3.0: 10284, 4.0: 10283, 2.0: 10271, 1.0: 10270})
Classification Report for Test Data (20%):
              precision    recall  f1-score   support

         0.0       0.82      0.80      0.81     10284
         1.0       0.67      0.65      0.66     10270
         2.0       0.63      0.61      0.62     10271
         3.0       0.68      0.70      0.69     10284
         4.0       0.86      0.89      0.87     10283

   micro avg       0.73      0.73      0.73     51392
   macro avg       0.73      0.73      0.73     51392
weighted avg       0.73      0.73      0.73     51392


Accuracy: 0.731767590286
## 2-kth fold --------------------------------
Training Time Elapsed: 00:05:40, 340.580766916
Training set score: 0.712263
Training set loss: 0.788483
MLP # layers: 3
MLP # outputs: 5
MLP # iterations: 500
MLP out_activation_: softmax
MLP classes: [0. 1. 2. 3. 4.]
Classifier saved to /home/paperspace/MSEE/cs280/cs280-mini-proj/src/ANN/_old_grid_search_5_tests_v2/../../../models/ann_entry_5_20_to_30_0_v2/ann_entry_5_v2_8/ann_2_21_0.pkl

Elapsed Seconds: 343.00800705
Total Time Elapsed: 00:05:43
Features in training dataset (80%):
Count: (205566,)
Counter({0.0: 41135, 3.0: 41135, 4.0: 41132, 2.0: 41083, 1.0: 41081})
Features in test dataset (20%):
Count: (51392,)
Counter({0.0: 10284, 3.0: 10284, 4.0: 10283, 2.0: 10271, 1.0: 10270})
Classification Report for Test Data (20%):
              precision    recall  f1-score   support

         0.0       0.82      0.71      0.76     10284
         1.0       0.69      0.70      0.69     10270
         2.0       0.64      0.59      0.61     10271
         3.0       0.63      0.74      0.68     10284
         4.0       0.83      0.86      0.84     10283

   micro avg       0.72      0.72      0.72     51392
   macro avg       0.72      0.72      0.72     51392
weighted avg       0.72      0.72      0.72     51392


Accuracy: 0.718088418431
## 3-kth fold --------------------------------
Training Time Elapsed: 00:05:39, 339.509132147
Training set score: 0.693913
Training set loss: 0.815216
MLP # layers: 3
MLP # outputs: 5
MLP # iterations: 500
MLP out_activation_: softmax
MLP classes: [0. 1. 2. 3. 4.]
Classifier saved to /home/paperspace/MSEE/cs280/cs280-mini-proj/src/ANN/_old_grid_search_5_tests_v2/../../../models/ann_entry_5_20_to_30_0_v2/ann_entry_5_v2_8/ann_3_21_0.pkl

Elapsed Seconds: 341.592239857
Total Time Elapsed: 00:05:41
Features in training dataset (80%):
Count: (205566,)
Counter({0.0: 41135, 3.0: 41135, 4.0: 41132, 2.0: 41083, 1.0: 41081})
Features in test dataset (20%):
Count: (51392,)
Counter({0.0: 10284, 3.0: 10284, 4.0: 10283, 2.0: 10271, 1.0: 10270})
Classification Report for Test Data (20%):
              precision    recall  f1-score   support

         0.0       0.65      0.76      0.70     10284
         1.0       0.53      0.58      0.56     10270
         2.0       0.53      0.51      0.52     10271
         3.0       0.55      0.56      0.56     10284
         4.0       0.89      0.70      0.78     10283

   micro avg       0.62      0.62      0.62     51392
   macro avg       0.63      0.62      0.62     51392
weighted avg       0.63      0.62      0.62     51392


Accuracy: 0.621030510585
## 4-kth fold --------------------------------
Training Time Elapsed: 00:04:29, 269.342587948
Training set score: 0.651796
Training set loss: 0.884771
MLP # layers: 3
MLP # outputs: 5
MLP # iterations: 397
MLP out_activation_: softmax
MLP classes: [0. 1. 2. 3. 4.]
Classifier saved to /home/paperspace/MSEE/cs280/cs280-mini-proj/src/ANN/_old_grid_search_5_tests_v2/../../../models/ann_entry_5_20_to_30_0_v2/ann_entry_5_v2_8/ann_4_21_0.pkl

Elapsed Seconds: 271.680780888
Total Time Elapsed: 00:04:31
Features in training dataset (80%):
Count: (205569,)
Counter({0.0: 41136, 3.0: 41136, 4.0: 41132, 2.0: 41084, 1.0: 41081})
Features in test dataset (20%):
Count: (51389,)
Counter({0.0: 10283, 3.0: 10283, 4.0: 10283, 1.0: 10270, 2.0: 10270})
Classification Report for Test Data (20%):
              precision    recall  f1-score   support

         0.0       0.74      0.72      0.73     10283
         1.0       0.60      0.56      0.58     10270
         2.0       0.53      0.44      0.48     10270
         3.0       0.55      0.63      0.59     10283
         4.0       0.79      0.88      0.83     10283

   micro avg       0.65      0.65      0.65     51389
   macro avg       0.64      0.65      0.64     51389
weighted avg       0.64      0.65      0.64     51389


Accuracy: 0.647589951157
Sorted List of Temp Training Scores: 
[[(20, 0), 0.6644569220557427]]

Sorted List of Temp Test Accuracies: 
[[(20, 0), 0.6480044204403137]]

Average Training Accuracy for: (21, 0)
0.694869528294

Average Test Accuracy for: (21, 0)
0.684224159891

Elapsed Seconds: 1638.84859085
Total Time Elapsed: 00:27:18
# Num of nodes: 22, 0 -----------------------------------------------*****
## 0-kth fold --------------------------------
Training Time Elapsed: 00:04:29, 269.20658803
Training set score: 0.657252
Training set loss: 0.876085
MLP # layers: 3
MLP # outputs: 5
MLP # iterations: 391
MLP out_activation_: softmax
MLP classes: [0. 1. 2. 3. 4.]
Classifier saved to /home/paperspace/MSEE/cs280/cs280-mini-proj/src/ANN/_old_grid_search_5_tests_v2/../../../models/ann_entry_5_20_to_30_0_v2/ann_entry_5_v2_8/ann_0_22_0.pkl

Elapsed Seconds: 271.396956921
Total Time Elapsed: 00:04:31
Features in training dataset (80%):
Count: (205565,)
Counter({0.0: 41135, 3.0: 41135, 4.0: 41132, 2.0: 41083, 1.0: 41080})
Features in test dataset (20%):
Count: (51393,)
Counter({0.0: 10284, 3.0: 10284, 4.0: 10283, 1.0: 10271, 2.0: 10271})
Classification Report for Test Data (20%):
              precision    recall  f1-score   support

         0.0       0.76      0.66      0.71     10284
         1.0       0.61      0.57      0.59     10271
         2.0       0.49      0.47      0.48     10271
         3.0       0.58      0.65      0.61     10284
         4.0       0.79      0.90      0.84     10283

   micro avg       0.65      0.65      0.65     51393
   macro avg       0.65      0.65      0.64     51393
weighted avg       0.65      0.65      0.64     51393


Accuracy: 0.647344969159
## 1-kth fold --------------------------------
Training Time Elapsed: 00:05:43, 343.474256039
Training set score: 0.685162
Training set loss: 0.832347
MLP # layers: 3
MLP # outputs: 5
MLP # iterations: 500
MLP out_activation_: softmax
MLP classes: [0. 1. 2. 3. 4.]
Classifier saved to /home/paperspace/MSEE/cs280/cs280-mini-proj/src/ANN/_old_grid_search_5_tests_v2/../../../models/ann_entry_5_20_to_30_0_v2/ann_entry_5_v2_8/ann_1_22_0.pkl

Elapsed Seconds: 345.714820147
Total Time Elapsed: 00:05:45
Features in training dataset (80%):
Count: (205566,)
Counter({0.0: 41135, 3.0: 41135, 4.0: 41132, 2.0: 41083, 1.0: 41081})
Features in test dataset (20%):
Count: (51392,)
Counter({0.0: 10284, 3.0: 10284, 4.0: 10283, 2.0: 10271, 1.0: 10270})
Classification Report for Test Data (20%):
              precision    recall  f1-score   support

         0.0       0.84      0.73      0.78     10284
         1.0       0.62      0.63      0.63     10270
         2.0       0.59      0.58      0.58     10271
         3.0       0.63      0.66      0.65     10284
         4.0       0.81      0.86      0.83     10283

   micro avg       0.69      0.69      0.69     51392
   macro avg       0.70      0.69      0.69     51392
weighted avg       0.70      0.69      0.69     51392


Accuracy: 0.693240193026
## 2-kth fold --------------------------------
Training Time Elapsed: 00:05:41, 341.600142002
Training set score: 0.706284
Training set loss: 0.809846
MLP # layers: 3
MLP # outputs: 5
MLP # iterations: 500
MLP out_activation_: softmax
MLP classes: [0. 1. 2. 3. 4.]
Classifier saved to /home/paperspace/MSEE/cs280/cs280-mini-proj/src/ANN/_old_grid_search_5_tests_v2/../../../models/ann_entry_5_20_to_30_0_v2/ann_entry_5_v2_8/ann_2_22_0.pkl

Elapsed Seconds: 343.597278833
Total Time Elapsed: 00:05:43
Features in training dataset (80%):
Count: (205566,)
Counter({0.0: 41135, 3.0: 41135, 4.0: 41132, 2.0: 41083, 1.0: 41081})
Features in test dataset (20%):
Count: (51392,)
Counter({0.0: 10284, 3.0: 10284, 4.0: 10283, 2.0: 10271, 1.0: 10270})
Classification Report for Test Data (20%):
              precision    recall  f1-score   support

         0.0       0.78      0.69      0.73     10284
         1.0       0.70      0.63      0.66     10270
         2.0       0.61      0.61      0.61     10271
         3.0       0.63      0.71      0.67     10284
         4.0       0.80      0.90      0.85     10283

   micro avg       0.71      0.71      0.71     51392
   macro avg       0.71      0.71      0.70     51392
weighted avg       0.71      0.71      0.70     51392


Accuracy: 0.705459993773
## 3-kth fold --------------------------------
Training Time Elapsed: 00:05:15, 315.232081175
Training set score: 0.711265
Training set loss: 0.798353
MLP # layers: 3
MLP # outputs: 5
MLP # iterations: 462
MLP out_activation_: softmax
MLP classes: [0. 1. 2. 3. 4.]
Classifier saved to /home/paperspace/MSEE/cs280/cs280-mini-proj/src/ANN/_old_grid_search_5_tests_v2/../../../models/ann_entry_5_20_to_30_0_v2/ann_entry_5_v2_8/ann_3_22_0.pkl

Elapsed Seconds: 317.525655985
Total Time Elapsed: 00:05:17
Features in training dataset (80%):
Count: (205566,)
Counter({0.0: 41135, 3.0: 41135, 4.0: 41132, 2.0: 41083, 1.0: 41081})
Features in test dataset (20%):
Count: (51392,)
Counter({0.0: 10284, 3.0: 10284, 4.0: 10283, 2.0: 10271, 1.0: 10270})
Classification Report for Test Data (20%):
              precision    recall  f1-score   support

         0.0       0.68      0.78      0.72     10284
         1.0       0.58      0.58      0.58     10270
         2.0       0.52      0.57      0.55     10271
         3.0       0.57      0.52      0.54     10284
         4.0       0.83      0.69      0.76     10283

   micro avg       0.63      0.63      0.63     51392
   macro avg       0.64      0.63      0.63     51392
weighted avg       0.64      0.63      0.63     51392


Accuracy: 0.628969489415
## 4-kth fold --------------------------------
Training Time Elapsed: 00:05:45, 345.350779057
Training set score: 0.686636
Training set loss: 0.848970
MLP # layers: 3
MLP # outputs: 5
MLP # iterations: 500
MLP out_activation_: softmax
MLP classes: [0. 1. 2. 3. 4.]
Classifier saved to /home/paperspace/MSEE/cs280/cs280-mini-proj/src/ANN/_old_grid_search_5_tests_v2/../../../models/ann_entry_5_20_to_30_0_v2/ann_entry_5_v2_8/ann_4_22_0.pkl

Elapsed Seconds: 347.981464863
Total Time Elapsed: 00:05:47
Features in training dataset (80%):
Count: (205569,)
Counter({0.0: 41136, 3.0: 41136, 4.0: 41132, 2.0: 41084, 1.0: 41081})
Features in test dataset (20%):
Count: (51389,)
Counter({0.0: 10283, 3.0: 10283, 4.0: 10283, 1.0: 10270, 2.0: 10270})
Classification Report for Test Data (20%):
              precision    recall  f1-score   support

         0.0       0.75      0.75      0.75     10283
         1.0       0.60      0.53      0.56     10270
         2.0       0.58      0.53      0.56     10270
         3.0       0.62      0.67      0.65     10283
         4.0       0.79      0.89      0.84     10283

   micro avg       0.68      0.68      0.68     51389
   macro avg       0.67      0.68      0.67     51389
weighted avg       0.67      0.68      0.67     51389


Accuracy: 0.675261242678
Sorted List of Temp Training Scores: 
[[(21, 0), 0.6948695282939976], [(20, 0), 0.6644569220557427]]

Sorted List of Temp Test Accuracies: 
[[(21, 0), 0.6842241598907398], [(20, 0), 0.6480044204403137]]

Average Training Accuracy for: (22, 0)
0.689319826572

Average Test Accuracy for: (22, 0)
0.67005517761

Elapsed Seconds: 1628.16730809
Total Time Elapsed: 00:27:08
# Num of nodes: 23, 0 -----------------------------------------------*****
## 0-kth fold --------------------------------
Training Time Elapsed: 00:06:12, 372.290783882
Training set score: 0.723372
Training set loss: 0.770895
MLP # layers: 3
MLP # outputs: 5
MLP # iterations: 500
MLP out_activation_: softmax
MLP classes: [0. 1. 2. 3. 4.]
Classifier saved to /home/paperspace/MSEE/cs280/cs280-mini-proj/src/ANN/_old_grid_search_5_tests_v2/../../../models/ann_entry_5_20_to_30_0_v2/ann_entry_5_v2_8/ann_0_23_0.pkl

Elapsed Seconds: 375.061866999
Total Time Elapsed: 00:06:15
Features in training dataset (80%):
Count: (205565,)
Counter({0.0: 41135, 3.0: 41135, 4.0: 41132, 2.0: 41083, 1.0: 41080})
Features in test dataset (20%):
Count: (51393,)
Counter({0.0: 10284, 3.0: 10284, 4.0: 10283, 1.0: 10271, 2.0: 10271})
Classification Report for Test Data (20%):
              precision    recall  f1-score   support

         0.0       0.81      0.72      0.76     10284
         1.0       0.70      0.61      0.66     10271
         2.0       0.61      0.60      0.61     10271
         3.0       0.64      0.68      0.66     10284
         4.0       0.78      0.93      0.85     10283

   micro avg       0.71      0.71      0.71     51393
   macro avg       0.71      0.71      0.71     51393
weighted avg       0.71      0.71      0.71     51393


Accuracy: 0.70908489483
## 1-kth fold --------------------------------
Training Time Elapsed: 00:06:14, 374.43453598
Training set score: 0.697829
Training set loss: 0.804147
MLP # layers: 3
MLP # outputs: 5
MLP # iterations: 500
MLP out_activation_: softmax
MLP classes: [0. 1. 2. 3. 4.]
Classifier saved to /home/paperspace/MSEE/cs280/cs280-mini-proj/src/ANN/_old_grid_search_5_tests_v2/../../../models/ann_entry_5_20_to_30_0_v2/ann_entry_5_v2_8/ann_1_23_0.pkl

Elapsed Seconds: 376.996324062
Total Time Elapsed: 00:06:16
Features in training dataset (80%):
Count: (205566,)
Counter({0.0: 41135, 3.0: 41135, 4.0: 41132, 2.0: 41083, 1.0: 41081})
Features in test dataset (20%):
Count: (51392,)
Counter({0.0: 10284, 3.0: 10284, 4.0: 10283, 2.0: 10271, 1.0: 10270})
Classification Report for Test Data (20%):
              precision    recall  f1-score   support

         0.0       0.76      0.78      0.77     10284
         1.0       0.66      0.55      0.60     10270
         2.0       0.61      0.62      0.62     10271
         3.0       0.65      0.70      0.67     10284
         4.0       0.84      0.88      0.86     10283

   micro avg       0.71      0.71      0.71     51392
   macro avg       0.70      0.71      0.70     51392
weighted avg       0.70      0.71      0.70     51392


Accuracy: 0.705907534247
## 2-kth fold --------------------------------
Training Time Elapsed: 00:06:17, 377.991622925
Training set score: 0.678906
Training set loss: 0.842564
MLP # layers: 3
MLP # outputs: 5
MLP # iterations: 500
MLP out_activation_: softmax
MLP classes: [0. 1. 2. 3. 4.]
Classifier saved to /home/paperspace/MSEE/cs280/cs280-mini-proj/src/ANN/_old_grid_search_5_tests_v2/../../../models/ann_entry_5_20_to_30_0_v2/ann_entry_5_v2_8/ann_2_23_0.pkl

Elapsed Seconds: 380.405808926
Total Time Elapsed: 00:06:20
Features in training dataset (80%):
Count: (205566,)
Counter({0.0: 41135, 3.0: 41135, 4.0: 41132, 2.0: 41083, 1.0: 41081})
Features in test dataset (20%):
Count: (51392,)
Counter({0.0: 10284, 3.0: 10284, 4.0: 10283, 2.0: 10271, 1.0: 10270})
Classification Report for Test Data (20%):
              precision    recall  f1-score   support

         0.0       0.76      0.71      0.73     10284
         1.0       0.65      0.56      0.60     10270
         2.0       0.57      0.53      0.55     10271
         3.0       0.60      0.73      0.66     10284
         4.0       0.81      0.86      0.83     10283

   micro avg       0.68      0.68      0.68     51392
   macro avg       0.68      0.68      0.68     51392
weighted avg       0.68      0.68      0.68     51392


Accuracy: 0.677148194271
## 3-kth fold --------------------------------
Training Time Elapsed: 00:05:07, 307.13724184
Training set score: 0.655249
Training set loss: 0.872639
MLP # layers: 3
MLP # outputs: 5
MLP # iterations: 404
MLP out_activation_: softmax
MLP classes: [0. 1. 2. 3. 4.]
Classifier saved to /home/paperspace/MSEE/cs280/cs280-mini-proj/src/ANN/_old_grid_search_5_tests_v2/../../../models/ann_entry_5_20_to_30_0_v2/ann_entry_5_v2_8/ann_3_23_0.pkl

Elapsed Seconds: 309.765512943
Total Time Elapsed: 00:05:09
Features in training dataset (80%):
Count: (205566,)
Counter({0.0: 41135, 3.0: 41135, 4.0: 41132, 2.0: 41083, 1.0: 41081})
Features in test dataset (20%):
Count: (51392,)
Counter({0.0: 10284, 3.0: 10284, 4.0: 10283, 2.0: 10271, 1.0: 10270})
Classification Report for Test Data (20%):
              precision    recall  f1-score   support

         0.0       0.64      0.74      0.68     10284
         1.0       0.52      0.52      0.52     10270
         2.0       0.47      0.49      0.48     10271
         3.0       0.52      0.51      0.52     10284
         4.0       0.85      0.69      0.76     10283

   micro avg       0.59      0.59      0.59     51392
   macro avg       0.60      0.59      0.59     51392
weighted avg       0.60      0.59      0.59     51392


Accuracy: 0.590403175592
## 4-kth fold --------------------------------
Training Time Elapsed: 00:06:36, 396.397803068
Training set score: 0.647651
Training set loss: 0.897296
MLP # layers: 3
MLP # outputs: 5
MLP # iterations: 455
MLP out_activation_: softmax
MLP classes: [0. 1. 2. 3. 4.]
Classifier saved to /home/paperspace/MSEE/cs280/cs280-mini-proj/src/ANN/_old_grid_search_5_tests_v2/../../../models/ann_entry_5_20_to_30_0_v2/ann_entry_5_v2_8/ann_4_23_0.pkl

Elapsed Seconds: 399.089020967
Total Time Elapsed: 00:06:39
Features in training dataset (80%):
Count: (205569,)
Counter({0.0: 41136, 3.0: 41136, 4.0: 41132, 2.0: 41084, 1.0: 41081})
Features in test dataset (20%):
Count: (51389,)
Counter({0.0: 10283, 3.0: 10283, 4.0: 10283, 1.0: 10270, 2.0: 10270})
Classification Report for Test Data (20%):
              precision    recall  f1-score   support

         0.0       0.74      0.73      0.74     10283
         1.0       0.57      0.47      0.52     10270
         2.0       0.51      0.50      0.51     10270
         3.0       0.58      0.62      0.60     10283
         4.0       0.77      0.87      0.82     10283

   micro avg       0.64      0.64      0.64     51389
   macro avg       0.64      0.64      0.64     51389
weighted avg       0.64      0.64      0.64     51389


Accuracy: 0.641148884002
Sorted List of Temp Training Scores: 
[[(21, 0), 0.6948695282939976], [(22, 0), 0.6893198265715844], [(20, 0), 0.6644569220557427]]

Sorted List of Temp Test Accuracies: 
[[(21, 0), 0.6842241598907398], [(22, 0), 0.6700551776103629], [(20, 0), 0.6480044204403137]]

Average Training Accuracy for: (23, 0)
0.680601636865

Average Test Accuracy for: (23, 0)
0.664738536588

Elapsed Seconds: 1843.3483839
Total Time Elapsed: 00:30:43
# Num of nodes: 24, 0 -----------------------------------------------*****
## 0-kth fold --------------------------------
Training Time Elapsed: 00:06:42, 402.445765018
Training set score: 0.688400
Training set loss: 0.831268
MLP # layers: 3
MLP # outputs: 5
MLP # iterations: 500
MLP out_activation_: softmax
MLP classes: [0. 1. 2. 3. 4.]
Classifier saved to /home/paperspace/MSEE/cs280/cs280-mini-proj/src/ANN/_old_grid_search_5_tests_v2/../../../models/ann_entry_5_20_to_30_0_v2/ann_entry_5_v2_8/ann_0_24_0.pkl

Elapsed Seconds: 405.423657179
Total Time Elapsed: 00:06:45
Features in training dataset (80%):
Count: (205565,)
Counter({0.0: 41135, 3.0: 41135, 4.0: 41132, 2.0: 41083, 1.0: 41080})
Features in test dataset (20%):
Count: (51393,)
Counter({0.0: 10284, 3.0: 10284, 4.0: 10283, 1.0: 10271, 2.0: 10271})
Classification Report for Test Data (20%):
              precision    recall  f1-score   support

         0.0       0.74      0.73      0.74     10284
         1.0       0.69      0.55      0.61     10271
         2.0       0.57      0.53      0.55     10271
         3.0       0.59      0.67      0.63     10284
         4.0       0.80      0.93      0.86     10283

   micro avg       0.68      0.68      0.68     51393
   macro avg       0.68      0.68      0.68     51393
weighted avg       0.68      0.68      0.68     51393


Accuracy: 0.682894557625
## 1-kth fold --------------------------------
Training Time Elapsed: 00:05:55, 355.280361891
Training set score: 0.693009
Training set loss: 0.806934
MLP # layers: 3
MLP # outputs: 5
MLP # iterations: 500
MLP out_activation_: softmax
MLP classes: [0. 1. 2. 3. 4.]
Classifier saved to /home/paperspace/MSEE/cs280/cs280-mini-proj/src/ANN/_old_grid_search_5_tests_v2/../../../models/ann_entry_5_20_to_30_0_v2/ann_entry_5_v2_8/ann_1_24_0.pkl

Elapsed Seconds: 357.502818108
Total Time Elapsed: 00:05:57
Features in training dataset (80%):
Count: (205566,)
Counter({0.0: 41135, 3.0: 41135, 4.0: 41132, 2.0: 41083, 1.0: 41081})
Features in test dataset (20%):
Count: (51392,)
Counter({0.0: 10284, 3.0: 10284, 4.0: 10283, 2.0: 10271, 1.0: 10270})
Classification Report for Test Data (20%):
              precision    recall  f1-score   support

         0.0       0.80      0.75      0.77     10284
         1.0       0.63      0.61      0.62     10270
         2.0       0.61      0.61      0.61     10271
         3.0       0.65      0.66      0.66     10284
         4.0       0.83      0.87      0.85     10283

   micro avg       0.70      0.70      0.70     51392
   macro avg       0.70      0.70      0.70     51392
weighted avg       0.70      0.70      0.70     51392


Accuracy: 0.701976961395
## 2-kth fold --------------------------------
Training Time Elapsed: 00:05:50, 350.205036879
Training set score: 0.725237
Training set loss: 0.770712
MLP # layers: 3
MLP # outputs: 5
MLP # iterations: 500
MLP out_activation_: softmax
MLP classes: [0. 1. 2. 3. 4.]
Classifier saved to /home/paperspace/MSEE/cs280/cs280-mini-proj/src/ANN/_old_grid_search_5_tests_v2/../../../models/ann_entry_5_20_to_30_0_v2/ann_entry_5_v2_8/ann_2_24_0.pkl

Elapsed Seconds: 352.499058008
Total Time Elapsed: 00:05:52
Features in training dataset (80%):
Count: (205566,)
Counter({0.0: 41135, 3.0: 41135, 4.0: 41132, 2.0: 41083, 1.0: 41081})
Features in test dataset (20%):
Count: (51392,)
Counter({0.0: 10284, 3.0: 10284, 4.0: 10283, 2.0: 10271, 1.0: 10270})
Classification Report for Test Data (20%):
              precision    recall  f1-score   support

         0.0       0.83      0.71      0.76     10284
         1.0       0.70      0.69      0.70     10270
         2.0       0.65      0.61      0.63     10271
         3.0       0.65      0.76      0.70     10284
         4.0       0.84      0.87      0.86     10283

   micro avg       0.73      0.73      0.73     51392
   macro avg       0.73      0.73      0.73     51392
weighted avg       0.73      0.73      0.73     51392


Accuracy: 0.729413138232
## 3-kth fold --------------------------------
Training Time Elapsed: 00:05:56, 356.964417934
Training set score: 0.707247
Training set loss: 0.797593
MLP # layers: 3
MLP # outputs: 5
MLP # iterations: 500
MLP out_activation_: softmax
MLP classes: [0. 1. 2. 3. 4.]
Classifier saved to /home/paperspace/MSEE/cs280/cs280-mini-proj/src/ANN/_old_grid_search_5_tests_v2/../../../models/ann_entry_5_20_to_30_0_v2/ann_entry_5_v2_8/ann_3_24_0.pkl

Elapsed Seconds: 359.238059998
Total Time Elapsed: 00:05:59
Features in training dataset (80%):
Count: (205566,)
Counter({0.0: 41135, 3.0: 41135, 4.0: 41132, 2.0: 41083, 1.0: 41081})
Features in test dataset (20%):
Count: (51392,)
Counter({0.0: 10284, 3.0: 10284, 4.0: 10283, 2.0: 10271, 1.0: 10270})
Classification Report for Test Data (20%):
              precision    recall  f1-score   support

         0.0       0.64      0.75      0.69     10284
         1.0       0.57      0.57      0.57     10270
         2.0       0.54      0.56      0.55     10271
         3.0       0.56      0.56      0.56     10284
         4.0       0.87      0.71      0.78     10283

   micro avg       0.63      0.63      0.63     51392
   macro avg       0.64      0.63      0.63     51392
weighted avg       0.64      0.63      0.63     51392


Accuracy: 0.628054950187
## 4-kth fold --------------------------------
Training Time Elapsed: 00:06:12, 372.428619146
Training set score: 0.667299
Training set loss: 0.871525
MLP # layers: 3
MLP # outputs: 5
MLP # iterations: 500
MLP out_activation_: softmax
MLP classes: [0. 1. 2. 3. 4.]
Classifier saved to /home/paperspace/MSEE/cs280/cs280-mini-proj/src/ANN/_old_grid_search_5_tests_v2/../../../models/ann_entry_5_20_to_30_0_v2/ann_entry_5_v2_8/ann_4_24_0.pkl

Elapsed Seconds: 374.561890125
Total Time Elapsed: 00:06:14
Features in training dataset (80%):
Count: (205569,)
Counter({0.0: 41136, 3.0: 41136, 4.0: 41132, 2.0: 41084, 1.0: 41081})
Features in test dataset (20%):
Count: (51389,)
Counter({0.0: 10283, 3.0: 10283, 4.0: 10283, 1.0: 10270, 2.0: 10270})
Classification Report for Test Data (20%):
              precision    recall  f1-score   support

         0.0       0.80      0.72      0.76     10283
         1.0       0.59      0.61      0.60     10270
         2.0       0.56      0.47      0.51     10270
         3.0       0.57      0.64      0.60     10283
         4.0       0.79      0.88      0.83     10283

   micro avg       0.66      0.66      0.66     51389
   macro avg       0.66      0.66      0.66     51389
weighted avg       0.66      0.66      0.66     51389


Accuracy: 0.663157485065
Sorted List of Temp Training Scores: 
[[(21, 0), 0.6948695282939976], [(22, 0), 0.6893198265715844], [(23, 0), 0.6806016368647623], [(20, 0), 0.6644569220557427]]

Sorted List of Temp Test Accuracies: 
[[(21, 0), 0.6842241598907398], [(22, 0), 0.6700551776103629], [(23, 0), 0.6647385365884074], [(20, 0), 0.6480044204403137]]

Average Training Accuracy for: (24, 0)
0.696238372594

Average Test Accuracy for: (24, 0)
0.681099418501

Elapsed Seconds: 1851.13148403
Total Time Elapsed: 00:30:51
# Num of nodes: 25, 0 -----------------------------------------------*****
## 0-kth fold --------------------------------
Training Time Elapsed: 00:06:03, 363.7711339
Training set score: 0.714086
Training set loss: 0.782312
MLP # layers: 3
MLP # outputs: 5
MLP # iterations: 500
MLP out_activation_: softmax
MLP classes: [0. 1. 2. 3. 4.]
Classifier saved to /home/paperspace/MSEE/cs280/cs280-mini-proj/src/ANN/_old_grid_search_5_tests_v2/../../../models/ann_entry_5_20_to_30_0_v2/ann_entry_5_v2_8/ann_0_25_0.pkl

Elapsed Seconds: 365.870472908
Total Time Elapsed: 00:06:05
Features in training dataset (80%):
Count: (205565,)
Counter({0.0: 41135, 3.0: 41135, 4.0: 41132, 2.0: 41083, 1.0: 41080})
Features in test dataset (20%):
Count: (51393,)
Counter({0.0: 10284, 3.0: 10284, 4.0: 10283, 1.0: 10271, 2.0: 10271})
Classification Report for Test Data (20%):
              precision    recall  f1-score   support

         0.0       0.80      0.68      0.73     10284
         1.0       0.68      0.62      0.65     10271
         2.0       0.60      0.52      0.56     10271
         3.0       0.61      0.74      0.67     10284
         4.0       0.80      0.94      0.86     10283

   micro avg       0.70      0.70      0.70     51393
   macro avg       0.70      0.70      0.69     51393
weighted avg       0.70      0.70      0.69     51393


Accuracy: 0.698383048275
## 1-kth fold --------------------------------
Training Time Elapsed: 00:05:21, 321.87669301
Training set score: 0.668530
Training set loss: 0.871116
MLP # layers: 3
MLP # outputs: 5
MLP # iterations: 445
MLP out_activation_: softmax
MLP classes: [0. 1. 2. 3. 4.]
Classifier saved to /home/paperspace/MSEE/cs280/cs280-mini-proj/src/ANN/_old_grid_search_5_tests_v2/../../../models/ann_entry_5_20_to_30_0_v2/ann_entry_5_v2_8/ann_1_25_0.pkl

Elapsed Seconds: 324.207342148
Total Time Elapsed: 00:05:24
Features in training dataset (80%):
Count: (205566,)
Counter({0.0: 41135, 3.0: 41135, 4.0: 41132, 2.0: 41083, 1.0: 41081})
Features in test dataset (20%):
Count: (51392,)
Counter({0.0: 10284, 3.0: 10284, 4.0: 10283, 2.0: 10271, 1.0: 10270})
Classification Report for Test Data (20%):
              precision    recall  f1-score   support

         0.0       0.74      0.84      0.79     10284
         1.0       0.61      0.52      0.56     10270
         2.0       0.59      0.51      0.55     10271
         3.0       0.62      0.65      0.63     10284
         4.0       0.82      0.90      0.86     10283

   micro avg       0.68      0.68      0.68     51392
   macro avg       0.68      0.68      0.68     51392
weighted avg       0.68      0.68      0.68     51392


Accuracy: 0.683841843088
## 2-kth fold --------------------------------
Training Time Elapsed: 00:06:09, 369.361351967
Training set score: 0.698861
Training set loss: 0.811279
MLP # layers: 3
MLP # outputs: 5
MLP # iterations: 500
MLP out_activation_: softmax
MLP classes: [0. 1. 2. 3. 4.]
Classifier saved to /home/paperspace/MSEE/cs280/cs280-mini-proj/src/ANN/_old_grid_search_5_tests_v2/../../../models/ann_entry_5_20_to_30_0_v2/ann_entry_5_v2_8/ann_2_25_0.pkl

Elapsed Seconds: 371.49087286
Total Time Elapsed: 00:06:11
Features in training dataset (80%):
Count: (205566,)
Counter({0.0: 41135, 3.0: 41135, 4.0: 41132, 2.0: 41083, 1.0: 41081})
Features in test dataset (20%):
Count: (51392,)
Counter({0.0: 10284, 3.0: 10284, 4.0: 10283, 2.0: 10271, 1.0: 10270})
Classification Report for Test Data (20%):
              precision    recall  f1-score   support

         0.0       0.80      0.72      0.76     10284
         1.0       0.66      0.64      0.65     10270
         2.0       0.59      0.55      0.57     10271
         3.0       0.64      0.71      0.67     10284
         4.0       0.81      0.90      0.85     10283

   micro avg       0.70      0.70      0.70     51392
   macro avg       0.70      0.70      0.70     51392
weighted avg       0.70      0.70      0.70     51392


Accuracy: 0.702541251557
## 3-kth fold --------------------------------
Training Time Elapsed: 00:06:03, 363.971909046
Training set score: 0.704727
Training set loss: 0.807782
MLP # layers: 3
MLP # outputs: 5
MLP # iterations: 500
MLP out_activation_: softmax
MLP classes: [0. 1. 2. 3. 4.]
Classifier saved to /home/paperspace/MSEE/cs280/cs280-mini-proj/src/ANN/_old_grid_search_5_tests_v2/../../../models/ann_entry_5_20_to_30_0_v2/ann_entry_5_v2_8/ann_3_25_0.pkl

Elapsed Seconds: 366.328965902
Total Time Elapsed: 00:06:06
Features in training dataset (80%):
Count: (205566,)
Counter({0.0: 41135, 3.0: 41135, 4.0: 41132, 2.0: 41083, 1.0: 41081})
Features in test dataset (20%):
Count: (51392,)
Counter({0.0: 10284, 3.0: 10284, 4.0: 10283, 2.0: 10271, 1.0: 10270})
Classification Report for Test Data (20%):
              precision    recall  f1-score   support

         0.0       0.67      0.75      0.71     10284
         1.0       0.55      0.60      0.57     10270
         2.0       0.50      0.53      0.52     10271
         3.0       0.57      0.54      0.55     10284
         4.0       0.87      0.70      0.78     10283

   micro avg       0.62      0.62      0.62     51392
   macro avg       0.63      0.62      0.63     51392
weighted avg       0.63      0.62      0.63     51392


Accuracy: 0.622820672478
## 4-kth fold --------------------------------
Training Time Elapsed: 00:06:07, 367.519711018
Training set score: 0.671697
Training set loss: 0.848882
MLP # layers: 3
MLP # outputs: 5
MLP # iterations: 500
MLP out_activation_: softmax
MLP classes: [0. 1. 2. 3. 4.]
Classifier saved to /home/paperspace/MSEE/cs280/cs280-mini-proj/src/ANN/_old_grid_search_5_tests_v2/../../../models/ann_entry_5_20_to_30_0_v2/ann_entry_5_v2_8/ann_4_25_0.pkl

Elapsed Seconds: 369.879754066
Total Time Elapsed: 00:06:09
Features in training dataset (80%):
Count: (205569,)
Counter({0.0: 41136, 3.0: 41136, 4.0: 41132, 2.0: 41084, 1.0: 41081})
Features in test dataset (20%):
Count: (51389,)
Counter({0.0: 10283, 3.0: 10283, 4.0: 10283, 1.0: 10270, 2.0: 10270})
Classification Report for Test Data (20%):
              precision    recall  f1-score   support

         0.0       0.77      0.77      0.77     10283
         1.0       0.60      0.57      0.59     10270
         2.0       0.58      0.49      0.53     10270
         3.0       0.57      0.59      0.58     10283
         4.0       0.79      0.92      0.85     10283

   micro avg       0.67      0.67      0.67     51389
   macro avg       0.66      0.67      0.66     51389
weighted avg       0.66      0.67      0.66     51389


Accuracy: 0.668294771255
Sorted List of Temp Training Scores: 
[[(24, 0), 0.696238372593804], [(21, 0), 0.6948695282939976], [(22, 0), 0.6893198265715844], [(23, 0), 0.6806016368647623], [(20, 0), 0.6644569220557427]]

Sorted List of Temp Test Accuracies: 
[[(21, 0), 0.6842241598907398], [(24, 0), 0.6810994185005355], [(22, 0), 0.6700551776103629], [(23, 0), 0.6647385365884074], [(20, 0), 0.6480044204403137]]

Average Training Accuracy for: (25, 0)
0.691580026849

Average Test Accuracy for: (25, 0)
0.675176317331

Elapsed Seconds: 1800.1232059
Total Time Elapsed: 00:30:00
# Num of nodes: 26, 0 -----------------------------------------------*****
## 0-kth fold --------------------------------
Training Time Elapsed: 00:06:11, 371.468538046
Training set score: 0.709693
Training set loss: 0.785607
MLP # layers: 3
MLP # outputs: 5
MLP # iterations: 500
MLP out_activation_: softmax
MLP classes: [0. 1. 2. 3. 4.]
Classifier saved to /home/paperspace/MSEE/cs280/cs280-mini-proj/src/ANN/_old_grid_search_5_tests_v2/../../../models/ann_entry_5_20_to_30_0_v2/ann_entry_5_v2_8/ann_0_26_0.pkl

Elapsed Seconds: 373.693434
Total Time Elapsed: 00:06:13
Features in training dataset (80%):
Count: (205565,)
Counter({0.0: 41135, 3.0: 41135, 4.0: 41132, 2.0: 41083, 1.0: 41080})
Features in test dataset (20%):
Count: (51393,)
Counter({0.0: 10284, 3.0: 10284, 4.0: 10283, 1.0: 10271, 2.0: 10271})
Classification Report for Test Data (20%):
              precision    recall  f1-score   support

         0.0       0.78      0.73      0.75     10284
         1.0       0.68      0.59      0.63     10271
         2.0       0.61      0.54      0.57     10271
         3.0       0.62      0.72      0.67     10284
         4.0       0.79      0.91      0.85     10283

   micro avg       0.70      0.70      0.70     51393
   macro avg       0.70      0.70      0.69     51393
weighted avg       0.70      0.70      0.70     51393


Accuracy: 0.698791664234
## 1-kth fold --------------------------------
Training Time Elapsed: 00:06:11, 371.184871912
Training set score: 0.717940
Training set loss: 0.778191
MLP # layers: 3
MLP # outputs: 5
MLP # iterations: 500
MLP out_activation_: softmax
MLP classes: [0. 1. 2. 3. 4.]
Classifier saved to /home/paperspace/MSEE/cs280/cs280-mini-proj/src/ANN/_old_grid_search_5_tests_v2/../../../models/ann_entry_5_20_to_30_0_v2/ann_entry_5_v2_8/ann_1_26_0.pkl

Elapsed Seconds: 373.18846488
Total Time Elapsed: 00:06:13
Features in training dataset (80%):
Count: (205566,)
Counter({0.0: 41135, 3.0: 41135, 4.0: 41132, 2.0: 41083, 1.0: 41081})
Features in test dataset (20%):
Count: (51392,)
Counter({0.0: 10284, 3.0: 10284, 4.0: 10283, 2.0: 10271, 1.0: 10270})
Classification Report for Test Data (20%):
              precision    recall  f1-score   support

         0.0       0.81      0.80      0.80     10284
         1.0       0.68      0.64      0.66     10270
         2.0       0.64      0.64      0.64     10271
         3.0       0.68      0.72      0.70     10284
         4.0       0.87      0.89      0.88     10283

   micro avg       0.74      0.74      0.74     51392
   macro avg       0.74      0.74      0.74     51392
weighted avg       0.74      0.74      0.74     51392


Accuracy: 0.737410491905
## 2-kth fold --------------------------------
Training Time Elapsed: 00:05:20, 320.96242404
Training set score: 0.733375
Training set loss: 0.760282
MLP # layers: 3
MLP # outputs: 5
MLP # iterations: 434
MLP out_activation_: softmax
MLP classes: [0. 1. 2. 3. 4.]
Classifier saved to /home/paperspace/MSEE/cs280/cs280-mini-proj/src/ANN/_old_grid_search_5_tests_v2/../../../models/ann_entry_5_20_to_30_0_v2/ann_entry_5_v2_8/ann_2_26_0.pkl

Elapsed Seconds: 323.417711973
Total Time Elapsed: 00:05:23
Features in training dataset (80%):
Count: (205566,)
Counter({0.0: 41135, 3.0: 41135, 4.0: 41132, 2.0: 41083, 1.0: 41081})
Features in test dataset (20%):
Count: (51392,)
Counter({0.0: 10284, 3.0: 10284, 4.0: 10283, 2.0: 10271, 1.0: 10270})
Classification Report for Test Data (20%):
              precision    recall  f1-score   support

         0.0       0.82      0.73      0.77     10284
         1.0       0.75      0.69      0.72     10270
         2.0       0.64      0.66      0.65     10271
         3.0       0.67      0.72      0.69     10284
         4.0       0.84      0.90      0.87     10283

   micro avg       0.74      0.74      0.74     51392
   macro avg       0.74      0.74      0.74     51392
weighted avg       0.74      0.74      0.74     51392


Accuracy: 0.740776774595
## 3-kth fold --------------------------------
Training Time Elapsed: 00:06:12, 372.993824005
Training set score: 0.733395
Training set loss: 0.744123
MLP # layers: 3
MLP # outputs: 5
MLP # iterations: 500
MLP out_activation_: softmax
MLP classes: [0. 1. 2. 3. 4.]
Classifier saved to /home/paperspace/MSEE/cs280/cs280-mini-proj/src/ANN/_old_grid_search_5_tests_v2/../../../models/ann_entry_5_20_to_30_0_v2/ann_entry_5_v2_8/ann_3_26_0.pkl

Elapsed Seconds: 375.107795
Total Time Elapsed: 00:06:15
Features in training dataset (80%):
Count: (205566,)
Counter({0.0: 41135, 3.0: 41135, 4.0: 41132, 2.0: 41083, 1.0: 41081})
Features in test dataset (20%):
Count: (51392,)
Counter({0.0: 10284, 3.0: 10284, 4.0: 10283, 2.0: 10271, 1.0: 10270})
Classification Report for Test Data (20%):
              precision    recall  f1-score   support

         0.0       0.69      0.77      0.73     10284
         1.0       0.56      0.63      0.60     10270
         2.0       0.53      0.52      0.53     10271
         3.0       0.58      0.58      0.58     10284
         4.0       0.89      0.71      0.79     10283

   micro avg       0.64      0.64      0.64     51392
   macro avg       0.65      0.64      0.64     51392
weighted avg       0.65      0.64      0.64     51392


Accuracy: 0.641442247821
## 4-kth fold --------------------------------
Training Time Elapsed: 00:06:17, 377.981340885
Training set score: 0.722259
Training set loss: 0.770626
MLP # layers: 3
MLP # outputs: 5
MLP # iterations: 500
MLP out_activation_: softmax
MLP classes: [0. 1. 2. 3. 4.]
Classifier saved to /home/paperspace/MSEE/cs280/cs280-mini-proj/src/ANN/_old_grid_search_5_tests_v2/../../../models/ann_entry_5_20_to_30_0_v2/ann_entry_5_v2_8/ann_4_26_0.pkl

Elapsed Seconds: 380.264195919
Total Time Elapsed: 00:06:20
Features in training dataset (80%):
Count: (205569,)
Counter({0.0: 41136, 3.0: 41136, 4.0: 41132, 2.0: 41084, 1.0: 41081})
Features in test dataset (20%):
Count: (51389,)
Counter({0.0: 10283, 3.0: 10283, 4.0: 10283, 1.0: 10270, 2.0: 10270})
Classification Report for Test Data (20%):
              precision    recall  f1-score   support

         0.0       0.80      0.74      0.77     10283
         1.0       0.65      0.62      0.64     10270
         2.0       0.64      0.63      0.63     10270
         3.0       0.67      0.68      0.67     10283
         4.0       0.81      0.91      0.85     10283

   micro avg       0.72      0.72      0.72     51389
   macro avg       0.71      0.71      0.71     51389
weighted avg       0.71      0.72      0.71     51389


Accuracy: 0.715016832396
Sorted List of Temp Training Scores: 
[[(24, 0), 0.696238372593804], [(21, 0), 0.6948695282939976], [(25, 0), 0.69158002684855], [(22, 0), 0.6893198265715844], [(23, 0), 0.6806016368647623], [(20, 0), 0.6644569220557427]]

Sorted List of Temp Test Accuracies: 
[[(21, 0), 0.6842241598907398], [(24, 0), 0.6810994185005355], [(25, 0), 0.6751763173305787], [(22, 0), 0.6700551776103629], [(23, 0), 0.6647385365884074], [(20, 0), 0.6480044204403137]]

Average Training Accuracy for: (26, 0)
0.72333220758

Average Test Accuracy for: (26, 0)
0.70668760219

Elapsed Seconds: 1827.69935298
Total Time Elapsed: 00:30:27
# Num of nodes: 27, 0 -----------------------------------------------*****
## 0-kth fold --------------------------------
Training Time Elapsed: 00:06:19, 379.572560072
Training set score: 0.708803
Training set loss: 0.784134
MLP # layers: 3
MLP # outputs: 5
MLP # iterations: 500
MLP out_activation_: softmax
MLP classes: [0. 1. 2. 3. 4.]
Classifier saved to /home/paperspace/MSEE/cs280/cs280-mini-proj/src/ANN/_old_grid_search_5_tests_v2/../../../models/ann_entry_5_20_to_30_0_v2/ann_entry_5_v2_8/ann_0_27_0.pkl

Elapsed Seconds: 381.837155819
Total Time Elapsed: 00:06:21
Features in training dataset (80%):
Count: (205565,)
Counter({0.0: 41135, 3.0: 41135, 4.0: 41132, 2.0: 41083, 1.0: 41080})
Features in test dataset (20%):
Count: (51393,)
Counter({0.0: 10284, 3.0: 10284, 4.0: 10283, 1.0: 10271, 2.0: 10271})
Classification Report for Test Data (20%):
              precision    recall  f1-score   support

         0.0       0.77      0.70      0.73     10284
         1.0       0.68      0.59      0.63     10271
         2.0       0.60      0.59      0.60     10271
         3.0       0.66      0.69      0.67     10284
         4.0       0.79      0.94      0.86     10283

   micro avg       0.70      0.70      0.70     51393
   macro avg       0.70      0.70      0.70     51393
weighted avg       0.70      0.70      0.70     51393


Accuracy: 0.701963302395
## 1-kth fold --------------------------------
Training Time Elapsed: 00:06:25, 385.513494015
Training set score: 0.713265
Training set loss: 0.778366
MLP # layers: 3
MLP # outputs: 5
MLP # iterations: 500
MLP out_activation_: softmax
MLP classes: [0. 1. 2. 3. 4.]
Classifier saved to /home/paperspace/MSEE/cs280/cs280-mini-proj/src/ANN/_old_grid_search_5_tests_v2/../../../models/ann_entry_5_20_to_30_0_v2/ann_entry_5_v2_8/ann_1_27_0.pkl

Elapsed Seconds: 387.843618155
Total Time Elapsed: 00:06:27
Features in training dataset (80%):
Count: (205566,)
Counter({0.0: 41135, 3.0: 41135, 4.0: 41132, 2.0: 41083, 1.0: 41081})
Features in test dataset (20%):
Count: (51392,)
Counter({0.0: 10284, 3.0: 10284, 4.0: 10283, 2.0: 10271, 1.0: 10270})
Classification Report for Test Data (20%):
              precision    recall  f1-score   support

         0.0       0.82      0.78      0.80     10284
         1.0       0.67      0.65      0.66     10270
         2.0       0.63      0.62      0.62     10271
         3.0       0.67      0.69      0.68     10284
         4.0       0.85      0.90      0.87     10283

   micro avg       0.73      0.73      0.73     51392
   macro avg       0.73      0.73      0.73     51392
weighted avg       0.73      0.73      0.73     51392


Accuracy: 0.727934308842
## 2-kth fold --------------------------------
Training Time Elapsed: 00:06:20, 380.982995987
Training set score: 0.664341
Training set loss: 0.857915
MLP # layers: 3
MLP # outputs: 5
MLP # iterations: 500
MLP out_activation_: softmax
MLP classes: [0. 1. 2. 3. 4.]
Classifier saved to /home/paperspace/MSEE/cs280/cs280-mini-proj/src/ANN/_old_grid_search_5_tests_v2/../../../models/ann_entry_5_20_to_30_0_v2/ann_entry_5_v2_8/ann_2_27_0.pkl

Elapsed Seconds: 383.275641203
Total Time Elapsed: 00:06:23
Features in training dataset (80%):
Count: (205566,)
Counter({0.0: 41135, 3.0: 41135, 4.0: 41132, 2.0: 41083, 1.0: 41081})
Features in test dataset (20%):
Count: (51392,)
Counter({0.0: 10284, 3.0: 10284, 4.0: 10283, 2.0: 10271, 1.0: 10270})
Classification Report for Test Data (20%):
              precision    recall  f1-score   support

         0.0       0.79      0.66      0.72     10284
         1.0       0.61      0.60      0.61     10270
         2.0       0.56      0.50      0.53     10271
         3.0       0.58      0.68      0.62     10284
         4.0       0.79      0.90      0.84     10283

   micro avg       0.67      0.67      0.67     51392
   macro avg       0.67      0.67      0.66     51392
weighted avg       0.67      0.67      0.66     51392


Accuracy: 0.665298100872
## 3-kth fold --------------------------------
Training Time Elapsed: 00:06:10, 370.778439999
Training set score: 0.666258
Training set loss: 0.847239
MLP # layers: 3
MLP # outputs: 5
MLP # iterations: 500
MLP out_activation_: softmax
MLP classes: [0. 1. 2. 3. 4.]
Classifier saved to /home/paperspace/MSEE/cs280/cs280-mini-proj/src/ANN/_old_grid_search_5_tests_v2/../../../models/ann_entry_5_20_to_30_0_v2/ann_entry_5_v2_8/ann_3_27_0.pkl

Elapsed Seconds: 373.343966961
Total Time Elapsed: 00:06:13
Features in training dataset (80%):
Count: (205566,)
Counter({0.0: 41135, 3.0: 41135, 4.0: 41132, 2.0: 41083, 1.0: 41081})
Features in test dataset (20%):
Count: (51392,)
Counter({0.0: 10284, 3.0: 10284, 4.0: 10283, 2.0: 10271, 1.0: 10270})
Classification Report for Test Data (20%):
              precision    recall  f1-score   support

         0.0       0.66      0.74      0.70     10284
         1.0       0.56      0.52      0.54     10270
         2.0       0.49      0.54      0.51     10271
         3.0       0.53      0.55      0.54     10284
         4.0       0.85      0.67      0.75     10283

   micro avg       0.61      0.61      0.61     51392
   macro avg       0.62      0.61      0.61     51392
weighted avg       0.62      0.61      0.61     51392


Accuracy: 0.605308219178
## 4-kth fold --------------------------------
Training Time Elapsed: 00:06:08, 368.791424036
Training set score: 0.685585
Training set loss: 0.822985
MLP # layers: 3
MLP # outputs: 5
MLP # iterations: 500
MLP out_activation_: softmax
MLP classes: [0. 1. 2. 3. 4.]
Classifier saved to /home/paperspace/MSEE/cs280/cs280-mini-proj/src/ANN/_old_grid_search_5_tests_v2/../../../models/ann_entry_5_20_to_30_0_v2/ann_entry_5_v2_8/ann_4_27_0.pkl

Elapsed Seconds: 371.134880066
Total Time Elapsed: 00:06:11
Features in training dataset (80%):
Count: (205569,)
Counter({0.0: 41136, 3.0: 41136, 4.0: 41132, 2.0: 41084, 1.0: 41081})
Features in test dataset (20%):
Count: (51389,)
Counter({0.0: 10283, 3.0: 10283, 4.0: 10283, 1.0: 10270, 2.0: 10270})
Classification Report for Test Data (20%):
              precision    recall  f1-score   support

         0.0       0.76      0.72      0.74     10283
         1.0       0.61      0.55      0.58     10270
         2.0       0.59      0.58      0.58     10270
         3.0       0.64      0.67      0.66     10283
         4.0       0.79      0.90      0.84     10283

   micro avg       0.68      0.68      0.68     51389
   macro avg       0.68      0.68      0.68     51389
weighted avg       0.68      0.68      0.68     51389


Accuracy: 0.682091498181
Sorted List of Temp Training Scores: 
[[(26, 0), 0.7233322075797349], [(24, 0), 0.696238372593804], [(21, 0), 0.6948695282939976], [(25, 0), 0.69158002684855], [(22, 0), 0.6893198265715844], [(23, 0), 0.6806016368647623], [(20, 0), 0.6644569220557427]]

Sorted List of Temp Test Accuracies: 
[[(26, 0), 0.7066876021903524], [(21, 0), 0.6842241598907398], [(24, 0), 0.6810994185005355], [(25, 0), 0.6751763173305787], [(22, 0), 0.6700551776103629], [(23, 0), 0.6647385365884074], [(20, 0), 0.6480044204403137]]

Average Training Accuracy for: (27, 0)
0.687650343002

Average Test Accuracy for: (27, 0)
0.676519085893

Elapsed Seconds: 1899.2460041
Total Time Elapsed: 00:31:39
# Num of nodes: 28, 0 -----------------------------------------------*****
## 0-kth fold --------------------------------
Training Time Elapsed: 00:06:11, 371.904457092
Training set score: 0.716445
Training set loss: 0.788020
MLP # layers: 3
MLP # outputs: 5
MLP # iterations: 500
MLP out_activation_: softmax
MLP classes: [0. 1. 2. 3. 4.]
Classifier saved to /home/paperspace/MSEE/cs280/cs280-mini-proj/src/ANN/_old_grid_search_5_tests_v2/../../../models/ann_entry_5_20_to_30_0_v2/ann_entry_5_v2_8/ann_0_28_0.pkl

Elapsed Seconds: 373.973692894
Total Time Elapsed: 00:06:13
Features in training dataset (80%):
Count: (205565,)
Counter({0.0: 41135, 3.0: 41135, 4.0: 41132, 2.0: 41083, 1.0: 41080})
Features in test dataset (20%):
Count: (51393,)
Counter({0.0: 10284, 3.0: 10284, 4.0: 10283, 1.0: 10271, 2.0: 10271})
Classification Report for Test Data (20%):
              precision    recall  f1-score   support

         0.0       0.79      0.74      0.76     10284
         1.0       0.72      0.59      0.65     10271
         2.0       0.60      0.63      0.62     10271
         3.0       0.66      0.65      0.65     10284
         4.0       0.75      0.92      0.83     10283

   micro avg       0.70      0.70      0.70     51393
   macro avg       0.71      0.70      0.70     51393
weighted avg       0.71      0.70      0.70     51393


Accuracy: 0.704843072014
## 1-kth fold --------------------------------
Training Time Elapsed: 00:06:14, 374.241427898
Training set score: 0.705608
Training set loss: 0.804005
MLP # layers: 3
MLP # outputs: 5
MLP # iterations: 500
MLP out_activation_: softmax
MLP classes: [0. 1. 2. 3. 4.]
Classifier saved to /home/paperspace/MSEE/cs280/cs280-mini-proj/src/ANN/_old_grid_search_5_tests_v2/../../../models/ann_entry_5_20_to_30_0_v2/ann_entry_5_v2_8/ann_1_28_0.pkl

Elapsed Seconds: 376.431859016
Total Time Elapsed: 00:06:16
Features in training dataset (80%):
Count: (205566,)
Counter({0.0: 41135, 3.0: 41135, 4.0: 41132, 2.0: 41083, 1.0: 41081})
Features in test dataset (20%):
Count: (51392,)
Counter({0.0: 10284, 3.0: 10284, 4.0: 10283, 2.0: 10271, 1.0: 10270})
Classification Report for Test Data (20%):
              precision    recall  f1-score   support

         0.0       0.82      0.76      0.79     10284
         1.0       0.67      0.61      0.64     10270
         2.0       0.62      0.62      0.62     10271
         3.0       0.67      0.70      0.68     10284
         4.0       0.79      0.87      0.83     10283

   micro avg       0.71      0.71      0.71     51392
   macro avg       0.71      0.71      0.71     51392
weighted avg       0.71      0.71      0.71     51392


Accuracy: 0.712212017435
## 2-kth fold --------------------------------
Training Time Elapsed: 00:06:15, 375.589010954
Training set score: 0.728131
Training set loss: 0.760972
MLP # layers: 3
MLP # outputs: 5
MLP # iterations: 500
MLP out_activation_: softmax
MLP classes: [0. 1. 2. 3. 4.]
Classifier saved to /home/paperspace/MSEE/cs280/cs280-mini-proj/src/ANN/_old_grid_search_5_tests_v2/../../../models/ann_entry_5_20_to_30_0_v2/ann_entry_5_v2_8/ann_2_28_0.pkl

Elapsed Seconds: 377.674300909
Total Time Elapsed: 00:06:17
Features in training dataset (80%):
Count: (205566,)
Counter({0.0: 41135, 3.0: 41135, 4.0: 41132, 2.0: 41083, 1.0: 41081})
Features in test dataset (20%):
Count: (51392,)
Counter({0.0: 10284, 3.0: 10284, 4.0: 10283, 2.0: 10271, 1.0: 10270})
Classification Report for Test Data (20%):
              precision    recall  f1-score   support

         0.0       0.80      0.73      0.77     10284
         1.0       0.76      0.62      0.69     10270
         2.0       0.62      0.68      0.65     10271
         3.0       0.66      0.73      0.70     10284
         4.0       0.83      0.88      0.86     10283

   micro avg       0.73      0.73      0.73     51392
   macro avg       0.74      0.73      0.73     51392
weighted avg       0.74      0.73      0.73     51392


Accuracy: 0.73141734122
## 3-kth fold --------------------------------
Training Time Elapsed: 00:06:16, 376.526872158
Training set score: 0.706021
Training set loss: 0.789729
MLP # layers: 3
MLP # outputs: 5
MLP # iterations: 500
MLP out_activation_: softmax
MLP classes: [0. 1. 2. 3. 4.]
Classifier saved to /home/paperspace/MSEE/cs280/cs280-mini-proj/src/ANN/_old_grid_search_5_tests_v2/../../../models/ann_entry_5_20_to_30_0_v2/ann_entry_5_v2_8/ann_3_28_0.pkl

Elapsed Seconds: 378.677008867
Total Time Elapsed: 00:06:18
Features in training dataset (80%):
Count: (205566,)
Counter({0.0: 41135, 3.0: 41135, 4.0: 41132, 2.0: 41083, 1.0: 41081})
Features in test dataset (20%):
Count: (51392,)
Counter({0.0: 10284, 3.0: 10284, 4.0: 10283, 2.0: 10271, 1.0: 10270})
Classification Report for Test Data (20%):
              precision    recall  f1-score   support

         0.0       0.68      0.77      0.72     10284
         1.0       0.57      0.57      0.57     10270
         2.0       0.52      0.58      0.54     10271
         3.0       0.57      0.52      0.54     10284
         4.0       0.83      0.68      0.75     10283

   micro avg       0.63      0.63      0.63     51392
   macro avg       0.63      0.63      0.63     51392
weighted avg       0.63      0.63      0.63     51392


Accuracy: 0.625875622665
## 4-kth fold --------------------------------
Training Time Elapsed: 00:06:12, 372.705707073
Training set score: 0.696462
Training set loss: 0.804495
MLP # layers: 3
MLP # outputs: 5
MLP # iterations: 500
MLP out_activation_: softmax
MLP classes: [0. 1. 2. 3. 4.]
Classifier saved to /home/paperspace/MSEE/cs280/cs280-mini-proj/src/ANN/_old_grid_search_5_tests_v2/../../../models/ann_entry_5_20_to_30_0_v2/ann_entry_5_v2_8/ann_4_28_0.pkl

Elapsed Seconds: 375.192451
Total Time Elapsed: 00:06:15
Features in training dataset (80%):
Count: (205569,)
Counter({0.0: 41136, 3.0: 41136, 4.0: 41132, 2.0: 41084, 1.0: 41081})
Features in test dataset (20%):
Count: (51389,)
Counter({0.0: 10283, 3.0: 10283, 4.0: 10283, 1.0: 10270, 2.0: 10270})
Classification Report for Test Data (20%):
              precision    recall  f1-score   support

         0.0       0.79      0.77      0.78     10283
         1.0       0.65      0.58      0.61     10270
         2.0       0.60      0.60      0.60     10270
         3.0       0.65      0.67      0.66     10283
         4.0       0.79      0.88      0.83     10283

   micro avg       0.70      0.70      0.70     51389
   macro avg       0.69      0.70      0.70     51389
weighted avg       0.69      0.70      0.70     51389


Accuracy: 0.697308762576
Sorted List of Temp Training Scores: 
[[(26, 0), 0.7233322075797349], [(24, 0), 0.696238372593804], [(21, 0), 0.6948695282939976], [(25, 0), 0.69158002684855], [(22, 0), 0.6893198265715844], [(27, 0), 0.6876503430021523], [(23, 0), 0.6806016368647623], [(20, 0), 0.6644569220557427]]

Sorted List of Temp Test Accuracies: 
[[(26, 0), 0.7066876021903524], [(21, 0), 0.6842241598907398], [(24, 0), 0.6810994185005355], [(27, 0), 0.6765190858934937], [(25, 0), 0.6751763173305787], [(22, 0), 0.6700551776103629], [(23, 0), 0.6647385365884074], [(20, 0), 0.6480044204403137]]

Average Training Accuracy for: (28, 0)
0.710533480302

Average Test Accuracy for: (28, 0)
0.694331363182

Elapsed Seconds: 1884.21000695
Total Time Elapsed: 00:31:24
# Num of nodes: 29, 0 -----------------------------------------------*****
## 0-kth fold --------------------------------
Training Time Elapsed: 00:06:33, 393.035575867
Training set score: 0.732707
Training set loss: 0.751947
MLP # layers: 3
MLP # outputs: 5
MLP # iterations: 500
MLP out_activation_: softmax
MLP classes: [0. 1. 2. 3. 4.]
Classifier saved to /home/paperspace/MSEE/cs280/cs280-mini-proj/src/ANN/_old_grid_search_5_tests_v2/../../../models/ann_entry_5_20_to_30_0_v2/ann_entry_5_v2_8/ann_0_29_0.pkl

Elapsed Seconds: 395.154819965
Total Time Elapsed: 00:06:35
Features in training dataset (80%):
Count: (205565,)
Counter({0.0: 41135, 3.0: 41135, 4.0: 41132, 2.0: 41083, 1.0: 41080})
Features in test dataset (20%):
Count: (51393,)
Counter({0.0: 10284, 3.0: 10284, 4.0: 10283, 1.0: 10271, 2.0: 10271})
Classification Report for Test Data (20%):
              precision    recall  f1-score   support

         0.0       0.81      0.73      0.77     10284
         1.0       0.74      0.60      0.66     10271
         2.0       0.62      0.63      0.62     10271
         3.0       0.66      0.72      0.69     10284
         4.0       0.81      0.94      0.87     10283

   micro avg       0.73      0.73      0.73     51393
   macro avg       0.73      0.73      0.72     51393
weighted avg       0.73      0.73      0.72     51393


Accuracy: 0.725293327885
## 1-kth fold --------------------------------
Training Time Elapsed: 00:06:21, 381.96203804
Training set score: 0.717312
Training set loss: 0.767521
MLP # layers: 3
MLP # outputs: 5
MLP # iterations: 500
MLP out_activation_: softmax
MLP classes: [0. 1. 2. 3. 4.]
Classifier saved to /home/paperspace/MSEE/cs280/cs280-mini-proj/src/ANN/_old_grid_search_5_tests_v2/../../../models/ann_entry_5_20_to_30_0_v2/ann_entry_5_v2_8/ann_1_29_0.pkl

Elapsed Seconds: 384.304792881
Total Time Elapsed: 00:06:24
Features in training dataset (80%):
Count: (205566,)
Counter({0.0: 41135, 3.0: 41135, 4.0: 41132, 2.0: 41083, 1.0: 41081})
Features in test dataset (20%):
Count: (51392,)
Counter({0.0: 10284, 3.0: 10284, 4.0: 10283, 2.0: 10271, 1.0: 10270})
Classification Report for Test Data (20%):
              precision    recall  f1-score   support

         0.0       0.84      0.75      0.79     10284
         1.0       0.66      0.69      0.68     10270
         2.0       0.64      0.59      0.61     10271
         3.0       0.66      0.72      0.69     10284
         4.0       0.83      0.88      0.86     10283

   micro avg       0.73      0.73      0.73     51392
   macro avg       0.73      0.73      0.73     51392
weighted avg       0.73      0.73      0.73     51392


Accuracy: 0.726552770859
## 2-kth fold --------------------------------
Training Time Elapsed: 00:06:20, 380.171190023
Training set score: 0.712083
Training set loss: 0.789318
MLP # layers: 3
MLP # outputs: 5
MLP # iterations: 500
MLP out_activation_: softmax
MLP classes: [0. 1. 2. 3. 4.]
Classifier saved to /home/paperspace/MSEE/cs280/cs280-mini-proj/src/ANN/_old_grid_search_5_tests_v2/../../../models/ann_entry_5_20_to_30_0_v2/ann_entry_5_v2_8/ann_2_29_0.pkl

Elapsed Seconds: 382.409475088
Total Time Elapsed: 00:06:22
Features in training dataset (80%):
Count: (205566,)
Counter({0.0: 41135, 3.0: 41135, 4.0: 41132, 2.0: 41083, 1.0: 41081})
Features in test dataset (20%):
Count: (51392,)
Counter({0.0: 10284, 3.0: 10284, 4.0: 10283, 2.0: 10271, 1.0: 10270})
Classification Report for Test Data (20%):
              precision    recall  f1-score   support

         0.0       0.80      0.70      0.75     10284
         1.0       0.67      0.66      0.67     10270
         2.0       0.62      0.61      0.61     10271
         3.0       0.66      0.70      0.68     10284
         4.0       0.82      0.90      0.86     10283

   micro avg       0.71      0.71      0.71     51392
   macro avg       0.71      0.71      0.71     51392
weighted avg       0.71      0.71      0.71     51392


Accuracy: 0.714080012453
## 3-kth fold --------------------------------
Training Time Elapsed: 00:06:15, 375.710085154
Training set score: 0.730899
Training set loss: 0.741201
MLP # layers: 3
MLP # outputs: 5
MLP # iterations: 494
MLP out_activation_: softmax
MLP classes: [0. 1. 2. 3. 4.]
Classifier saved to /home/paperspace/MSEE/cs280/cs280-mini-proj/src/ANN/_old_grid_search_5_tests_v2/../../../models/ann_entry_5_20_to_30_0_v2/ann_entry_5_v2_8/ann_3_29_0.pkl

Elapsed Seconds: 378.242347002
Total Time Elapsed: 00:06:18
Features in training dataset (80%):
Count: (205566,)
Counter({0.0: 41135, 3.0: 41135, 4.0: 41132, 2.0: 41083, 1.0: 41081})
Features in test dataset (20%):
Count: (51392,)
Counter({0.0: 10284, 3.0: 10284, 4.0: 10283, 2.0: 10271, 1.0: 10270})
Classification Report for Test Data (20%):
              precision    recall  f1-score   support

         0.0       0.70      0.77      0.73     10284
         1.0       0.56      0.61      0.58     10270
         2.0       0.52      0.53      0.53     10271
         3.0       0.59      0.57      0.58     10284
         4.0       0.88      0.71      0.78     10283

   micro avg       0.64      0.64      0.64     51392
   macro avg       0.65      0.64      0.64     51392
weighted avg       0.65      0.64      0.64     51392


Accuracy: 0.637842465753
## 4-kth fold --------------------------------
Training Time Elapsed: 00:06:20, 380.115926981
Training set score: 0.687526
Training set loss: 0.816957
MLP # layers: 3
MLP # outputs: 5
MLP # iterations: 500
MLP out_activation_: softmax
MLP classes: [0. 1. 2. 3. 4.]
Classifier saved to /home/paperspace/MSEE/cs280/cs280-mini-proj/src/ANN/_old_grid_search_5_tests_v2/../../../models/ann_entry_5_20_to_30_0_v2/ann_entry_5_v2_8/ann_4_29_0.pkl

Elapsed Seconds: 382.352523088
Total Time Elapsed: 00:06:22
Features in training dataset (80%):
Count: (205569,)
Counter({0.0: 41136, 3.0: 41136, 4.0: 41132, 2.0: 41084, 1.0: 41081})
Features in test dataset (20%):
Count: (51389,)
Counter({0.0: 10283, 3.0: 10283, 4.0: 10283, 1.0: 10270, 2.0: 10270})
Classification Report for Test Data (20%):
              precision    recall  f1-score   support

         0.0       0.78      0.77      0.77     10283
         1.0       0.66      0.57      0.61     10270
         2.0       0.56      0.55      0.55     10270
         3.0       0.60      0.62      0.61     10283
         4.0       0.81      0.91      0.86     10283

   micro avg       0.68      0.68      0.68     51389
   macro avg       0.68      0.68      0.68     51389
weighted avg       0.68      0.68      0.68     51389


Accuracy: 0.684446087684
Sorted List of Temp Training Scores: 
[[(26, 0), 0.7233322075797349], [(28, 0), 0.710533480302068], [(24, 0), 0.696238372593804], [(21, 0), 0.6948695282939976], [(25, 0), 0.69158002684855], [(22, 0), 0.6893198265715844], [(27, 0), 0.6876503430021523], [(23, 0), 0.6806016368647623], [(20, 0), 0.6644569220557427]]

Sorted List of Temp Test Accuracies: 
[[(26, 0), 0.7066876021903524], [(28, 0), 0.6943313631818793], [(21, 0), 0.6842241598907398], [(24, 0), 0.6810994185005355], [(27, 0), 0.6765190858934937], [(25, 0), 0.6751763173305787], [(22, 0), 0.6700551776103629], [(23, 0), 0.6647385365884074], [(20, 0), 0.6480044204403137]]

Average Training Accuracy for: (29, 0)
0.716105455309

Average Test Accuracy for: (29, 0)
0.697642932927

Elapsed Seconds: 1924.43196201
Total Time Elapsed: 00:32:04
# Num of nodes: 30, 0 -----------------------------------------------*****
## 0-kth fold --------------------------------
Training Time Elapsed: 00:06:22, 382.779849052
Training set score: 0.729370
Training set loss: 0.747039
MLP # layers: 3
MLP # outputs: 5
MLP # iterations: 500
MLP out_activation_: softmax
MLP classes: [0. 1. 2. 3. 4.]
Classifier saved to /home/paperspace/MSEE/cs280/cs280-mini-proj/src/ANN/_old_grid_search_5_tests_v2/../../../models/ann_entry_5_20_to_30_0_v2/ann_entry_5_v2_8/ann_0_30_0.pkl

Elapsed Seconds: 385.070611954
Total Time Elapsed: 00:06:25
Features in training dataset (80%):
Count: (205565,)
Counter({0.0: 41135, 3.0: 41135, 4.0: 41132, 2.0: 41083, 1.0: 41080})
Features in test dataset (20%):
Count: (51393,)
Counter({0.0: 10284, 3.0: 10284, 4.0: 10283, 1.0: 10271, 2.0: 10271})
Classification Report for Test Data (20%):
              precision    recall  f1-score   support

         0.0       0.85      0.70      0.77     10284
         1.0       0.73      0.67      0.70     10271
         2.0       0.63      0.62      0.62     10271
         3.0       0.64      0.71      0.67     10284
         4.0       0.79      0.92      0.85     10283

   micro avg       0.72      0.72      0.72     51393
   macro avg       0.73      0.72      0.72     51393
weighted avg       0.73      0.72      0.72     51393


Accuracy: 0.722471931975
## 1-kth fold --------------------------------
Training Time Elapsed: 00:06:26, 386.467094898
Training set score: 0.716933
Training set loss: 0.762369
MLP # layers: 3
MLP # outputs: 5
MLP # iterations: 500
MLP out_activation_: softmax
MLP classes: [0. 1. 2. 3. 4.]
Classifier saved to /home/paperspace/MSEE/cs280/cs280-mini-proj/src/ANN/_old_grid_search_5_tests_v2/../../../models/ann_entry_5_20_to_30_0_v2/ann_entry_5_v2_8/ann_1_30_0.pkl

Elapsed Seconds: 388.521735907
Total Time Elapsed: 00:06:28
Features in training dataset (80%):
Count: (205566,)
Counter({0.0: 41135, 3.0: 41135, 4.0: 41132, 2.0: 41083, 1.0: 41081})
Features in test dataset (20%):
Count: (51392,)
Counter({0.0: 10284, 3.0: 10284, 4.0: 10283, 2.0: 10271, 1.0: 10270})
Classification Report for Test Data (20%):
              precision    recall  f1-score   support

         0.0       0.85      0.75      0.80     10284
         1.0       0.66      0.68      0.67     10270
         2.0       0.63      0.60      0.61     10271
         3.0       0.66      0.71      0.68     10284
         4.0       0.85      0.89      0.87     10283

   micro avg       0.73      0.73      0.73     51392
   macro avg       0.73      0.73      0.73     51392
weighted avg       0.73      0.73      0.73     51392


Accuracy: 0.72575498132
## 2-kth fold --------------------------------
Training Time Elapsed: 00:06:24, 384.619749069
Training set score: 0.726978
Training set loss: 0.743169
MLP # layers: 3
MLP # outputs: 5
MLP # iterations: 500
MLP out_activation_: softmax
MLP classes: [0. 1. 2. 3. 4.]
Classifier saved to /home/paperspace/MSEE/cs280/cs280-mini-proj/src/ANN/_old_grid_search_5_tests_v2/../../../models/ann_entry_5_20_to_30_0_v2/ann_entry_5_v2_8/ann_2_30_0.pkl

Elapsed Seconds: 386.875597954
Total Time Elapsed: 00:06:26
Features in training dataset (80%):
Count: (205566,)
Counter({0.0: 41135, 3.0: 41135, 4.0: 41132, 2.0: 41083, 1.0: 41081})
Features in test dataset (20%):
Count: (51392,)
Counter({0.0: 10284, 3.0: 10284, 4.0: 10283, 2.0: 10271, 1.0: 10270})
Classification Report for Test Data (20%):
              precision    recall  f1-score   support

         0.0       0.82      0.72      0.77     10284
         1.0       0.73      0.69      0.71     10270
         2.0       0.66      0.63      0.64     10271
         3.0       0.66      0.75      0.70     10284
         4.0       0.84      0.89      0.87     10283

   micro avg       0.74      0.74      0.74     51392
   macro avg       0.74      0.74      0.74     51392
weighted avg       0.74      0.74      0.74     51392


Accuracy: 0.736768368618
## 3-kth fold --------------------------------
Training Time Elapsed: 00:06:24, 384.729137897
Training set score: 0.740478
Training set loss: 0.722619
MLP # layers: 3
MLP # outputs: 5
MLP # iterations: 500
MLP out_activation_: softmax
MLP classes: [0. 1. 2. 3. 4.]
Classifier saved to /home/paperspace/MSEE/cs280/cs280-mini-proj/src/ANN/_old_grid_search_5_tests_v2/../../../models/ann_entry_5_20_to_30_0_v2/ann_entry_5_v2_8/ann_3_30_0.pkl

Elapsed Seconds: 386.939509869
Total Time Elapsed: 00:06:26
Features in training dataset (80%):
Count: (205566,)
Counter({0.0: 41135, 3.0: 41135, 4.0: 41132, 2.0: 41083, 1.0: 41081})
Features in test dataset (20%):
Count: (51392,)
Counter({0.0: 10284, 3.0: 10284, 4.0: 10283, 2.0: 10271, 1.0: 10270})
Classification Report for Test Data (20%):
              precision    recall  f1-score   support

         0.0       0.70      0.77      0.73     10284
         1.0       0.57      0.64      0.60     10270
         2.0       0.52      0.53      0.53     10271
         3.0       0.56      0.55      0.56     10284
         4.0       0.90      0.70      0.79     10283

   micro avg       0.64      0.64      0.64     51392
   macro avg       0.65      0.64      0.64     51392
weighted avg       0.65      0.64      0.64     51392


Accuracy: 0.638114881694
## 4-kth fold --------------------------------
Training Time Elapsed: 00:06:12, 372.858198881
Training set score: 0.722517
Training set loss: 0.754041
MLP # layers: 3
MLP # outputs: 5
MLP # iterations: 500
MLP out_activation_: softmax
MLP classes: [0. 1. 2. 3. 4.]
Classifier saved to /home/paperspace/MSEE/cs280/cs280-mini-proj/src/ANN/_old_grid_search_5_tests_v2/../../../models/ann_entry_5_20_to_30_0_v2/ann_entry_5_v2_8/ann_4_30_0.pkl

Elapsed Seconds: 374.934535027
Total Time Elapsed: 00:06:14
Features in training dataset (80%):
Count: (205569,)
Counter({0.0: 41136, 3.0: 41136, 4.0: 41132, 2.0: 41084, 1.0: 41081})
Features in test dataset (20%):
Count: (51389,)
Counter({0.0: 10283, 3.0: 10283, 4.0: 10283, 1.0: 10270, 2.0: 10270})
Classification Report for Test Data (20%):
              precision    recall  f1-score   support

         0.0       0.83      0.74      0.78     10283
         1.0       0.65      0.66      0.65     10270
         2.0       0.65      0.61      0.63     10270
         3.0       0.67      0.70      0.68     10283
         4.0       0.82      0.90      0.85     10283

   micro avg       0.72      0.72      0.72     51389
   macro avg       0.72      0.72      0.72     51389
weighted avg       0.72      0.72      0.72     51389


Accuracy: 0.720835198194
Sorted List of Temp Training Scores: 
[[(26, 0), 0.7233322075797349], [(29, 0), 0.7161054553086477], [(28, 0), 0.710533480302068], [(24, 0), 0.696238372593804], [(21, 0), 0.6948695282939976], [(25, 0), 0.69158002684855], [(22, 0), 0.6893198265715844], [(27, 0), 0.6876503430021523], [(23, 0), 0.6806016368647623], [(20, 0), 0.6644569220557427]]

Sorted List of Temp Test Accuracies: 
[[(26, 0), 0.7066876021903524], [(29, 0), 0.6976429329270516], [(28, 0), 0.6943313631818793], [(21, 0), 0.6842241598907398], [(24, 0), 0.6810994185005355], [(27, 0), 0.6765190858934937], [(25, 0), 0.6751763173305787], [(22, 0), 0.6700551776103629], [(23, 0), 0.6647385365884074], [(20, 0), 0.6480044204403137]]

Average Training Accuracy for: (30, 0)
0.727255053677

Average Test Accuracy for: (30, 0)
0.70878907236

Elapsed Seconds: 1924.38404393
Total Time Elapsed: 00:32:04
List of Training Scores: 
[[(20, 0), 0.6644569220557427], [(21, 0), 0.6948695282939976], [(22, 0), 0.6893198265715844], [(23, 0), 0.6806016368647623], [(24, 0), 0.696238372593804], [(25, 0), 0.69158002684855], [(26, 0), 0.7233322075797349], [(27, 0), 0.6876503430021523], [(28, 0), 0.710533480302068], [(29, 0), 0.7161054553086477], [(30, 0), 0.7272550536768632]]

List of Test Accuracies: 
[[(20, 0), 0.6480044204403137], [(21, 0), 0.6842241598907398], [(22, 0), 0.6700551776103629], [(23, 0), 0.6647385365884074], [(24, 0), 0.6810994185005355], [(25, 0), 0.6751763173305787], [(26, 0), 0.7066876021903524], [(27, 0), 0.6765190858934937], [(28, 0), 0.6943313631818793], [(29, 0), 0.6976429329270516], [(30, 0), 0.708789072360144]]

Sorted List of Training Scores: 
[[(30, 0), 0.7272550536768632], [(26, 0), 0.7233322075797349], [(29, 0), 0.7161054553086477], [(28, 0), 0.710533480302068], [(24, 0), 0.696238372593804], [(21, 0), 0.6948695282939976], [(25, 0), 0.69158002684855], [(22, 0), 0.6893198265715844], [(27, 0), 0.6876503430021523], [(23, 0), 0.6806016368647623], [(20, 0), 0.6644569220557427]]

Sorted List of Test Accuracies: 
[[(30, 0), 0.708789072360144], [(26, 0), 0.7066876021903524], [(29, 0), 0.6976429329270516], [(28, 0), 0.6943313631818793], [(21, 0), 0.6842241598907398], [(24, 0), 0.6810994185005355], [(27, 0), 0.6765190858934937], [(25, 0), 0.6751763173305787], [(22, 0), 0.6700551776103629], [(23, 0), 0.6647385365884074], [(20, 0), 0.6480044204403137]]

Elapsed Seconds: 19718.2496588
Total Time Elapsed: 05:28:38
